Magneto/task4_sweep.csv

#Digilent WaveForms Oscilloscope Acquisition
#Device Name: Discovery3
#Serial Number: SN:210415BD57DA
#Date Time: 2026-09-17 11:03:38.596.691.390
#Sample rate: 13106.2Hz
#Samples: 32000
#Trigger: Source: Channel 1 Type: Edge Condition: Rising Level: 0 V Hyst.: Auto HoldOff: 0 s
#Channel 2: Range: 500 mV/div Offset: 0 V Sample Mode: Average

Time (s),Channel 2 (V)
-1.2208,0.07045929359092792
-1.2207237,0.04900659157552498
-1.2206474,-0.01261120581864724
-1.2205711,0.01048568138755455
-1.2204948,0.03663605537703869
-1.2204185,0.07813215781537501
-1.2203422,0.09692284571194595
-1.2202659,0.06035929884650267
-1.2201896,0.04532674852921857
-1.2201133,-0.02952282492548973
-1.220037,0.02661435516551596
-1.2199607,0.03757558977184901
-1.2198844,0.1110941561673365
-1.2198081,0.07398254757154138
-1.2197318,0.04978953690470629
-1.2196555,-0.00188485481100181
-1.2195792,0.004065529689589812
-1.2195029,0.08690114550050526
-1.2194266,0.1132081085557046
-1.2193503,0.1190019039904912
-1.219274,0.145935223308933
-1.2191977,0.1319205019194072
-1.2191214,0.1193933766550266
-1.2190451,0.09715772931068771
-1.2189688,0.09543524958683224
-1.2188925,0.1132081085556723
-1.2188162,0.1215856235762744
-1.2187399,0.149615066355377
-1.2186636,0.124873993958166
-1.2185873,0.1170445406679281
-1.218511,0.08541354937536703
-1.2184347,0.1060050115286726
-1.2183584,0.1150088828124626
-1.2182821,0.1429600310586118
-1.2182058,0.1337212761761652
-1.2181295,0.1213507399775668
-1.2180532,0.1031864083441608
-1.2179769,0.09159881747460868
-1.2179006,0.1121119850950693
-1.2178243,0.1171228352008956
-1.217748,0.1528251422043804
-1.2176717,0.1229166306356716
-1.2175954,0.1146957046808525
-1.2175191,0.08118564459857334
-1.2174428,0.09465230425778252
-1.2173665,0.1025600520809617
-1.2172902,0.1244825212936677
-1.2172139,0.1194716711878744
-1.2171376,0.1019336958177415
-1.2170613,0.08400424778309673
-1.216985,0.06482208722194638
-1.2169087,0.08924998148753305
-1.2168324,0.09598331131713762
-1.2167561,0.129493371399429
-1.2166798,0.1042825318048171
-1.2166035,0.0926166464022862
-1.2165272,0.06223836763616318
-1.2164509,0.07421743117024895
-1.2163746,0.08760579629661555
-1.2162983,0.1071011349893079
-1.216222,0.1159484172072767
-1.2161457,0.09707943477778518
-1.2160694,0.0912856393429986
-1.2159931,0.0634127856297433
-1.2159168,0.08666626190174984
-1.2158405,0.09402594799458686
-1.2157642,0.1292584878006823
-1.2156879,0.1077274912525281
-1.2156116,0.09543524958685459
-1.2155353,0.07280812957800356
-1.215459,0.07750580155215485
-1.2153827,0.08940657055331644
-1.2153064,0.1064747787260877
-1.2152301,0.1204112055827365
-1.2151538,0.0991150926332429
-1.2150775,0.09480889332361206
-1.2150012,0.05949805898457493
-1.2149249,0.08494378217791246
-1.2148486,0.09488718785651458
-1.2147723,0.1261267064845638
-1.214696,0.1099980327067012
-1.2146197,0.09668796211327257
-1.2145434,0.07343448584121789
-1.2144671,0.07022440999222036
-1.2143908,0.08588331657272463
-1.2143145,0.0963747839817055
-1.2142382,0.1200197329182239
-1.2141619,0.09504377692236507
-1.2140856,0.08588331657272463
-1.2140093,0.05268643462205558
-1.213933,0.0760182054269645
-1.2138567,0.08439572044757672
-1.2137804,0.1106243889699214
-1.2137041,0.1038910591402753
-1.2136278,0.08784067989528767
-1.2135515,0.07100735532124557
-1.2134752,0.06317790203102762
-1.2133989,0.08196858992759856
-1.2133226,0.08924998148751981
-1.2132463,0.1268313572807433
-1.21317,0.1008375723571062
-1.2130937,0.09371276986291567
-1.2130174,0.0601244152477951
-1.2129411,0.08016781567084057
-1.2128648,0.08768409082953388
-1.2127885,0.1158701226743903
-1.2127122,0.1103895053712238
-1.2126359,0.09543524958683224
-1.2125596,0.081733706328891
-1.2124833,0.06513526535358666
-1.212407,0.08603990563852967
-1.2123307,0.09332129719846416
-1.2122544,0.1295716659322862
-1.2121781,0.1046740044693298
-1.2121018,0.09715772931070138
-1.2120255,0.06717092320902203
-1.2119492,0.081733706328891
-1.2118729,0.0932430026655407
-1.2117966,0.1171228352008307
-1.2117203,0.1212724454446643
-1.211644,0.1053003607325327
-1.2115677,0.09582672225134484
-1.2114914,0.06920658106448759
-1.2114151,0.09480889332362161
-1.2113388,0.100054627028081
-1.2112625,0.1323119745838611
-1.2111862,0.1112507452331415
-1.2111099,0.1002895106267886
-1.2110336,0.07319960224256546
-1.2109573,0.08204688446050108
-1.210881,0.09590501678424736
-1.2108047,0.1140693484176577
-1.2107284,0.1280057752742811
-1.2106521,0.1097631491080268
-1.2105758,0.1015422231532289
-1.2104995,0.06646627241289933
-1.2104232,0.09058098854683204
-1.2103469,0.09747090744229779
-1.2102706,0.1297282549981366
-1.2101943,0.1159484172072703
-1.210118,0.1035778810086945
-1.2100417,0.07844533594698511
-1.2099654,0.07821045234830487
-1.2098891,0.09324300266556164
-1.2098128,0.1084321420486231
-1.2097365,0.1303546112613568
-1.2096602,0.111015861634434
-1.2095839,0.1096848545750935
-1.2095076,0.07531355463088425
-1.2094313,0.09700114024488266
-1.209355,0.1074926076538779
-1.2092787,0.1390453044135366
-1.2092024,0.1317639128536154
-1.2091261,0.1181406641285634
-1.2090498,0.09731431837649275
-1.2089735,0.08987633775076675
-1.2088972,0.1069445459235029
-1.2088209,0.114773999213755
-1.2087446,0.1479708811643773
-1.2086683,0.1222902743723971
-1.208592,0.1141476429505348
-1.2085157,0.08016781567087602
-1.2084394,0.09966315436356839
-1.2083631,0.1091367928447562
-1.2082868,0.1335646871103601
-1.2082105,0.1305894948600643
-1.2081342,0.1147739992137241
-1.2080579,0.09778408557390787
-1.2079816,0.08228176805920864
-1.2079053,0.1042825318048287
-1.207829,0.1106243889699214
-1.2077527,0.1486755319604775
-1.2076764,0.1233081033001298
-1.2076001,0.1155569445427802
-1.2075238,0.0873709126979238
-1.2074475,0.1045957099364272
-1.2073712,0.1192367875891987
-1.2072949,0.1460135178418712
-1.2072186,0.1516507242108426
-1.2071423,0.1356786394987282
-1.207066,0.1295716659322815
-1.2069897,0.1020902848835465
-1.2069134,0.1229949251684817
-1.2068371,0.1278491862084761
-1.2067608,0.1651956784029787
-1.2066845,0.1437429763876759
-1.2066082,0.1371662356238761
-1.2065319,0.1099980327067012
-1.2064556,0.1184538422601999
-1.2063793,0.1329383308471399
-1.206303,0.1485189428947133
-1.2062267,0.1580708759088493
-1.2061504,0.140454606005782
-1.2060741,0.1374794137554916
-1.2059978,0.09504377692231963
-1.2059215,0.1223685689052996
-1.2058452,0.1283189534059524
-1.2057689,0.1619856025539754
-1.2056926,0.1447608053154207
-1.2056163,0.1328600363141911
-1.20554,0.107414313120918
-1.2054637,0.1112507452331346
-1.2053874,0.1287887206033063
-1.2053111,0.1417856130651249
-1.2052348,0.1621421916197364
-1.2051585,0.1379491809529013
-1.2050822,0.13325150897875
-1.2050059,0.09786238010685183
-1.2049296,0.1206460891814441
-1.2048533,0.1265964736820249
-1.204777,0.1568181633824089
-1.2047007,0.1438995654534929
-1.2046244,0.1321553855181361
-1.2045481,0.1126600468253869
-1.2044718,0.1096848545750911
-1.2043955,0.1273794190110796
-1.2043192,0.1376360028212912
-1.2042429,0.1728685426274258
-1.2041666,0.1454654561115305
-1.2040903,0.1384189481503164
-1.204014,0.1058484224629268
-1.2039377,0.1248739939581803
-1.2038614,0.1363832902948509
-1.2037851,0.162298780685575
-1.2037088,0.1565832797837014
-1.2036325,0.1441344490522005
-1.2035562,0.1269879463465237
-1.2034799,0.1134429921544121
-1.2034036,0.1328600363142021
-1.2033273,0.135052283235508
-1.203251,0.1709894738377653
-1.2031747,0.1415507294664708
-1.2030984,0.1319205019194072
-1.2030221,0.1019336958177415
-1.2029458,0.1165747734705334
-1.2028695,0.1277708916755735
-1.2027932,0.1493801827566301
-1.2027169,0.1527468476714778
-1.2026406,0.1356786394987282
-1.2025643,0.123856165030469
-1.202488,0.09848873637003057
-1.2024117,0.1215073290433718
-1.2023354,0.1259701174188816
-1.2022591,0.1622987806855855
-1.2021828,0.140454606005782
-1.2021065,0.1288670151361504
-1.2020302,0.09676625664617509
-1.2019539,0.1080406693841177
-1.2018776,0.1229166306356172
-1.2018013,0.1389670098806341
-1.201725,0.1471096413024815
-1.2016487,0.1260484119517181
-1.2015724,0.120332911049834
-1.2014961,0.08290812432248065
-1.2014198,0.1114073342989466
-1.2013435,0.119549965720794
-1.2012672,0.1547825055269434
-1.2011909,0.1361484066961433
-1.2011146,0.1258918228859317
-1.2010383,0.09989803796227595
-1.200962,0.1024817575480592
-1.2008857,0.1161050062731218
-1.2008094,0.1292584878007214
-1.2007331,0.1452305725128358
-1.2006568,0.1235429868988311
-1.2005805,0.1200980274511265
-1.2005042,0.0835344805857155
-1.2004279,0.1118771014963617
-1.2003516,0.1190801985233937
-1.2002753,0.1495367718224191
-1.200199,0.1349739887026055
-1.2001227,0.121977096240787
-1.2000464,0.09934997623195631
-1.1999701,0.09825385277132301
-1.1998938,0.1141476429505059
-1.1998175,0.1213507399775668
-1.1997412,0.1547825055269434
-1.1996649,0.1262832955504775
-1.1995886,0.112973224956997
-1.1995123,0.07633138355861703
-1.199436,0.09786238010682322
-1.1993597,0.1049088880680373
-1.1992834,0.1334863925774576
-1.1992071,0.124091048629129
-1.1991308,0.1097631491079936
-1.1990545,0.09003292681659415
-1.1989782,0.07907169221020527
-1.1989019,0.09927168169905579
-1.1988256,0.1047522990023008
-1.1987493,0.142411969328345
-1.198673,0.1135995812202172
-1.1985967,0.1062398951273216
-1.1985204,0.0740608421044439
-1.1984441,0.09144222840877203
-1.1983678,0.1029515247454743
-1.1982915,0.1265181791491332
-1.1982152,0.1269096518136451
-1.1981389,0.1110941561673365
-1.1980626,0.09786238010681039
-1.1979863,0.07460890383480913
-1.19791,0.1007592778242037
-1.1978337,0.1041259427390121
-1.1977574,0.1411592568018561
-1.1976811,0.1144608210821449
-1.1976048,0.1029515247454952
-1.1975285,0.0721817733147834
-1.1974522,0.08126393913147587
-1.1973759,0.08995463228368779
-1.1972996,0.107570902186723
-1.1972233,0.1118771014963617
-1.197147,0.0920685846720026
-1.1970707,0.08040269926954813
-1.1969944,0.04681434465442757
-1.1969181,0.07680115075603215
-1.1968418,0.08337789151984394
-1.1967655,0.1178274859968907
-1.1966892,0.09559183865263728
-1.1966129,0.0828298297895263
-1.1965366,0.05299961275367591
-1.1964603,0.05863681912264719
-1.196384,0.0740608421044439
-1.1963077,0.09214687920495752
-1.1962314,0.1092933819105785
-1.1961551,0.08799726896113144
-1.1960788,0.08189029539469604
-1.1960025,0.04610969385824377
-1.1959262,0.07421743117026547
-1.1958499,0.08329959698694142
-1.1957736,0.1139910538847298
-1.1956973,0.09958485983064194
-1.195621,0.08643137830304227
-1.1955447,0.06364766922845
-1.1954684,0.05996782618199006
-1.1953921,0.07774068515086241
-1.1953158,0.08682285096753838
-1.1952395,0.1135995812202172
-1.1951632,0.08791897442819019
-1.1950869,0.08267324072365603
-1.1950106,0.04681434465436647
-1.1949343,0.07069417718959205
-1.194858,0.08196858992765396
-1.1947817,0.1124251632266794
-1.1947054,0.1029515247454915
-1.1946291,0.08729261816497001
-1.1945528,0.06646627241289933
-1.1944765,0.05667945580011819
-1.1944002,0.07539184916378677
-1.1943239,0.07774068515086241
-1.1942476,0.11508717734531
-1.1941713,0.08478719311208933
-1.194095,0.07390425303865866
-1.1940187,0.04156861094989754
-1.1939424,0.06004612071489258
-1.1938661,0.073356191308297
-1.1937898,0.09762749650810283
-1.1937135,0.09480889332361206
-1.1936372,0.07703603435472277
-1.1935609,0.06771898493933967
-1.1934846,0.04446550866733313
-1.1934083,0.06662286147870437
-1.193332,0.07593991089410441
-1.1932557,0.1154786500098058
-1.1931794,0.08924998148753305
-1.1931031,0.08572672750691959
-1.1930268,0.05339108541819976
-1.1929505,0.06521355988645899
-1.1928742,0.07774068515086241
-1.1927979,0.09801896917262612
-1.1927216,0.1038910591403045
-1.1926453,0.08737091269790258
-1.192569,0.07687944528893467
-1.1924927,0.04430891960148579
-1.1924164,0.07296471864375648
-1.1923401,0.07946316487471788
-1.1922638,0.1175926023982458
-1.1921875,0.09465230425779349
-1.1921112,0.08721432363206749
-1.1920349,0.06035929884655152
-1.1919586,0.06748410134063211
-1.1918823,0.08110735006567082
-1.191806,0.09981974342933939
-1.1917297,0.1154786500098777
-1.1916534,0.09520036598812467
-1.1915771,0.08940657055327073
-1.1915008,0.05237325649044548
-1.1914245,0.07907169221020527
-1.1913482,0.08862362522436913
-1.1912719,0.1195499657208088
-1.1911956,0.1019336958177735
-1.1911193,0.08987633775075322
-1.191043,0.06599650521548421
-1.1909667,0.06615309428128896
-1.1908904,0.08290812432242882
-1.1908141,0.09825385277132301
-1.1907378,0.1228383361026711
-1.1906615,0.09888020903454317
-1.1905852,0.09277323546815761
-1.1905089,0.05542674327364382
-1.1904326,0.07601820542700694
-1.1903563,0.08658796736882809
-1.19028,0.1161833008060004
-1.1902037,0.1055352443312575
-1.1901274,0.09441742065905873
-1.1900511,0.07202518424897834
-1.1899748,0.06129883324133292
-1.1898985,0.08337789151985547
-1.1898222,0.08971974868494817
-1.1897459,0.128318953405821
-1.1896696,0.09880191450164065
-1.1895933,0.09637478398166249
-1.189517,0.06505697082069013
-1.1894407,0.08494378217789438
-1.1893644,0.09473059879070954
-1.1892881,0.1264398846162251
-1.1892118,0.1233863978330324
-1.1891355,0.109058498311897
-1.1890592,0.09159881747460868
-1.1889829,0.0732778967754187
-1.1889066,0.09512207145518242
-1.1888303,0.1011507504887163
-1.188754,0.1403763114728795
-1.1886777,0.1125817522924669
-1.1886014,0.1029515247454743
-1.1885251,0.07124223891995314
-1.1884488,0.08666626190177006
-1.1883725,0.09778408557390787
-1.1882962,0.120959267313012
-1.1882199,0.1247174048923752
-1.1881436,0.1055352443312575
-1.1880673,0.09488718785646259
-1.187991,0.06630968334709429
-1.1879147,0.09230346827073138
-1.1878384,0.09927168169912386
-1.1877621,0.136696468426461
-1.1876858,0.1131298140228449
-1.1876095,0.1031081138112793
-1.1875332,0.07797556874956997
-1.1874569,0.09026781041524347
-1.1873806,0.1090584983118709
-1.1873043,0.1273011244781584
-1.187228,0.1457786342431178
-1.1871517,0.1262050010175231
-1.1870754,0.1229166306356172
-1.1869991,0.08510037124375168
-1.1869228,0.1138344648189248
-1.1868465,0.1169662461350199
-1.1867702,0.1516507242108426
-1.1866939,0.1359135230974358
-1.1866176,0.1269879463465065
-1.1865413,0.1039693536732071
-1.186465,0.105456949798355
-1.1863887,0.1218205071750034
-1.1863124,0.1336429816432626
-1.1862361,0.1539995601978812
-1.1861598,0.1280057752742811
-1.1860835,0.1233081033001298
-1.1860072,0.0854918439082808
-1.1859309,0.1114073342989466
-1.1858546,0.118532136793076
-1.1857783,0.1507894843488895
-1.185702,0.136853057492266
-1.1856257,0.1227600415698378
-1.1855494,0.1009941614229009
-1.1854731,0.09527866052102719
-1.1853968,0.1156352390756457
-1.1853205,0.1232298087672273
-1.1852442,0.1579925813759468
-1.1851679,0.1306677893929561
-1.1850916,0.1247956994252778
-1.1850153,0.08760579629658009
-1.184939,0.1078840803183496
-1.1848627,0.1169662461350256
-1.1847864,0.1433515037231273
-1.1847101,0.1358352285645332
-1.1846338,0.1233081033001298
-1.1845575,0.1071011349893374
-1.1844812,0.09175540654041373
-1.1844049,0.1158701226743903
-1.1843286,0.122760041569885
-1.1842523,0.1627685478830006
-1.184176,0.1370879410910203
-1.1840997,0.129336782333624
-1.1840234,0.09590501678424736
-1.1839471,0.1124251632266493
-1.1838708,0.12393445956335
-1.1837945,0.1457786342431535
-1.1837182,0.1509460734146938
-1.1836419,0.1366181738935585
-1.1835656,0.1238561650304475
-1.1834893,0.0988802090345829
-1.183413,0.1207243837143466
-1.1833367,0.1246391103594656
-1.1832604,0.1594801775010947
-1.1831841,0.1330166253800425
-1.1831078,0.1230732197014403
-1.1830315,0.0923817628036339
-1.1829552,0.1042042372719146
-1.1828789,0.1185321367931084
-1.1828026,0.1363049957619484
-1.1827263,0.1467181686379648
-1.18265,0.125735233820108
-1.1825737,0.1215856235762744
-1.1824974,0.08087246646703733
-1.1824211,0.1115639233647516
-1.1823448,0.1193933766550038
-1.1822685,0.1511809570133911
-1.1821922,0.1312158511232845
-1.1821159,0.1190801985233937
-1.1820396,0.09199029013912528
-1.1819633,0.0941825370603919
-1.181887,0.1098414436408677
-1.1818107,0.1233081033001298
-1.1817344,0.1426468529270526
-1.1816581,0.1180623695957056
-1.1815818,0.1105460944370188
-1.1815055,0.07398254757154138
-1.1814292,0.09958485983068097
-1.1813529,0.1078840803183331
-1.1812766,0.1407677841373323
-1.1812003,0.1282406588729887
-1.181124,0.1145391156150474
-1.1810477,0.09292982453399085
-1.1809714,0.08838874162560531
-1.1808951,0.1058484224628676
-1.1808188,0.1117205124306171
-1.1807425,0.1449173943812257
-1.1806662,0.1161833008060004
-1.1805899,0.1078840803182737
-1.1805136,0.07523526009798172
-1.1804373,0.09880191450159778
-1.180361,0.107570902186723
-1.1802847,0.1375577082883887
-1.1802084,0.1279274807413515
-1.1801321,0.1130515194898995
-1.1800558,0.09598331131714988
-1.1799795,0.08220347352634558
-1.1799032,0.1038910591403045
-1.1798269,0.1078840803183259
-1.1797506,0.1467964631708862
-1.1796743,0.1176708969311483
-1.179598,0.1045174154035486
-1.1795217,0.06865851933416993
-1.1794454,0.08549184390821202
-1.1793691,0.0966879621133143
-1.1792928,0.1196282602537113
-1.1792165,0.1170445406679281
-1.1791402,0.1013073395544971
-1.1790639,0.08799726896109271
-1.1789876,0.06161201137299099
-1.1789113,0.08697944003335993
-1.178835,0.0934778862642692
-1.1787587,0.1308243784587276
-1.1786824,0.1064747787260877
-1.1786061,0.09778408557390787
-1.1785298,0.06685774507743272
-1.1784535,0.07828874688118005
-1.1783772,0.0926166464023154
-1.1783009,0.112816635891192
-1.1782246,0.1233863978330324
-1.1781483,0.101620517686171
-1.178072,0.0945740097249045
-1.1779957,0.05848023005684215
-1.1779194,0.08658796736886241
-1.1778431,0.09488718785651458
-1.1777668,0.1290236042020139
-1.1776905,0.1083538475157222
-1.1776142,0.09402594799458686
-1.1775379,0.06662286147875422
-1.1774616,0.06779727947224219
-1.1773853,0.08008952113793805
-1.177309,0.09426083159332077
-1.1772327,0.1087453201802609
-1.1771564,0.08470889857918681
-1.1770801,0.07640967809143923
-1.1770038,0.0322515615344975
-1.1769275,0.06255154576771815
-1.1768512,0.072573245979296
-1.1767749,0.1067879568576978
-1.1766986,0.09183370107334345
-1.1766223,0.07453060930185904
-1.176546,0.04885000250983203
-1.1764697,0.04383915240410811
-1.1763934,0.06443061455743378
-1.1763171,0.07359107490701211
-1.1762408,0.1080406693840889
-1.1761645,0.08095076099986578
-1.1760882,0.07257324597931124
-1.1760119,0.03577481551511096
-1.1759356,0.06098565510972284
-1.1758593,0.07171200611742296
-1.175783,0.1017771067519365
-1.1757067,0.09394765346168432
-1.1756304,0.07844533594694779
-1.1755541,0.05793216832652451
-1.1754778,0.04681434465438669
-1.1754015,0.0656050325509716
-1.1753252,0.07006782092641532
-1.1752489,0.1099980327066286
-1.1751726,0.08110735006567082
-1.1750963,0.07398254757154138
-1.17502,0.0412554328183158
-1.1749437,0.05683604486588921
-1.1748674,0.06897169746575793
-1.1747911,0.1003678051596911
-1.1747148,0.09848873637003057
-1.1746385,0.07813215781541204
-1.1745622,0.06599650521548421
-1.1744859,0.03859341869960173
-1.1744096,0.06161201137295554
-1.1743333,0.06850193026836489
-1.174257,0.1058484224628676
-1.1741807,0.07687944528891359
-1.1741044,0.06529185441936151
-1.1740281,0.0367143499099932
-1.1739518,0.04908488610853959
-1.1738755,0.06435232002453126
-1.1737992,0.08486548764495454
-1.1737229,0.08909339242172801
-1.1736466,0.06951975919609767
-1.1735703,0.06270813483351378
-1.173494,0.02724071142873613
-1.1734177,0.0574624011290544
-1.1733414,0.06544844348516655
-1.1732651,0.1059267169957701
-1.1731888,0.08470889857922541
-1.1731125,0.07390425303863886
-1.1730362,0.04720581731887907
-1.1729599,0.05127713302983795
-1.1728836,0.06654456694580185
-1.1728073,0.08439572044757672
-1.172731,0.1034995864757458
-1.1726547,0.07813215781537501
-1.1725784,0.07265154051220848
-1.1725021,0.03350427406093784
-1.1724258,0.05973294258328249
-1.1723495,0.06842363573544656
-1.1722732,0.1049871826009398
-1.1721969,0.09050269401397339
-1.1721206,0.07868021954564795
-1.1720443,0.05409573621430096
-1.171968,0.0535476744839843
-1.1718917,0.07092906078834305
-1.1718154,0.08486548764499185
-1.1717391,0.1133646976214578
-1.1716628,0.08729261816497001
-1.1715865,0.0825166516579162
-1.1715102,0.04329109067379774
-1.1714339,0.06787557400514471
