Task5_45.csv

#Digilent WaveForms Oscilloscope Acquisition
#Device Name: Discovery3
#Serial Number: SN:210415BD63A1
#Date Time: 2026-09-24 10:33:28.760.689.910
#Sample rate: 32000Hz
#Samples: 32000
#Trigger: Source: Channel 1 Type: Edge Condition: Rising Level: 0 V Hyst.: Auto HoldOff: 0 s
#Channel 1: Range: 500 mV/div Offset: 0 V Sample Mode: Average
#Math 1: Input: C1 Reference: Internal Frequency: 20 Hz Phase: 90 ° Filter: IIR Butterworth 8  Low-Pass CutOff: 10 Hz Output: Amplitude

#Wavegen Channel 1: Running
#Mode: Simple
#Type: Sine
#Frequency: 20 Hz
#Period: 50 ms
#Amplitude: 200 mV
#Offset: 0 V
#Symmetry: 50 %
#Phase: 0 °

Time (s),Channel 1 (V),Math 1 (V)
-0.5,0.432679402436243,3.706311333763143e-25
-0.49996875,0.432679402436243,6.297064639289644e-24
-0.4999375,0.432679402436243,5.367556679060772e-23
-0.49990625,0.4327589412274808,3.081384941083389e-22
-0.499875,0.432679402436243,1.348782420376472e-21
-0.49984375,0.4325203248537676,4.82822733547697e-21
-0.4998125,0.4325203248537676,1.479025540910568e-20
-0.49978125,0.4325203248537676,4.001794789410952e-20
-0.49975,0.4325203248537676,9.787633624741698e-20
-0.49971875,0.4325203248537676,2.202037396293434e-19
-0.4996875,0.4325203248537676,4.61895182554581e-19
-0.49965625,0.4325203248537676,9.129095796358587e-19
-0.499625,0.4325203248537676,1.714519743646996e-18
-0.49959375,0.4324407860625299,3.080710723084616e-18
-0.4995625,0.4324407860625299,5.325717511108383e-18
-0.49953125,0.4323612472712922,8.898777793772723e-18
-0.4995,0.4322021696888167,1.442725912578413e-17
-0.49946875,0.4323612472712922,2.276940274125658e-17
-0.4994375,0.4324407860625299,3.507800813141263e-17
-0.49940625,0.4323612472712922,5.287646355799491e-17
-0.499375,0.4323612472712922,7.8148607825196e-17
-0.49934375,0.4322817084800544,1.13443987904278e-16
-0.4993125,0.4322817084800544,1.620001553901785e-16
-0.49928125,0.4322021696888167,2.278837222656179e-16
-0.49925,0.4322021696888167,3.161519730573478e-16
-0.49921875,0.432122630897579,4.330369061971364e-16
-0.4991875,0.432122630897579,5.861536522544646e-16
-0.49915625,0.4322021696888167,7.847352906959863e-16
-0.499125,0.432122630897579,1.039896159953578e-15
-0.49909375,0.4322021696888167,1.364925827850031e-15
-0.4990625,0.4322021696888167,1.775615960840232e-15
-0.49903125,0.4322021696888167,2.290622401080568e-15
-0.499,0.4320430921063412,2.9318648300489e-15
-0.49896875,0.432122630897579,3.724966466310878e-15
-0.4989375,0.4319635533151035,4.699736313071318e-15
-0.49890625,0.432122630897579,5.890696538364171e-15
-0.498875,0.4319635533151035,7.337657637123044e-15
-0.49884375,0.4319635533151035,9.086344089939104e-15
-0.4988125,0.4320430921063412,1.118907329805883e-14
-0.49878125,0.4320430921063412,1.370549063810545e-14
-0.49875,0.4319635533151035,1.670336354312968e-14
-0.49871875,0.4319635533151035,2.025943757890858e-14
-0.4986875,0.4318840145238658,2.446035754591731e-14
-0.49865625,0.4319635533151035,2.940365669809565e-14
-0.498625,0.4318840145238658,3.51988172294213e-14
-0.49859375,0.4318840145238658,4.196840523838878e-14
-0.4985625,0.4318840145238658,4.984928343877911e-14
-0.49853125,0.4318044757326281,5.899390494259831e-14
-0.4985,0.4317249369413904,6.957169149777251e-14
-0.49846875,0.4316453981501526,8.177049961912619e-14
-0.4984375,0.4318044757326281,9.579817810634642e-14
-0.49840625,0.4317249369413904,1.118842204970507e-13
-0.498375,0.4317249369413904,1.302815160567237e-13
-0.49834375,0.4317249369413904,1.512682029601684e-13
-0.4983125,0.4316453981501526,1.751496273712287e-13
-0.49828125,0.4318044757326281,2.022604121788916e-13
-0.49825,0.4317249369413904,2.329666391984697e-13
-0.49821875,0.4317249369413904,2.676681486964127e-13
-0.4981875,0.4316453981501526,3.068009601464056e-13
-0.49815625,0.4316453981501526,3.508398181727888e-13
-0.498125,0.4316453981501526,4.003008676849671e-13
-0.49809375,0.4314863205676772,4.55744462253372e-13
-0.4980625,0.4316453981501526,5.177781098237007e-13
-0.49803125,0.4315658593589149,5.870595599115698e-13
-0.498,0.4311681654027262,6.643000364644283e-13
-0.49796875,0.4311681654027262,7.502676206215275e-13
-0.4979375,0.431247704193964,8.457907876460097e-13
-0.49790625,0.4311681654027262,9.517621023456942e-13
-0.497875,0.4310886266114886,1.06914207734098e-12
-0.49784375,0.4309295490290131,1.198963198579398e-12
-0.4978125,0.4310886266114886,1.342334122536787e-12
-0.49778125,0.4311681654027262,1.500444049584792e-12
-0.49775,0.4311681654027262,1.674567278043436e-12
-0.49771875,0.431247704193964,1.866067943475852e-12
-0.4976875,0.4311681654027262,2.076404947819936e-12
-0.49765625,0.4311681654027262,2.307137082988616e-12
-0.497625,0.4311681654027262,2.559928353606787e-12
-0.49759375,0.4310886266114886,2.83655350358853e-12
-0.4975625,0.4310090878202508,3.138903751293217e-12
-0.49753125,0.4310090878202508,3.468992738033399e-12
-0.4975,0.4310886266114886,3.828962694740951e-12
-0.49746875,0.4311681654027262,4.221090831630962e-12
-0.4974375,0.4310090878202508,4.647795955735101e-12
-0.49740625,0.4311681654027262,5.111645321207865e-12
-0.497375,0.431247704193964,5.615361717340014e-12
-0.49734375,0.4311681654027262,6.161830799243925e-12
-0.4973125,0.431247704193964,6.754108666205148e-12
-0.49728125,0.4311681654027262,7.395429692723541e-12
-0.49725,0.4310886266114886,8.089214617295772e-12
-0.49721875,0.431247704193964,8.839078894018659e-12
-0.4971875,0.431247704193964,9.648841312120059e-12
-0.49715625,0.431247704193964,1.052253288855041e-11
-0.497125,0.431247704193964,1.146440603879396e-11
-0.49709375,0.4313272429852017,1.247894403108384e-11
-0.4970625,0.4310886266114886,1.357087072922995e-11
-0.49703125,0.4310886266114886,1.474516062929236e-11
-0.497,0.4310886266114886,1.600704919535652e-11
-0.49696875,0.4311681654027262,1.736204349968924e-11
-0.4969375,0.431247704193964,1.881593317257675e-11
-0.49690625,0.4311681654027262,2.037480166716735e-11
-0.496875,0.4310886266114886,2.204503784466259e-11
-0.49684375,0.431247704193964,2.383334788522086e-11
-0.4968125,0.4311681654027262,2.574676752995731e-11
-0.49678125,0.431247704193964,2.779267465944304e-11
-0.49675,0.4313272429852017,2.997880221412528e-11
-0.49671875,0.4314863205676772,3.231325146210798e-11
-0.4966875,0.4314863205676772,3.480450561975017e-11
-0.49665625,0.4313272429852017,3.746144383055571e-11
-0.496625,0.4313272429852017,4.029335550784503e-11
-0.49659375,0.4314067817764394,4.330995504671461e-11
-0.4965625,0.4314067817764394,4.652139691080541e-11
-0.49653125,0.4314067817764394,4.993829109941597e-11
-0.4965,0.4314067817764394,5.357171900051024e-11
-0.49646875,0.4314863205676772,5.743324963518305e-11
-0.4964375,0.4314067817764394,6.153495629915975e-11
-0.49640625,0.4315658593589149,6.588943360691835e-11
-0.496375,0.4315658593589149,7.05098149440349e-11
-0.49634375,0.4314863205676772,7.540979033336357e-11
-0.4963125,0.4314863205676772,8.060362472067385e-11
-0.49628125,0.4315658593589149,8.610617668537819e-11
-0.49625,0.4314863205676772,9.193291758199158e-11
-0.49621875,0.4314863205676772,9.809995111797517e-11
-0.4961875,0.4314863205676772,1.046240333736241e-10
-0.49615625,0.4315658593589149,1.115225932696676e-10
-0.496125,0.4314863205676772,1.188137534882568e-10
-0.49609375,0.4314067817764394,1.26516351853024e-10
-0.4960625,0.4314067817764394,1.346499631739022e-10
-0.49603125,0.4314863205676772,1.432349215624007e-10
-0.496,0.4316453981501526,1.522923432230362e-10
-0.49596875,0.4316453981501526,1.618441497266293e-10
-0.4959375,0.4315658593589149,1.719130917711716e-10
-0.49590625,0.4315658593589149,1.825227734359824e-10
-0.495875,0.4316453981501526,1.936976769348705e-10
-0.49584375,0.4315658593589149,2.05463187874024e-10
-0.4958125,0.4315658593589149,2.178456210203486e-10
-0.49578125,0.4316453981501526,2.308722465859846e-10
-0.49575,0.4314863205676772,2.44571317034726e-10
-0.49571875,0.4315658593589149,2.589720944160708e-10
-0.4956875,0.4316453981501526,2.741048782326337e-10
-0.49565625,0.4315658593589149,2.900010338466472e-10
-0.495625,0.4317249369413904,3.066930214312815e-10
-0.49559375,0.4316453981501526,3.242144254725112e-10
-0.4955625,0.4318840145238658,3.425999848272549e-10
-0.49553125,0.4318044757326281,3.618856233435122e-10
-0.4955,0.4318044757326281,3.821084810482233e-10
-0.49546875,0.4315658593589149,4.033069459085666e-10
-0.4954375,0.4316453981501526,4.255206861724166e-10
-0.49540625,0.4318044757326281,4.487906832936721e-10
-0.495375,0.4318044757326281,4.731592654481637e-10
-0.49534375,0.4317249369413904,4.986701416458485e-10
-0.4953125,0.4318044757326281,5.253684364449896e-10
-0.49528125,0.4316453981501526,5.533007252740144e-10
-0.49525,0.4318044757326281,5.825150703667439e-10
-0.49521875,0.4319635533151035,6.130610573166725e-10
-0.4951875,0.4318044757326281,6.44989832255974e-10
-0.49515625,0.4318840145238658,6.783541396649056e-10
-0.495125,0.4318840145238658,7.132083608172692e-10
-0.49509375,0.4318044757326281,7.496085528675826e-10
-0.4950625,0.4318840145238658,7.876124885856084e-10
-0.49503125,0.4318840145238658,8.272796967438737e-10
-0.495,0.4318840145238658,8.686715031638105e-10
-0.49496875,0.4318840145238658,9.118510724261329e-10
-0.4949375,0.4319635533151035,9.568834502510582e-10
-0.49490625,0.4320430921063412,1.003835606553971e-09
-0.494875,0.4318840145238658,1.052776479182114e-09
-0.49484375,0.4319635533151035,1.103777018337883e-09
-0.4948125,0.4318044757326281,1.156910231694286e-09
-0.49478125,0.4318840145238658,1.212251230208123e-09
-0.49475,0.4319635533151035,1.269877274636424e-09
-0.49471875,0.4320430921063412,1.329867822761663e-09
-0.4946875,0.4319635533151035,1.392304577331275e-09
-0.49465625,0.4320430921063412,1.457271534716967e-09
-0.494625,0.432122630897579,1.524855034299308e-09
-0.49459375,0.4320430921063412,1.595143808583074e-09
-0.4945625,0.4320430921063412,1.668229034048798e-09
-0.49453125,0.432122630897579,1.744204382745975e-09
-0.4945,0.4322021696888167,1.823166074633341e-09
-0.49446875,0.4320430921063412,1.905212930671636e-09
-0.4944375,0.432122630897579,1.990446426674249e-09
-0.49440625,0.4322817084800544,2.078970747921124e-09
-0.494375,0.4322021696888167,2.170892844541278e-09
-0.49434375,0.4322021696888167,2.266322487669282e-09
-0.4943125,0.4322817084800544,2.365372326381032e-09
-0.49428125,0.4322021696888167,2.468157945414109e-09
-0.49425,0.432122630897579,2.574797923678026e-09
-0.49421875,0.432122630897579,2.685413893559629e-09
-0.4941875,0.432122630897579,2.800130601028898e-09
-0.49415625,0.4322021696888167,2.919075966550396e-09
-0.494125,0.4322021696888167,3.042381146805554e-09
-0.49409375,0.432122630897579,3.170180597231013e-09
-0.4940625,0.432122630897579,3.302612135378168e-09
-0.49403125,0.4322021696888167,3.439817005099088e-09
-0.494,0.432122630897579,3.581939941563921e-09
-0.49396875,0.4323612472712922,3.729129237114915e-09
-0.4939375,0.4322021696888167,3.881536807962121e-09
-0.49390625,0.4322021696888167,4.039318261725865e-09
-0.493875,0.4322817084800544,4.202632965831006e-09
-0.49384375,0.432122630897579,4.37164411675803e-09
-0.4938125,0.4322021696888167,4.546518810155946e-09
-0.49378125,0.4323612472712922,4.72742811182199e-09
-0.49375,0.4323612472712922,4.914547129553057e-09
-0.49371875,0.4324407860625299,5.108055085873816e-09
-0.4936875,0.4323612472712922,5.308135391646384e-09
-0.49365625,0.4323612472712922,5.51497572056646e-09
-0.493625,0.4322817084800544,5.728768084550758e-09
-0.49359375,0.4322021696888167,5.949708910020565e-09
-0.4935625,0.4322817084800544,6.177999115086253e-09
-0.49353125,0.4324407860625299,6.413844187637475e-09
-0.4935,0.4325203248537676,6.657454264343851e-09
-0.49346875,0.4324407860625299,6.909044210570825e-09
-0.4934375,0.4324407860625299,7.168833701215409e-09
-0.49340625,0.4324407860625299,7.437047302466505e-09
-0.493375,0.4325203248537676,7.7139145544944e-09
-0.49334375,0.4323612472712922,7.999670055074118e-09
-0.4933125,0.4324407860625299,8.294553544147141e-09
-0.49328125,0.4323612472712922,8.598809989326146e-09
-0.49325,0.4324407860625299,8.91268967234722e-09
-0.49321875,0.4324407860625299,9.236448276474103e-09
-0.4931875,0.4323612472712922,9.570346974858913e-09
-0.49315625,0.4323612472712922,9.914652519863806e-09
-0.493125,0.4323612472712922,1.026963733334801e-08
-0.49309375,0.4325203248537676,1.063557959792456e-08
-0.4930625,0.4323612472712922,1.101276334919124e-08
-0.49303125,0.4323612472712922,1.14014785689398e-08
-0.493,0.4323612472712922,1.180202127934808e-08
-0.49296875,0.4325203248537676,1.2214693638159e-08
-0.4929375,0.4324407860625299,1.263980403485089e-08
-0.49290625,0.4325203248537676,1.307766718780322e-08
-0.492875,0.4325998636450054,1.352860424246194e-08
-0.49284375,0.4324407860625299,1.399294287050865e-08
-0.4928125,0.4325998636450054,1.447101737003765e-08
-0.49278125,0.4325998636450054,1.496316876674484e-08
-0.49275,0.4327589412274808,1.546974491613284e-08
-0.49271875,0.4325998636450054,1.599110060673594e-08
-0.4926875,0.4325998636450054,1.652759766436921e-08
-0.49265625,0.4325998636450054,1.707960505740549e-08
-0.492625,0.4325203248537676,1.764749900308437e-08
-0.49259375,0.4323612472712922,1.823166307485679e-08
-0.4925625,0.4325998636450054,1.883248831076941e-08
-0.49253125,0.4325998636450054,1.945037332289238e-08
-0.4925,0.4325998636450054,2.008572440779428e-08
-0.49246875,0.4325998636450054,2.073895565806812e-08
-0.4924375,0.432679402436243,2.141048907491198e-08
-0.49240625,0.4327589412274808,2.210075468176806e-08
-0.492375,0.4328384800187185,2.281019063902373e-08
-0.49234375,0.4327589412274808,2.353924335977822e-08
-0.4923125,0.4327589412274808,2.428836762667856e-08
-0.49228125,0.432679402436243,2.505802670982817e-08
-0.49225,0.4325998636450054,2.584869248577185e-08
-0.49221875,0.4325998636450054,2.66608455575604e-08
-0.4921875,0.4325998636450054,2.74949753758984e-08
-0.49215625,0.4325203248537676,2.835158036137866e-08
-0.492125,0.432679402436243,2.923116802780645e-08
-0.49209375,0.432679402436243,3.013425510661708e-08
-0.4920625,0.4327589412274808,3.106136767239002e-08
-0.49203125,0.4325998636450054,3.201304126946273e-08
-0.492,0.4325998636450054,3.298982103964757e-08
-0.49196875,0.4325998636450054,3.399226185105489e-08
-0.4919375,0.432679402436243,3.502092842802545e-08
-0.49190625,0.4325203248537676,3.607639548217521e-08
-0.491875,0.4325203248537676,3.715924784455568e-08
-0.49184375,0.4325998636450054,3.827008059893275e-08
-0.4918125,0.432679402436243,3.940949921618714e-08
-0.49178125,0.432679402436243,4.057811968983911e-08
-0.49175,0.432679402436243,4.177656867270075e-08
-0.49171875,0.432679402436243,4.300548361465847e-08
-0.4916875,0.4325203248537676,4.426551290158846e-08
-0.49165625,0.4325203248537676,4.555731599540824e-08
-0.491625,0.4325203248537676,4.68815635752667e-08
-0.49159375,0.4325998636450054,4.823893767987556e-08
-0.4915625,0.432679402436243,4.963013185098491e-08
-0.49153125,0.4327589412274808,5.105585127800537e-08
-0.4915,0.4325998636450054,5.251681294377964e-08
-0.49146875,0.4325998636450054,5.40137457715057e-08
-0.4914375,0.432679402436243,5.554739077281476e-08
-0.49140625,0.432679402436243,5.711850119700556e-08
-0.491375,0.432679402436243,5.872784268143851e-08
-0.49134375,0.432679402436243,6.03761934030911e-08
-0.4913125,0.4325998636450054,6.206434423127759e-08
-0.49128125,0.4325998636450054,6.379309888153503e-08
-0.49125,0.4325998636450054,6.556327407067802e-08
-0.49121875,0.432679402436243,6.737569967302422e-08
-0.4911875,0.4325998636450054,6.923121887779315e-08
-0.49115625,0.4325998636450054,7.113068834768009e-08
-0.491125,0.4325998636450054,7.30749783786075e-08
-0.49109375,0.432679402436243,7.50649730606558e-08
-0.4910625,0.4325203248537676,7.710157044017576e-08
-0.49103125,0.4327589412274808,7.918568268308423e-08
-0.491,0.432679402436243,8.131823623934542e-08
-0.49096875,0.4325998636450054,8.350017200863959e-08
-0.4909375,0.432679402436243,8.573244550722072e-08
-0.49090625,0.4324407860625299,8.801602703596549e-08
-0.490875,0.4323612472712922,9.035190184961498e-08
-0.49084375,0.4325203248537676,9.274107032721094e-08
-0.4908125,0.4325203248537676,9.518454814372844e-08
-0.49078125,0.4325203248537676,9.768336644290628e-08
-0.49075,0.4324407860625299,1.002385720112771e-07
-0.49071875,0.4325203248537676,1.028512274533985e-07
-0.4906875,0.4325998636450054,1.055224113682873e-07
-0.49065625,0.4324407860625299,1.082532185270569e-07
-0.490625,0.4325203248537676,1.110447600517617e-07
-0.49059375,0.4323612472712922,1.138981635954468e-07
-0.4905625,0.4324407860625299,1.168145735234079e-07
-0.49053125,0.4325203248537676,1.197951510956595e-07
-0.4905,0.4324407860625299,1.228410746506147e-07
-0.49046875,0.4324407860625299,1.259535397899768e-07
-0.4904375,0.4324407860625299,1.291337595648451e-07
-0.49040625,0.4322817084800544,1.323829646630339e-07
-0.490375,0.4323612472712922,1.357024035976085e-07
-0.49034375,0.4325203248537676,1.390933428966373e-07
-0.4903125,0.4324407860625299,1.42557067294161e-07
-0.49028125,0.4323612472712922,1.460948799223819e-07
-0.49025,0.4323612472712922,1.497081025050713e-07
-0.49021875,0.4322817084800544,1.533980755521987e-07
-0.4901875,0.4323612472712922,1.571661585557815e-07
-0.49015625,0.4322021696888167,1.610137301869568e-07
-0.490125,0.4323612472712922,1.649421884942771e-07
-0.49009375,0.4322817084800544,1.689529511032283e-07
-0.4900625,0.4322817084800544,1.730474554169729e-07
-0.49003125,0.432122630897579,1.772271588183178e-07
-0.49,0.4324407860625299,1.814935388729074e-07
-0.48996875,0.4322021696888167,1.858480935336428e-07
-0.4899375,0.4322817084800544,1.902923413463281e-07
-0.48990625,0.4322817084800544,1.948278216565428e-07
-0.489875,0.432122630897579,1.994560948177417e-07
-0.48984375,0.4322021696888167,2.041787424005834e-07
-0.4898125,0.4322021696888167,2.089973674034853e-07
-0.48978125,0.4322021696888167,2.139135944644087e-07
-0.48975,0.4322817084800544,2.189290700738708e-07
-0.48971875,0.432122630897579,2.240454627891863e-07
-0.4896875,0.4322021696888167,2.292644634499378e-07
-0.48965625,0.4320430921063412,2.345877853946752e-07
-0.489625,0.4320430921063412,2.40017164678843e-07
-0.48959375,0.4320430921063412,2.455543602939388e-07
-0.4895625,0.4319635533151035,2.512011543878985e-07
-0.48953125,0.4319635533151035,2.569593524867116e-07
-0.4895,0.432122630897579,2.628307837172652e-07
-0.48946875,0.4320430921063412,2.688173010314159e-07
-0.4894375,0.4320430921063412,2.74920781431291e-07
-0.48940625,0.4319635533151035,2.81143126195817e-07
-0.489375,0.4319635533151035,2.874862611084759e-07
-0.48934375,0.4318044757326281,2.9395213668629e-07
-0.4893125,0.4319635533151035,3.00542728410032e-07
-0.48928125,0.4318840145238658,3.072600369556633e-07
-0.48925,0.4319635533151035,3.141060884269974e-07
-0.48921875,0.4318840145238658,3.210829345895892e-07
-0.4891875,0.4318840145238658,3.281926531058495e-07
-0.48915625,0.4318840145238658,3.354373477713835e-07
-0.489125,0.4317249369413904,3.428191487525535e-07
-0.48909375,0.4317249369413904,3.503402128252638e-07
-0.4890625,0.4318044757326281,3.580027236149685e-07
-0.48903125,0.4316453981501526,3.658088918379009e-07
-0.489,0.4317249369413904,3.737609555435231e-07
-0.48896875,0.4316453981501526,3.81861180358195e-07
-0.4889375,0.4315658593589149,3.901118597300632e-07
-0.48890625,0.4317249369413904,3.985153151751667e-07
-0.488875,0.4316453981501526,4.070738965247594e-07
-0.48884375,0.4315658593589149,4.157899821738495e-07
-0.4888125,0.4317249369413904,4.246659793309514e-07
-0.48878125,0.4317249369413904,4.337043242690535e-07
-0.48875,0.4316453981501526,4.429074825777965e-07
-0.48871875,0.4317249369413904,4.522779494168631e-07
-0.4886875,0.4315658593589149,4.61818249770578e-07
-0.48865625,0.4316453981501526,4.715309387037153e-07
-0.488625,0.4315658593589149,4.81418601618514e-07
-0.48859375,0.4314067817764394,4.914838545128985e-07
-0.4885625,0.4314863205676772,5.017293442399028e-07
-0.48853125,0.4314863205676772,5.121577487682978e-07
-0.4885,0.4314863205676772,5.227717774444201e-07
-0.48846875,0.4314067817764394,5.335741712551987e-07
-0.4884375,0.4314863205676772,5.445677030923822e-07
-0.48840625,0.4314863205676772,5.557551780179588e-07
-0.488375,0.4314067817764394,5.671394335307725e-07
