Task5_45-6.csv

#Digilent WaveForms Oscilloscope Acquisition
#Device Name: Discovery3
#Serial Number: SN:210415BD63A1
#Date Time: 2026-09-24 10:57:30.320.018.770
#Sample rate: 32000Hz
#Samples: 32000
#Trigger: Source: Channel 1 Type: Edge Condition: Rising Level: 0 V Hyst.: Auto HoldOff: 0 s
#Channel 1: Range: 500 mV/div Offset: 0 V Sample Mode: Average
#Math 1: Input: C1 Reference: Internal Frequency: 20 Hz Phase: 90 ° Filter: IIR Butterworth 8  Low-Pass CutOff: 10 Hz Output: Amplitude

#Wavegen Channel 1: Running
#Mode: Simple
#Type: Sine
#Frequency: 20 Hz
#Period: 50 ms
#Amplitude: 200 mV
#Offset: 0 V
#Symmetry: 50 %
#Phase: 0 °

Time (s),Channel 1 (V),Math 1 (V)
-0.5,0.4776983582767961,4.094231274599981e-25
-0.49996875,0.4774597419030829,6.956001242831503e-24
-0.4999375,0.4774597419030829,5.929105429430619e-23
-0.49990625,0.4774597419030829,3.403689286109791e-22
-0.499875,0.4775392806943207,1.489834341991665e-21
-0.49984375,0.4775392806943207,5.333065002428254e-21
-0.4998125,0.4774597419030829,1.633649909256885e-20
-0.49978125,0.4775392806943207,4.420112959636208e-20
-0.49975,0.4776983582767961,1.081066743907137e-19
-0.49971875,0.4774597419030829,2.432185220050873e-19
-0.4996875,0.4774597419030829,5.101681125788983e-19
-0.49965625,0.4773802031118453,1.00831494649191e-18
-0.499625,0.4773006643206075,1.893694922360073e-18
-0.49959375,0.4773006643206075,3.402655194605521e-18
-0.4995625,0.4773006643206075,5.882270213909771e-18
-0.49953125,0.4772211255293698,9.828727078312775e-18
-0.4995,0.4773006643206075,1.593496078526354e-17
-0.49946875,0.4773006643206075,2.514891144137716e-17
-0.4994375,0.4773006643206075,3.874386596048229e-17
-0.49940625,0.4772211255293698,5.840243626195322e-17
-0.499375,0.4770620479468943,8.631581446877301e-17
-0.49934375,0.4770620479468943,1.25300033098962e-16
-0.4993125,0.4771415867381321,1.78931044751173e-16
-0.49928125,0.4772211255293698,2.517005213153001e-16
-0.49925,0.4770620479468943,3.491943573000687e-16
-0.49921875,0.4769825091556566,4.782959454669239e-16
-0.4991875,0.4770620479468943,6.474163755980361e-16
-0.49915625,0.4769825091556566,8.667537889111599e-16
-0.499125,0.4769825091556566,1.14858420136954e-15
-0.49909375,0.4771415867381321,1.507586188925158e-15
-0.4990625,0.4770620479468943,1.961201906583329e-15
-0.49903125,0.4772211255293698,2.530036991089609e-15
-0.499,0.4769825091556566,3.238301974017371e-15
-0.49896875,0.4769825091556566,4.11429790807911e-15
-0.4989375,0.4769825091556566,5.190948984603068e-15
-0.49890625,0.4770620479468943,6.50638499431539e-15
-0.498875,0.4769825091556566,8.104576556850512e-15
-0.49884375,0.4768234315731811,1.00360261167804e-14
-0.4988125,0.4768234315731811,1.235851777541194e-14
-0.49878125,0.4767438927819434,1.513792909816018e-14
-0.49875,0.4767438927819434,1.844910810697385e-14
-0.49871875,0.4768234315731811,2.237681873607572e-14
-0.4986875,0.4649721516787599,2.701675809718671e-14
-0.49865625,0.4650516904699977,3.247664896743023e-14
-0.498625,0.4649721516787599,3.887741097925999e-14
-0.49859375,0.4650516904699977,4.635441405701688e-14
-0.4985625,0.4648926128875222,5.505881770910031e-14
-0.49853125,0.4650516904699977,6.515899984824798e-14
-0.4985,0.4651312292612354,7.684207887506222e-14
-0.49846875,0.4650516904699977,9.031553282171412e-14
-0.4984375,0.4650516904699977,1.058089194136949e-13
-0.49840625,0.4648926128875222,1.23575700967573e-13
-0.498375,0.4649721516787599,1.438951781019596e-13
-0.49834375,0.4647335353050467,1.670745362972846e-13
-0.4983125,0.4648926128875222,1.934510093975588e-13
-0.49828125,0.4648926128875222,2.233941642040241e-13
-0.49825,0.4648130740962845,2.573083103664947e-13
-0.49821875,0.4647335353050467,2.956350398332512e-13
-0.4981875,0.4647335353050467,3.388559001745731e-13
-0.49815625,0.4647335353050467,3.874952061484004e-13
-0.498125,0.4645744577225713,4.421229939291898e-13
-0.49809375,0.4645744577225713,5.033581224728068e-13
-0.4980625,0.464653996513809,5.718715265412503e-13
-0.49803125,0.4647335353050467,6.483896259611662e-13
-0.498,0.4645744577225713,7.336978957394549e-13
-0.49796875,0.4645744577225713,8.286446017078323e-13
-0.4979375,0.4644949189313336,9.341447064159693e-13
-0.49790625,0.4645744577225713,1.051183950039805e-12
-0.497875,0.4644949189313336,1.180823111117835e-12
-0.49784375,0.4644949189313336,1.324202451973587e-12
-0.4978125,0.4643358413488581,1.482546353727147e-12
-0.49778125,0.4644949189313336,1.657168145842481e-12
-0.49775,0.4644949189313336,1.849475135200409e-12
-0.49771875,0.4644949189313336,2.060973839729444e-12
-0.4976875,0.4644949189313336,2.293275431668287e-12
-0.49765625,0.4644153801400959,2.548101395574601e-12
-0.497625,0.4644949189313336,2.827289406234747e-12
-0.49759375,0.4644949189313336,3.132799431668507e-12
-0.4975625,0.4644949189313336,3.466720066461349e-12
-0.49753125,0.4644949189313336,3.831275100694679e-12
-0.4975,0.4645744577225713,4.228830329781579e-12
-0.49746875,0.4644153801400959,4.661900610551935e-12
-0.4974375,0.4644949189313336,5.13315716896644e-12
-0.49740625,0.4644949189313336,5.645435164873948e-12
-0.497375,0.4644153801400959,6.201741519260769e-12
-0.49734375,0.4642563025576204,6.805263009473986e-12
-0.4973125,0.4642563025576204,7.45937463793366e-12
-0.49728125,0.4644153801400959,8.167648279880721e-12
-0.49725,0.4644949189313336,8.93386161573883e-12
-0.49721875,0.4644949189313336,9.762007353698962e-12
-0.4971875,0.4644949189313336,1.065630274816552e-11
-0.49715625,0.4645744577225713,1.162119941973198e-11
-0.497125,0.4645744577225713,1.266139348238258e-11
-0.49709375,0.4645744577225713,1.378183598364456e-11
-0.4970625,0.4644949189313336,1.498774366344241e-11
-0.49703125,0.464653996513809,1.628461003743231e-11
-0.497,0.4644949189313336,1.767821681062062e-11
-0.49696875,0.4644949189313336,1.917464562709546e-11
-0.4969375,0.4644949189313336,2.078029016172493e-11
-0.49690625,0.4644153801400959,2.250186855969926e-11
-0.496875,0.4644153801400959,2.434643622981748e-11
-0.49684375,0.4644153801400959,2.632139899744141e-11
-0.4968125,0.4645744577225713,2.843452662306203e-11
-0.49678125,0.4644153801400959,3.069396669244411e-11
-0.49675,0.4644949189313336,3.310825888433566e-11
-0.49671875,0.4644949189313336,3.56863496217488e-11
-0.4966875,0.4644949189313336,3.84376071128378e-11
-0.49665625,0.4645744577225713,4.13718367874186e-11
-0.496625,0.4644949189313336,4.44992971351925e-11
-0.49659375,0.4644153801400959,4.783071595175373e-11
-0.4965625,0.4644153801400959,5.137730699847766e-11
-0.49653125,0.4644153801400959,5.515078708240249e-11
-0.4965,0.4643358413488581,5.916339356223287e-11
-0.49646875,0.4644949189313336,6.342790228660853e-11
-0.4964375,0.4644153801400959,6.795764597079581e-11
-0.49640625,0.4644949189313336,7.276653301797318e-11
-0.496375,0.4645744577225713,7.786906679129514e-11
-0.49634375,0.4645744577225713,8.328036534293176e-11
-0.4963125,0.4644949189313336,8.901618160629174e-11
-0.49628125,0.4644949189313336,9.509292405765039e-11
-0.49625,0.4644153801400959,1.015276778534122e-10
-0.49621875,0.4645744577225713,1.083382264492493e-10
-0.4961875,0.4644153801400959,1.155430737073674e-10
-0.49615625,0.4644949189313336,1.231614664981563e-10
-0.496125,0.4644949189313336,1.312134178024963e-10
-0.49609375,0.4644949189313336,1.397197303209921e-10
-0.4960625,0.464653996513809,1.487020205964217e-10
-0.49603125,0.464653996513809,1.581827436556859e-10
-0.496,0.4644949189313336,1.681852181775563e-10
-0.49596875,0.464653996513809,1.78733652192524e-10
-0.4959375,0.4644949189313336,1.898531693210523e-10
-0.49590625,0.4644949189313336,2.015698355565473e-10
-0.495875,0.4644949189313336,2.139106865993598e-10
-0.49584375,0.4647335353050467,2.269037557481358e-10
-0.4958125,0.464653996513809,2.405781023548384e-10
-0.49578125,0.4645744577225713,2.549638408497621e-10
-0.49575,0.464653996513809,2.700921703428666e-10
-0.49571875,0.464653996513809,2.859954048077538e-10
-0.4956875,0.4645744577225713,3.027070038546172e-10
-0.49565625,0.464653996513809,3.202616040984885e-10
-0.495625,0.464653996513809,3.386950511291097e-10
-0.49559375,0.4644949189313336,3.580444320887554e-10
-0.4955625,0.4644949189313336,3.783481088643301e-10
-0.49553125,0.4644949189313336,3.99645751900063e-10
-0.4955,0.4645744577225713,4.219783746371198e-10
-0.49546875,0.4645744577225713,4.453883685864494e-10
-0.4954375,0.4645744577225713,4.699195390411791e-10
-0.49540625,0.4645744577225713,4.956171414348667e-10
-0.495375,0.464653996513809,5.225279183519173e-10
-0.49534375,0.4644949189313336,5.507001371964626e-10
-0.4953125,0.4648130740962845,5.801836285259993e-10
-0.49528125,0.4648130740962845,6.110298250560755e-10
-0.49525,0.464653996513809,6.432918013423078e-10
-0.49521875,0.4647335353050467,6.77024314146004e-10
-0.4951875,0.4647335353050467,7.122838434896624e-10
-0.49515625,0.4648926128875222,7.491286344086049e-10
-0.495125,0.4648130740962845,7.876187394050014e-10
-0.49509375,0.4648926128875222,8.278160616105235e-10
-0.4950625,0.4648926128875222,8.697843986638675e-10
-0.49503125,0.4647335353050467,9.135894873093684e-10
-0.495,0.4648926128875222,9.592990487229197e-10
-0.49496875,0.4648130740962845,1.006982834571405e-09
-0.4949375,0.4649721516787599,1.056712673811835e-09
-0.49490625,0.4649721516787599,1.108562520236368e-09
-0.494875,0.4650516904699977,1.16260850076939e-09
-0.49484375,0.4650516904699977,1.218928964522801e-09
-0.4948125,0.4649721516787599,1.27760453261567e-09
-0.49478125,0.4649721516787599,1.33871814876437e-09
-0.49475,0.4648926128875222,1.402355130649326e-09
-0.49471875,0.4649721516787599,1.468603222064469e-09
-0.4946875,0.4648926128875222,1.537552645855495e-09
-0.49465625,0.4649721516787599,1.609296157652997e-09
-0.494625,0.4649721516787599,1.683929100406524e-09
-0.49459375,0.4648926128875222,1.76154945972563e-09
-0.4945625,0.4648130740962845,1.842257920033905e-09
-0.49453125,0.4648926128875222,1.926157921542042e-09
-0.4945,0.4648926128875222,2.013355718045891e-09
-0.49446875,0.4649721516787599,2.103960435555505e-09
-0.4944375,0.4648926128875222,2.198084131761123e-09
-0.49440625,0.4648926128875222,2.295841856342034e-09
-0.494375,0.4650516904699977,2.397351712124234e-09
-0.49434375,0.4651312292612354,2.502734917092795e-09
-0.4943125,0.4650516904699977,2.612115867264815e-09
-0.49428125,0.4649721516787599,2.725622200428809e-09
-0.49425,0.4650516904699977,2.843384860756403e-09
-0.49421875,0.4651312292612354,2.965538164292128e-09
-0.4941875,0.4650516904699977,3.09221986532713e-09
-0.49415625,0.4651312292612354,3.223571223662581e-09
-0.494125,0.4651312292612354,3.359737072768527e-09
-0.49409375,0.4651312292612354,3.500865888843938e-09
-0.4940625,0.4649721516787599,3.647109860783644e-09
-0.49403125,0.4652107680524731,3.798624961057871e-09
-0.494,0.4652107680524731,3.955571017510033e-09
-0.49396875,0.4652903068437109,4.118111786078428e-09
-0.4939375,0.4651312292612354,4.286415024447457e-09
-0.49390625,0.4652903068437109,4.460652566633954e-09
-0.493875,0.4653698456349485,4.641000398514216e-09
-0.49384375,0.4652903068437109,4.827638734297267e-09
-0.4938125,0.4653698456349485,5.020752093949874e-09
-0.49378125,0.4652903068437109,5.220529381578818e-09
-0.49375,0.4652903068437109,5.427163964775896e-09
-0.49371875,0.4654493844261863,5.640853754931073e-09
-0.4936875,0.4653698456349485,5.861801288519225e-09
-0.49365625,0.4654493844261863,6.09021380936586e-09
-0.493625,0.4654493844261863,6.32630335189716e-09
-0.49359375,0.4654493844261863,6.570286825379696e-09
-0.4935625,0.465528923217424,6.822386099155126e-09
-0.49353125,0.465528923217424,7.082828088875137e-09
-0.4935,0.4656084620086617,7.351844843741896e-09
-0.49346875,0.4656084620086617,7.629673634759229e-09
-0.4934375,0.4656880007998995,7.916557043999707e-09
-0.49340625,0.4656084620086617,8.21274305489283e-09
-0.493375,0.4657675395911372,8.518485143539402e-09
-0.49334375,0.4657675395911372,8.834042371057233e-09
-0.4933125,0.4656880007998995,9.159679476963229e-09
-0.49328125,0.4656084620086617,9.4956669735969e-09
-0.49325,0.4656880007998995,9.842281241590319e-09
-0.49321875,0.4658470783823749,1.019980462638949e-08
-0.4931875,0.4658470783823749,1.056852553583208e-08
-0.49315625,0.4659266171736127,1.094873853878647e-08
-0.493125,0.4658470783823749,1.134074446485686e-08
-0.49309375,0.4659266171736127,1.174485050515955e-08
-0.4930625,0.4657675395911372,1.216137031417494e-08
-0.49303125,0.4657675395911372,1.259062411268013e-08
-0.493,0.4658470783823749,1.303293879176704e-08
-0.49296875,0.4658470783823749,1.348864801795042e-08
-0.4929375,0.4658470783823749,1.39580923393708e-08
-0.49290625,0.4660061559648504,1.444161929309677e-08
-0.492875,0.4660061559648504,1.493958351353136e-08
-0.49284375,0.4660061559648504,1.545234684192697e-08
-0.4928125,0.4659266171736127,1.598027843701353e-08
-0.49278125,0.4660856947560881,1.652375488674438e-08
-0.49275,0.4660061559648504,1.708316032116414e-08
-0.49271875,0.4660856947560881,1.765888652640341e-08
-0.4926875,0.4659266171736127,1.825133305980428e-08
-0.49265625,0.4660061559648504,1.88609073661813e-08
-0.492625,0.4660061559648504,1.948802489522216e-08
-0.49259375,0.4660061559648504,2.013310922003234e-08
-0.4925625,0.4658470783823749,2.079659215682805e-08
-0.49253125,0.4659266171736127,2.147891388578159e-08
-0.4925,0.4660061559648504,2.218052307302345e-08
-0.49246875,0.4660061559648504,2.290187699380522e-08
-0.4924375,0.4661652335473258,2.364344165682732e-08
-0.49240625,0.4660856947560881,2.440569192973586e-08
-0.492375,0.4660061559648504,2.518911166579244e-08
-0.49234375,0.4661652335473258,2.5994193831721e-08
-0.4923125,0.4660061559648504,2.682144063673566e-08
-0.49228125,0.4662447723385635,2.767136366275341e-08
-0.49225,0.4661652335473258,2.854448399579563e-08
-0.49221875,0.4661652335473258,2.944133235858218e-08
-0.4921875,0.4660856947560881,3.036244924432192e-08
-0.49215625,0.4661652335473258,3.130838505170339e-08
-0.492125,0.4660856947560881,3.22797002210894e-08
-0.49209375,0.4662447723385635,3.327696537191918e-08
-0.4920625,0.4663243111298013,3.43007614413217e-08
-0.49203125,0.4660856947560881,3.535167982394389e-08
-0.492,0.4662447723385635,3.643032251299712e-08
-0.49196875,0.4661652335473258,3.753730224252564e-08
-0.4919375,0.4661652335473258,3.86732426309004e-08
-0.49190625,0.4662447723385635,3.983877832554151e-08
-0.491875,0.4661652335473258,4.103455514887309e-08
-0.49184375,0.4662447723385635,4.226123024551352e-08
-0.4918125,0.4662447723385635,4.351947223070462e-08
-0.49178125,0.4661652335473258,4.480996133998283e-08
-0.49175,0.4662447723385635,4.613338958009592e-08
-0.49171875,0.4662447723385635,4.749046088116801e-08
-0.4916875,0.4662447723385635,4.888189125011644e-08
-0.49165625,0.4662447723385635,5.030840892532326e-08
-0.491625,0.4663243111298013,5.177075453256472e-08
-0.49159375,0.4661652335473258,5.326968124220131e-08
-0.4915625,0.4660856947560881,5.480595492763186e-08
-0.49153125,0.466403849921039,5.638035432501426e-08
-0.4915,0.4662447723385635,5.799367119425579e-08
-0.49146875,0.4662447723385635,5.964671048127585e-08
-0.4914375,0.4662447723385635,6.134029048154407e-08
-0.49140625,0.4662447723385635,6.307524300489622e-08
-0.491375,0.4662447723385635,6.485241354163099e-08
-0.49134375,0.4661652335473258,6.667266142988999e-08
-0.4913125,0.4662447723385635,6.853686002432387e-08
-0.49128125,0.4661652335473258,7.044589686604677e-08
-0.49125,0.4660856947560881,7.240067385388211e-08
-0.49121875,0.4662447723385635,7.440210741690173e-08
-0.4911875,0.4660856947560881,7.645112868826108e-08
-0.49115625,0.4662447723385635,7.8548683680333e-08
-0.491125,0.4662447723385635,8.069573346114179e-08
-0.49109375,0.4662447723385635,8.289325433210091e-08
-0.4910625,0.4661652335473258,8.514223800705543e-08
-0.49103125,0.4663243111298013,8.744369179263238e-08
-0.491,0.4662447723385635,8.979863876990051e-08
-0.49096875,0.4661652335473258,9.220811797734209e-08
-0.4909375,0.4661652335473258,9.46731845951383e-08
-0.49090625,0.4662447723385635,9.719491013077086e-08
-0.490875,0.4662447723385635,9.977438260594122e-08
-0.49084375,0.4660856947560881,1.024127067448097e-07
-0.4908125,0.4660856947560881,1.051110041635564e-07
-0.49078125,0.4662447723385635,1.078704135612655e-07
-0.49075,0.4660856947560881,1.106920909121351e-07
-0.49071875,0.4660856947560881,1.135772096590139e-07
-0.4906875,0.4660856947560881,1.165269609082672e-07
-0.49065625,0.4661652335473258,1.195425536259721e-07
-0.490625,0.4661652335473258,1.226252148354467e-07
-0.49059375,0.4660856947560881,1.257761898161109e-07
-0.4905625,0.4660061559648504,1.289967423036838e-07
-0.49053125,0.4660061559648504,1.32288154691717e-07
-0.4905,0.4660061559648504,1.35651728234466e-07
-0.49046875,0.4660856947560881,1.390887832511012e-07
-0.4904375,0.4660856947560881,1.426006593312592e-07
-0.49040625,0.4660061559648504,1.461887155419365e-07
-0.490375,0.4660061559648504,1.498543306357265e-07
-0.49034375,0.4660856947560881,1.535989032604e-07
-0.4903125,0.4660856947560881,1.574238521698323e-07
-0.49028125,0.4660856947560881,1.613306164362767e-07
-0.49025,0.4661652335473258,1.653206556639846e-07
-0.49021875,0.4660856947560881,1.693954502041761e-07
-0.4901875,0.4660061559648504,1.735565013713582e-07
-0.49015625,0.4660856947560881,1.778053316609948e-07
-0.490125,0.4660061559648504,1.821434849685276e-07
-0.49009375,0.4658470783823749,1.86572526809749e-07
-0.4900625,0.4659266171736127,1.910940445425281e-07
-0.49003125,0.4660061559648504,1.957096475898895e-07
-0.49,0.4660061559648504,2.004209676644477e-07
-0.48996875,0.4660856947560881,2.052296589941949e-07
-0.4899375,0.4660061559648504,2.10137398549645e-07
-0.48990625,0.4659266171736127,2.151458862723329e-07
-0.489875,0.4660061559648504,2.202568453046707e-07
-0.48984375,0.4660061559648504,2.2547202222116e-07
-0.4898125,0.4660061559648504,2.307931872609616e-07
-0.48978125,0.4660856947560881,2.362221345618229e-07
-0.48975,0.4660061559648504,2.417606823953618e-07
-0.48971875,0.4659266171736127,2.4741067340371e-07
-0.4896875,0.4658470783823749,2.53173974837513e-07
-0.48965625,0.4657675395911372,2.590524787952891e-07
-0.489625,0.4658470783823749,2.650481024641458e-07
-0.48959375,0.4658470783823749,2.711627883618552e-07
-0.4895625,0.4659266171736127,2.773985045802868e-07
-0.48953125,0.4660061559648504,2.83757245030199e-07
-0.4895,0.4659266171736127,2.902410296873883e-07
-0.48946875,0.4658470783823749,2.968519048401961e-07
-0.4894375,0.4658470783823749,3.035919433383732e-07
-0.48940625,0.4658470783823749,3.104632448433014e-07
-0.489375,0.4658470783823749,3.174679360795724e-07
-0.48934375,0.4659266171736127,3.246081710879225e-07
-0.4893125,0.4657675395911372,3.318861314795244e-07
-0.48928125,0.4657675395911372,3.393040266916336e-07
-0.48925,0.4656880007998995,3.468640942445906e-07
-0.48921875,0.4657675395911372,3.545686000001772e-07
-0.4891875,0.4657675395911372,3.624198384213273e-07
-0.48915625,0.4658470783823749,3.704201328331896e-07
-0.489125,0.4657675395911372,3.785718356855449e-07
-0.48909375,0.4656880007998995,3.868773288165725e-07
-0.4890625,0.4656880007998995,3.9533902371797e-07
-0.48903125,0.4656880007998995,4.039593618014213e-07
-0.489,0.4657675395911372,4.127408146664149e-07
-0.48896875,0.4656084620086617,4.216858843694089e-07
-0.4889375,0.4656084620086617,4.307971036943449e-07
-0.48890625,0.465528923217424,4.400770364245066e-07
-0.488875,0.465528923217424,4.495282776157233e-07
-0.48884375,0.4654493844261863,4.591534538709179e-07
-0.4888125,0.4654493844261863,4.689552236159974e-07
-0.48878125,0.465528923217424,4.789362773770834e-07
-0.48875,0.465528923217424,4.890993380590839e-07
-0.48871875,0.4654493844261863,4.994471612256027e-07
-0.4886875,0.4653698456349485,5.09982535380187e-07
-0.48865625,0.4654493844261863,5.207082822489093e-07
-0.488625,0.4653698456349485,5.316272570642846e-07
-0.48859375,0.4652903068437109,5.427423488505196e-07
-0.4885625,0.4652107680524731,5.540564807100933e-07
-0.48853125,0.4654493844261863,5.655726101116652e-07
-0.4885,0.4653698456349485,5.772937291793149e-07
-0.48846875,0.4652107680524731,5.892228649831028e-07
-0.4884375,0.4652107680524731,6.013630798309591e-07
-0.48840625,0.4652107680524731,6.137174715618912e-07
-0.488375,0.4652107680524731,6.262891738405144e-07
