Task5_75Hz.csv

#Digilent WaveForms Oscilloscope Acquisition
#Device Name: Discovery3
#Serial Number: SN:210415BD63A1
#Date Time: 2026-09-24 11:13:57.552.996.910
#Sample rate: 63979.5Hz
#Samples: 32768
#Trigger: Source: Channel 1 Type: Edge Condition: Rising Level: 0 V Hyst.: Auto HoldOff: 0 s
#Channel 1: Range: 500 mV/div Offset: 0 V Sample Mode: Average
#Math 1: Input: C1 Reference: Internal Frequency: 75 Hz Phase: 90 ° Filter: IIR Butterworth 8  Low-Pass CutOff: 10 Hz Output: Amplitude

#Wavegen Channel 1: Running
#Mode: Simple
#Type: Sine
#Frequency: 75 Hz
#Period: 13.33333333 ms
#Amplitude: 50 mV
#Offset: 0 V
#Symmetry: 50 %
#Phase: 0 °

Time (s),Channel 1 (V),Math 1 (V)
-0.25608192,0.4363381868331785,1.470961187597857e-27
-0.25606629,0.4364177256244161,2.499916612168334e-26
-0.25605066,0.4363381868331785,2.131596873263616e-25
-0.25603503,0.4364177256244162,1.22413188885406e-24
-0.2560194,0.4364972644156537,5.360311464564007e-24
-0.25600377,0.4364177256244164,1.919608683146752e-23
-0.25598814,0.4363381868331787,5.882842970048668e-23
-0.25597251,0.4364177256244162,1.59243369686644e-22
-0.25595688,0.4364972644156539,3.896604119627062e-22
-0.25594125,0.4363381868331788,8.770840202672015e-22
-0.25592562,0.4363381868331785,1.840656418873368e-21
-0.25590999,0.4363381868331787,3.639769167092364e-21
-0.25589436,0.4364177256244162,6.839252220740274e-21
-0.25587873,0.4363381868331785,1.229531850227751e-20
-0.2558631,0.4363381868331785,2.126629935163355e-20
-0.25584747,0.4362586480419409,3.55525616295543e-20
-0.25583184,0.4363381868331785,5.767035069230229e-20
-0.25581621,0.4363381868331785,9.106465494337446e-20
-0.25580058,0.4362586480419408,1.403665371791741e-19
-0.25578495,0.4362586480419408,2.117007254869993e-19
-0.25576932,0.4361791092507032,3.130496020276988e-19
-0.25575369,0.4362586480419406,4.546800716216128e-19
-0.25573806,0.436179109250703,6.496401336729068e-19
-0.25572243,0.4362586480419408,9.143323205596612e-19
-0.2557068,0.4362586480419408,1.269171503233722e-18
-0.25569117,0.4363381868331785,1.739334900411913e-18
-0.25567554,0.4363381868331785,2.355612461346581e-18
-0.25565991,0.4362586480419408,3.15536612391141e-18
-0.25564428,0.4364177256244162,4.183606779331224e-18
-0.25562865,0.436258648041941,5.494198102725366e-18
-0.25561302,0.4363381868331785,7.15119673431866e-18
-0.25559739,0.4363381868331785,9.230338619859903e-18
-0.25558176,0.4362586480419408,1.182068164076074e-17
-0.25556613,0.4363381868331785,1.502641498382337e-17
-0.2555505,0.4363381868331785,1.896884601853475e-17
-0.25553487,0.4362586480419406,2.378857576539438e-17
-0.25551924,0.436179109250703,2.964787435226168e-17
-0.25550361,0.4362586480419408,3.673326816803245e-17
-0.25548798,0.4364177256244162,4.525835073147939e-17
-0.25547235,0.436258648041941,5.5466829601799e-17
-0.25545672,0.436179109250703,6.763582196232704e-17
-0.25544109,0.436179109250703,8.207941181203096e-17
-0.25542546,0.436179109250703,9.915248200256167e-17
-0.25540983,0.4360995704594653,1.192548346553244e-16
-0.2553942,0.4361791092507029,1.428356137932286e-16
-0.25537857,0.436179109250703,1.703980443154799e-16
-0.25536294,0.436179109250703,2.025045017362265e-16
-0.25534731,0.4363381868331785,2.397819274028524e-16
-0.25533168,0.4363381868331785,2.829276041926073e-16
-0.25531605,0.4363381868331785,3.327153079797596e-16
-0.25530042,0.4363381868331783,3.900018504469245e-16
-0.25528479,0.4362586480419408,4.557340290957638e-16
-0.25526916,0.4363381868331785,5.309560006012013e-16
-0.25525353,0.4363381868331785,6.168170939193011e-16
-0.2552379,0.4363381868331785,7.14580079849132e-16
-0.25522227,0.4364972644156539,8.25629914016208e-16
-0.25520664,0.4364972644156539,9.514829705151422e-16
-0.25519101,0.4364177256244162,1.093796783735209e-15
-0.25517538,0.436258648041941,1.254380316135756e-15
-0.25515975,0.4361791092507032,1.435204770033061e-15
-0.25514412,0.4363381868331787,1.638414961701839e-15
-0.25512849,0.4364177256244162,1.866341276368749e-15
-0.25511286,0.4364177256244162,2.121512222943141e-15
-0.25509723,0.4364177256244162,2.406667607558342e-15
-0.2550816,0.4361791092507035,2.724772345295799e-15
-0.25506597,0.4361791092507032,3.079030929679207e-15
-0.25505034,0.4362586480419408,3.472902579798885e-15
-0.25503471,0.4363381868331785,3.91011708518905e-15
-0.25501908,0.4360995704594657,4.394691368776388e-15
-0.25500345,0.4362586480419406,4.930946788540166e-15
-0.25498782,0.4361791092507032,5.523527198683363e-15
-0.25497219,0.4362586480419408,6.177417791450025e-15
-0.25495656,0.436179109250703,6.897964740868295e-15
-0.25494093,0.436179109250703,7.690895669993327e-15
-0.2549253,0.4360200316682278,8.562340963470963e-15
-0.25490967,0.4361791092507032,9.518855947394319e-15
-0.25489404,0.4362586480419408,1.056744395879441e-14
-0.25487841,0.4364177256244162,1.171558032718135e-14
-0.25486278,0.4363381868331787,1.297123729087399e-14
-0.25484715,0.4360995704594651,1.434290987109721e-14
-0.25483152,0.436020031668228,1.583964272691951e-14
-0.25481589,0.4362586480419408,1.747105801454203e-14
-0.25480026,0.4360995704594653,1.924738427442643e-14
-0.25478463,0.4362586480419405,2.117948637011523e-14
-0.254769,0.4362586480419408,2.327889650283643e-14
-0.25475337,0.4362586480419408,2.555784632599276e-14
-0.25473774,0.436179109250703,2.802930018421761e-14
-0.25472211,0.4363381868331785,3.070698950138851e-14
-0.25470648,0.4361791092507033,3.360544834267936e-14
-0.25469085,0.4360995704594653,3.674005017565395e-14
-0.25467522,0.4360995704594653,4.012704585555213e-14
-0.25465959,0.4360200316682276,4.378360286055042e-14
-0.25464396,0.436179109250703,4.772784580226616e-14
-0.25462833,0.4363381868331782,5.197889823768835e-14
-0.2546127,0.4361791092507032,5.655692580848884e-14
-0.25459707,0.4362586480419408,6.148318073378596e-14
-0.25458144,0.4364177256244162,6.678004768324959e-14
-0.25456581,0.4363381868331785,7.247109105658732e-14
-0.25455018,0.4362586480419409,7.858110369668507e-14
-0.25453455,0.4363381868331785,8.51361570632404e-14
-0.25451892,0.4363381868331785,9.216365289380832e-14
-0.25450329,0.4362586480419408,9.96923763802567e-14
-0.25448766,0.4363381868331785,1.077525508873209e-13
-0.25447203,0.4364972644156536,1.163758942416229e-13
-0.2544564,0.4364177256244162,1.25595676618807e-13
-0.25444077,0.4364177256244162,1.354467800564809e-13
-0.25442514,0.4364177256244162,1.459657596220829e-13
-0.25440951,0.4364177256244162,1.571909062628748e-13
-0.25439388,0.4363381868331787,1.691623113675334e-13
-0.25437825,0.4364177256244159,1.819219330677326e-13
-0.25436262,0.4362586480419408,1.955136643080852e-13
-0.25434699,0.4364177256244162,2.099834027147261e-13
-0.25433136,0.4364177256244162,2.253791222900793e-13
-0.25431573,0.4363381868331787,2.417509469644283e-13
-0.2543001,0.4362586480419409,2.591512260333353e-13
-0.25428447,0.4363381868331785,2.776346115098674e-13
-0.25426884,0.4363381868331785,2.972581374231249e-13
-0.25425321,0.4363381868331785,3.180813010907321e-13
-0.25423758,0.4363381868331785,3.401661463973726e-13
-0.25422195,0.4364177256244164,3.635773491081874e-13
-0.25420632,0.4364972644156539,3.883823042478018e-13
-0.25419069,0.4364177256244162,4.146512155764497e-13
-0.25417506,0.4363381868331787,4.424571871915606e-13
-0.25415943,0.4365768032068912,4.718763172880072e-13
-0.2541438,0.4364972644156539,5.029877941060642e-13
-0.25412817,0.4364972644156539,5.358739940986582e-13
-0.25411254,0.4365768032068916,5.706205823503444e-13
-0.25409691,0.4364972644156541,6.073166152762867e-13
-0.25408128,0.4364972644156542,6.460546456360117e-13
-0.25406565,0.4366563419981292,6.869308298900013e-13
-0.25405002,0.4365768032068916,7.30045037934547e-13
-0.25403439,0.4366563419981294,7.755009652432384e-13
-0.25401876,0.4365768032068918,8.234062474480858e-13
-0.25400313,0.4363381868331788,8.738725773936474e-13
-0.2539875,0.4364972644156536,9.270158246927495e-13
-0.25397187,0.4363381868331785,9.829561578207991e-13
-0.25395624,0.4365768032068916,1.041818168776585e-12
-0.25394061,0.4364972644156541,1.103731000343468e-12
-0.25392498,0.4364972644156542,1.168828475985267e-12
-0.25390935,0.4366563419981294,1.237249232404928e-12
-0.25389372,0.4366563419981294,1.309136854804897e-12
-0.25387809,0.4367358807893671,1.384640014876299e-12
-0.25386246,0.4366563419981295,1.463912611551776e-12
-0.25384683,0.4366563419981295,1.54711391455727e-12
-0.2538312,0.4367358807893671,1.634408710789865e-12
-0.25381557,0.4366563419981294,1.725967453564005e-12
-0.25379994,0.4366563419981294,1.821966414748514e-12
-0.25378431,0.4366563419981294,1.92258783983614e-12
-0.25376868,0.4365768032068916,2.028020105976096e-12
-0.25375305,0.4365768032068916,2.138457882999062e-12
-0.25373742,0.4366563419981294,2.254102297478618e-12
-0.25372179,0.4366563419981294,2.375161099849267e-12
-0.25370616,0.4365768032068918,2.501848834625361e-12
-0.25369053,0.4365768032068916,2.63438701375101e-12
-0.2536749,0.4365768032068916,2.773004293109777e-12
-0.25365927,0.4365768032068916,2.917936652241174e-12
-0.25364364,0.4367358807893671,3.069427577280999e-12
-0.25362801,0.4367358807893671,3.22772824717289e-12
-0.25361238,0.4365768032068918,3.39309772318055e-12
-0.25359675,0.4366563419981294,3.565803141728524e-12
-0.25358112,0.4365768032068916,3.746119910622101e-12
-0.25356549,0.4367358807893671,3.934331908659479e-12
-0.25354986,0.4366563419981295,4.130731688687178e-12
-0.25353423,0.4366563419981296,4.335620684127242e-12
-0.2535186,0.4368154195806048,4.549309419002936e-12
-0.25350297,0.4368154195806048,4.772117721517619e-12
-0.25348734,0.4368154195806048,5.004374941195214e-12
-0.25347171,0.4367358807893673,5.246420169637381e-12
-0.25345608,0.4367358807893673,5.49860246492487e-12
-0.25344045,0.4368154195806048,5.761281079688093e-12
-0.25342482,0.4367358807893671,6.034825692906573e-12
-0.25340919,0.4367358807893671,6.319616645439814e-12
-0.25339356,0.4366563419981295,6.616045179349658e-12
-0.25337793,0.4368949583718424,6.924513681040105e-12
-0.2533623,0.4368154195806048,7.245435928237689e-12
-0.25334667,0.4367358807893671,7.57923734087782e-12
-0.25333104,0.4367358807893671,7.926355235891968e-12
-0.25331541,0.4368949583718423,8.287239085965964e-12
-0.25329978,0.4367358807893671,8.662350782280286e-12
-0.25328415,0.4367358807893671,9.052164901275149e-12
-0.25326852,0.4367358807893671,9.457168975490417e-12
-0.25325289,0.4368154195806047,9.877863768479932e-12
-0.25323726,0.4368154195806048,1.031476355387388e-11
-0.25322163,0.4367358807893673,1.076839639859556e-11
-0.253206,0.4368154195806048,1.123930445027726e-11
-0.25319037,0.4367358807893671,1.172804422892829e-11
-0.25317474,0.4369744971630798,1.22351869228477e-11
-0.25315911,0.4368154195806047,1.2761318688865e-11
-0.25314348,0.4367358807893671,1.330704095689616e-11
-0.25312785,0.4367358807893671,1.387297073890204e-11
-0.25311222,0.4367358807893671,1.445974094223836e-11
-0.25309659,0.4368154195806047,1.506800068744869e-11
-0.25308096,0.436815419580605,1.569841563055334e-11
-0.25306533,0.4368949583718423,1.635166828982468e-11
-0.2530497,0.4367358807893671,1.702845837714535e-11
-0.25303407,0.4368949583718426,1.772950313392843e-11
-0.25301844,0.436815419580605,1.845553767165507e-11
-0.25300281,0.4368949583718424,1.920731531708531e-11
-0.25298718,0.4368154195806048,1.99856079621244e-11
-0.25297155,0.4368154195806048,2.079120641845246e-11
-0.25295592,0.4368949583718426,2.162492077688606e-11
-0.25294029,0.4366563419981298,2.248758077153093e-11
-0.25292466,0.4368949583718427,2.338003614878542e-11
-0.25290903,0.4369744971630803,2.430315704116515e-11
-0.2528934,0.437054035954318,2.525783434608271e-11
-0.25287777,0.4369744971630803,2.624498010950157e-11
-0.25286214,0.4368949583718427,2.726552791458904e-11
-0.25284651,0.4368949583718421,2.832043327537125e-11
-0.25283088,0.4366563419981294,2.941067403538534e-11
-0.25281525,0.4365768032068916,3.053725077146814e-11
-0.25279962,0.4369744971630803,3.170118720258161e-11
-0.25278399,0.4369744971630803,3.290353060381541e-11
-0.25276836,0.4369744971630805,3.414535222556407e-11
-0.25275273,0.437054035954318,3.542774771786663e-11
-0.2527371,0.4368154195806048,3.675183756006646e-11
-0.25272147,0.4368154195806048,3.811876749566728e-11
-0.25270584,0.4368949583718424,3.952970897254465e-11
-0.25269021,0.4368154195806053,4.098585958850336e-11
-0.25267458,0.437054035954318,4.248844354216024e-11
-0.25265895,0.4368154195806048,4.403871208933143e-11
-0.25264332,0.4368154195806048,4.563794400477229e-11
-0.25262769,0.4367358807893673,4.728744604945082e-11
-0.25261206,0.4369744971630798,4.898855344333665e-11
-0.25259643,0.4367358807893671,5.074263034367631e-11
-0.2525808,0.4368949583718426,5.255107032895731e-11
-0.25256517,0.4369744971630803,5.441529688837825e-11
-0.25254954,0.4368949583718427,5.633676391702952e-11
-0.25253391,0.4369744971630803,5.831695621675823e-11
-0.25251828,0.4369744971630803,6.035739000267705e-11
-0.25250265,0.4368949583718426,6.245961341554677e-11
-0.25248702,0.4369744971630803,6.462520703981443e-11
-0.25247139,0.4369744971630803,6.685578442753847e-11
-0.25245576,0.4369744971630803,6.915299262816534e-11
-0.25244013,0.4369744971630803,7.151851272410372e-11
-0.2524245,0.4369744971630803,7.395406037235889e-11
-0.25240887,0.4368949583718427,7.646138635196213e-11
-0.25239324,0.4371335747455553,7.904227711749157e-11
-0.25237761,0.4368949583718428,8.169855535854001e-11
-0.25236198,0.437054035954318,8.44320805652231e-11
-0.25234635,0.4369744971630803,8.724474959986473e-11
-0.25233072,0.4370540359543179,9.013849727464489e-11
-0.25231509,0.4371335747455556,9.311529693551342e-11
-0.25229946,0.4371335747455558,9.617716105220348e-11
-0.25228383,0.4371335747455558,9.932614181444561e-11
-0.2522682,0.4371335747455558,1.025643317345359e-10
-0.25225257,0.4371335747455558,1.05893864256004e-10
-0.25223694,0.4371335747455556,1.093169143687396e-10
-0.25222131,0.437054035954318,1.1283569923029e-10
-0.25220568,0.437054035954318,1.164524787937069e-10
-0.25219005,0.437054035954318,1.201695564416698e-10
-0.25217442,0.4372131135367932,1.23989279627032e-10
-0.25215879,0.4371335747455558,1.279140405199295e-10
-0.25214316,0.4371335747455558,1.319462766612063e-10
-0.25212753,0.4371335747455558,1.360884716225733e-10
-0.2521119,0.4369744971630803,1.40343155673181e-10
-0.25209627,0.4370540359543179,1.447129064527697e-10
-0.25208064,0.4370540359543182,1.49200349651552e-10
-0.25206501,0.4371335747455556,1.538081596965411e-10
-0.25204938,0.437054035954318,1.585390604447964e-10
-0.25203375,0.437054035954318,1.633958258832156e-10
-0.25201812,0.4371335747455556,1.683812808350564e-10
-0.25200249,0.4370540359543182,1.73498301673358e-10
-0.25198686,0.4371335747455558,1.78749817040923e-10
-0.25197123,0.437054035954318,1.841388085774583e-10
-0.2519556,0.437054035954318,1.896683116532439e-10
-0.25193997,0.4372131135367932,1.953414161098755e-10
-0.25192434,0.4370540359543182,2.011612670079268e-10
-0.25190871,0.4371335747455558,2.071310653813469e-10
-0.25189308,0.4371335747455558,2.132540689991983e-10
-0.25187745,0.437054035954318,2.195335931340271e-10
-0.25186182,0.437054035954318,2.259730113374758e-10
-0.25184619,0.4371335747455559,2.32575756222964e-10
-0.25183056,0.4372131135367934,2.393453202552182e-10
-0.25181493,0.4372131135367934,2.462852565473383e-10
-0.2517993,0.4371335747455558,2.533991796645863e-10
-0.25178367,0.4372131135367933,2.606907664355914e-10
-0.25176804,0.4374517299105062,2.681637567707633e-10
-0.25175241,0.4372131135367934,2.75821954487666e-10
-0.25173678,0.4372926523280312,2.836692281441213e-10
-0.25172115,0.4373721911192689,2.917095118781213e-10
-0.25170552,0.4372926523280313,2.999468062553245e-10
-0.25168989,0.4372926523280313,3.083851791239021e-10
-0.25167426,0.4373721911192689,3.170287664764447e-10
-0.25165863,0.4373721911192689,3.258817733197976e-10
-0.251643,0.4373721911192689,3.349484745517781e-10
-0.25162737,0.4374517299105065,3.442332158456477e-10
-0.25161174,0.4375312687017445,3.537404145420695e-10
-0.25159611,0.4376108074929821,3.634745605482177e-10
-0.25158048,0.4372926523280312,3.734402172450207e-10
-0.25156485,0.4372926523280312,3.836420224013459e-10
-0.25154922,0.4373721911192687,3.940846890961113e-10
-0.25153359,0.4373721911192689,4.047730066480107e-10
-0.25151796,0.4373721911192689,4.157118415524825e-10
-0.25150233,0.4374517299105066,4.269061384270087e-10
-0.2514867,0.4375312687017442,4.383609209633929e-10
-0.25147107,0.4374517299105068,4.500812928882559e-10
-0.25145544,0.4375312687017444,4.620724389309613e-10
-0.25143981,0.4375312687017444,4.743396257992781e-10
-0.25142418,0.4375312687017444,4.868882031632695e-10
-0.25140855,0.4375312687017444,4.997236046463204e-10
-0.25139292,0.4375312687017444,5.128513488245485e-10
-0.25137729,0.4374517299105065,5.262770402337318e-10
-0.25136166,0.4373721911192689,5.400063703840871e-10
-0.25134603,0.4375312687017444,5.540451187834537e-10
-0.2513304,0.4373721911192692,5.683991539676507e-10
-0.25131477,0.4373721911192693,5.830744345394592e-10
-0.25129914,0.4376108074929818,5.980770102148704e-10
-0.25128351,0.4374517299105066,6.134130228781134e-10
-0.25126788,0.4375312687017444,6.290887076441772e-10
-0.25125225,0.4375312687017444,6.451103939293469e-10
-0.25123662,0.4376903462842195,6.614845065302309e-10
-0.25122099,0.4375312687017444,6.782175667101407e-10
-0.25120536,0.4375312687017444,6.953161932944515e-10
-0.25118973,0.4374517299105066,7.127871037735087e-10
-0.2511741,0.4375312687017442,7.306371154136536e-10
-0.25115847,0.4375312687017444,7.488731463769019e-10
-0.25114284,0.4375312687017445,7.67502216847994e-10
-0.25112721,0.4376108074929821,7.865314501706388e-10
-0.25111158,0.4375312687017444,8.059680739913368e-10
-0.25109595,0.4376903462842195,8.258194214114299e-10
-0.25108032,0.4375312687017441,8.460929321479576e-10
-0.25106469,0.4373721911192689,8.66796153701862e-10
-0.25104906,0.4375312687017444,8.879367425358243e-10
-0.25103343,0.4376108074929821,9.095224652591358e-10
-0.2510178,0.4375312687017445,9.31561199821659e-10
-0.25100217,0.4376108074929821,9.540609367161771e-10
-0.25098654,0.4376108074929821,9.770297801883177e-10
-0.25097091,0.4373721911192689,1.00047594945631e-09
-0.25095528,0.4374517299105066,1.024407779937729e-09
-0.25093965,0.4373721911192691,1.04883372448551e-09
-0.25092402,0.4375312687017442,1.073762354632437e-09
-0.25090839,0.4374517299105066,1.099202361843226e-09
-0.25089276,0.4374517299105066,1.125162558776668e-09
-0.25087713,0.4375312687017444,1.151651880554707e-09
-0.2508615,0.4376108074929819,1.178679386040965e-09
-0.25084587,0.4376108074929821,1.206254259127828e-09
-0.25083024,0.4376108074929821,1.234385810031113e-09
-0.25081461,0.4376903462842198,1.263083476595063e-09
-0.25079898,0.4376903462842198,1.29235682560418e-09
-0.25078335,0.4376108074929823,1.322215554104688e-09
-0.25076772,0.4376903462842197,1.35266949073465e-09
-0.25075209,0.4376108074929821,1.383728597061629e-09
-0.25073646,0.4375312687017444,1.415402968930954e-09
-0.25072083,0.4376108074929821,1.447702837820715e-09
-0.2507052,0.4376108074929821,1.480638572206565e-09
-0.25068957,0.4375312687017448,1.514220678935265e-09
-0.25067394,0.4377698850754576,1.548459804605733e-09
-0.25065831,0.4376108074929821,1.583366736960967e-09
-0.25064268,0.4376903462842198,1.618952406286577e-09
-0.25062705,0.4375312687017446,1.655227886819307e-09
-0.25061142,0.4377698850754576,1.692204398164379e-09
-0.25059579,0.4377698850754576,1.729893306720282e-09
-0.25058016,0.4377698850754576,1.768306127114726e-09
-0.25056453,0.4376108074929824,1.807454523646977e-09
-0.2505489,0.4376903462842197,1.847350311740816e-09
-0.25053327,0.43769034628422,1.888005459405301e-09
-0.25051764,0.4377698850754576,1.929432088704344e-09
-0.25050201,0.4377698850754576,1.971642477236674e-09
-0.25048638,0.43769034628422,2.014649059622439e-09
-0.25047075,0.4377698850754574,2.058464429000581e-09
-0.25045512,0.4377698850754576,2.103101338533992e-09
-0.25043949,0.4377698850754576,2.148572702923525e-09
-0.25042386,0.4377698850754576,2.194891599932608e-09
-0.25040823,0.4377698850754576,2.242071271918317e-09
-0.2503926,0.4376108074929821,2.290125127373665e-09
-0.25037697,0.4376108074929823,2.339066742476525e-09
