Task5_40Hz_500mV_45.csv

#Digilent WaveForms Oscilloscope Acquisition
#Device Name: Discovery3
#Serial Number: SN:210415BD63A1
#Date Time: 2026-09-24 11:22:10.897.373.460
#Sample rate: 32000Hz
#Samples: 32000
#Trigger: Source: Channel 1 Type: Edge Condition: Rising Level: 0 V Hyst.: Auto HoldOff: 0 s
#Channel 1: Range: 500 mV/div Offset: 0 V Sample Mode: Average
#Math 1: Input: C1 Reference: Internal Frequency: 40 Hz Phase: 90 ° Filter: IIR Butterworth 8  Low-Pass CutOff: 5 Hz Output: Amplitude

#Wavegen Channel 1: Running
#Mode: Simple
#Type: Sine
#Frequency: 40 Hz
#Period: 25 ms
#Amplitude: 500 mV
#Offset: 0 V
#Symmetry: 50 %
#Phase: 0 °

Time (s),Channel 1 (V),Math 1 (V)
-0.5,0.4199531958382068,1.408630155166776e-27
-0.49996875,0.4198736570469691,2.393958313763785e-26
-0.4999375,0.4197941182557314,2.041232911546693e-25
-0.49990625,0.4199531958382068,1.172230749515232e-24
-0.499875,0.4199531958382068,5.13302140173307e-24
-0.49984375,0.4198736570469691,1.838206752323897e-23
-0.4998125,0.4199531958382068,5.633362174523013e-23
-0.49978125,0.4198736570469691,1.524896858910338e-22
-0.49975,0.4198736570469691,3.731331633800709e-22
-0.49971875,0.4199531958382068,8.39879304068776e-22
-0.4996875,0.4198736570469691,1.762569083810512e-21
-0.49965625,0.4198736570469691,3.485335711116202e-21
-0.499625,0.4198736570469691,6.549021120327152e-21
-0.49959375,0.4198736570469691,1.177346308451575e-20
-0.4995625,0.4197145794644937,2.036351545048923e-20
-0.49953125,0.4197941182557314,3.404300395758256e-20
-0.4995,0.4198736570469691,5.522115815263886e-20
-0.49946875,0.4198736570469691,8.719639605669464e-20
-0.4994375,0.4197941182557314,1.344026724717016e-19
-0.49940625,0.4197941182557314,2.027039341367686e-19
-0.499375,0.4197145794644937,2.997425553542343e-19
-0.49934375,0.4197941182557314,4.353479562024399e-19
-0.4993125,0.4197941182557314,6.220119320219563e-19
-0.49928125,0.4197145794644937,8.754375474934455e-19
-0.49925,0.4194759630907805,1.215168771314544e-18
-0.49921875,0.4195555018820182,1.665308348229385e-18
-0.4991875,0.419635040673256,2.255331723962401e-18
-0.49915625,0.4197145794644937,3.021005155446846e-18
-0.499125,0.4197145794644937,4.005416453602798e-18
-0.49909375,0.4197145794644937,5.260127118798762e-18
-0.4990625,0.4195555018820182,6.846454940035438e-18
-0.49903125,0.4195555018820182,8.836896437842687e-18
-0.499,0.4194759630907805,1.131669883789195e-17
-0.49896875,0.4194759630907805,1.438559156738932e-17
-0.4989375,0.4123970106706228,1.815968756942371e-17
-0.49890625,0.4123970106706228,2.277356503159887e-17
-0.498875,0.4124765494618606,2.838254042446669e-17
-0.49884375,0.4123970106706228,3.51651440424806e-17
-0.4988125,0.4123970106706228,4.332580953539047e-17
-0.49878125,0.4123174718793851,5.30977892112054e-17
-0.49875,0.4121583942969096,6.474630718306076e-17
-0.49871875,0.4122379330881474,7.857196272153605e-17
-0.4986875,0.4121583942969096,9.49143964611759e-17
-0.49865625,0.4121583942969096,1.141562323951822e-16
-0.498625,0.4121583942969096,1.36727308875474e-16
-0.49859375,0.4122379330881474,1.631092121165529e-16
-0.4985625,0.4121583942969096,1.938401259808479e-16
-0.49853125,0.4121583942969096,2.295200121004239e-16
-0.4985,0.4121583942969096,2.708161346651374e-16
-0.49846875,0.4121583942969096,3.184689444805018e-16
-0.4984375,0.412078855505672,3.732983371697102e-16
-0.49840625,0.4121583942969096,4.362103006634358e-16
-0.498375,0.412078855505672,5.082039673881969e-16
-0.49834375,0.4121583942969096,5.903790868292237e-16
-0.4983125,0.4121583942969096,6.83943934406899e-16
-0.49828125,0.412078855505672,7.902236728669822e-16
-0.49825,0.4119993167144342,9.106691826439527e-16
-0.49821875,0.4119993167144342,1.046866377913953e-15
-0.4981875,0.412078855505672,1.200546025308916e-15
-0.49815625,0.4119993167144342,1.373594082516573e-15
-0.498125,0.4119993167144342,1.568062574242112e-15
-0.49809375,0.4119197779231965,1.786181023256277e-15
-0.4980625,0.4119197779231965,2.030368454501704e-15
-0.49803125,0.4119197779231965,2.303245990474181e-15
-0.498,0.4118402391319588,2.607650056338394e-15
-0.49796875,0.411760700340721,2.946646213478515e-15
-0.4979375,0.4116811615494833,3.323543640422769e-15
-0.49790625,0.411760700340721,3.741910280317791e-15
-0.497875,0.411760700340721,4.205588674363306e-15
-0.49784375,0.4116811615494833,4.718712500850242e-15
-0.4978125,0.4116811615494833,5.285723839676072e-15
-0.49778125,0.411760700340721,5.911391182439623e-15
-0.49775,0.4116811615494833,6.600828208444231e-15
-0.49771875,0.4116016227582456,7.359513347162482e-15
-0.4976875,0.4116811615494833,8.193310147938315e-15
-0.49765625,0.411760700340721,9.10848847792257e-15
-0.497625,0.411760700340721,1.011174656945643e-14
-0.49759375,0.4116016227582456,1.121023393833345e-14
-0.4975625,0.4116016227582456,1.241157519458502e-14
-0.49753125,0.4116016227582456,1.372389476764637e-14
-0.4975,0.4113630063845324,1.515584256797009e-14
-0.49746875,0.4115220839670078,1.671662060736235e-14
-0.4974375,0.4115220839670078,1.841601060052263e-14
-0.49740625,0.4116016227582456,2.026440257047192e-14
-0.497375,0.4116016227582456,2.227282448075562e-14
-0.49734375,0.4116016227582456,2.445297291750751e-14
-0.4973125,0.4116016227582456,2.681724484465831e-14
-0.49728125,0.4115220839670078,2.937877045576806e-14
-0.49725,0.4116016227582456,3.215144714615512e-14
-0.49721875,0.4116811615494833,3.514997462918559e-14
-0.4971875,0.4116016227582456,3.838989122077663e-14
-0.49715625,0.4116016227582456,4.188761131635409e-14
-0.497125,0.4115220839670078,4.566046408469012e-14
-0.49709375,0.4113630063845324,4.972673340322965e-14
-0.4970625,0.4115220839670078,5.410569905969515e-14
-0.49703125,0.4115220839670078,5.881767924493885e-14
-0.497,0.4115220839670078,6.388407436218741e-14
-0.49696875,0.4115220839670078,6.932741217799983e-14
-0.4969375,0.4115220839670078,7.517139434043083e-14
-0.49690625,0.4116016227582456,8.14409442900637e-14
-0.496875,0.4116016227582456,8.816225658974453e-14
-0.49684375,0.4116016227582456,9.536284769901604e-14
-0.4968125,0.4113630063845324,1.030716082194142e-13
-0.49678125,0.4114425451757701,1.113188566369527e-13
-0.49675,0.4114425451757701,1.201363945882809e-13
-0.49671875,0.4115220839670078,1.295575636771582e-13
-0.4966875,0.4115220839670078,1.39617303868045e-13
-0.49665625,0.4114425451757701,1.50352213483763e-13
-0.496625,0.4114425451757701,1.618006108343317e-13
-0.49659375,0.4115220839670078,1.740025975042329e-13
-0.4965625,0.4115220839670078,1.870001233255097e-13
-0.49653125,0.4115220839670078,2.008370530642444e-13
-0.4965,0.4113630063845324,2.155592348481098e-13
-0.49646875,0.4114425451757701,2.312145703628249e-13
-0.4964375,0.4115220839670078,2.47853086845487e-13
-0.49640625,0.4116016227582456,2.655270109028919e-13
-0.496375,0.4115220839670078,2.842908441830825e-13
-0.49634375,0.4116016227582456,3.042014409285074e-13
-0.4963125,0.4115220839670078,3.253180874392961e-13
-0.49628125,0.4114425451757701,3.477025834752858e-13
-0.49625,0.4115220839670078,3.714193256255686e-13
-0.49621875,0.4114425451757701,3.965353926744423e-13
-0.4961875,0.4116016227582456,4.231206329927798e-13
-0.49615625,0.4116016227582456,4.512477539839459e-13
-0.496125,0.4116811615494833,4.809924136135138e-13
-0.49609375,0.4114425451757701,5.124333140521458e-13
-0.4960625,0.4115220839670078,5.456522974611198e-13
-0.49603125,0.4114425451757701,5.807344439500939e-13
-0.496,0.4115220839670078,6.177681717368127e-13
-0.49596875,0.4116016227582456,6.568453395385663e-13
-0.4959375,0.4115220839670078,6.980613512253183e-13
-0.49590625,0.4115220839670078,7.41515262764525e-13
-0.495875,0.4115220839670078,7.873098914877691e-13
-0.49584375,0.4116016227582456,8.355519277094302e-13
-0.4958125,0.4115220839670078,8.863520487277104e-13
-0.49578125,0.4116016227582456,9.398250352384373e-13
-0.49575,0.4116016227582456,9.960898901921457e-13
-0.49571875,0.4116016227582456,1.05526996012505e-12
-0.4956875,0.4115220839670078,1.117493058994585e-12
-0.49565625,0.4116016227582456,1.182891594550304e-12
-0.495625,0.411760700340721,1.251602697270998e-12
-0.49559375,0.411760700340721,1.323768351898969e-12
-0.4955625,0.4116811615494833,1.399535531602505e-12
-0.49553125,0.4116811615494833,1.479056334797649e-12
-0.4955,0.4116016227582456,1.562488124660453e-12
-0.49546875,0.4116016227582456,1.649993671360969e-12
-0.4954375,0.4116016227582456,1.741741297050331e-12
-0.49540625,0.4115220839670078,1.837905023632291e-12
-0.495375,0.4116016227582456,1.938664723350727e-12
-0.49534375,0.411760700340721,2.044206272224627e-12
-0.4953125,0.4116016227582456,2.15472170636217e-12
-0.49528125,0.4116811615494833,2.270409381185568e-12
-0.49525,0.4116811615494833,2.391474133598388e-12
-0.49521875,0.4116811615494833,2.518127447127157e-12
-0.4951875,0.411760700340721,2.650587620069073e-12
-0.49515625,0.411760700340721,2.789079936677729e-12
-0.495125,0.411760700340721,2.933836841418804e-12
-0.49509375,0.4118402391319588,3.085098116327714e-12
-0.4950625,0.411760700340721,3.243111061501273e-12
-0.49503125,0.411760700340721,3.408130678755458e-12
-0.495,0.411760700340721,3.580419858481428e-12
-0.49496875,0.4118402391319588,3.760249569731971e-12
-0.4949375,0.411760700340721,3.947899053570595e-12
-0.49490625,0.411760700340721,4.143656019715541e-12
-0.494875,0.4119197779231965,4.347816846511004e-12
-0.49484375,0.411760700340721,4.560686784257902e-12
-0.4948125,0.4118402391319588,4.782580161936548e-12
-0.49478125,0.4116811615494833,5.013820597353633e-12
-0.49475,0.4116016227582456,5.254741210745921e-12
-0.49471875,0.411760700340721,5.505684841873152e-12
-0.4946875,0.4118402391319588,5.767004270632566e-12
-0.49465625,0.4118402391319588,6.039062441227604e-12
-0.494625,0.4116811615494833,6.322232689923255e-12
-0.49459375,0.4116811615494833,6.616898976420623e-12
-0.4945625,0.411760700340721,6.923456118883248e-12
-0.49453125,0.4118402391319588,7.242310032647746e-12
-0.4945,0.411760700340721,7.573877972651371e-12
-0.49446875,0.4118402391319588,7.918588779609053e-12
-0.4944375,0.411760700340721,8.276883129972542e-12
-0.49440625,0.4118402391319588,8.649213789704268e-12
-0.494375,0.4118402391319588,9.036045871898491e-12
-0.49434375,0.411760700340721,9.437857098282402e-12
-0.4943125,0.4118402391319588,9.855138064629757e-12
-0.49428125,0.411760700340721,1.028839251011968e-11
-0.49425,0.4118402391319588,1.073813759067323e-11
-0.49421875,0.411760700340721,1.120490415630033e-11
-0.4941875,0.411760700340721,1.168923703248974e-11
-0.49415625,0.4119197779231965,1.21916953056745e-11
-0.494125,0.4119197779231965,1.271285261280558e-11
-0.49409375,0.4119993167144342,1.32532974350663e-11
-0.4940625,0.4119197779231965,1.381363339575988e-11
-0.49403125,0.4118402391319588,1.439447956240297e-11
-0.494,0.4119197779231965,1.499647075305736e-11
-0.49396875,0.4118402391319588,1.562025784693262e-11
-0.4939375,0.4118402391319588,1.626650809929203e-11
-0.49390625,0.4119197779231965,1.69359054606942e-11
-0.493875,0.4119993167144342,1.762915090060298e-11
-0.49384375,0.4119197779231965,1.834696273539788e-11
-0.4938125,0.4119993167144342,1.909007696081749e-11
-0.49378125,0.4118402391319588,1.985924758886818e-11
-0.49375,0.4119993167144342,2.065524698923043e-11
-0.49371875,0.411760700340721,2.147886623519499e-11
-0.4936875,0.4119993167144342,2.233091545416121e-11
-0.49365625,0.412078855505672,2.32122241827296e-11
-0.493625,0.4119993167144342,2.412364172642095e-11
-0.49359375,0.4119197779231965,2.506603752405391e-11
-0.4935625,0.412078855505672,2.604030151681331e-11
-0.49353125,0.4119197779231965,2.704734452204108e-11
-0.4935,0.4119197779231965,2.808809861178184e-11
-0.49346875,0.4119993167144342,2.916351749611505e-11
-0.4934375,0.4119993167144342,3.027457691130555e-11
-0.49340625,0.4119993167144342,3.142227501280445e-11
-0.493375,0.4119993167144342,3.260763277313191e-11
-0.49334375,0.4119993167144342,3.383169438467376e-11
-0.4933125,0.4119993167144342,3.50955276674235e-11
-0.49328125,0.4119993167144342,3.640022448170111e-11
-0.49325,0.412078855505672,3.774690114588056e-11
-0.49321875,0.412078855505672,3.913669885915713e-11
-0.4931875,0.412078855505672,4.057078412938615e-11
-0.49315625,0.4121583942969096,4.205034920602436e-11
-0.493125,0.4123174718793851,4.357661251820531e-11
-0.49309375,0.4122379330881474,4.515081911797976e-11
-0.4930625,0.412078855505672,4.677424112875247e-11
-0.49303125,0.4121583942969096,4.844817819894611e-11
-0.493,0.4122379330881474,5.017395796092363e-11
-0.49296875,0.4122379330881474,5.195293649519953e-11
-0.4929375,0.4121583942969096,5.378649879997134e-11
-0.49290625,0.4121583942969096,5.567605926600158e-11
-0.492875,0.4122379330881474,5.762306215688108e-11
-0.49284375,0.4122379330881474,5.962898209470435e-11
-0.4928125,0.412078855505672,6.169532455118701e-11
-0.49278125,0.4121583942969096,6.382362634425625e-11
-0.49275,0.4121583942969096,6.601545614014409e-11
-0.49271875,0.4123174718793851,6.827241496101418e-11
-0.4926875,0.4122379330881474,7.059613669815153e-11
-0.49265625,0.4121583942969096,7.298828863074607e-11
-0.492625,0.4121583942969096,7.545057195029918e-11
-0.49259375,0.4121583942969096,7.798472229068339e-11
-0.4925625,0.4121583942969096,8.059251026388507e-11
-0.49253125,0.4122379330881474,8.327574200145949e-11
-0.4925,0.4122379330881474,8.603625970172774e-11
-0.49246875,0.4121583942969096,8.887594218274527e-11
-0.4924375,0.4122379330881474,9.179670544107099e-11
-0.49240625,0.4123174718793851,9.480050321636634e-11
-0.492375,0.4123970106706228,9.788932756185324e-11
-0.49234375,0.4123174718793851,1.010652094206602e-10
-0.4923125,0.4121583942969096,1.043302192080853e-10
-0.49228125,0.4121583942969096,1.076864673998045e-10
-0.49225,0.4121583942969096,1.111361051260543e-10
-0.49221875,0.4123174718793851,1.146813247718178e-10
-0.4921875,0.4122379330881474,1.183243605830407e-10
-0.49215625,0.4121583942969096,1.220674892789081e-10
-0.492125,0.4123174718793851,1.259130306702076e-10
-0.49209375,0.4123174718793851,1.298633482838094e-10
-0.4920625,0.4122379330881474,1.339208499932893e-10
-0.49203125,0.4122379330881474,1.380879886557228e-10
-0.492,0.4122379330881474,1.423672627546785e-10
-0.49196875,0.4123174718793851,1.467612170494389e-10
-0.4919375,0.4123174718793851,1.512724432304737e-10
-0.49190625,0.4123970106706228,1.559035805811953e-10
-0.491875,0.4123174718793851,1.606573166460227e-10
-0.49184375,0.4123174718793851,1.655363879047804e-10
-0.4918125,0.4123970106706228,1.705435804534599e-10
-0.49178125,0.4123970106706228,1.756817306913698e-10
-0.49175,0.4123970106706228,1.809537260147021e-10
-0.49171875,0.4122379330881474,1.863625055165398e-10
-0.4916875,0.4123174718793851,1.919110606933337e-10
-0.49165625,0.4123970106706228,1.976024361578725e-10
-0.491625,0.4123970106706228,2.03439730358775e-10
-0.49159375,0.4123174718793851,2.094260963065274e-10
-0.4915625,0.4121583942969096,2.155647423060933e-10
-0.49153125,0.4121583942969096,2.218589326961214e-10
-0.4915,0.4123970106706228,2.283119885947762e-10
-0.49146875,0.4123174718793851,2.349272886522171e-10
-0.4914375,0.4123174718793851,2.417082698097514e-10
-0.49140625,0.4123174718793851,2.486584280656855e-10
-0.491375,0.4121583942969096,2.557813192478991e-10
-0.49134375,0.4121583942969096,2.630805597931683e-10
-0.4913125,0.4123174718793851,2.705598275332602e-10
-0.49128125,0.4122379330881474,2.78222862487825e-10
-0.49125,0.4123970106706228,2.860734676641089e-10
-0.49121875,0.4123174718793851,2.941155098635119e-10
-0.4911875,0.4122379330881474,3.023529204950147e-10
-0.49115625,0.4123174718793851,3.107896963954978e-10
-0.491125,0.4123174718793851,3.194299006569771e-10
-0.49109375,0.4123970106706228,3.282776634607788e-10
-0.4910625,0.4124765494618606,3.373371829186768e-10
-0.49103125,0.4123970106706228,3.466127259210159e-10
-0.491,0.4123970106706228,3.561086289918437e-10
-0.49096875,0.4123174718793851,3.658292991510728e-10
-0.4909375,0.4123174718793851,3.757792147836979e-10
-0.49090625,0.4123174718793851,3.859629265160881e-10
-0.490875,0.4123174718793851,3.963850580993774e-10
-0.49084375,0.4123970106706228,4.070503072999761e-10
-0.4908125,0.4123174718793851,4.179634467972229e-10
-0.49078125,0.4123970106706228,4.291293250882011e-10
-0.49075,0.4123174718793851,4.40552867399741e-10
-0.49071875,0.4123174718793851,4.522390766076262e-10
-0.4906875,0.4121583942969096,4.64193034163029e-10
-0.49065625,0.4122379330881474,4.764199010261938e-10
-0.490625,0.4121583942969096,4.889249186073886e-10
-0.49059375,0.4123174718793851,5.017134097151466e-10
-0.4905625,0.4122379330881474,5.147907795118181e-10
-0.49053125,0.4123174718793851,5.281625164764504e-10
-0.4905,0.4122379330881474,5.418341933750204e-10
-0.49046875,0.4122379330881474,5.558114682380344e-10
-0.4904375,0.4122379330881474,5.701000853455181e-10
-0.49040625,0.4121583942969096,5.847058762194157e-10
-0.490375,0.4121583942969096,5.996347606234163e-10
-0.49034375,0.4122379330881474,6.148927475702264e-10
-0.4903125,0.4121583942969096,6.304859363363097e-10
-0.49028125,0.4121583942969096,6.464205174841095e-10
-0.49025,0.4121583942969096,6.627027738917745e-10
-0.49021875,0.4122379330881474,6.793390817904064e-10
-0.4901875,0.4122379330881474,6.963359118088433e-10
-0.49015625,0.4121583942969096,7.136998300260038e-10
-0.490125,0.4121583942969096,7.314374990308021e-10
-0.49009375,0.4121583942969096,7.495556789896559e-10
-0.4900625,0.412078855505672,7.680612287216047e-10
-0.49003125,0.412078855505672,7.869611067810518e-10
-0.49,0.4119993167144342,8.062623725481493e-10
-0.48996875,0.4119993167144342,8.259721873268435e-10
-0.4899375,0.412078855505672,8.460978154505956e-10
-0.48990625,0.412078855505672,8.666466253957935e-10
-0.489875,0.4119197779231965,8.876260909028721e-10
-0.48984375,0.4119993167144342,9.090437921051568e-10
-0.4898125,0.4119993167144342,9.309074166654474e-10
-0.48978125,0.4119993167144342,9.532247609203537e-10
-0.48975,0.4119993167144342,9.760037310324039e-10
-0.48971875,0.4119993167144342,9.992523441499342e-10
-0.4896875,0.4119993167144342,1.022978729574782e-09
-0.48965625,0.4119197779231965,1.047191129937789e-09
-0.489625,0.4119197779231965,1.07189790238213e-09
-0.48959375,0.4119197779231965,1.097107519754493e-09
-0.4895625,0.4119197779231965,1.122828571804108e-09
-0.48953125,0.4119993167144342,1.149069766389641e-09
-0.4895,0.4119197779231965,1.175839930693985e-09
-0.48946875,0.4118402391319588,1.20314801244693e-09
-0.4894375,0.4118402391319588,1.23100308115576e-09
-0.48940625,0.4116811615494833,1.259414329343753e-09
-0.489375,0.4116811615494833,1.288391073796631e-09
-0.48934375,0.4118402391319588,1.317942756816948e-09
-0.4893125,0.411760700340721,1.348078947486438e-09
-0.48928125,0.411760700340721,1.378809342936337e-09
-0.48925,0.4116811615494833,1.410143769625683e-09
-0.48921875,0.4116811615494833,1.442092184627611e-09
-0.4891875,0.4116811615494833,1.474664676923656e-09
-0.48915625,0.4116811615494833,1.507871468706063e-09
-0.489125,0.4116811615494833,1.541722916688136e-09
-0.48909375,0.4116811615494833,1.57622951342261e-09
-0.4890625,0.4116811615494833,1.611401888628085e-09
-0.48903125,0.411760700340721,1.647250810523504e-09
-0.489,0.4116811615494833,1.683787187170706e-09
-0.48896875,0.411760700340721,1.721022067825054e-09
-0.4889375,0.411760700340721,1.758966644294145e-09
-0.48890625,0.4116811615494833,1.797632252304625e-09
-0.488875,0.4116016227582456,1.837030372877096e-09
-0.48884375,0.411760700340721,1.877172633709145e-09
-0.4888125,0.4116811615494833,1.918070810566488e-09
-0.48878125,0.4116811615494833,1.959736828682249e-09
-0.48875,0.4116016227582456,2.002182764164373e-09
-0.48871875,0.4115220839670078,2.045420845411181e-09
-0.4886875,0.4116016227582456,2.089463454535085e-09
-0.48865625,0.4114425451757701,2.134323128794459e-09
-0.488625,0.4115220839670078,2.180012562033676e-09
-0.48859375,0.4114425451757701,2.226544606131316e-09
-0.4885625,0.4113630063845324,2.273932272456566e-09
-0.48853125,0.4114425451757701,2.322188733333789e-09
-0.4885,0.4113630063845324,2.371327323515302e-09
-0.48846875,0.411203928802057,2.42136154166234e-09
-0.4884375,0.411203928802057,2.472305051834237e-09
-0.48840625,0.4111243900108192,2.524171684985799e-09
-0.488375,0.4109653124283438,2.576975440472912e-09
