Task5_45-10.csv

#Digilent WaveForms Oscilloscope Acquisition
#Device Name: Discovery3
#Serial Number: SN:210415BD63A1
#Date Time: 2026-09-24 10:58:10.112.187.580
#Sample rate: 32000Hz
#Samples: 32000
#Trigger: Source: Channel 1 Type: Edge Condition: Rising Level: 0 V Hyst.: Auto HoldOff: 0 s
#Channel 1: Range: 500 mV/div Offset: 0 V Sample Mode: Average
#Math 1: Input: C1 Reference: Internal Frequency: 20 Hz Phase: 90 ° Filter: IIR Butterworth 8  Low-Pass CutOff: 10 Hz Output: Amplitude

#Wavegen Channel 1: Running
#Mode: Simple
#Type: Sine
#Frequency: 20 Hz
#Period: 50 ms
#Amplitude: 200 mV
#Offset: 0 V
#Symmetry: 50 %
#Phase: 0 °

Time (s),Channel 1 (V),Math 1 (V)
-0.5,0.4889928666325533,4.195309005663102e-25
-0.49996875,0.4891519442150287,7.127868172744598e-24
-0.4999375,0.489072405423791,6.075703345722721e-23
-0.49990625,0.489072405423791,3.487895784231999e-22
-0.499875,0.4889928666325533,1.526709930137378e-21
-0.49984375,0.4889928666325533,5.465112746642225e-21
-0.4998125,0.4891519442150287,1.674108997695794e-20
-0.49978125,0.4891519442150287,4.529596062950428e-20
-0.49975,0.489072405423791,1.107844946428136e-19
-0.49971875,0.4889133278413155,2.492427969696445e-19
-0.4996875,0.4889928666325533,5.228029712875141e-19
-0.49965625,0.4889928666325533,1.033282587114353e-18
-0.499625,0.489072405423791,1.940575837421469e-18
-0.49959375,0.4891519442150287,3.486871099226674e-18
-0.4995625,0.489072405423791,6.02781640038787e-18
-0.49953125,0.489072405423791,1.007185005756373e-17
-0.4995,0.4889928666325533,1.632900848890966e-17
-0.49946875,0.489072405423791,2.577061692444708e-17
-0.4994375,0.4889928666325533,3.970136143945452e-17
-0.49940625,0.489072405423791,5.9845332423828e-17
-0.499375,0.4891519442150287,8.844772027619662e-17
-0.49934375,0.4891519442150287,1.283939337793942e-16
-0.4993125,0.4891519442150287,1.833480002776204e-16
-0.49928125,0.4889928666325533,2.579121944396204e-16
-0.49925,0.489072405423791,3.578099290608113e-16
-0.49921875,0.4891519442150287,4.90094027033654e-16
-0.4991875,0.4891519442150287,6.633825783031025e-16
-0.49915625,0.4892314830062665,8.881246693289481e-16
-0.499125,0.4893110217975042,1.176898355306505e-15
-0.49909375,0.4893110217975042,1.544743327154861e-15
-0.4990625,0.4892314830062665,2.009530806069258e-15
-0.49903125,0.4892314830062665,2.592373278255731e-15
-0.499,0.4893110217975042,3.318076761329746e-15
-0.49896875,0.4892314830062665,4.215638371772557e-15
-0.4989375,0.4892314830062665,5.318792039802279e-15
-0.49890625,0.4893110217975042,6.666605294034323e-15
-0.498875,0.4892314830062665,8.304130113384131e-15
-0.49884375,0.4891519442150287,1.028311091781135e-14
-0.4988125,0.4891519442150287,1.266275284272307e-14
-0.49878125,0.4891519442150287,1.551055351414586e-14
-0.49875,0.4892314830062665,1.890320161314537e-14
-0.49871875,0.4893905605887419,2.29275455884242e-14
-0.4986875,0.4892314830062665,2.768163594556953e-14
-0.49865625,0.4893110217975042,3.327584461005588e-14
-0.498625,0.4893110217975042,3.983406492883588e-14
-0.49859375,0.4893905605887419,4.749499594217588e-14
-0.4985625,0.4893110217975042,5.641351462331959e-14
-0.49853125,0.4893905605887419,6.676213984859353e-14
-0.4985,0.4895496381712174,7.873259192470864e-14
-0.49846875,0.4894700993799797,9.253745156326344e-14
-0.4984375,0.4863680865217083,1.084119222548238e-13
-0.49840625,0.4864476253129461,1.26615700056444e-13
-0.498375,0.4863680865217083,1.47434954867119e-13
-0.49834375,0.4863680865217083,1.711844273254247e-13
-0.4983125,0.4864476253129461,1.982096455225101e-13
-0.49828125,0.4865271641041838,2.288892657816722e-13
-0.49825,0.4864476253129461,2.636375418129546e-13
-0.49821875,0.4863680865217083,3.029069266075861e-13
-0.4981875,0.4865271641041838,3.471908114926049e-13
-0.49815625,0.4866067028954215,3.970264068207065e-13
-0.498125,0.4865271641041838,4.529977688242001e-13
-0.49809375,0.4864476253129461,5.157389772149791e-13
-0.4980625,0.4863680865217083,5.859374681646106e-13
-0.49803125,0.4864476253129461,6.643375273500218e-13
-0.498,0.4864476253129461,7.517439478008342e-13
-0.49796875,0.4866067028954215,8.490258573341284e-13
-0.4979375,0.4864476253129461,9.571207204113647e-13
-0.49790625,0.4863680865217083,1.077038519300291e-12
-0.497875,0.4866067028954215,1.209866119471999e-12
-0.49784375,0.4865271641041838,1.356771824209783e-12
-0.4978125,0.4865271641041838,1.519010123452203e-12
-0.49778125,0.4866067028954215,1.697926641937675e-12
-0.49775,0.4866067028954215,1.89496329176207e-12
-0.49771875,0.4865271641041838,2.111663634504196e-12
-0.4976875,0.4865271641041838,2.349678458116604e-12
-0.49765625,0.4867657804778969,2.610771573821038e-12
-0.497625,0.4866862416866592,2.896825838288816e-12
-0.49759375,0.4866862416866592,3.209849406426778e-12
-0.4975625,0.4865271641041838,3.55198222012889e-12
-0.49753125,0.4864476253129461,3.925502738392383e-12
-0.4975,0.4864476253129461,4.332834914235261e-12
-0.49746875,0.4865271641041838,4.776555423889292e-12
-0.4974375,0.4866067028954215,5.259401153779027e-12
-0.49740625,0.4865271641041838,5.784276950833199e-12
-0.497375,0.4864476253129461,6.354263641709819e-12
-0.49734375,0.4864476253129461,6.972626326550609e-12
-0.4973125,0.4866862416866592,7.642822952913926e-12
-0.49728125,0.4866067028954215,8.368513175568242e-12
-0.49725,0.4867657804778969,9.153567507860203e-12
-0.49721875,0.4866862416866592,1.000207677040286e-11
-0.4971875,0.4865271641041838,1.091836184286014e-11
-0.49715625,0.4866067028954215,1.190698372463371e-11
-0.497125,0.4866862416866592,1.297275391028754e-11
-0.49709375,0.4863680865217083,1.412074508557416e-11
-0.4970625,0.4863680865217083,1.535630214995421e-11
-0.49703125,0.4865271641041838,1.668505357152829e-11
-0.497,0.4865271641041838,1.811292308032647e-11
-0.49696875,0.4865271641041838,1.964614170592634e-11
-0.4969375,0.4865271641041838,2.129126016539612e-11
-0.49690625,0.4864476253129461,2.305516160758295e-11
-0.496875,0.4864476253129461,2.494507471979105e-11
-0.49684375,0.4865271641041838,2.69685872029167e-11
-0.4968125,0.4865271641041838,2.913365962113004e-11
-0.49678125,0.4865271641041838,3.144863963221491e-11
-0.49675,0.4866862416866592,3.392227660469946e-11
-0.49671875,0.4866067028954215,3.656373662792996e-11
-0.4966875,0.4865271641041838,3.938261792126117e-11
-0.49665625,0.4864476253129461,4.238896664855419e-11
-0.496625,0.4864476253129461,4.559329314419281e-11
-0.49659375,0.4863680865217083,4.900658855684575e-11
-0.4965625,0.4866067028954215,5.264034191722043e-11
-0.49653125,0.4866862416866592,5.650655763606971e-11
-0.4965,0.4866067028954215,6.061777343872939e-11
-0.49646875,0.4864476253129461,6.498707874247928e-11
-0.4964375,0.4866067028954215,6.96281334830353e-11
-0.49640625,0.4864476253129461,7.455518739649438e-11
-0.496375,0.4863680865217083,7.97830997630667e-11
-0.49634375,0.4864476253129461,8.532735961894336e-11
-0.4963125,0.4865271641041838,9.120410644265924e-11
-0.49628125,0.4865271641041838,9.743015132232254e-11
-0.49625,0.4865271641041838,1.040229986100933e-10
-0.49621875,0.4864476253129461,1.11000868070304e-10
-0.4961875,0.4864476253129461,1.183827175276246e-10
-0.49615625,0.4865271641041838,1.261882660216835e-10
-0.496125,0.4864476253129461,1.34438017474566e-10
-0.49609375,0.4865271641041838,1.431532848776161e-10
-0.4960625,0.4864476253129461,1.523562150039813e-10
-0.49603125,0.4863680865217083,1.62069813653338e-10
-0.496,0.4864476253129461,1.723179714352513e-10
-0.49596875,0.4862885477304706,1.8312549009762e-10
-0.4959375,0.4862090089392329,1.945181094066689e-10
-0.49590625,0.4862885477304706,2.065225345849514e-10
-0.495875,0.4864476253129461,2.191664643138311e-10
-0.49584375,0.4863680865217083,2.324786193069135e-10
-0.4958125,0.4863680865217083,2.46488771460904e-10
-0.49578125,0.4862090089392329,2.612277735903669e-10
-0.49575,0.4863680865217083,2.76727589752866e-10
-0.49571875,0.4862885477304706,2.930213261709655e-10
-0.4956875,0.4862885477304706,3.101432627575723e-10
-0.49565625,0.4863680865217083,3.281288852511007e-10
-0.495625,0.4862090089392329,3.470149179669397e-10
-0.49559375,0.4862090089392329,3.668393571717016e-10
-0.4955625,0.4863680865217083,3.876415050867313e-10
-0.49553125,0.4862090089392329,4.094620045273522e-10
-0.4955,0.4862885477304706,4.323428741843195e-10
-0.49546875,0.4862090089392329,4.56327544553956e-10
-0.4954375,0.4861294701479951,4.814608945234332e-10
-0.49540625,0.4861294701479951,5.077892886176628e-10
-0.495375,0.4862090089392329,5.353606149142564e-10
-0.49534375,0.4862090089392329,5.642243236330067e-10
-0.4953125,0.4861294701479951,5.944314664063369e-10
-0.49528125,0.4861294701479951,6.260347362371626e-10
-0.49525,0.4862090089392329,6.590885081505984e-10
-0.49521875,0.4862090089392329,6.93648880545938e-10
-0.4951875,0.4861294701479951,7.297737172553292e-10
-0.49515625,0.4861294701479951,7.675226903155561e-10
-0.495125,0.4860499313567574,8.069573234593312e-10
-0.49509375,0.4859703925655197,8.481410363324922e-10
-0.4950625,0.4858908537742819,8.911391894434922e-10
-0.49503125,0.4859703925655197,9.360191298515532e-10
-0.495,0.4858908537742819,9.828502375998525e-10
-0.49496875,0.4858113149830442,1.031703972900095e-09
-0.4949375,0.4858113149830442,1.082653924074811e-09
-0.49490625,0.4858908537742819,1.135775856263717e-09
-0.494875,0.4858908537742819,1.191147760900451e-09
-0.49484375,0.4858908537742819,1.248849905965993e-09
-0.4948125,0.4857317761918065,1.308964887025062e-09
-0.49478125,0.4858113149830442,1.371577679051764e-09
-0.49475,0.4858113149830442,1.436775689050774e-09
-0.49471875,0.4858113149830442,1.504648809480272e-09
-0.4946875,0.4858113149830442,1.575289472482899e-09
-0.49465625,0.4859703925655197,1.648792704930932e-09
-0.494625,0.4857317761918065,1.725256184291901e-09
-0.49459375,0.4858113149830442,1.80478029532081e-09
-0.4945625,0.4857317761918065,1.887468187585168e-09
-0.49453125,0.4858113149830442,1.973425833828953e-09
-0.4945,0.4855726986093311,2.062762089181664e-09
-0.49446875,0.4856522374005688,2.155588751218576e-09
-0.4944375,0.4857317761918065,2.252020620878299e-09
-0.49440625,0.4856522374005688,2.352175564243713e-09
-0.494375,0.4854931598180933,2.456174575192367e-09
-0.49434375,0.4854136210268556,2.564141838922352e-09
-0.4943125,0.4855726986093311,2.676204796359701e-09
-0.49428125,0.4854931598180933,2.792494209453302e-09
-0.49425,0.4855726986093311,2.913144227363307e-09
-0.49421875,0.4855726986093311,3.03829245354901e-09
-0.4941875,0.4854931598180933,3.168080013762112e-09
-0.49415625,0.4854136210268556,3.30265162495132e-09
-0.494125,0.4853340822356179,3.442155665084145e-09
-0.49409375,0.4854136210268556,3.58674424389179e-09
-0.4940625,0.4855726986093311,3.736573274542979e-09
-0.49403125,0.4852545434443801,3.891802546252535e-09
-0.494,0.4852545434443801,4.052595797830531e-09
-0.49396875,0.4852545434443801,4.219120792177777e-09
-0.4939375,0.4852545434443801,4.391549391733404e-09
-0.49390625,0.4854931598180933,4.570057634880272e-09
-0.493875,0.4854136210268556,4.754825813313898e-09
-0.49384375,0.4854136210268556,4.946038550380601e-09
-0.4938125,0.4852545434443801,5.143884880390491e-09
-0.49378125,0.4852545434443801,5.348558328910943e-09
-0.49375,0.4852545434443801,5.560256994046156e-09
-0.49371875,0.4851750046531424,5.779183628708357e-09
-0.4936875,0.4852545434443801,6.005545723886206e-09
-0.49365625,0.4851750046531424,6.23955559291591e-09
-0.493625,0.4852545434443801,6.48143045676054e-09
-0.49359375,0.4850954658619047,6.731392530303011e-09
-0.4935625,0.4851750046531424,6.989669109658155e-09
-0.49353125,0.485015927070667,7.25649266050929e-09
-0.4935,0.4850954658619047,7.53210090747465e-09
-0.49346875,0.4850954658619047,7.816736924509041e-09
-0.4934375,0.485015927070667,8.110649226346015e-09
-0.49340625,0.4851750046531424,8.414091860985854e-09
-0.493375,0.4852545434443801,8.727324503234622e-09
-0.49334375,0.4849363882794293,9.050612549299485e-09
-0.4933125,0.4850954658619047,9.384227212445524e-09
-0.49328125,0.4850954658619047,9.728445619719171e-09
-0.49325,0.4852545434443801,1.008355090974341e-08
-0.49321875,0.485015927070667,1.044983233158983e-08
-0.4931875,0.4851750046531424,1.082758534473259e-08
-0.49315625,0.4850954658619047,1.121711172008934e-08
-0.493125,0.4849363882794293,1.161871964215409e-08
-0.49309375,0.485015927070667,1.203272381222699e-08
-0.4930625,0.485015927070667,1.245944555274592e-08
-0.49303125,0.4850954658619047,1.289921291272484e-08
-0.493,0.4850954658619047,1.335236077430375e-08
-0.49296875,0.485015927070667,1.381923096041501e-08
-0.4929375,0.485015927070667,1.430017234357096e-08
-0.49290625,0.4850954658619047,1.479554095577747e-08
-0.492875,0.4850954658619047,1.530570009957813e-08
-0.49284375,0.4851750046531424,1.5831020460234e-08
-0.4928125,0.4850954658619047,1.637188021904312e-08
-0.49278125,0.4850954658619047,1.692866516780498e-08
-0.49275,0.4852545434443801,1.750176882443396e-08
-0.49271875,0.485015927070667,1.809159254972668e-08
-0.4926875,0.4851750046531424,1.86985456652876e-08
-0.49265625,0.4850954658619047,1.932304557261736e-08
-0.492625,0.4850954658619047,1.996551787336824e-08
-0.49259375,0.4849363882794293,2.062639649077133e-08
-0.4925625,0.4850954658619047,2.130612379223941e-08
-0.49253125,0.4849363882794293,2.200515071315032e-08
-0.4925,0.485015927070667,2.272393688181465e-08
-0.49246875,0.4850954658619047,2.346295074563228e-08
-0.4924375,0.4850954658619047,2.42226696984419e-08
-0.49240625,0.4851750046531424,2.500358020906756e-08
-0.492375,0.4851750046531424,2.580617795106663e-08
-0.49234375,0.4852545434443801,2.663096793368293e-08
-0.4923125,0.4852545434443801,2.74784646340093e-08
-0.49228125,0.4852545434443801,2.834919213036363e-08
-0.49225,0.4851750046531424,2.924368423688207e-08
-0.49221875,0.4852545434443801,3.01624846393337e-08
-0.4921875,0.4852545434443801,3.110614703216019e-08
-0.49215625,0.4851750046531424,3.207523525674457e-08
-0.492125,0.4851750046531424,3.307032344091271e-08
-0.49209375,0.4852545434443801,3.409199613967146e-08
-0.4920625,0.4852545434443801,3.514084847718694e-08
-0.49203125,0.4852545434443801,3.621748629000692e-08
-0.492,0.4853340822356179,3.732252627153065e-08
-0.49196875,0.4854136210268556,3.845659611773e-08
-0.4919375,0.4853340822356179,3.962033467412527e-08
-0.49190625,0.4851750046531424,4.081439208401923e-08
-0.491875,0.4853340822356179,4.203942993799291e-08
-0.49184375,0.4853340822356179,4.329612142466652e-08
-0.4918125,0.4853340822356179,4.458515148272885e-08
-0.49178125,0.4852545434443801,4.59072169542385e-08
-0.49175,0.4853340822356179,4.726302673920041e-08
-0.49171875,0.4852545434443801,4.865330195142055e-08
-0.4916875,0.4852545434443801,5.007877607564237e-08
-0.49165625,0.4854136210268556,5.154019512596805e-08
-0.491625,0.4853340822356179,5.303831780556744e-08
-0.49159375,0.4854136210268556,5.457391566767822e-08
-0.4915625,0.4854931598180933,5.614777327789982e-08
-0.49153125,0.4853340822356179,5.776068837778443e-08
-0.4915,0.4852545434443801,5.941347204972796e-08
-0.49146875,0.4853340822356179,6.110694888316375e-08
-0.4914375,0.4854136210268556,6.284195714206189e-08
-0.49140625,0.4854931598180933,6.461934893373722e-08
-0.491375,0.4854931598180933,6.643999037896825e-08
-0.49134375,0.4853340822356179,6.830476178343044e-08
-0.4913125,0.4854136210268556,7.021455781044564e-08
-0.49128125,0.4851750046531424,7.217028765505122e-08
-0.49125,0.4853340822356179,7.417287521939062e-08
-0.49121875,0.4853340822356179,7.622325928942858e-08
-0.4911875,0.4852545434443801,7.832239371299304e-08
-0.49115625,0.4851750046531424,8.047124757914634e-08
-0.491125,0.4852545434443801,8.267080539888814e-08
-0.49109375,0.4852545434443801,8.492206728719235e-08
-0.4910625,0.4854136210268556,8.722604914638042e-08
-0.49103125,0.4854931598180933,8.958378285083313e-08
-0.491,0.4854931598180933,9.199631643304318e-08
-0.49096875,0.4854136210268556,9.446471427101083e-08
-0.4909375,0.4854136210268556,9.699005727698446e-08
-0.49090625,0.4854931598180933,9.957344308754841e-08
-0.490875,0.4854136210268556,1.022159862550598e-07
-0.49084375,0.4854931598180933,1.049188184404365e-07
-0.4908125,0.4855726986093311,1.076830886072984e-07
-0.49078125,0.4854931598180933,1.10509963217463e-07
-0.49075,0.4855726986093311,1.134006264277987e-07
-0.49071875,0.4855726986093311,1.163562802884352e-07
-0.4906875,0.4854931598180933,1.193781449423359e-07
-0.49065625,0.4854136210268556,1.224674588262306e-07
-0.490625,0.4855726986093311,1.256254788729129e-07
-0.49059375,0.4855726986093311,1.288534807149023e-07
-0.4905625,0.4855726986093311,1.321527588894727e-07
-0.49053125,0.4855726986093311,1.3552462704505e-07
-0.4905,0.4855726986093311,1.389704181489784e-07
-0.49046875,0.4856522374005688,1.424914846966583e-07
-0.4904375,0.4855726986093311,1.460891989220561e-07
-0.49040625,0.4854931598180933,1.497649530095882e-07
-0.490375,0.4854136210268556,1.535201593073796e-07
-0.49034375,0.4854931598180933,1.573562505418985e-07
-0.4903125,0.4855726986093311,1.612746800339686e-07
-0.49028125,0.4854931598180933,1.652769219161591e-07
-0.49025,0.4854931598180933,1.693644713515547e-07
-0.49021875,0.4855726986093311,1.735388447539061e-07
-0.4901875,0.4855726986093311,1.778015800091609e-07
-0.49015625,0.4857317761918065,1.821542366983779e-07
-0.490125,0.4857317761918065,1.865983963220238e-07
-0.49009375,0.4858113149830442,1.911356625256545e-07
-0.4900625,0.4858113149830442,1.957676613269799e-07
-0.49003125,0.4857317761918065,2.004960413443156e-07
-0.49,0.4857317761918065,2.053224740264192e-07
-0.48996875,0.4858113149830442,2.102486538837144e-07
-0.4899375,0.4858113149830442,2.152762987209015e-07
-0.48990625,0.4858113149830442,2.204071498709561e-07
-0.489875,0.4858113149830442,2.256429724305155e-07
-0.48984375,0.4858113149830442,2.309855554966541e-07
-0.4898125,0.4858908537742819,2.364367124050477e-07
-0.48978125,0.4858908537742819,2.419982809695264e-07
-0.48975,0.4859703925655197,2.476721237230178e-07
-0.48971875,0.4858908537742819,2.534601281598794e-07
-0.4896875,0.4860499313567574,2.593642069796211e-07
-0.48965625,0.4858908537742819,2.653862983320173e-07
-0.489625,0.4860499313567574,2.715283660636093e-07
-0.48959375,0.4859703925655197,2.777923999655977e-07
-0.4895625,0.4858113149830442,2.841804160231246e-07
-0.48953125,0.4858908537742819,2.906944566659456e-07
-0.4895,0.4859703925655197,2.97336591020492e-07
-0.48946875,0.4860499313567574,3.041089151633218e-07
-0.4894375,0.4858908537742819,3.110135523759605e-07
-0.48940625,0.4859703925655197,3.180526534011307e-07
-0.489375,0.4859703925655197,3.252283967003704e-07
-0.48934375,0.4858908537742819,3.325429887130395e-07
-0.4893125,0.4859703925655197,3.399986641167138e-07
-0.48928125,0.4861294701479951,3.475976860889667e-07
-0.48925,0.4860499313567574,3.553423465705376e-07
-0.48921875,0.4860499313567574,3.632349665298858e-07
-0.4891875,0.4860499313567574,3.712778962291312e-07
-0.48915625,0.4861294701479951,3.794735154913778e-07
-0.489125,0.4860499313567574,3.878242339694235e-07
-0.48909375,0.4860499313567574,3.963324914158512e-07
-0.4890625,0.4860499313567574,4.050007579545033e-07
-0.48903125,0.4861294701479951,4.138315343533372e-07
-0.489,0.4860499313567574,4.228273522986623e-07
-0.48896875,0.4860499313567574,4.319907746707546e-07
-0.4889375,0.4859703925655197,4.413243958208515e-07
-0.48890625,0.4860499313567574,4.508308418495232e-07
-0.488875,0.4862090089392329,4.605127708864207e-07
-0.48884375,0.4861294701479951,4.703728733713977e-07
-0.4888125,0.4861294701479951,4.804138723370081e-07
-0.48878125,0.4861294701479951,4.906385236923735e-07
-0.48875,0.4860499313567574,5.01049616508424e-07
-0.48871875,0.4861294701479951,5.116499733045078e-07
-0.4886875,0.4860499313567574,5.224424503363681e-07
-0.48865625,0.4860499313567574,5.334299378854879e-07
-0.488625,0.4861294701479951,5.446153605497999e-07
-0.48859375,0.4861294701479951,5.560016775357584e-07
-0.4885625,0.4861294701479951,5.675918829517752e-07
-0.48853125,0.4860499313567574,5.793890061030142e-07
-0.4885,0.4861294701479951,5.913961117875444e-07
-0.48846875,0.4861294701479951,6.036163005938504e-07
-0.4884375,0.4861294701479951,6.160527091996967e-07
-0.48840625,0.4862090089392329,6.287085106723443e-07
-0.488375,0.4860499313567574,6.415869147701207e-07
