Task5_45-5.csv

#Digilent WaveForms Oscilloscope Acquisition
#Device Name: Discovery3
#Serial Number: SN:210415BD63A1
#Date Time: 2026-09-24 10:57:08.245.748.870
#Sample rate: 32000Hz
#Samples: 32000
#Trigger: Source: Channel 1 Type: Edge Condition: Rising Level: 0 V Hyst.: Auto HoldOff: 0 s
#Channel 1: Range: 500 mV/div Offset: 0 V Sample Mode: Average
#Math 1: Input: C1 Reference: Internal Frequency: 20 Hz Phase: 90 ° Filter: IIR Butterworth 8  Low-Pass CutOff: 10 Hz Output: Amplitude

#Wavegen Channel 1: Running
#Mode: Simple
#Type: Sine
#Frequency: 20 Hz
#Period: 50 ms
#Amplitude: 200 mV
#Offset: 0 V
#Symmetry: 50 %
#Phase: 0 °

Time (s),Channel 1 (V),Math 1 (V)
-0.5,0.466403849921039,3.943980593289938e-25
-0.49996875,0.4664833887122767,6.700794709414085e-24
-0.4999375,0.466403849921039,5.711623471821624e-23
-0.49990625,0.466403849921039,3.278862944550254e-22
-0.499875,0.4664833887122767,1.435203038491977e-21
-0.49984375,0.466403849921039,5.137516533111146e-21
-0.4998125,0.4664833887122767,1.573748667092357e-20
-0.49978125,0.4666424662947522,4.258032395644668e-20
-0.49975,0.4664833887122767,1.041421869507851e-19
-0.49971875,0.4664833887122767,2.342982300883536e-19
-0.4996875,0.4665629275035145,4.914548300224234e-19
-0.49965625,0.4664833887122767,9.713244587779091e-19
-0.499625,0.4663243111298013,1.824214617557752e-18
-0.49959375,0.466403849921039,3.277794200989906e-18
-0.4995625,0.4664833887122767,5.666391634602712e-18
-0.49953125,0.466403849921039,9.467969123325995e-18
-0.4995,0.4664833887122767,1.535000637008326e-17
-0.49946875,0.4664833887122767,2.422561517728641e-17
-0.4994375,0.4665629275035145,3.732129343707518e-17
-0.49940625,0.4665629275035145,5.625781315134384e-17
-0.499375,0.4664833887122767,8.314582229869806e-17
-0.49934375,0.4666424662947522,1.206978245831002e-16
-0.4993125,0.4665629275035145,1.723582843653496e-16
-0.49928125,0.4667220050859899,2.424536864049429e-16
-0.49925,0.4664833887122767,3.363644614343701e-16
-0.49921875,0.466403849921039,4.607207690519556e-16
-0.4991875,0.466403849921039,6.236242089519609e-16
-0.49915625,0.4666424662947522,8.348976101143443e-16
-0.499125,0.4665629275035145,1.106365125257115e-15
-0.49909375,0.4666424662947522,1.452164934616728e-15
-0.4990625,0.4667220050859899,1.889096938970088e-15
-0.49903125,0.4666424662947522,2.437007896749969e-15
-0.499,0.4665629275035145,3.119216534140596e-15
-0.49896875,0.4664833887122767,3.962981230179175e-15
-0.4989375,0.4666424662947522,5.000012951138444e-15
-0.49890625,0.4667220050859899,6.267036179829089e-15
-0.498875,0.4667220050859899,7.806400655942696e-15
-0.49884375,0.4667220050859899,9.666746813160789e-15
-0.4988125,0.4668015438772277,1.190372786748862e-14
-0.49878125,0.4666424662947522,1.458079157913561e-14
-0.49875,0.4667220050859899,1.777002477725782e-14
-0.49871875,0.4668015438772277,2.155306380300134e-14
-0.4986875,0.4668015438772277,2.602207409154776e-14
-0.49865625,0.4666424662947522,3.128080217827319e-14
-0.498625,0.4667220050859899,3.744570347770222e-14
-0.49859375,0.4667220050859899,4.464714924666963e-14
-0.4985625,0.4668015438772277,5.303071620499391e-14
-0.49853125,0.4667220050859899,6.275856234801611e-14
-0.4985,0.4668015438772277,7.401089254556828e-14
-0.49846875,0.4668015438772277,8.698751758131389e-14
-0.4984375,0.4668810826684653,1.019095103449556e-13
-0.49840625,0.4666424662947522,1.190209629475388e-13
-0.498375,0.4667220050859899,1.385908485869925e-13
-0.49834375,0.4668810826684653,1.609149920471502e-13
-0.4983125,0.4669606214597031,1.863181527687898e-13
-0.49828125,0.4668015438772277,2.151562244857289e-13
-0.49825,0.4669606214597031,2.478185554727036e-13
-0.49821875,0.4668810826684653,2.847303935046618e-13
-0.4981875,0.4668810826684653,3.263554596791955e-13
-0.49815625,0.4668810826684653,3.731986553051574e-13
-0.498125,0.4668015438772277,4.258089061110348e-13
-0.49809375,0.4590862811271682,4.847821480764045e-13
-0.4980625,0.4590067423359305,5.50764459238766e-13
-0.49803125,0.4590067423359305,6.244553418762462e-13
-0.498,0.4590067423359305,7.066111595140928e-13
-0.49796875,0.4591658199184059,7.980487332495416e-13
-0.4979375,0.4590067423359305,8.996491019355252e-13
-0.49790625,0.4590862811271682,1.012361450808853e-12
-0.497875,0.4590862811271682,1.137207213192883e-12
-0.49784375,0.4590067423359305,1.275284349948378e-12
-0.4978125,0.4591658199184059,1.42777181138913e-12
-0.49778125,0.4590067423359305,1.595934186421125e-12
-0.49775,0.4590067423359305,1.78112654370543e-12
-0.49771875,0.4591658199184059,1.984799469685679e-12
-0.4976875,0.4590067423359305,2.208504308360993e-12
-0.49765625,0.4590862811271682,2.453898607724406e-12
-0.497625,0.4589272035446927,2.722751777825383e-12
-0.49759375,0.4590862811271682,3.016950965452804e-12
-0.4975625,0.4590862811271682,3.338507150471876e-12
-0.49753125,0.4590862811271682,3.68956146888481e-12
-0.4975,0.4591658199184059,4.072391767720716e-12
-0.49746875,0.4591658199184059,4.489419396895147e-12
-0.4974375,0.4590862811271682,4.943216243213917e-12
-0.49740625,0.4594044362921191,5.436512011729372e-12
-0.497375,0.4593248975008813,5.972201759690136e-12
-0.49734375,0.4592453587096436,6.553353688357473e-12
-0.4973125,0.4591658199184059,7.183217197992935e-12
-0.49728125,0.4592453587096436,7.865231211352722e-12
-0.49725,0.4592453587096436,8.603032771054331e-12
-0.49721875,0.4592453587096436,9.400465916210514e-12
-0.4971875,0.4593248975008813,1.026159084375432e-11
-0.49715625,0.4593248975008813,1.119069335990715e-11
-0.497125,0.4593248975008813,1.219229462726907e-11
-0.49709375,0.4594044362921191,1.32711612130376e-11
-0.4970625,0.4591658199184059,1.443231544388705e-11
-0.49703125,0.4590067423359305,1.568104607306621e-11
-0.497,0.4592453587096436,1.70229192652968e-11
-0.49696875,0.4592453587096436,1.846378990507942e-11
-0.4969375,0.4594044362921191,2.000981323403724e-11
-0.49690625,0.4594839750833568,2.166745682295051e-11
-0.496875,0.4594044362921191,2.344351288415742e-11
-0.49684375,0.4594839750833568,2.53451109300182e-11
-0.4968125,0.4595635138745945,2.737973078316064e-11
-0.49678125,0.4594044362921191,2.95552159442454e-11
-0.49675,0.4595635138745945,3.18797873230093e-11
-0.49671875,0.4596430526658323,3.436205733836402e-11
-0.4966875,0.4596430526658323,3.701104439334591e-11
-0.49665625,0.4594839750833568,3.983618773073084e-11
-0.496625,0.45972259145707,4.284736267514504e-11
-0.49659375,0.4596430526658323,4.605489626751959e-11
-0.4965625,0.4596430526658323,4.946958329775267e-11
-0.49653125,0.4596430526658323,5.310270274145859e-11
-0.4965,0.45972259145707,5.69660346066979e-11
-0.49646875,0.4598816690395455,6.107187719659734e-11
-0.4964375,0.45972259145707,6.543306479378166e-11
-0.49640625,0.4596430526658323,7.006298577255276e-11
-0.496375,0.45972259145707,7.497560114476445e-11
-0.49634375,0.45972259145707,8.018546354535221e-11
-0.4963125,0.45972259145707,8.570773666349005e-11
-0.49628125,0.4598816690395455,9.155821512535616e-11
-0.49625,0.4598816690395455,9.775334483449995e-11
-0.49621875,0.4599612078307832,1.04310243775813e-10
-0.4961875,0.4600407466220209,1.11246723289115e-10
-0.49615625,0.4599612078307832,1.185813098183745e-10
-0.496125,0.4598816690395455,1.263332671425927e-10
-0.49609375,0.4598021302483077,1.345226190943865e-10
-0.4960625,0.4598816690395455,1.431701727723116e-10
-0.49603125,0.4599612078307832,1.522975422529762e-10
-0.496,0.4599612078307832,1.619271728089991e-10
-0.49596875,0.4600407466220209,1.72082365638873e-10
-0.4959375,0.4600407466220209,1.827873031147971e-10
-0.49590625,0.4599612078307832,1.94067074554549e-10
-0.495875,0.4598816690395455,2.059477025234684e-10
-0.49584375,0.4600407466220209,2.184561696726287e-10
-0.4958125,0.4601202854132586,2.316204461192763e-10
-0.49578125,0.4601998242044963,2.454695173756172e-10
-0.49575,0.4601998242044963,2.600334128320354e-10
-0.49571875,0.4601202854132586,2.753432348008253e-10
-0.4956875,0.4601202854132586,2.914311881265249e-10
-0.49565625,0.4601998242044963,3.083306103689317e-10
-0.495625,0.4601998242044963,3.260760025648896e-10
-0.49559375,0.4600407466220209,3.447030605749257e-10
-0.4955625,0.4601202854132586,3.642487070208229e-10
-0.49553125,0.4601998242044963,3.847511238202076e-10
-0.4955,0.4602793629957341,4.062497853242284e-10
-0.49546875,0.4601998242044963,4.28785492064405e-10
-0.4954375,0.4603589017869718,4.524004051147155e-10
-0.49540625,0.4602793629957341,4.771380810749922e-10
-0.495375,0.4602793629957341,5.030435076816889e-10
-0.49534375,0.4603589017869718,5.301631400520796e-10
-0.4953125,0.4601202854132586,5.58544937567942e-10
-0.49528125,0.4602793629957341,5.882384014047745e-10
-0.49525,0.4602793629957341,6.192946127125881e-10
-0.49521875,0.4601998242044963,6.517662714543107e-10
-0.4951875,0.4601998242044963,6.857077359078293e-10
-0.49515625,0.4601998242044963,7.211750628376945e-10
-0.495125,0.4602793629957341,7.582260483424978e-10
-0.49509375,0.4601998242044963,7.969202693839287e-10
-0.4950625,0.4601998242044963,8.373191260035045e-10
-0.49503125,0.4601998242044963,8.794858842329618e-10
-0.495,0.4602793629957341,9.23485719704287e-10
-0.49496875,0.4602793629957341,9.693857619653485e-10
-0.4949375,0.4601202854132586,1.017255139507092e-09
-0.49490625,0.4602793629957341,1.06716502550824e-09
-0.494875,0.4601202854132586,1.11918868430343e-09
-0.49484375,0.4601202854132586,1.173401518580716e-09
-0.4948125,0.4601998242044963,1.229881117314336e-09
-0.49478125,0.4601998242044963,1.288707304438648e-09
-0.49475,0.4601998242044963,1.349962188269119e-09
-0.49471875,0.4603589017869718,1.413730211676232e-09
-0.4946875,0.4603589017869718,1.480098203018164e-09
-0.49465625,0.4605179793694473,1.549155427838096e-09
-0.494625,0.4602793629957341,1.620993641331949e-09
-0.49459375,0.4604384405782095,1.695707141592393e-09
-0.4945625,0.4605179793694473,1.773392823634898e-09
-0.49453125,0.4604384405782095,1.854150234211623e-09
-0.4945,0.460597518160685,1.938081627418896e-09
-0.49446875,0.4606770569519227,2.025292021104043e-09
-0.4944375,0.460597518160685,2.115889254077286e-09
-0.49440625,0.460597518160685,2.209984044134425e-09
-0.494375,0.460597518160685,2.307690046896008e-09
-0.49434375,0.4607565957431604,2.409123915468641e-09
-0.4943125,0.4606770569519227,2.514405360934127e-09
-0.49428125,0.460597518160685,2.623657213672042e-09
-0.49425,0.4604384405782095,2.737005485521397e-09
-0.49421875,0.4607565957431604,2.854579432786954e-09
-0.4941875,0.460597518160685,2.976511620095795e-09
-0.49415625,0.4605179793694473,3.102937985109705e-09
-0.494125,0.4604384405782095,3.233997904098891e-09
-0.49409375,0.4605179793694473,3.369834258382564e-09
-0.4940625,0.4605179793694473,3.510593501641877e-09
-0.49403125,0.460597518160685,3.656425728110695e-09
-0.494,0.4606770569519227,3.807484741649641e-09
-0.49396875,0.4605179793694473,3.963928125708849e-09
-0.4939375,0.4604384405782095,4.125917314184837e-09
-0.49390625,0.4605179793694473,4.293617663176863e-09
-0.493875,0.4605179793694473,4.467198523648147e-09
-0.49384375,0.4604384405782095,4.646833314997274e-09
-0.4938125,0.4604384405782095,4.832699599545095e-09
-0.49378125,0.460597518160685,5.024979157942416e-09
-0.49375,0.4605179793694473,5.223858065503726e-09
-0.49371875,0.4606770569519227,5.42952676947221e-09
-0.4936875,0.4604384405782095,5.642180167221241e-09
-0.49365625,0.4604384405782095,5.862017685397566e-09
-0.493625,0.4603589017869718,6.089243360011296e-09
-0.49359375,0.4605179793694473,6.324065917477881e-09
-0.4935625,0.4604384405782095,6.566698856617135e-09
-0.49353125,0.4604384405782095,6.817360531614424e-09
-0.4935,0.4604384405782095,7.076274235949019e-09
-0.49346875,0.4602793629957341,7.343668287294697e-09
-0.4934375,0.4603589017869718,7.619776113397531e-09
-0.49340625,0.4604384405782095,7.904836338935854e-09
-0.493375,0.4603589017869718,8.19909287336735e-09
-0.49334375,0.4602793629957341,8.502794999768149e-09
-0.4933125,0.4602793629957341,8.816197464668834e-09
-0.49328125,0.4603589017869718,9.139560568892191e-09
-0.49325,0.4603589017869718,9.473150259397525e-09
-0.49321875,0.4603589017869718,9.817238222136343e-09
-0.4931875,0.4603589017869718,1.017210197592415e-08
-0.49315625,0.4602793629957341,1.053802496733306e-08
-0.493125,0.4603589017869718,1.091529666661002e-08
-0.49309375,0.4603589017869718,1.130421266462519e-08
-0.4930625,0.4602793629957341,1.170507477085515e-08
-0.49303125,0.4602793629957341,1.211819111240564e-08
-0.493,0.4602793629957341,1.254387623407824e-08
-0.49296875,0.4602793629957341,1.298245119948561e-08
-0.4929375,0.4601998242044963,1.343424369321991e-08
-0.49290625,0.4604384405782095,1.389958812407858e-08
-0.492875,0.4601998242044963,1.437882572935226e-08
-0.49284375,0.4601202854132586,1.487230468017904e-08
-0.4928125,0.4601202854132586,1.538038018796943e-08
-0.49278125,0.4601998242044963,1.590341461190657e-08
-0.49275,0.4602793629957341,1.644177756752565e-08
-0.49271875,0.4601998242044963,1.699584603637725e-08
-0.4926875,0.4602793629957341,1.756600447677839e-08
-0.49265625,0.4601202854132586,1.815264493565588e-08
-0.492625,0.4600407466220209,1.875616716148586e-08
-0.49259375,0.4600407466220209,1.937697871833379e-08
-0.4925625,0.4600407466220209,2.001549510099903e-08
-0.49253125,0.4600407466220209,2.067213985126791e-08
-0.4925,0.4601202854132586,2.134734467527951e-08
-0.49246875,0.4601998242044963,2.204154956200804e-08
-0.4924375,0.4601998242044963,2.275520290286569e-08
-0.49240625,0.4600407466220209,2.348876161243007e-08
-0.492375,0.4600407466220209,2.424269125030001e-08
-0.49234375,0.4600407466220209,2.501746614408349e-08
-0.4923125,0.4598816690395455,2.581356951352163e-08
-0.49228125,0.4600407466220209,2.66314935957525e-08
-0.49225,0.4599612078307832,2.747173977171842e-08
-0.49221875,0.4598021302483077,2.833481869372043e-08
-0.4921875,0.4598816690395455,2.922125041412371e-08
-0.49215625,0.4598816690395455,3.013156451521745e-08
-0.492125,0.4598816690395455,3.106630024023278e-08
-0.49209375,0.4598816690395455,3.202600662552236e-08
-0.4920625,0.4598816690395455,3.301124263390499e-08
-0.49203125,0.4598021302483077,3.402257728917895e-08
-0.492,0.45972259145707,3.506058981180717e-08
-0.49196875,0.45972259145707,3.612586975577797e-08
-0.4919375,0.4596430526658323,3.721901714664436e-08
-0.49190625,0.4598021302483077,3.834064262074551e-08
-0.491875,0.4596430526658323,3.949136756561356e-08
-0.49184375,0.45972259145707,4.067182426156884e-08
-0.4918125,0.4594839750833568,4.188265602450687e-08
-0.49178125,0.4595635138745945,4.312451734988027e-08
-0.49175,0.4595635138745945,4.439807405787866e-08
-0.49171875,0.45972259145707,4.570400343980956e-08
-0.4916875,0.4596430526658323,4.704299440568328e-08
-0.49165625,0.4594839750833568,4.841574763300516e-08
-0.491625,0.4596430526658323,4.982297571677737e-08
-0.49159375,0.4596430526658323,5.126540332071402e-08
-0.4915625,0.4594044362921191,5.274376732967176e-08
-0.49153125,0.4595635138745945,5.425881700329908e-08
-0.4915,0.4594044362921191,5.581131413090692e-08
-0.49146875,0.4595635138745945,5.740203318756337e-08
-0.4914375,0.4593248975008813,5.903176149141518e-08
-0.49140625,0.4593248975008813,6.070129936223861e-08
-0.491375,0.4593248975008813,6.241146028122253e-08
-0.49134375,0.4593248975008813,6.416307105198574e-08
-0.4913125,0.4594044362921191,6.595697196283195e-08
-0.49128125,0.4594044362921191,6.77940169502438e-08
-0.49125,0.4594044362921191,6.967507376361936e-08
-0.49121875,0.4594044362921191,7.160102413125277e-08
-0.4911875,0.4594044362921191,7.357276392756196e-08
-0.49115625,0.4592453587096436,7.559120334156516e-08
-0.491125,0.4593248975008813,7.765726704660901e-08
-0.49109375,0.4592453587096436,7.977189437135009e-08
-0.4910625,0.4593248975008813,8.193603947199232e-08
-0.49103125,0.4592453587096436,8.415067150578216e-08
-0.491,0.4590067423359305,8.64167748057639e-08
-0.49096875,0.4591658199184059,8.873534905679683e-08
-0.4909375,0.4590862811271682,9.110740947283659e-08
-0.49090625,0.4590862811271682,9.353398697548243e-08
-0.490875,0.4591658199184059,9.601612837379232e-08
-0.49084375,0.4591658199184059,9.855489654536792e-08
-0.4908125,0.4590862811271682,1.011513706187111e-07
-0.49078125,0.4590862811271682,1.038066461568538e-07
-0.49075,0.4590862811271682,1.065218353422631e-07
-0.49071875,0.4590067423359305,1.092980671630227e-07
-0.4906875,0.4590067423359305,1.121364876002936e-07
-0.49065625,0.4590067423359305,1.150382598170541e-07
-0.490625,0.4589272035446927,1.180045643481214e-07
-0.49059375,0.4587681259622173,1.210365992914572e-07
-0.4905625,0.458847664753455,1.241355805007563e-07
-0.49053125,0.4589272035446927,1.27302741779323e-07
-0.4905,0.4590067423359305,1.305393350752332e-07
-0.49046875,0.4589272035446927,1.338466306777864e-07
-0.4904375,0.4586885871709795,1.372259174152468e-07
-0.49040625,0.4587681259622173,1.406785028538762e-07
-0.490375,0.458847664753455,1.442057134982592e-07
-0.49034375,0.458847664753455,1.478088949929212e-07
-0.4903125,0.458847664753455,1.514894123252423e-07
-0.49028125,0.458847664753455,1.552486500296655e-07
-0.49025,0.4586885871709795,1.590880123932029e-07
-0.49021875,0.4586885871709795,1.630089236622385e-07
-0.4901875,0.4586090483797418,1.670128282506302e-07
-0.49015625,0.4585295095885041,1.711011909491105e-07
-0.490125,0.4586090483797418,1.752754971359889e-07
-0.49009375,0.4585295095885041,1.79537252989153e-07
-0.4900625,0.4586885871709795,1.83887985699374e-07
-0.49003125,0.4585295095885041,1.883292436849122e-07
-0.49,0.4585295095885041,1.928625968074276e-07
-0.48996875,0.4584499707972664,1.974896365891923e-07
-0.4899375,0.4585295095885041,2.022119764316087e-07
-0.48990625,0.4585295095885041,2.070312518350312e-07
-0.489875,0.4582908932147909,2.119491206198937e-07
-0.48984375,0.4582908932147909,2.169672631491424e-07
-0.4898125,0.4583704320060287,2.220873825519742e-07
-0.48978125,0.4584499707972664,2.273112049488818e-07
-0.48975,0.4583704320060287,2.32640479678005e-07
-0.48971875,0.4583704320060287,2.380769795227883e-07
-0.4896875,0.4585295095885041,2.436225009409463e-07
-0.48965625,0.4584499707972664,2.492788642947344e-07
-0.489625,0.4583704320060287,2.550479140825283e-07
-0.48959375,0.4583704320060287,2.609315191717094e-07
-0.4895625,0.4584499707972664,2.669315730328576e-07
-0.48953125,0.4583704320060287,2.730499939752504e-07
-0.4895,0.4585295095885041,2.792887253836701e-07
-0.48946875,0.4583704320060287,2.856497359565162e-07
-0.4894375,0.4584499707972664,2.921350199452251e-07
-0.48940625,0.4583704320060287,2.987465973949961e-07
-0.489375,0.4582908932147909,3.05486514386822e-07
-0.48934375,0.4582908932147909,3.123568432808271e-07
-0.4893125,0.4582908932147909,3.193596829609084e-07
-0.48928125,0.4584499707972664,3.264971590806829e-07
-0.48925,0.4583704320060287,3.337714243107384e-07
-0.48921875,0.4583704320060287,3.411846585871875e-07
-0.4891875,0.4583704320060287,3.487390693615255e-07
-0.48915625,0.4585295095885041,3.5643689185179e-07
-0.489125,0.4584499707972664,3.642803892950223e-07
-0.48909375,0.4584499707972664,3.7227185320103e-07
-0.4890625,0.4583704320060287,3.804136036074495e-07
-0.48903125,0.4584499707972664,3.887079893361074e-07
-0.489,0.4583704320060287,3.971573882506819e-07
-0.48896875,0.4584499707972664,4.057642075156591e-07
-0.4889375,0.4584499707972664,4.145308838565887e-07
-0.48890625,0.4583704320060287,4.234598838216328e-07
-0.488875,0.4583704320060287,4.325537040444112e-07
-0.48884375,0.4584499707972664,4.418148715081376e-07
-0.4888125,0.4582908932147909,4.51245943811051e-07
-0.48878125,0.4584499707972664,4.608495094331348e-07
-0.48875,0.4583704320060287,4.706281880041284e-07
-0.48871875,0.4584499707972664,4.805846305728255e-07
-0.4886875,0.4584499707972664,4.907215198776597e-07
-0.48865625,0.4583704320060287,5.010415706185762e-07
-0.488625,0.4583704320060287,5.115475297301872e-07
-0.48859375,0.4584499707972664,5.222421766562096e-07
-0.4885625,0.4584499707972664,5.331283236251857e-07
-0.48853125,0.4583704320060287,5.442088159274802e-07
-0.4885,0.4583704320060287,5.554865321935592e-07
-0.48846875,0.4583704320060287,5.66964384673541e-07
-0.4884375,0.4582908932147909,5.786453195180252e-07
-0.48840625,0.4584499707972664,5.905323170601917e-07
-0.488375,0.4583704320060287,6.02628392099172e-07
