Task5_20Hz_500mV_45.csv

#Digilent WaveForms Oscilloscope Acquisition
#Device Name: Discovery3
#Serial Number: SN:210415BD63A1
#Date Time: 2026-09-24 11:20:13.273.324.290
#Sample rate: 32000Hz
#Samples: 32000
#Trigger: Source: Channel 1 Type: Edge Condition: Rising Level: 0 V Hyst.: Auto HoldOff: 0 s
#Channel 1: Range: 500 mV/div Offset: 0 V Sample Mode: Average
#Math 1: Input: C1 Reference: Internal Frequency: 20 Hz Phase: 90 ° Filter: IIR Butterworth 8  Low-Pass CutOff: 5 Hz Output: Amplitude

#Wavegen Channel 1: Running
#Mode: Simple
#Type: Sine
#Frequency: 20 Hz
#Period: 50 ms
#Amplitude: 500 mV
#Offset: 0 V
#Symmetry: 50 %
#Phase: 0 °

Time (s),Channel 1 (V),Math 1 (V)
-0.5,0.4214644328717236,1.418258424092349e-27
-0.49996875,0.4213848940804859,2.410324585424372e-26
-0.4999375,0.4214644328717236,2.05518293205834e-25
-0.49990625,0.4214644328717236,1.180236130875124e-24
-0.499875,0.4213848940804859,5.168043978611658e-24
-0.49984375,0.4215439716629614,1.850737456906803e-23
-0.4998125,0.4215439716629614,5.671734913112019e-23
-0.49978125,0.4214644328717236,1.535278980213286e-22
-0.49975,0.4214644328717236,3.756732268529113e-22
-0.49971875,0.4214644328717236,8.455978729164631e-22
-0.4996875,0.4214644328717236,1.774576728918231e-21
-0.49965625,0.4215439716629614,3.509100701391618e-21
-0.499625,0.4213848940804859,6.593728141630551e-21
-0.49959375,0.4214644328717236,1.185394886149099e-20
-0.4995625,0.4213848940804859,2.050295243634879e-20
-0.49953125,0.4217030492454368,3.42765355993173e-20
-0.4995,0.4215439716629614,5.560072483242766e-20
-0.49946875,0.4217030492454368,8.779702975144902e-20
-0.4994375,0.4215439716629614,1.353305805611883e-19
-0.49940625,0.4215439716629614,2.041067387387757e-19
-0.499375,0.4216235104541991,3.018221041962285e-19
-0.49934375,0.4215439716629614,4.383761744791746e-19
-0.4993125,0.4215439716629614,6.263502420579108e-19
-0.49928125,0.4217030492454368,8.815604444406147e-19
-0.49925,0.419316885508305,1.223692208685725e-18
-0.49921875,0.419316885508305,1.677023656935005e-18
-0.4991875,0.4191578079258296,2.271245862864368e-18
-0.49915625,0.419316885508305,3.04238817047679e-18
-0.499125,0.419316885508305,4.03385710643857e-18
-0.49909375,0.4192373467170673,5.297597735173535e-18
-0.4990625,0.4192373467170673,6.895386622170731e-18
-0.49903125,0.4192373467170673,8.900265885432674e-18
-0.499,0.4191578079258296,1.139812812770111e-17
-0.49896875,0.4192373467170673,1.44894623530408e-17
-0.4989375,0.4193964242995428,1.829127128052096e-17
-0.49890625,0.4192373467170673,2.293917077509899e-17
-0.498875,0.4193964242995428,2.858968242139288e-17
-0.49884375,0.4193964242995428,3.542273056984281e-17
-0.4988125,0.4193964242995428,4.364435548681315e-17
-0.49878125,0.4193964242995428,5.348965454047288e-17
-0.49875,0.4192373467170673,6.522596365281695e-17
-0.49871875,0.4191578079258296,7.915629154495958e-17
-0.4986875,0.419316885508305,9.56230195978564e-17
-0.49865625,0.4192373467170673,1.150118804439125e-16
-0.498625,0.4193964242995428,1.377562286965134e-16
-0.49859375,0.4194759630907805,1.643416175143558e-16
-0.4985625,0.419316885508305,1.95310694985545e-16
-0.49853125,0.4191578079258296,2.312684346027775e-16
-0.4985,0.4193964242995428,2.728877143855647e-16
-0.49846875,0.4193964242995428,3.20915259488398e-16
-0.4984375,0.4194759630907805,3.761779634149896e-16
-0.49840625,0.4193964242995428,4.395896032382432e-16
-0.498375,0.4194759630907805,5.121579645033854e-16
-0.49834375,0.4193964242995428,5.949923917677337e-16
-0.4983125,0.4195555018820182,6.893117810049005e-16
-0.49828125,0.4195555018820182,7.96453030373847e-16
-0.49825,0.419635040673256,9.178799661241142e-16
-0.49821875,0.4195555018820182,1.05519276067777e-15
-0.4981875,0.4195555018820182,1.210137860196142e-15
-0.49815625,0.4197145794644937,1.384618439205252e-15
-0.498125,0.4197145794644937,1.580705400117982e-15
-0.49809375,0.4195555018820182,1.800648935753518e-15
-0.4980625,0.4194759630907805,2.046890673215251e-15
-0.49803125,0.419635040673256,2.32207641774743e-15
-0.498,0.4197145794644937,2.629069515448092e-15
-0.49796875,0.4197941182557314,2.970964853971439e-15
-0.4979375,0.4197941182557314,3.35110352060681e-15
-0.49790625,0.4197145794644937,3.773088137373606e-15
-0.497875,0.4197145794644937,4.240798893022181e-15
-0.49784375,0.4197145794644937,4.758410292079548e-15
-0.4978125,0.419635040673256,5.33040864132609e-15
-0.49778125,0.4197145794644937,5.961610294334956e-15
-0.49775,0.4197145794644937,6.657180674949842e-15
-0.49771875,0.419635040673256,7.422654100819126e-15
-0.4976875,0.4197941182557314,8.263954428344931e-15
-0.49765625,0.4197941182557314,9.187416540644685e-15
-0.497625,0.4197145794644937,1.019980870035998e-14
-0.49759375,0.4197941182557314,1.13083557893832e-14
-0.4975625,0.4197941182557314,1.252076345780611e-14
-0.49753125,0.4197941182557314,1.384524320462705e-14
-0.4975,0.4200327346294446,1.529053841298369e-14
-0.49746875,0.4197145794644937,1.686595136290749e-14
-0.4974375,0.4197941182557314,1.858137124482324e-14
-0.49740625,0.4199531958382068,2.044730319724279e-14
-0.497375,0.4199531958382068,2.247489839232618e-14
-0.49734375,0.4199531958382068,2.467598519320578e-14
-0.4973125,0.4199531958382068,2.706310140718975e-14
-0.49728125,0.4200327346294446,2.964952765918054e-14
-0.49725,0.4199531958382068,3.244932190986133e-14
-0.49721875,0.4199531958382068,3.547735514341973e-14
-0.4971875,0.4199531958382068,3.874934824979179e-14
-0.49715625,0.4200327346294446,4.228191012662251e-14
-0.497125,0.4199531958382068,4.609257702634964e-14
-0.49709375,0.4200327346294446,5.019985317402693e-14
-0.4970625,0.4199531958382068,5.462325268171122e-14
-0.49703125,0.4199531958382068,5.938334278544317e-14
-0.497,0.4200327346294446,6.450178843105684e-14
-0.49696875,0.4200327346294446,7.00013982352558e-14
-0.4969375,0.4201122734206823,7.590617184859464e-14
-0.49690625,0.4199531958382068,8.224134874720523e-14
-0.496875,0.4201122734206823,8.903345848030413e-14
-0.49684375,0.4200327346294446,9.631037240071474e-14
-0.4968125,0.42019181221192,1.041013569058326e-13
-0.49678125,0.42019181221192,1.124371282166556e-13
-0.49675,0.4202713510031578,1.21349908722692e-13
-0.49671875,0.4202713510031578,1.308734849207505e-13
-0.4966875,0.4202713510031578,1.410432669758034e-13
-0.49665625,0.42019181221192,1.518963499323027e-13
-0.496625,0.4200327346294446,1.634715766045126e-13
-0.49659375,0.42019181221192,1.758096021746067e-13
-0.4965625,0.42019181221192,1.889529605274594e-13
-0.49653125,0.4202713510031578,2.029461323512439e-13
-0.4965,0.42019181221192,2.178356150331245e-13
-0.49646875,0.4201122734206823,2.33669994379513e-13
-0.4964375,0.4201122734206823,2.505000181905297e-13
-0.49640625,0.42019181221192,2.683786717184903e-13
-0.496375,0.4202713510031578,2.873612550404057e-13
-0.49634375,0.4202713510031578,3.075054623746591e-13
-0.4963125,0.4204304285856332,3.288714633721915e-13
-0.49628125,0.4202713510031578,3.515219864126936e-13
-0.49625,0.4202713510031578,3.755224039364749e-13
-0.49621875,0.4202713510031578,4.009408198428345e-13
-0.4961875,0.4202713510031578,4.278481589859354e-13
-0.49615625,0.4203508897943955,4.563182587993352e-13
-0.496125,0.4201122734206823,4.864279630804912e-13
-0.49609375,0.42019181221192,5.182572179667157e-13
-0.4960625,0.4202713510031578,5.518891701342173e-13
-0.49603125,0.4201122734206823,5.874102672520159e-13
-0.496,0.4202713510031578,6.249103607226726e-13
-0.49596875,0.4202713510031578,6.644828107419369e-13
-0.4959375,0.4203508897943955,7.062245937095529e-13
-0.49590625,0.4204304285856332,7.502364120236261e-13
-0.495875,0.4204304285856332,7.96622806291093e-13
-0.49584375,0.4205099673768709,8.454922699869898e-13
-0.4958125,0.4204304285856332,8.969573665953531e-13
-0.49578125,0.4204304285856332,9.511348492647392e-13
-0.49575,0.4205895061681086,1.008145783011481e-12
-0.49571875,0.4206690449593464,1.068115669503951e-12
-0.4956875,0.4205895061681086,1.131174574461232e-12
-0.49565625,0.4205099673768709,1.197457257699735e-12
-0.495625,0.4205099673768709,1.26710330586145e-12
-0.49559375,0.4205099673768709,1.340257267857629e-12
-0.4955625,0.4205099673768709,1.417068793061863e-12
-0.49553125,0.4205099673768709,1.497692772286618e-12
-0.4955,0.4205099673768709,1.582289481577445e-12
-0.49546875,0.4205099673768709,1.671024728859201e-12
-0.4954375,0.4203508897943955,1.764070003468742e-12
-0.49540625,0.4205099673768709,1.86160262860868e-12
-0.495375,0.4204304285856332,1.963805916756927e-12
-0.49534375,0.4203508897943955,2.070869328066847e-12
-0.4953125,0.4204304285856332,2.182988631793001e-12
-0.49528125,0.4205895061681086,2.300366070777532e-12
-0.49525,0.4205895061681086,2.42321052903242e-12
-0.49521875,0.4205895061681086,2.551737702452909e-12
-0.4951875,0.4205895061681086,2.686170272697533e-12
-0.49515625,0.4207485837505841,2.826738084270289e-12
-0.495125,0.4205895061681086,2.973678324840635e-12
-0.49509375,0.4206690449593464,3.127235708837046e-12
-0.4950625,0.4205895061681086,3.287662664350046e-12
-0.49503125,0.4205895061681086,3.455219523380679e-12
-0.495,0.4206690449593464,3.630174715470528e-12
-0.49496875,0.4207485837505841,3.812804964749476e-12
-0.4949375,0.4206690449593464,4.003395490437527e-12
-0.49490625,0.4207485837505841,4.202240210837077e-12
-0.494875,0.4205895061681086,4.409641950852158e-12
-0.49484375,0.4206690449593464,4.625912653071264e-12
-0.4948125,0.4207485837505841,4.851373592450462e-12
-0.49478125,0.4206690449593464,5.086355594633605e-12
-0.49475,0.4206690449593464,5.331199257946522e-12
-0.49471875,0.4206690449593464,5.586255179102219e-12
-0.4946875,0.4208281225418218,5.851884182654134e-12
-0.49465625,0.4206690449593464,6.128457554234676e-12
-0.494625,0.4206690449593464,6.416357277616271e-12
-0.49459375,0.4205895061681086,6.715976275632305e-12
-0.4945625,0.4206690449593464,7.027718654995401e-12
-0.49453125,0.4206690449593464,7.35199995505054e-12
-0.4945,0.4205099673768709,7.689247400500701e-12
-0.49446875,0.4206690449593464,8.039900158142644e-12
-0.4944375,0.4205099673768709,8.404409597650675e-12
-0.49440625,0.4205895061681086,8.783239556446228e-12
-0.494375,0.4205099673768709,9.176866608691219e-12
-0.49434375,0.4205895061681086,9.585780338443161e-12
-0.4943125,0.4206690449593464,1.001048361701019e-11
-0.49428125,0.4206690449593464,1.045149288454412e-11
-0.49425,0.4205895061681086,1.090933843590975e-11
-0.49421875,0.4205895061681086,1.138456471086887e-11
-0.4941875,0.4205895061681086,1.187773058861714e-11
-0.49415625,0.4205895061681086,1.238940968671254e-11
-0.494125,0.4205895061681086,1.292019066443365e-11
-0.49409375,0.4204304285856332,1.347067753060661e-11
-0.4940625,0.4204304285856332,1.404148995593924e-11
-0.49403125,0.4207485837505841,1.463326358990109e-11
-0.494,0.4206690449593464,1.52466503821882e-11
-0.49396875,0.4206690449593464,1.588231890881149e-11
-0.4939375,0.4206690449593464,1.654095470284747e-11
-0.49390625,0.4205099673768709,1.722326058989054e-11
-0.493875,0.4205895061681086,1.792995702824562e-11
-0.49384375,0.4206690449593464,1.866178245390034e-11
-0.4938125,0.4204304285856332,1.941949363031585e-11
-0.49378125,0.4205895061681086,2.02038660030755e-11
-0.49375,0.4205895061681086,2.101569405943056e-11
-0.49371875,0.4205099673768709,2.185579169278232e-11
-0.4936875,0.4206690449593464,2.27249925721398e-11
-0.49365625,0.4205895061681086,2.362415051659264e-11
-0.493625,0.4205895061681086,2.455413987483837e-11
-0.49359375,0.4205895061681086,2.551585590980376e-11
-0.4935625,0.4205099673768709,2.651021518839955e-11
-0.49353125,0.4206690449593464,2.753815597644836e-11
-0.4935,0.4206690449593464,2.860063863882514e-11
-0.49346875,0.4206690449593464,2.969864604484994e-11
-0.4934375,0.4205895061681086,3.083318397897277e-11
-0.49340625,0.4205895061681086,3.200528155678996e-11
-0.493375,0.4206690449593464,3.321599164643214e-11
-0.49334375,0.4205099673768709,3.446639129536341e-11
-0.4933125,0.4205099673768709,3.575758216263155e-11
-0.49328125,0.4203508897943955,3.709069095660922e-11
-0.49325,0.4202713510031578,3.846686987826586e-11
-0.49321875,0.4204304285856332,3.988729707001049e-11
-0.4931875,0.4205099673768709,4.135317707014501e-11
-0.49315625,0.4204304285856332,4.286574127296823e-11
-0.493125,0.4205099673768709,4.442624839457061e-11
-0.49309375,0.4205099673768709,4.603598494435953e-11
-0.4930625,0.4204304285856332,4.769626570235538e-11
-0.49303125,0.4205099673768709,4.940843420229846e-11
-0.493,0.4204304285856332,5.117386322060665e-11
-0.49296875,0.4205099673768709,5.299395527122415e-11
-0.4929375,0.4203508897943955,5.487014310640137e-11
-0.49290625,0.4202713510031578,5.680389022344601e-11
-0.492875,0.4203508897943955,5.879669137748559e-11
-0.49284375,0.4205099673768709,6.085007310028166e-11
-0.4928125,0.4204304285856332,6.296559422513567e-11
-0.49278125,0.4203508897943955,6.514484641792693e-11
-0.49275,0.4204304285856332,6.738945471432288e-11
-0.49271875,0.4203508897943955,6.970107806320159e-11
-0.4926875,0.4203508897943955,7.208140987632711e-11
-0.49265625,0.4202713510031578,7.45321785843176e-11
-0.492625,0.4202713510031578,7.70551481989467e-11
-0.49259375,0.42019181221192,7.965211888181841e-11
-0.4925625,0.42019181221192,8.232492751945536e-11
-0.49253125,0.42019181221192,8.507544830484132e-11
-0.4925,0.4202713510031578,8.790559332545764e-11
-0.49246875,0.4202713510031578,9.081731315785441e-11
-0.4924375,0.4201122734206823,9.381259746879597e-11
-0.49240625,0.4202713510031578,9.689347562302185e-11
-0.492375,0.4203508897943955,1.000620172976623e-10
-0.49234375,0.42019181221192,1.033203331033502e-10
-0.4923125,0.4203508897943955,1.066705752120674e-10
-0.49228125,0.42019181221192,1.101149379917685e-10
-0.49225,0.4201122734206823,1.136556586478194e-10
-0.49221875,0.4199531958382068,1.172950178712934e-10
-0.4921875,0.4201122734206823,1.210353404941629e-10
-0.49215625,0.4201122734206823,1.24878996151429e-10
-0.492125,0.4200327346294446,1.288283999502269e-10
-0.49209375,0.4200327346294446,1.328860131459492e-10
-0.4920625,0.4200327346294446,1.370543438254267e-10
-0.49203125,0.4200327346294446,1.413359475972058e-10
-0.492,0.4197941182557314,1.457334282889642e-10
-0.49196875,0.4198736570469691,1.502494386521044e-10
-0.4919375,0.4198736570469691,1.548866810735639e-10
-0.49190625,0.4197145794644937,1.596479082948846e-10
-0.491875,0.4197941182557314,1.645359241385789e-10
-0.49184375,0.4197941182557314,1.695535842418348e-10
-0.4918125,0.4197941182557314,1.747037967975976e-10
-0.49178125,0.4197941182557314,1.799895233030707e-10
-0.49175,0.4197941182557314,1.854137793156732e-10
-0.49171875,0.4199531958382068,1.90979635216496e-10
-0.4916875,0.4198736570469691,1.966902169812949e-10
-0.49165625,0.4198736570469691,2.025487069590614e-10
-0.491625,0.4197941182557314,2.085583446582106e-10
-0.49159375,0.4197941182557314,2.147224275404268e-10
-0.4915625,0.4197941182557314,2.210443118222049e-10
-0.49153125,0.4197941182557314,2.275274132841293e-10
-0.4915,0.4198736570469691,2.341752080879283e-10
-0.49146875,0.4197145794644937,2.409912336013449e-10
-0.4914375,0.419635040673256,2.479790892308631e-10
-0.49140625,0.4195555018820182,2.551424372623287e-10
-0.491375,0.419635040673256,2.624850037095057e-10
-0.49134375,0.4194759630907805,2.700105791706058e-10
-0.4913125,0.4195555018820182,2.777230196928325e-10
-0.49128125,0.419635040673256,2.856262476449772e-10
-0.49125,0.4194759630907805,2.937242525981081e-10
-0.49121875,0.4194759630907805,3.020210922143914e-10
-0.4911875,0.4194759630907805,3.105208931440821e-10
-0.49115625,0.4193964242995428,3.192278519307263e-10
-0.491125,0.4194759630907805,3.281462359246122e-10
-0.49109375,0.4194759630907805,3.37280384204509e-10
-0.4910625,0.4194759630907805,3.466347085077355e-10
-0.49103125,0.4194759630907805,3.562136941685925e-10
-0.491,0.4194759630907805,3.660219010652027e-10
-0.49096875,0.419316885508305,3.76063964574795e-10
-0.4909375,0.4194759630907805,3.863445965374711e-10
-0.49090625,0.4193964242995428,3.968685862284949e-10
-0.490875,0.4193964242995428,4.076408013391434e-10
-0.49084375,0.419316885508305,4.186661889661562e-10
-0.4908125,0.4191578079258296,4.299497766098239e-10
-0.49078125,0.419316885508305,4.414966731807533e-10
-0.49075,0.4193964242995428,4.533120700153476e-10
-0.49071875,0.419316885508305,4.654012419000411e-10
-0.4906875,0.4193964242995428,4.777695481043251e-10
-0.49065625,0.4193964242995428,4.904224334226054e-10
-0.490625,0.419316885508305,5.033654292249285e-10
-0.49059375,0.4193964242995428,5.166041545166129e-10
-0.4905625,0.4193964242995428,5.301443170068292e-10
-0.49053125,0.4193964242995428,5.439917141861593e-10
-0.4905,0.4194759630907805,5.581522344131804e-10
-0.49046875,0.4193964242995428,5.726318580101053e-10
-0.4904375,0.419316885508305,5.874366583675209e-10
-0.49040625,0.4194759630907805,6.025728030582621e-10
-0.490375,0.4193964242995428,6.180465549604564e-10
-0.49034375,0.419316885508305,6.338642733897804e-10
-0.4903125,0.4192373467170673,6.500324152409627e-10
-0.49028125,0.419316885508305,6.665575361385716e-10
-0.49025,0.4193964242995428,6.83446291597128e-10
-0.49021875,0.4193964242995428,7.00705438190574e-10
-0.4901875,0.4194759630907805,7.183418347311421e-10
-0.49015625,0.4192373467170673,7.363624434576566e-10
-0.490125,0.419316885508305,7.547743312333074e-10
-0.49009375,0.4193964242995428,7.735846707529318e-10
-0.4900625,0.419316885508305,7.928007417598418e-10
-0.49003125,0.4192373467170673,8.124299322722328e-10
-0.49,0.4193964242995428,8.324797398192122e-10
-0.48996875,0.419316885508305,8.529577726864828e-10
-0.4899375,0.419316885508305,8.738717511717177e-10
-0.48990625,0.419316885508305,8.95229508849667e-10
-0.489875,0.4193964242995428,9.170389938470244e-10
-0.48984375,0.419316885508305,9.393082701270997e-10
-0.4898125,0.4193964242995428,9.620455187843265e-10
-0.48978125,0.4193964242995428,9.852590393486431e-10
-0.48975,0.4194759630907805,1.008957251099787e-09
-0.48971875,0.4194759630907805,1.033148694391529e-09
-0.4896875,0.4193964242995428,1.057842031985896e-09
-0.48965625,0.4194759630907805,1.083046050397403e-09
-0.489625,0.4195555018820182,1.108769661247344e-09
-0.48959375,0.4192373467170673,1.135021902628172e-09
-0.4895625,0.4192373467170673,1.161811940477999e-09
-0.48953125,0.4193964242995428,1.189149069965255e-09
-0.4895,0.4193964242995428,1.217042716883551e-09
-0.48946875,0.4192373467170673,1.245502439056754e-09
-0.4894375,0.419316885508305,1.274537927754349e-09
-0.48940625,0.4193964242995428,1.304159009117081e-09
-0.489375,0.4194759630907805,1.334375645592945e-09
-0.48934375,0.4194759630907805,1.365197937383542e-09
-0.4893125,0.4193964242995428,1.396636123900832e-09
-0.48928125,0.4194759630907805,1.428700585234338e-09
-0.48925,0.4194759630907805,1.461401843628814e-09
-0.48921875,0.419316885508305,1.494750564972427e-09
-0.4891875,0.4194759630907805,1.528757560295471e-09
-0.48915625,0.4193964242995428,1.563433787279672e-09
-0.489125,0.4194759630907805,1.598790351778086e-09
-0.48909375,0.4192373467170673,1.634838509345657e-09
-0.4890625,0.4193964242995428,1.671589666780439e-09
-0.48903125,0.4194759630907805,1.709055383675535e-09
-0.489,0.4195555018820182,1.747247373981788e-09
-0.48896875,0.4193964242995428,1.786177507581235e-09
-0.4889375,0.4194759630907805,1.825857811871388e-09
-0.48890625,0.4195555018820182,1.866300473360348e-09
-0.488875,0.4194759630907805,1.907517839272806e-09
-0.48884375,0.4193964242995428,1.949522419166949e-09
-0.4888125,0.4195555018820182,1.992326886562314e-09
-0.48878125,0.419635040673256,2.035944080578614e-09
-0.48875,0.4195555018820182,2.080387007585579e-09
-0.48871875,0.4197145794644937,2.125668842863835e-09
-0.4886875,0.4197145794644937,2.171802932276861e-09
-0.48865625,0.4197145794644937,2.218802793954045e-09
-0.488625,0.4197145794644937,2.266682119984886e-09
-0.48859375,0.4197941182557314,2.315454778124367e-09
-0.4885625,0.4197145794644937,2.365134813509525e-09
-0.48853125,0.4197145794644937,2.415736450387258e-09
-0.4885,0.419635040673256,2.467274093853401e-09
-0.48846875,0.4197145794644937,2.519762331603095e-09
-0.4884375,0.4197145794644937,2.573215935692489e-09
-0.48840625,0.4197941182557314,2.627649864311798e-09
-0.488375,0.4197145794644937,2.683079263569761e-09
