Task5_45+5.csv

#Digilent WaveForms Oscilloscope Acquisition
#Device Name: Discovery3
#Serial Number: SN:210415BD63A1
#Date Time: 2026-09-24 10:51:44.201.018.410
#Sample rate: 32000Hz
#Samples: 32000
#Trigger: Source: Channel 1 Type: Edge Condition: Rising Level: 0 V Hyst.: Auto HoldOff: 0 s
#Channel 1: Range: 500 mV/div Offset: 0 V Sample Mode: Average
#Math 1: Input: C1 Reference: Internal Frequency: 20 Hz Phase: 90 ° Filter: IIR Butterworth 8  Low-Pass CutOff: 10 Hz Output: Amplitude

#Wavegen Channel 1: Running
#Mode: Simple
#Type: Sine
#Frequency: 20 Hz
#Period: 50 ms
#Amplitude: 200 mV
#Offset: 0 V
#Symmetry: 50 %
#Phase: 0 °

Time (s),Channel 1 (V),Math 1 (V)
-0.5,0.3773999425260233,3.215947746578548e-25
-0.49996875,0.3773999425260233,5.463940425573644e-24
-0.4999375,0.3773999425260233,4.657411422757683e-23
-0.49990625,0.3773204037347855,2.67370508833989e-22
-0.499875,0.3773204037347855,1.170330507049295e-21
-0.49984375,0.3771613261523101,4.189412095733203e-21
-0.4998125,0.3772408649435478,1.283333844523112e-20
-0.49978125,0.3772408649435478,3.472301624386806e-20
-0.49975,0.3773999425260233,8.49257114961347e-20
-0.49971875,0.3773204037347855,1.910668493291439e-19
-0.4996875,0.3772408649435478,4.007777374281568e-19
-0.49965625,0.3773204037347855,7.921141355676481e-19
-0.499625,0.3773204037347855,1.487656406701351e-18
-0.49959375,0.3773999425260233,2.673076989585502e-18
-0.4995625,0.3773204037347855,4.621035131199214e-18
-0.49953125,0.3773204037347855,7.72133221156614e-18
-0.4995,0.3773204037347855,1.251833358584036e-17
-0.49946875,0.3773999425260233,1.975673466262026e-17
-0.4994375,0.3773204037347855,3.043681994147058e-17
-0.49940625,0.3772408649435478,4.588043395649556e-17
-0.499375,0.3773204037347855,6.780895252500835e-17
-0.49934375,0.3773204037347855,9.843461138774827e-17
-0.4993125,0.3773999425260233,1.405666172555072e-16
-0.49928125,0.3773204037347855,1.97733533449823e-16
-0.49925,0.377479481317261,2.743234987422087e-16
-0.49921875,0.3773999425260233,3.757439036545562e-16
-0.4991875,0.3773999425260233,5.086022133818464e-16
-0.49915625,0.3773204037347855,6.809096906395849e-16
-0.499125,0.377479481317261,9.023098351252974e-16
-0.49909375,0.377479481317261,1.184333418916391e-15
-0.4990625,0.3773999425260233,1.540682059007203e-15
-0.49903125,0.3773999425260233,1.987542329322241e-15
-0.499,0.3773204037347855,2.543932474938376e-15
-0.49896875,0.3773999425260233,3.232083850911928e-15
-0.4989375,0.3773999425260233,4.077859267041134e-15
-0.49890625,0.3773204037347855,5.111210478103335e-15
-0.498875,0.3773204037347855,6.366677116591496e-15
-0.49884375,0.3772408649435478,7.883929421739198e-15
-0.4988125,0.3773204037347855,9.708357174670619e-15
-0.49878125,0.3772408649435478,1.18917073048438e-14
-0.49875,0.3771613261523101,1.449277268757224e-14
-0.49871875,0.3771613261523101,1.757813470631482e-14
-0.4986875,0.3773204037347855,2.122296220662555e-14
-0.49865625,0.3772408649435478,2.55118695211618e-14
-0.498625,0.3772408649435478,3.053983629697092e-14
-0.49859375,0.3734230029641369,3.641319190741441e-14
-0.4985625,0.3735025417553747,4.325066728154612e-14
-0.49853125,0.3735025417553747,5.118451703353351e-14
-0.4985,0.3733434641728993,6.036171482379686e-14
-0.49846875,0.3734230029641369,7.094522493194042e-14
-0.4984375,0.3733434641728993,8.311535306926927e-14
-0.49840625,0.3731843865904238,9.707117950572997e-14
-0.498375,0.3733434641728993,1.130320776324932e-13
-0.49834375,0.3734230029641369,1.312393211271131e-13
-0.4983125,0.3734230029641369,1.519577829332534e-13
-0.49828125,0.3732639253816615,1.754777293113641e-13
-0.49825,0.3732639253816615,2.021167122604249e-13
-0.49821875,0.3734230029641369,2.322215636539473e-13
-0.4981875,0.3734230029641369,2.661704944758533e-13
-0.49815625,0.3734230029641369,3.043753025836404e-13
-0.498125,0.3731843865904238,3.472836924673931e-13
-0.49809375,0.3731048477991861,3.953817105137177e-13
-0.4980625,0.3731048477991861,4.491962993235554e-13
-0.49803125,0.3732639253816615,5.092979746720668e-13
-0.498,0.3732639253816615,5.763036287373857e-13
-0.49796875,0.3733434641728993,6.508794632629991e-13
-0.4979375,0.3732639253816615,7.33744056355846e-13
-0.49790625,0.3731843865904238,8.256715666589296e-13
-0.497875,0.3730253090079483,9.274950786733243e-13
-0.49784375,0.3731843865904238,1.04011009303994e-12
-0.4978125,0.3731048477991861,1.164478165626273e-12
-0.49778125,0.3731843865904238,1.301630699297626e-12
-0.49775,0.3731048477991861,1.452672892285931e-12
-0.49771875,0.3731048477991861,1.618787847102332e-12
-0.4976875,0.3731048477991861,1.80124084397212e-12
-0.49765625,0.3730253090079483,2.001383782802461e-12
-0.497625,0.3731843865904238,2.220659797724601e-12
-0.49759375,0.3731048477991861,2.460608048282891e-12
-0.4975625,0.3730253090079483,2.722868691373076e-12
-0.49753125,0.3731843865904238,3.009188038061754e-12
-0.4975,0.3731048477991861,3.321423899447828e-12
-0.49746875,0.3730253090079483,3.661551125755077e-12
-0.4974375,0.3730253090079483,4.031667342872707e-12
-0.49740625,0.3730253090079483,4.433998890587926e-12
-0.497375,0.3729457702167106,4.870906966781193e-12
-0.49734375,0.3730253090079483,5.34489398188086e-12
-0.4973125,0.3731048477991861,5.858610127899415e-12
-0.49728125,0.3730253090079483,6.414860166398505e-12
-0.49725,0.3730253090079483,7.016610439754291e-12
-0.49721875,0.3727866926342351,7.666996110118542e-12
-0.4971875,0.3728662314254729,8.369328630494153e-12
-0.49715625,0.3728662314254729,9.12710345236654e-12
-0.497125,0.3729457702167106,9.944007974354482e-12
-0.49709375,0.3728662314254729,1.082392973636578e-11
-0.4970625,0.3727866926342351,1.177096486376406e-11
-0.49703125,0.3728662314254729,1.278942676607379e-11
-0.497,0.3727866926342351,1.388385509477062e-11
-0.49696875,0.3727866926342351,1.505902496472359e-11
-0.4969375,0.3727866926342351,1.631995644387496e-11
-0.49690625,0.3727071538429974,1.767192431576169e-11
-0.496875,0.3727071538429974,1.912046811950083e-11
-0.49684375,0.3727071538429974,2.067140247187826e-11
-0.4968125,0.3727071538429974,2.233082767619739e-11
-0.49678125,0.3726276150517597,2.410514062256093e-11
-0.49675,0.372548076260522,2.600104598427442e-11
-0.49671875,0.372548076260522,2.80255677150761e-11
-0.4966875,0.3727071538429974,3.018606085191237e-11
-0.49665625,0.372548076260522,3.249022362799263e-11
-0.496625,0.3726276150517597,3.494610990087122e-11
-0.49659375,0.3726276150517597,3.756214190031759e-11
-0.4965625,0.3726276150517597,4.034712330074887e-11
-0.49653125,0.3726276150517597,4.331025262301149e-11
-0.4965,0.372548076260522,4.646113697031022e-11
-0.49646875,0.372548076260522,4.98098061030951e-11
-0.4964375,0.3724685374692843,5.336672685772697e-11
-0.49640625,0.3724685374692843,5.714281791375357e-11
-0.496375,0.372548076260522,6.114946491463791e-11
-0.49634375,0.3723889986780465,6.539853594679031e-11
-0.4963125,0.3723889986780465,6.990239738176486e-11
-0.49628125,0.372548076260522,7.467393008648909e-11
-0.49625,0.3723889986780465,7.972654600640508e-11
-0.49621875,0.3723889986780465,8.507420512640651e-11
-0.4961875,0.3723094598868088,9.073143281446456e-11
-0.49615625,0.3723094598868088,9.671333755284233e-11
-0.496125,0.3723094598868088,1.030356290618028e-10
-0.49609375,0.3722299210955711,1.09714636820723e-10
-0.4960625,0.3722299210955711,1.16767328991531e-10
-0.49603125,0.3722299210955711,1.242113317493881e-10
-0.496,0.3722299210955711,1.32064949025544e-10
-0.49596875,0.3721503823043333,1.403471826672954e-10
-0.4959375,0.3722299210955711,1.490777530199826e-10
-0.49590625,0.3721503823043333,1.582771199359641e-10
-0.495875,0.3722299210955711,1.679665042155089e-10
-0.49584375,0.3722299210955711,1.7816790948455e-10
-0.4958125,0.3722299210955711,1.889041445142473e-10
-0.49578125,0.3720708435130956,2.00198845987304e-10
-0.49575,0.3720708435130956,2.120765017159881e-10
-0.49571875,0.3722299210955711,2.245624743168064e-10
-0.4956875,0.3721503823043333,2.376830253467823e-10
-0.49565625,0.3719913047218579,2.514653399062866e-10
-0.495625,0.3720708435130956,2.659375517133712e-10
-0.49559375,0.3720708435130956,2.811287686545539e-10
-0.4955625,0.3719913047218579,2.970690988170022e-10
-0.49553125,0.3720708435130956,3.137896770070621e-10
-0.4955,0.3722299210955711,3.313226917600754e-10
-0.49546875,0.3720708435130956,3.497014128464268e-10
-0.4954375,0.3720708435130956,3.689602192787607e-10
-0.49540625,0.3720708435130956,3.891346278253006e-10
-0.495375,0.3720708435130956,4.102613220342065e-10
-0.49534375,0.3720708435130956,4.323781817738944e-10
-0.4953125,0.3720708435130956,4.555243132942446e-10
-0.49528125,0.3719913047218579,4.797400798136157e-10
-0.49525,0.3719913047218579,5.050671326365783e-10
-0.49521875,0.3719117659306201,5.315484428072774e-10
-0.4951875,0.3720708435130956,5.592283333033241e-10
-0.49515625,0.3721503823043333,5.881525117751169e-10
-0.495125,0.3721503823043333,6.183681038354737e-10
-0.49509375,0.3719913047218579,6.499236869044688e-10
-0.4950625,0.3719117659306201,6.828693246143396e-10
-0.49503125,0.3721503823043333,7.172566017793356e-10
-0.495,0.3721503823043333,7.531386599353717e-10
-0.49496875,0.3720708435130956,7.905702334543282e-10
-0.4949375,0.3719117659306201,8.296076862378507e-10
-0.49490625,0.3720708435130956,8.703090489954748e-10
-0.494875,0.3720708435130956,9.12734057111905e-10
-0.49484375,0.3721503823043333,9.569441891082574e-10
-0.4948125,0.3720708435130956,1.003002705702074e-09
-0.49478125,0.3719913047218579,1.050974689470902e-09
-0.49475,0.3720708435130956,1.100927085124212e-09
-0.49471875,0.3720708435130956,1.15292874038845e-09
-0.4946875,0.3719913047218579,1.207050447509951e-09
-0.49465625,0.3721503823043333,1.263364985380488e-09
-0.494625,0.3720708435130956,1.321947162290184e-09
-0.49459375,0.3719913047218579,1.382873859312508e-09
-0.4945625,0.3721503823043333,1.446224074326075e-09
-0.49453125,0.3721503823043333,1.512078966677931e-09
-0.4945,0.3721503823043333,1.580521902493037e-09
-0.49446875,0.3721503823043333,1.651638500634581e-09
-0.4944375,0.3722299210955711,1.725516679319822e-09
-0.49440625,0.3719913047218579,1.80224670339607e-09
-0.494375,0.3720708435130956,1.881921232281452e-09
-0.49434375,0.3720708435130956,1.964635368575063e-09
-0.4943125,0.3721503823043333,2.050486707341123e-09
-0.49428125,0.3721503823043333,2.13957538607168e-09
-0.49425,0.3721503823043333,2.232004135332479e-09
-0.49421875,0.3720708435130956,2.327878330096498e-09
-0.4941875,0.3721503823043333,2.427306041769715e-09
-0.49415625,0.3721503823043333,2.530398090913615e-09
-0.494125,0.3722299210955711,2.637268100668927e-09
-0.49409375,0.3721503823043333,2.748032550885095e-09
-0.4940625,0.3722299210955711,2.862810832959919e-09
-0.49403125,0.3722299210955711,2.981725305393843e-09
-0.494,0.3721503823043333,3.104901350063297e-09
-0.49396875,0.3722299210955711,3.232467429217514e-09
-0.4939375,0.3722299210955711,3.364555143203208e-09
-0.49390625,0.3722299210955711,3.50129928892149e-09
-0.493875,0.3723094598868088,3.642837919021379e-09
-0.49384375,0.3723889986780465,3.789312401834225e-09
-0.4938125,0.3723889986780465,3.940867482053386e-09
-0.49378125,0.3722299210955711,4.097651342163415e-09
-0.49375,0.3723094598868088,4.259815664623077e-09
-0.49371875,0.3721503823043333,4.427515694806405e-09
-0.4936875,0.3723094598868088,4.600910304706057e-09
-0.49365625,0.3722299210955711,4.780162057403169e-09
-0.493625,0.3723889986780465,4.965437272307907e-09
-0.49359375,0.3724685374692843,5.156906091174868e-09
-0.4935625,0.3724685374692843,5.354742544897494e-09
-0.49353125,0.3723889986780465,5.559124621085615e-09
-0.4935,0.3723889986780465,5.770234332430227e-09
-0.49346875,0.3724685374692843,5.988257785859564e-09
-0.4934375,0.372548076260522,6.213385252490568e-09
-0.49340625,0.372548076260522,6.445811238379723e-09
-0.493375,0.3724685374692843,6.685734556077329e-09
-0.49334375,0.3724685374692843,6.933358396989164e-09
-0.4933125,0.3723889986780465,7.188890404549486e-09
-0.49328125,0.3724685374692843,7.452542748209365e-09
-0.49325,0.3726276150517597,7.724532198244209e-09
-0.49321875,0.372548076260522,8.005080201384395e-09
-0.4931875,0.372548076260522,8.29441295727286e-09
-0.49315625,0.372548076260522,8.592761495753519e-09
-0.493125,0.372548076260522,8.900361754994302e-09
-0.49309375,0.3724685374692843,9.217454660448582e-09
-0.4930625,0.3726276150517597,9.544286204658811e-09
-0.49303125,0.3727071538429974,9.881107527906057e-09
-0.493,0.3726276150517597,1.022817499970918e-08
-0.49296875,0.372548076260522,1.058575030117729e-08
-0.4929375,0.3726276150517597,1.095410050821928e-08
-0.49290625,0.3727071538429974,1.13334981756138e-08
-0.492875,0.3726276150517597,1.172422142194363e-08
-0.49284375,0.372548076260522,1.212655401539774e-08
-0.4928125,0.3726276150517597,1.254078546044469e-08
-0.49278125,0.3726276150517597,1.2967211085381e-08
-0.49275,0.3726276150517597,1.340613213075778e-08
-0.49271875,0.3726276150517597,1.385785583868929e-08
-0.4926875,0.3727866926342351,1.432269554304672e-08
-0.49265625,0.3728662314254729,1.480097076054072e-08
-0.492625,0.3727071538429974,1.529300728269596e-08
-0.49259375,0.3727071538429974,1.579913726872119e-08
-0.4925625,0.3726276150517597,1.631969933927799e-08
-0.49253125,0.372548076260522,1.685503867115168e-08
-0.4925,0.3726276150517597,1.740550709282748e-08
-0.49246875,0.3727071538429974,1.797146318097532e-08
-0.4924375,0.3727866926342351,1.855327235784637e-08
-0.49240625,0.3727071538429974,1.91513069895846e-08
-0.492375,0.3728662314254729,1.97659464854564e-08
-0.49234375,0.3729457702167106,2.039757739800155e-08
-0.4923125,0.3728662314254729,2.10465935241084e-08
-0.49228125,0.3727866926342351,2.171339600701652e-08
-0.49225,0.3728662314254729,2.239839343924975e-08
-0.49221875,0.3728662314254729,2.310200196648276e-08
-0.4921875,0.3727866926342351,2.382464539234385e-08
-0.49215625,0.3727071538429974,2.456675528415726e-08
-0.492125,0.3727071538429974,2.532877107962758e-08
-0.49209375,0.3728662314254729,2.611114019446937e-08
-0.4920625,0.3728662314254729,2.691431813098478e-08
-0.49203125,0.3728662314254729,2.773876858759179e-08
-0.492,0.3728662314254729,2.858496356930617e-08
-0.49196875,0.3729457702167106,2.945338349917969e-08
-0.4919375,0.3727866926342351,3.034451733069737e-08
-0.49190625,0.3727866926342351,3.125886266113639e-08
-0.491875,0.3727866926342351,3.219692584588947e-08
-0.49184375,0.3729457702167106,3.315922211375513e-08
-0.4918125,0.3729457702167106,3.414627568319761e-08
-0.49178125,0.3729457702167106,3.515861987957884e-08
-0.49175,0.3730253090079483,3.619679725336517e-08
-0.49171875,0.3730253090079483,3.726135969931114e-08
-0.4916875,0.3728662314254729,3.83528685766229e-08
-0.49165625,0.3728662314254729,3.947189483010362e-08
-0.491625,0.3727866926342351,4.061901911228339e-08
-0.49159375,0.3728662314254729,4.179483190653576e-08
-0.4915625,0.3728662314254729,4.299993365118351e-08
-0.49153125,0.3728662314254729,4.423493486459571e-08
-0.4915,0.3728662314254729,4.550045627127839e-08
-0.49146875,0.3727866926342351,4.679712892896119e-08
-0.4914375,0.3727866926342351,4.812559435668195e-08
-0.49140625,0.3727866926342351,4.948650466387144e-08
-0.491375,0.3727866926342351,5.088052268044062e-08
-0.49134375,0.3727071538429974,5.230832208787199e-08
-0.4913125,0.3727866926342351,5.377058755131771e-08
-0.49128125,0.3728662314254729,5.526801485270588e-08
-0.49125,0.3730253090079483,5.68013110248575e-08
-0.49121875,0.3730253090079483,5.837119448661561e-08
-0.4911875,0.3729457702167106,5.997839517898893e-08
-0.49115625,0.3730253090079483,6.16236547023114e-08
-0.491125,0.3729457702167106,6.330772645442003e-08
-0.49109375,0.3728662314254729,6.503137576985232e-08
-0.4910625,0.3731048477991861,6.679538006006528e-08
-0.49103125,0.3731048477991861,6.860052895467799e-08
-0.491,0.3732639253816615,7.04476244437388e-08
-0.49096875,0.3731843865904238,7.233748102101951e-08
-0.4909375,0.3731843865904238,7.427092582833764e-08
-0.49090625,0.3731843865904238,7.62487988009087e-08
-0.490875,0.3730253090079483,7.827195281372983e-08
-0.49084375,0.3731843865904238,8.034125382899637e-08
-0.4908125,0.3732639253816615,8.245758104455297e-08
-0.49078125,0.3731843865904238,8.462182704338047e-08
-0.49075,0.3733434641728993,8.683489794412002e-08
-0.49071875,0.3733434641728993,8.909771355263608e-08
-0.4906875,0.3732639253816615,9.14112075146191e-08
-0.49065625,0.3731843865904238,9.377632746922977e-08
-0.490625,0.3731843865904238,9.619403520378559e-08
-0.49059375,0.3731843865904238,9.866530680949147e-08
-0.4905625,0.3733434641728993,1.01191132838215e-07
-0.49053125,0.3734230029641369,1.03772518460308e-07
-0.4905,0.3732639253816615,1.064104836234756e-07
-0.49046875,0.3734230029641369,1.091060632126926e-07
-0.4904375,0.3733434641728993,1.118603072111709e-07
-0.49040625,0.3733434641728993,1.146742808623751e-07
-0.490375,0.3734230029641369,1.175490648330918e-07
-0.49034375,0.3734230029641369,1.204857553775488e-07
-0.4903125,0.3734230029641369,1.234854645025897e-07
-0.49028125,0.3735025417553747,1.265493201339001e-07
-0.49025,0.3734230029641369,1.29678466283291e-07
-0.49021875,0.3733434641728993,1.328740632170361e-07
-0.4901875,0.3733434641728993,1.36137287625266e-07
-0.49015625,0.3734230029641369,1.394693327924195e-07
-0.490125,0.3735820805466124,1.428714087687526e-07
-0.49009375,0.3734230029641369,1.463447425429054e-07
-0.4900625,0.3734230029641369,1.498905782155285e-07
-0.49003125,0.3734230029641369,1.535101771739688e-07
-0.49,0.3734230029641369,1.572048182680146e-07
-0.48996875,0.3734230029641369,1.609757979867021e-07
-0.4899375,0.3734230029641369,1.648244306361818e-07
-0.48990625,0.3734230029641369,1.687520485186476e-07
-0.489875,0.3735025417553747,1.727600021123259e-07
-0.48984375,0.3734230029641369,1.768496602525276e-07
-0.4898125,0.3734230029641369,1.810224103137628e-07
-0.48978125,0.3734230029641369,1.852796583929169e-07
-0.48975,0.3734230029641369,1.8962282949349e-07
-0.48971875,0.3733434641728993,1.940533677108997e-07
-0.4896875,0.3734230029641369,1.985727364188461e-07
-0.48965625,0.3732639253816615,2.031824184567399e-07
-0.489625,0.3734230029641369,2.078839163181947e-07
-0.48959375,0.3732639253816615,2.126787523405815e-07
-0.4895625,0.3734230029641369,2.175684688956466e-07
-0.48953125,0.3734230029641369,2.225546285811932e-07
-0.4895,0.3734230029641369,2.276388144138248e-07
-0.48946875,0.3733434641728993,2.32822630022753e-07
-0.4894375,0.3735025417553747,2.38107699844667e-07
-0.48940625,0.3733434641728993,2.434956693196658e-07
-0.489375,0.3734230029641369,2.489882050882527e-07
-0.48934375,0.3734230029641369,2.54586995189392e-07
-0.4893125,0.3734230029641369,2.602937492596269e-07
-0.48928125,0.3734230029641369,2.66110198733259e-07
-0.48925,0.3734230029641369,2.720380970435887e-07
-0.48921875,0.3734230029641369,2.780792198252154e-07
-0.4891875,0.3734230029641369,2.842353651173988e-07
-0.48915625,0.3732639253816615,2.905083535684784e-07
-0.489125,0.3733434641728993,2.969000286413523e-07
-0.48909375,0.3735025417553747,3.034122568200149e-07
-0.4890625,0.3734230029641369,3.100469278171513e-07
-0.48903125,0.3734230029641369,3.168059547827885e-07
-0.489,0.3735025417553747,3.236912745140042e-07
-0.48896875,0.3734230029641369,3.3070484766569e-07
-0.4889375,0.3732639253816615,3.37848658962369e-07
-0.48890625,0.3732639253816615,3.451247174110681e-07
-0.488875,0.3732639253816615,3.525350565152427e-07
-0.48884375,0.3733434641728993,3.600817344897542e-07
-0.4888125,0.3733434641728993,3.677668344768973e-07
-0.48878125,0.3734230029641369,3.75592464763479e-07
-0.48875,0.3733434641728993,3.835607589989457e-07
-0.48871875,0.3733434641728993,3.916738764145586e-07
-0.4886875,0.3732639253816615,3.999340020436163e-07
-0.48865625,0.3734230029641369,4.083433469427228e-07
-0.488625,0.3732639253816615,4.169041484141005e-07
-0.48859375,0.3732639253816615,4.256186702289466e-07
-0.4885625,0.3732639253816615,4.344892028518313e-07
-0.48853125,0.3732639253816615,4.435180636661375e-07
-0.4885,0.3732639253816615,4.527075972005393e-07
-0.48846875,0.3733434641728993,4.620601753565194e-07
-0.4884375,0.3734230029641369,4.715781976369227e-07
-0.48840625,0.3734230029641369,4.812640913755454e-07
-0.488375,0.3732639253816615,4.911203119677586e-07
