Task5_120Hz_200mV_45+10.csv

#Digilent WaveForms Oscilloscope Acquisition
#Device Name: Discovery3
#Serial Number: SN:210415BD63A1
#Date Time: 2026-09-24 11:18:57.775.761.650
#Sample rate: 32000Hz
#Samples: 32000
#Trigger: Source: Channel 1 Type: Edge Condition: Rising Level: 0 V Hyst.: Auto HoldOff: 0 s
#Channel 1: Range: 500 mV/div Offset: 0 V Sample Mode: Average
#Math 1: Input: C1 Reference: Internal Frequency: 20 Hz Phase: 90 ° Filter: IIR Butterworth 8  Low-Pass CutOff: 5 Hz Output: Amplitude

#Wavegen Channel 1: Running
#Mode: Simple
#Type: Sine
#Frequency: 20 Hz
#Period: 50 ms
#Amplitude: 200 mV
#Offset: 0 V
#Symmetry: 50 %
#Phase: 0 °

Time (s),Channel 1 (V),Math 1 (V)
-0.5,0.343198262293801,1.1564229996997e-27
-0.49996875,0.3435164174587519,1.965282826676773e-26
-0.4999375,0.3435164174587519,1.675676182263044e-25
-0.49990625,0.3434368786675142,9.62277595124993e-25
-0.499875,0.3434368786675142,4.213577961191598e-24
-0.49984375,0.3433573398762764,1.508912958557831e-23
-0.4998125,0.3433573398762764,4.624136936891183e-23
-0.49978125,0.3434368786675142,1.251693604789383e-22
-0.49975,0.3434368786675142,3.062790791481319e-22
-0.49971875,0.3435164174587519,6.893941696087888e-22
-0.4996875,0.3434368786675142,1.446756243124324e-21
-0.49965625,0.3434368786675142,2.860839341787945e-21
-0.499625,0.3434368786675142,5.375587224226409e-21
-0.49959375,0.3434368786675142,9.663964661542234e-21
-0.4995625,0.3434368786675142,1.671499497756623e-20
-0.49953125,0.3435959562499896,2.794373564803994e-20
-0.4995,0.3435164174587519,4.532792188403233e-20
-0.49946875,0.3434368786675142,7.157528473916673e-20
-0.4994375,0.3435164174587519,1.103258253829025e-19
-0.49940625,0.3435164174587519,1.663936007858718e-19
-0.499375,0.3435959562499896,2.46052848188503e-19
-0.49934375,0.3435959562499896,3.573735463804893e-19
-0.4993125,0.3435959562499896,5.106117810119169e-19
-0.49928125,0.3435959562499896,7.186605488958049e-19
-0.49925,0.3437550338324651,9.97566902551423e-19
-0.49921875,0.3435959562499896,1.367121601076885e-18
-0.4991875,0.3436754950412274,1.851527696823284e-18
-0.49915625,0.3435959562499896,2.480154749260882e-18
-0.499125,0.3435164174587519,3.288385617870247e-18
-0.49909375,0.3436754950412274,4.318563044859945e-18
-0.4990625,0.3436754950412274,5.621043496022437e-18
-0.49903125,0.3435164174587519,7.255365984104137e-18
-0.499,0.3436754950412274,9.291543853685614e-18
-0.49896875,0.3435959562499896,1.181148775973949e-17
-0.4989375,0.3435959562499896,1.491056832375251e-17
-0.49890625,0.3435959562499896,1.869932720155918e-17
-0.498875,0.3435959562499896,2.330534554583474e-17
-0.49884375,0.3436754950412274,2.887527909354464e-17
-0.4988125,0.3438345726237028,3.557706935456039e-17
-0.49878125,0.3437550338324651,4.36023406221332e-17
-0.49875,0.3404144046004806,5.316899276895951e-17
-0.49871875,0.340573482182956,6.452400003417313e-17
-0.4986875,0.340573482182956,7.794642624675909e-17
-0.49865625,0.340573482182956,9.375066716960208e-17
-0.498625,0.3406530209741938,1.122899308856552e-16
-0.49859375,0.3406530209741938,1.339599673835535e-16
-0.4985625,0.3407325597654315,1.592030587344181e-16
-0.49853125,0.3407325597654315,1.885122814845993e-16
-0.4985,0.3406530209741938,2.224360531206876e-16
-0.49846875,0.3407325597654315,2.615829746932636e-16
-0.4984375,0.3406530209741938,3.066269819145721e-16
-0.49840625,0.340573482182956,3.583128172725866e-16
-0.498375,0.3406530209741938,4.174618359297947e-16
-0.49834375,0.340573482182956,4.849781583994814e-16
-0.4983125,0.3406530209741938,5.618551832153637e-16
-0.49828125,0.340573482182956,6.491824730321013e-16
-0.49825,0.340573482182956,7.481530278144871e-16
-0.49821875,0.3406530209741938,8.600709589919851e-16
-0.4981875,0.3407325597654315,9.863595786727106e-16
-0.49815625,0.3407325597654315,1.128569918226975e-15
-0.498125,0.3407325597654315,1.288389690765109e-15
-0.49809375,0.3408120985566692,1.467652712247464e-15
-0.4980625,0.3406530209741938,1.668348796176295e-15
-0.49803125,0.3406530209741938,1.892634137029606e-15
-0.498,0.3406530209741938,2.142842197806098e-15
-0.49796875,0.3406530209741938,2.421495117257942e-15
-0.4979375,0.3406530209741938,2.731315652594377e-15
-0.49790625,0.3408120985566692,3.075239673643969e-15
-0.497875,0.3407325597654315,3.456429224666868e-15
-0.49784375,0.3408120985566692,3.878286170210551e-15
-0.4978125,0.3407325597654315,4.344466441603343e-15
-0.49778125,0.3407325597654315,4.8588949008794e-15
-0.49775,0.3408120985566692,5.425780839126823e-15
-0.49771875,0.3406530209741938,6.049634126447208e-15
-0.4976875,0.3406530209741938,6.735282030910256e-15
-0.49765625,0.3408120985566692,7.487886724080975e-15
-0.497625,0.3408120985566692,8.312963490889606e-15
-0.49759375,0.3407325597654315,9.216399661805608e-15
-0.4975625,0.3407325597654315,1.020447428546683e-14
-0.49753125,0.3408120985566692,1.128387856010352e-14
-0.4975,0.3406530209741938,1.246173704228394e-14
-0.49746875,0.3406530209741938,1.374562965169436e-14
-0.4974375,0.3407325597654315,1.514361449085039e-14
-0.49740625,0.3407325597654315,1.666425149882033e-14
-0.497375,0.3408120985566692,1.831662695822244e-14
-0.49734375,0.3408120985566692,2.011037887493899e-14
-0.4973125,0.3408916373479069,2.205572325016883e-14
-0.49728125,0.3408916373479069,2.416348126461805e-14
-0.49725,0.3409711761391446,2.644510739480487e-14
-0.49721875,0.3408916373479069,2.891271848162989e-14
-0.4971875,0.3408916373479069,3.157912377153695e-14
-0.49715625,0.3408916373479069,3.445785595076203e-14
-0.497125,0.3408916373479069,3.756320319333918e-14
-0.49709375,0.3408120985566692,4.091024224370213e-14
-0.4970625,0.3408120985566692,4.451487255488885e-14
-0.49703125,0.3408120985566692,4.839385150352374e-14
-0.497,0.3409711761391446,5.256483070291782e-14
-0.49696875,0.3408916373479069,5.704639343579223e-14
-0.4969375,0.3410507149303824,6.185809322829357e-14
-0.49690625,0.3409711761391446,6.702049358713146e-14
-0.496875,0.3410507149303824,7.255520892183039e-14
-0.49684375,0.3408916373479069,7.848494667424606e-14
-0.4968125,0.3409711761391446,8.483355067765618e-14
-0.49678125,0.3408916373479069,9.162604576789098e-14
-0.49675,0.3408916373479069,9.888868366912637e-14
-0.49671875,0.3407325597654315,1.066489901771143e-13
-0.4966875,0.3409711761391446,1.149358136627809e-13
-0.49665625,0.3408916373479069,1.23779374919272e-13
-0.496625,0.3408916373479069,1.332113183756782e-13
-0.49659375,0.3408916373479069,1.432647647008194e-13
-0.4965625,0.3408916373479069,1.539743648206181e-13
-0.49653125,0.3408120985566692,1.653763553727351e-13
-0.4965,0.3408916373479069,1.775086156222902e-13
-0.49646875,0.3408120985566692,1.904107258626304e-13
-0.4964375,0.3408120985566692,2.041240273252551e-13
-0.49640625,0.3409711761391446,2.186916836231454e-13
-0.496375,0.3408916373479069,2.341587437518895e-13
-0.49634375,0.3408916373479069,2.505722066731294e-13
-0.4963125,0.3408916373479069,2.67981087504999e-13
-0.49628125,0.3408916373479069,2.86436485344353e-13
-0.49625,0.3408916373479069,3.059916527457265e-13
-0.49621875,0.3408120985566692,3.267020668820975e-13
-0.4961875,0.3408916373479069,3.486255024126556e-13
-0.49615625,0.3408916373479069,3.718221060829145e-13
-0.496125,0.3409711761391446,3.963544730826339e-13
-0.49609375,0.3408120985566692,4.222877251871468e-13
-0.4960625,0.3408120985566692,4.496895907078147e-13
-0.49603125,0.3408916373479069,4.786304862774606e-13
-0.496,0.3408916373479069,5.091836004967553e-13
-0.49596875,0.3408916373479069,5.414249794676542e-13
-0.4959375,0.3408916373479069,5.754336142401105e-13
-0.49590625,0.3408120985566692,6.112915301984038e-13
-0.495875,0.3407325597654315,6.490838784135505e-13
-0.49584375,0.3406530209741938,6.888990289883796e-13
-0.4958125,0.3406530209741938,7.308286664219725e-13
-0.49578125,0.3407325597654315,7.749678870202883e-13
-0.49575,0.3407325597654315,8.214152983799028e-13
-0.49571875,0.3408916373479069,8.702731209719138e-13
-0.4956875,0.3409711761391446,9.216472918531675e-13
-0.49565625,0.3407325597654315,9.756475705320841e-13
-0.495625,0.3408120985566692,1.032387647016461e-12
-0.49559375,0.3407325597654315,1.091985252070746e-12
-0.4955625,0.3408120985566692,1.154562269710385e-12
-0.49553125,0.3407325597654315,1.220244851960945e-12
-0.4955,0.3408120985566692,1.289163535909831e-12
-0.49546875,0.3408120985566692,1.361453363078515e-12
-0.4954375,0.3407325597654315,1.437254001143285e-12
-0.49540625,0.3407325597654315,1.516709868032661e-12
-0.495375,0.3407325597654315,1.599970258429684e-12
-0.49534375,0.3406530209741938,1.687189472707398e-12
-0.4953125,0.3406530209741938,1.778526948325972e-12
-0.49528125,0.3407325597654315,1.874147393719952e-12
-0.49525,0.3408120985566692,1.974220924704286e-12
-0.49521875,0.3407325597654315,2.078923203427809e-12
-0.4951875,0.3406530209741938,2.188435579903017e-12
-0.49515625,0.3407325597654315,2.302945236141006e-12
-0.495125,0.3408916373479069,2.422645332920583e-12
-0.49509375,0.3407325597654315,2.547735159220618e-12
-0.4950625,0.3406530209741938,2.67842028434481e-12
-0.49503125,0.3407325597654315,2.814912712768122e-12
-0.495,0.3408120985566692,2.957431041734235e-12
-0.49496875,0.3407325597654315,3.10620062163344e-12
-0.4949375,0.3406530209741938,3.26145371919049e-12
-0.49490625,0.3406530209741938,3.423429683492013e-12
-0.494875,0.3407325597654315,3.592375114883151e-12
-0.49484375,0.3404939433917183,3.768544036763208e-12
-0.4948125,0.3404939433917183,3.952198070310119e-12
-0.49478125,0.340573482182956,4.1436066121637e-12
-0.49475,0.3406530209741938,4.343047015097624e-12
-0.49471875,0.340573482182956,4.550804771710253e-12
-0.4946875,0.3406530209741938,4.767173701164425e-12
-0.49465625,0.340573482182956,4.992456139006461e-12
-0.494625,0.3404939433917183,5.226963130094651e-12
-0.49459375,0.340573482182956,5.471014624667622e-12
-0.4945625,0.340573482182956,5.724939677583e-12
-0.49453125,0.3404939433917183,5.989076650756887e-12
-0.4945,0.3403348658092428,6.263773418834733e-12
-0.49446875,0.3404144046004806,6.549387578124242e-12
-0.4944375,0.3404939433917183,6.846286658821027e-12
-0.49440625,0.3404939433917183,7.154848340557778e-12
-0.494375,0.3408120985566692,7.475460671307814e-12
-0.49434375,0.340573482182956,7.808522289673884e-12
-0.4943125,0.3404939433917183,8.154442650593214e-12
-0.49428125,0.3404144046004806,8.513642254489804e-12
-0.49425,0.3403348658092428,8.886552879905074e-12
-0.49421875,0.340573482182956,9.273617819638009e-12
-0.4941875,0.3404144046004806,9.675292120425983e-12
-0.49415625,0.340573482182956,1.009204282619754e-11
-0.494125,0.3404144046004806,1.052434922492844e-11
-0.49409375,0.3404939433917183,1.097270309913232e-11
-0.4940625,0.3404939433917183,1.143760898001745e-11
-0.49403125,0.340573482182956,1.191958440534094e-11
-0.494,0.3404144046004806,1.241916018099209e-11
-0.49396875,0.3402553270180051,1.293688064633628e-11
-0.4939375,0.3402553270180051,1.347330394335116e-11
-0.49390625,0.3404144046004806,1.40290022895867e-11
-0.493875,0.3402553270180051,1.460456225498094e-11
-0.49384375,0.3402553270180051,1.520058504256309e-11
-0.4938125,0.3403348658092428,1.581768677307582e-11
-0.49378125,0.3402553270180051,1.645649877354862e-11
-0.49375,0.3402553270180051,1.711766786985415e-11
-0.49371875,0.3402553270180051,1.780185668327934e-11
-0.4936875,0.3403348658092428,1.850974393114346e-11
-0.49365625,0.3402553270180051,1.924202473149503e-11
-0.493625,0.3402553270180051,1.999941091191958e-11
-0.49359375,0.3401757882267674,2.078263132249048e-11
-0.4935625,0.3402553270180051,2.159243215289486e-11
-0.49353125,0.3403348658092428,2.242957725376683e-11
-0.4935,0.3403348658092428,2.329484846226018e-11
-0.49346875,0.3400962494355296,2.418904593189274e-11
-0.4934375,0.3400167106442919,2.511298846669477e-11
-0.49340625,0.3401757882267674,2.606751385969352e-11
-0.493375,0.3400962494355296,2.705347923576642e-11
-0.49334375,0.3400167106442919,2.807176139889515e-11
-0.4933125,0.3399371718530542,2.912325718385295e-11
-0.49328125,0.3401757882267674,3.020888381235774e-11
-0.49325,0.3402553270180051,3.132957925372316e-11
-0.49321875,0.3399371718530542,3.248630259004036e-11
-0.4931875,0.3400962494355296,3.368003438592272e-11
-0.49315625,0.3400962494355296,3.491177706284607e-11
-0.493125,0.3400167106442919,3.618255527811706e-11
-0.49309375,0.3399371718530542,3.749341630850201e-11
-0.4930625,0.3399371718530542,3.884543043854903e-11
-0.49303125,0.3398576330618165,4.023969135363563e-11
-0.493,0.3398576330618165,4.16773165377749e-11
-0.49296875,0.3400167106442919,4.315944767621247e-11
-0.4929375,0.3400167106442919,4.4687251062847e-11
-0.49290625,0.3398576330618165,4.626191801250689e-11
-0.492875,0.3397780942705788,4.78846652781159e-11
-0.49284375,0.339698555479341,4.955673547278005e-11
-0.4928125,0.339698555479341,5.127939749682897e-11
-0.49278125,0.339698555479341,5.305394696984389e-11
-0.49275,0.3397780942705788,5.488170666770531e-11
-0.49271875,0.339698555479341,5.676402696469291e-11
-0.4926875,0.3397780942705788,5.870228628067037e-11
-0.49265625,0.339698555479341,6.069789153338798e-11
-0.492625,0.3397780942705788,6.275227859593551e-11
-0.49259375,0.3397780942705788,6.486691275937843e-11
-0.4925625,0.339698555479341,6.704328920060982e-11
-0.49253125,0.3396190166881033,6.928293345545098e-11
-0.4925,0.3394599391056278,7.158740189703331e-11
-0.49246875,0.3395394778968656,7.395828221949442e-11
-0.4924375,0.3396190166881033,7.639719392702067e-11
-0.49240625,0.339698555479341,7.890578882826983e-11
-0.492375,0.3396190166881033,8.148575153620541e-11
-0.49234375,0.3395394778968656,8.413879997337653e-11
-0.4923125,0.3396190166881033,8.686668588267507e-11
-0.49228125,0.3395394778968656,8.967119534360355e-11
-0.49225,0.3396190166881033,9.255414929408599e-11
-0.49221875,0.3395394778968656,9.551740405785484e-11
-0.4921875,0.3396190166881033,9.856285187744619e-11
-0.49215625,0.3395394778968656,1.016924214528364e-10
-0.492125,0.3395394778968656,1.049080784857527e-10
-0.49209375,0.3395394778968656,1.082118262296902e-10
-0.4920625,0.3396190166881033,1.116057060456683e-10
-0.49203125,0.3395394778968656,1.150917979637588e-10
-0.492,0.3396190166881033,1.186722212504188e-10
-0.49196875,0.3395394778968656,1.223491349816605e-10
-0.4919375,0.3395394778968656,1.261247386220907e-10
-0.49190625,0.3395394778968656,1.300012726098528e-10
-0.491875,0.3395394778968656,1.339810189475035e-10
-0.49184375,0.3396190166881033,1.38066301798857e-10
-0.4918125,0.3396190166881033,1.422594880918293e-10
-0.49178125,0.339698555479341,1.465629881273142e-10
-0.49175,0.3396190166881033,1.509792561941253e-10
-0.49171875,0.3396190166881033,1.555107911900347e-10
-0.4916875,0.3395394778968656,1.601601372489417e-10
-0.49165625,0.3396190166881033,1.649298843742036e-10
-0.491625,0.3398576330618165,1.698226690781617e-10
-0.49159375,0.3398576330618165,1.748411750278933e-10
-0.4915625,0.339698555479341,1.799881336972242e-10
-0.49153125,0.3397780942705788,1.852663250250317e-10
-0.4915,0.3397780942705788,1.906785780798727e-10
-0.49146875,0.339698555479341,1.962277717309669e-10
-0.4914375,0.3397780942705788,2.019168353255691e-10
-0.49140625,0.3399371718530542,2.077487493727617e-10
-0.491375,0.339698555479341,2.137265462337006e-10
-0.49134375,0.3397780942705788,2.198533108183452e-10
-0.4913125,0.3396190166881033,2.261321812887057e-10
-0.49128125,0.3397780942705788,2.325663497686394e-10
-0.49125,0.3396190166881033,2.391590630602285e-10
-0.49121875,0.3396190166881033,2.459136233667703e-10
-0.4911875,0.3397780942705788,2.528333890224127e-10
-0.49115625,0.339698555479341,2.599217752284664e-10
-0.491125,0.3397780942705788,2.671822547964265e-10
-0.49109375,0.3397780942705788,2.746183588977341e-10
-0.4910625,0.3397780942705788,2.822336778203101e-10
-0.49103125,0.3399371718530542,2.900318617318941e-10
-0.491,0.3398576330618165,2.980166214502184e-10
-0.49096875,0.3398576330618165,3.061917292200498e-10
-0.4909375,0.3398576330618165,3.145610194971301e-10
-0.49090625,0.3397780942705788,3.231283897390488e-10
-0.490875,0.3397780942705788,3.318978012030758e-10
-0.49084375,0.3397780942705788,3.408732797509894e-10
-0.4908125,0.3399371718530542,3.500589166609301e-10
-0.49078125,0.3398576330618165,3.594588694463083e-10
-0.49075,0.3398576330618165,3.690773626818028e-10
-0.49071875,0.3399371718530542,3.789186888364771e-10
-0.4906875,0.3398576330618165,3.889872091140463e-10
-0.49065625,0.3399371718530542,3.992873543003254e-10
-0.490625,0.3399371718530542,4.098236256178909e-10
-0.49059375,0.3397780942705788,4.20600595587986e-10
-0.4905625,0.3398576330618165,4.316229088997003e-10
-0.49053125,0.3399371718530542,4.428952832864564e-10
-0.4905,0.3400167106442919,4.544225104098318e-10
-0.49046875,0.3400167106442919,4.662094567507493e-10
-0.4904375,0.3399371718530542,4.782610645080662e-10
-0.49040625,0.3400167106442919,4.905823525045915e-10
-0.490375,0.3399371718530542,5.031784171005638e-10
-0.49034375,0.3400962494355296,5.160544331146196e-10
-0.4903125,0.3401757882267674,5.292156547522827e-10
-0.49028125,0.3401757882267674,5.426674165420049e-10
-0.49025,0.3400962494355296,5.564151342787881e-10
-0.49021875,0.3401757882267674,5.704643059754205e-10
-0.4901875,0.3400962494355296,5.848205128213537e-10
-0.49015625,0.3401757882267674,5.994894201492537e-10
-0.490125,0.3400962494355296,6.14476778409255e-10
-0.49009375,0.3400962494355296,6.297884241509473e-10
-0.4900625,0.3400962494355296,6.454302810131267e-10
-0.49003125,0.3403348658092428,6.614083607213389e-10
-0.49,0.3400962494355296,6.777287640932461e-10
-0.48996875,0.3401757882267674,6.943976820518477e-10
-0.4899375,0.3400962494355296,7.11421396646582e-10
-0.48990625,0.3400962494355296,7.288062820823432e-10
-0.489875,0.3401757882267674,7.465588057564375e-10
-0.48984375,0.3401757882267674,7.646855293035135e-10
-0.4898125,0.3400962494355296,7.831931096484926e-10
-0.48978125,0.3401757882267674,8.020883000675295e-10
-0.48975,0.3401757882267674,8.213779512570347e-10
-0.48971875,0.3400962494355296,8.410690124107843e-10
-0.4896875,0.3400962494355296,8.611685323051493e-10
-0.48965625,0.3400962494355296,8.816836603924722e-10
-0.489625,0.3401757882267674,9.0262164790262e-10
-0.48959375,0.3401757882267674,9.239898489527436e-10
-0.4895625,0.3401757882267674,9.457957216652708e-10
-0.48953125,0.3401757882267674,9.680468292941632e-10
-0.4895,0.3401757882267674,9.907508413594644e-10
-0.48946875,0.3401757882267674,1.01391553479017e-09
-0.4894375,0.3401757882267674,1.037548795075444e-09
-0.48940625,0.3400167106442919,1.061658617424221e-09
-0.489375,0.3400962494355296,1.086253107933199e-09
-0.48934375,0.3401757882267674,1.111340484763286e-09
-0.4893125,0.3400962494355296,1.136929079324491e-09
-0.48928125,0.3400167106442919,1.163027337469321e-09
-0.48925,0.3402553270180051,1.189643820694684e-09
-0.48921875,0.3402553270180051,1.216787207352352e-09
-0.4891875,0.3402553270180051,1.244466293867982e-09
-0.48915625,0.3402553270180051,1.272689995968757e-09
-0.489125,0.3402553270180051,1.301467349919646e-09
-0.48909375,0.3402553270180051,1.330807513768326e-09
-0.4890625,0.3402553270180051,1.360719768598787e-09
-0.48903125,0.3402553270180051,1.391213519793652e-09
-0.489,0.3401757882267674,1.422298298305233e-09
-0.48896875,0.3404144046004806,1.453983761935367e-09
-0.4889375,0.3404144046004806,1.486279696624026e-09
-0.48890625,0.3404144046004806,1.519196017746764e-09
-0.488875,0.3404939433917183,1.552742771421013e-09
-0.48884375,0.3404144046004806,1.586930135821241e-09
-0.4888125,0.3404144046004806,1.621768422503031e-09
-0.48878125,0.3404144046004806,1.657268077736068e-09
-0.48875,0.3404939433917183,1.693439683846103e-09
-0.48871875,0.340573482182956,1.730293960565882e-09
-0.4886875,0.3404939433917183,1.767841766395093e-09
-0.48865625,0.3404939433917183,1.806094099969343e-09
-0.488625,0.3404144046004806,1.845062101438199e-09
-0.48859375,0.3404939433917183,1.884757053852312e-09
-0.4885625,0.3404939433917183,1.925190384559662e-09
-0.48853125,0.340573482182956,1.96637366661093e-09
-0.4885,0.340573482182956,2.008318620174047e-09
-0.48846875,0.340573482182956,2.051037113957923e-09
-0.4884375,0.3404144046004806,2.094541166645401e-09
-0.48840625,0.3404144046004806,2.138842948335444e-09
-0.488375,0.3404144046004806,2.183954781994598e-09
