Task5_45+10.csv

#Digilent WaveForms Oscilloscope Acquisition
#Device Name: Discovery3
#Serial Number: SN:210415BD63A1
#Date Time: 2026-09-24 10:53:15.827.068.070
#Sample rate: 32000Hz
#Samples: 32000
#Trigger: Source: Channel 1 Type: Edge Condition: Rising Level: 0 V Hyst.: Auto HoldOff: 0 s
#Channel 1: Range: 500 mV/div Offset: 0 V Sample Mode: Average
#Math 1: Input: C1 Reference: Internal Frequency: 20 Hz Phase: 90 ° Filter: IIR Butterworth 8  Low-Pass CutOff: 10 Hz Output: Amplitude

#Wavegen Channel 1: Running
#Mode: Simple
#Type: Sine
#Frequency: 20 Hz
#Period: 50 ms
#Amplitude: 200 mV
#Offset: 0 V
#Symmetry: 50 %
#Phase: 0 °

Time (s),Channel 1 (V),Math 1 (V)
-0.5,0.335642077126217,2.776805982567831e-25
-0.49996875,0.3354829995437415,4.717773426349118e-24
-0.4999375,0.3355625383349792,4.0213425970449e-23
-0.49990625,0.3355625383349792,2.308535316923847e-22
-0.499875,0.3355625383349792,1.010484305294475e-21
-0.49984375,0.3355625383349792,3.617209836519434e-21
-0.4998125,0.335642077126217,1.108054896456337e-20
-0.49978125,0.3354829995437415,2.998066570150987e-20
-0.49975,0.3354829995437415,7.332737004854306e-20
-0.49971875,0.3355625383349792,1.649741614535788e-19
-0.4996875,0.335642077126217,3.460494571479755e-19
-0.49965625,0.335642077126217,6.839533152381368e-19
-0.499625,0.3355625383349792,1.28453343309562e-18
-0.49959375,0.3355625383349792,2.308118979409217e-18
-0.4995625,0.3355625383349792,3.990154905564249e-18
-0.49953125,0.335642077126217,6.667242783106394e-18
-0.4995,0.335642077126217,1.080945693785894e-17
-0.49946875,0.3354829995437415,1.705986670788488e-17
-0.4994375,0.3355625383349792,2.628225704736199e-17
-0.49940625,0.3357216159174547,3.961810043090885e-17
-0.499375,0.335642077126217,5.855389307926426e-17
-0.49934375,0.335642077126217,8.500002792472885e-17
-0.4993125,0.3355625383349792,1.21382435463659e-16
-0.49928125,0.3355625383349792,1.707482817057236e-16
-0.49925,0.3357216159174547,2.368870698290559e-16
-0.49921875,0.3357216159174547,3.244685488933629e-16
-0.4991875,0.335642077126217,4.391988890580888e-16
-0.49915625,0.3357216159174547,5.879966382060558e-16
-0.499125,0.3357216159174547,7.791900296871955e-16
-0.49909375,0.335642077126217,1.022737265073353e-15
-0.4990625,0.3357216159174547,1.330471449354838e-15
-0.49903125,0.3355625383349792,1.71637190891334e-15
-0.499,0.3355625383349792,2.196863674876412e-15
-0.49896875,0.3357216159174547,2.791146966100719e-15
-0.4989375,0.3357216159174547,3.521558557049503e-15
-0.49890625,0.3357216159174547,4.413966966226578e-15
-0.498875,0.335642077126217,5.498203450605144e-15
-0.49884375,0.3358011547086924,6.808530840646319e-15
-0.4988125,0.3357216159174547,8.38415229904294e-15
-0.49878125,0.3358806934999302,1.026976213425276e-14
-0.49875,0.3359602322911679,1.251614084720466e-14
-0.49871875,0.3359602322911679,1.518079663627455e-14
-0.4986875,0.3359602322911679,1.832865563173634e-14
-0.49865625,0.3359602322911679,2.203280317639907e-14
-0.498625,0.3359602322911679,2.637527851404716e-14
-0.49859375,0.3359602322911679,3.144792529160882e-14
-0.4985625,0.3358806934999302,3.735330032469307e-14
-0.49853125,0.3358806934999302,4.420564311926104e-14
-0.4985,0.3359602322911679,5.213190868473958e-14
-0.49846875,0.3358806934999302,6.127286621584673e-14
-0.4984375,0.3360397710824056,7.178426626178114e-14
-0.49840625,0.3358806934999302,8.383807904223424e-14
-0.498375,0.3359602322911679,9.762380660991177e-14
-0.49834375,0.3358806934999302,1.133498715989028e-13
-0.4983125,0.3359602322911679,1.312450853373101e-13
-0.49828125,0.3358806934999302,1.515601981410638e-13
-0.49825,0.3358806934999302,1.745695346437784e-13
-0.49821875,0.3359602322911679,2.005727170548946e-13
-0.4981875,0.3360397710824056,2.29896479275165e-13
-0.49815625,0.3359602322911679,2.628965748348095e-13
-0.498125,0.3206092455822867,2.999597816553753e-13
-0.49809375,0.3206092455822867,3.415060066714968e-13
-0.4980625,0.3206887843735244,3.87990493383361e-13
-0.49803125,0.3206092455822867,4.399061354447507e-13
-0.498,0.3206092455822867,4.97785899425059e-13
-0.49796875,0.3206092455822867,5.62205359916657e-13
-0.4979375,0.3206887843735244,6.337853501914443e-13
-0.49790625,0.3206092455822867,7.131947316423409e-13
-0.497875,0.3206092455822867,8.011532852768656e-13
-0.49784375,0.3206092455822867,8.984347285608049e-13
-0.4978125,0.3206887843735244,1.005869860940315e-12
-0.49778125,0.320529706791049,1.124349841400594e-12
-0.49775,0.3206887843735244,1.254829601448551e-12
-0.49771875,0.3206092455822867,1.39833139693567e-12
-0.4976875,0.320529706791049,1.555948502165502e-12
-0.49765625,0.3206092455822867,1.728849049757961e-12
-0.497625,0.320529706791049,1.918280019769788e-12
-0.49759375,0.3206092455822867,2.125571381597265e-12
-0.4975625,0.3206092455822867,2.352140392213437e-12
-0.49753125,0.3206092455822867,2.599496054317808e-12
-0.4975,0.3206092455822867,2.869243738001667e-12
-0.49746875,0.3204501679998112,3.163089969556906e-12
-0.4974375,0.3206092455822867,3.482847391080408e-12
-0.49740625,0.3206887843735244,3.830439894549778e-12
-0.497375,0.3206092455822867,4.207907934069474e-12
-0.49734375,0.3206092455822867,4.617414020009052e-12
-0.4973125,0.3206887843735244,5.061248398777588e-12
-0.49728125,0.3206092455822867,5.541834922000013e-12
-0.49725,0.3206092455822867,6.061737108882429e-12
-0.49721875,0.3207683231647622,6.623664405574235e-12
-0.4971875,0.3206887843735244,7.230478645355215e-12
-0.49715625,0.3207683231647622,7.885200713495579e-12
-0.497125,0.3207683231647622,8.591017420656322e-12
-0.49709375,0.3206887843735244,9.351288588716085e-12
-0.4970625,0.3206887843735244,1.016955435292924e-11
-0.49703125,0.3207683231647622,1.104954268433773e-11
-0.497,0.3207683231647622,1.199517713637672e-11
-0.49696875,0.3206887843735244,1.301058481963124e-11
-0.4969375,0.3207683231647622,1.410010460871734e-11
-0.49690625,0.3207683231647622,1.526829558527767e-11
-0.496875,0.3206887843735244,1.651994572109689e-11
-0.49684375,0.3206092455822867,1.786008080535742e-11
-0.4968125,0.3207683231647622,1.929397362007137e-11
-0.49678125,0.3208478619559999,2.082715336773792e-11
-0.49675,0.3207683231647622,2.246541535529029e-11
-0.49671875,0.3207683231647622,2.421483093840926e-11
-0.4966875,0.3206887843735244,2.60817577302933e-11
-0.49665625,0.3208478619559999,2.807285007898846e-11
-0.496625,0.3208478619559999,3.01950698173926e-11
-0.49659375,0.3210069395384753,3.245569729006094e-11
-0.4965625,0.3210069395384753,3.486234266095092e-11
-0.49653125,0.3208478619559999,3.742295750625516e-11
-0.4965,0.3209274007472376,4.014584669648215e-11
-0.49646875,0.3208478619559999,4.303968057195412e-11
-0.4964375,0.3209274007472376,4.611350741590096e-11
-0.49640625,0.3209274007472376,4.937676622933895e-11
-0.496375,0.3208478619559999,5.283929981193095e-11
-0.49634375,0.3209274007472376,5.651136815303411e-11
-0.4963125,0.3209274007472376,6.04036621371482e-11
-0.49628125,0.3209274007472376,6.452731756798604e-11
-0.49625,0.3210069395384753,6.889392951539391e-11
-0.49621875,0.3210069395384753,7.351556698935769e-11
-0.4961875,0.321086478329713,7.840478794533531e-11
-0.49615625,0.3210069395384753,8.357465462516377e-11
-0.496125,0.3209274007472376,8.903874923779316e-11
-0.49609375,0.3210069395384753,9.481118998410651e-11
-0.4960625,0.3209274007472376,1.009066474300879e-10
-0.49603125,0.3209274007472376,1.073403612326068e-10
-0.496,0.3208478619559999,1.141281572220899e-10
-0.49596875,0.3210069395384753,1.212864648463557e-10
-0.4959375,0.321086478329713,1.288323349798897e-10
-0.49590625,0.321086478329713,1.36783458102843e-10
-0.495875,0.3210069395384753,1.451581828540368e-10
-0.49584375,0.3210069395384753,1.539755349622588e-10
-0.4958125,0.321086478329713,1.632552365601406e-10
-0.49578125,0.3211660171209508,1.730177258849048e-10
-0.49575,0.3211660171209508,1.832841773702706e-10
-0.49571875,0.3210069395384753,1.940765221338123e-10
-0.4956875,0.3210069395384753,2.054174688640582e-10
-0.49565625,0.3211660171209508,2.173305251116247e-10
-0.495625,0.3211660171209508,2.298400189886737e-10
-0.49559375,0.3211660171209508,2.429711212809864e-10
-0.4955625,0.3210069395384753,2.567498679769402e-10
-0.49553125,0.3211660171209508,2.712031832176778e-10
-0.4955,0.3211660171209508,2.863589026727548e-10
-0.49546875,0.3213250947034262,3.022457973455484e-10
-0.4954375,0.3212455559121885,3.188935978127101e-10
-0.49540625,0.3212455559121885,3.363330189019391e-10
-0.495375,0.3211660171209508,3.545957848123537e-10
-0.49534375,0.3213250947034262,3.737146546817317e-10
-0.4953125,0.3212455559121885,3.937234486048875e-10
-0.49528125,0.321086478329713,4.146570741074507e-10
-0.49525,0.321086478329713,4.36551553079304e-10
-0.49521875,0.3211660171209508,4.59444049171938e-10
-0.4951875,0.321086478329713,4.833728956639677e-10
-0.49515625,0.321086478329713,5.083776237990587e-10
-0.495125,0.3211660171209508,5.344989916004998e-10
-0.49509375,0.3212455559121885,5.61779013166653e-10
-0.4950625,0.321086478329713,5.902609884515067e-10
-0.49503125,0.3211660171209508,6.199895335345535e-10
-0.495,0.321086478329713,6.510106113842007e-10
-0.49496875,0.3212455559121885,6.833715631189195e-10
-0.4949375,0.3211660171209508,7.171211397703309e-10
-0.49490625,0.3211660171209508,7.523095345524146e-10
-0.494875,0.3211660171209508,7.889884156410235e-10
-0.49484375,0.3212455559121885,8.272109594678741e-10
-0.4948125,0.3211660171209508,8.670318845331779e-10
-0.49478125,0.3211660171209508,9.085074857410642e-10
-0.49475,0.3211660171209508,9.51695669261943e-10
-0.49471875,0.321086478329713,9.966559879259384e-10
-0.4946875,0.3212455559121885,1.04344967715152e-09
-0.49465625,0.3212455559121885,1.092139691413447e-09
-0.494625,0.3211660171209508,1.14279074125412e-09
-0.49459375,0.321086478329713,1.19546933084245e-09
-0.4945625,0.3210069395384753,1.250243796084309e-09
-0.49453125,0.3211660171209508,1.307184343288638e-09
-0.4945,0.3212455559121885,1.366363088393278e-09
-0.49446875,0.3212455559121885,1.427854096754552e-09
-0.4944375,0.3212455559121885,1.491733423504657e-09
-0.49440625,0.3211660171209508,1.558079154480861e-09
-0.494375,0.3211660171209508,1.62697144773053e-09
-0.49434375,0.3212455559121885,1.698492575595976e-09
-0.4943125,0.3211660171209508,1.772726967383106e-09
-0.49428125,0.3211660171209508,1.849761252617835e-09
-0.49425,0.3213250947034262,1.929684304894237e-09
-0.49421875,0.3212455559121885,2.012587286318339e-09
-0.4941875,0.3212455559121885,2.098563692551527e-09
-0.49415625,0.3212455559121885,2.18770939845743e-09
-0.494125,0.3213250947034262,2.28012270435622e-09
-0.49409375,0.3211660171209508,2.37590438289017e-09
-0.4940625,0.3211660171209508,2.475157726504367e-09
-0.49403125,0.3211660171209508,2.577988595546408e-09
-0.494,0.3212455559121885,2.684505466988921e-09
-0.49396875,0.3211660171209508,2.794819483778735e-09
-0.4939375,0.3211660171209508,2.909044504816484e-09
-0.49390625,0.3212455559121885,3.027297155570442e-09
-0.493875,0.3212455559121885,3.149696879328353e-09
-0.49384375,0.3212455559121885,3.276365989091011e-09
-0.4938125,0.3212455559121885,3.407429720111301e-09
-0.49378125,0.3211660171209508,3.543016283082455e-09
-0.49375,0.3212455559121885,3.683256917979186e-09
-0.49371875,0.3213250947034262,3.828285948555395e-09
-0.4936875,0.3211660171209508,3.978240837502115e-09
-0.49365625,0.3211660171209508,4.133262242269322e-09
-0.493625,0.3212455559121885,4.29349407155525e-09
-0.49359375,0.3212455559121885,4.459083542466808e-09
-0.4935625,0.3212455559121885,4.630181238354691e-09
-0.49353125,0.3211660171209508,4.80694116732674e-09
-0.4935,0.3211660171209508,4.989520821443114e-09
-0.49346875,0.321086478329713,5.178081236596794e-09
-0.4934375,0.3211660171209508,5.372787053082911e-09
-0.49340625,0.3210069395384753,5.573806576860415e-09
-0.493375,0.3209274007472376,5.781311841509542e-09
-0.49334375,0.3210069395384753,5.995478670888496e-09
-0.4933125,0.3209274007472376,6.216486742492818e-09
-0.49328125,0.3210069395384753,6.444519651520818e-09
-0.49325,0.321086478329713,6.679764975648448e-09
-0.49321875,0.321086478329713,6.922414340517007e-09
-0.4931875,0.3212455559121885,7.17266348593699e-09
-0.49315625,0.321086478329713,7.430712332811411e-09
-0.493125,0.3210069395384753,7.696765050781892e-09
-0.49309375,0.3210069395384753,7.971030126600809e-09
-0.4930625,0.3210069395384753,8.253720433232721e-09
-0.49303125,0.3210069395384753,8.545053299688325e-09
-0.493,0.321086478329713,8.845250581594169e-09
-0.49296875,0.321086478329713,9.154538732501233e-09
-0.4929375,0.321086478329713,9.473148875935644e-09
-0.49290625,0.321086478329713,9.801316878194582e-09
-0.492875,0.3210069395384753,1.013928342189049e-08
-0.49284375,0.3209274007472376,1.048729408024677e-08
-0.4928125,0.3209274007472376,1.084559939214791e-08
-0.49278125,0.3210069395384753,1.121445493794715e-08
-0.49275,0.321086478329713,1.159412141603474e-08
-0.49271875,0.3210069395384753,1.198486472016974e-08
-0.4926875,0.321086478329713,1.238695601757824e-08
-0.49265625,0.3209274007472376,1.280067182782121e-08
-0.492625,0.3210069395384753,1.322629410243456e-08
-0.49259375,0.3210069395384753,1.366411030534465e-08
-0.4925625,0.3208478619559999,1.411441349406177e-08
-0.49253125,0.3210069395384753,1.457750240165481e-08
-0.4925,0.3209274007472376,1.505368151950958e-08
-0.49246875,0.3210069395384753,1.554326118087385e-08
-0.4924375,0.3210069395384753,1.604655764519175e-08
-0.49240625,0.3209274007472376,1.656389318323025e-08
-0.492375,0.3208478619559999,1.709559616300057e-08
-0.49234375,0.3210069395384753,1.764200113647701e-08
-0.4923125,0.321086478329713,1.820344892711614e-08
-0.49228125,0.3210069395384753,1.878028671817867e-08
-0.49225,0.3209274007472376,1.937286814185687e-08
-0.49221875,0.3208478619559999,1.998155336921002e-08
-0.4921875,0.3207683231647622,2.060670920091039e-08
-0.49215625,0.3208478619559999,2.124870915880244e-08
-0.492125,0.3208478619559999,2.190793357827764e-08
-0.49209375,0.3208478619559999,2.258476970146732e-08
-0.4920625,0.3208478619559999,2.327961177125616e-08
-0.49203125,0.3206092455822867,2.399286112611868e-08
-0.492,0.3207683231647622,2.472492629578104e-08
-0.49196875,0.3206887843735244,2.547622309771062e-08
-0.4919375,0.3208478619559999,2.624717473443575e-08
-0.49190625,0.3206887843735244,2.703821189169771e-08
-0.491875,0.3206887843735244,2.784977283743754e-08
-0.49184375,0.3206887843735244,2.868230352161973e-08
-0.4918125,0.3206092455822867,2.953625767689507e-08
-0.49178125,0.3206092455822867,3.041209692010486e-08
-0.49175,0.3206887843735244,3.131029085462876e-08
-0.49171875,0.3206092455822867,3.223131717357809e-08
-0.4916875,0.3206887843735244,3.317566176383715e-08
-0.49165625,0.3206887843735244,3.414381881095433e-08
-0.491625,0.3206092455822867,3.513629090488506e-08
-0.49159375,0.3206092455822867,3.615358914658884e-08
-0.4915625,0.320529706791049,3.719623325548218e-08
-0.49153125,0.3206092455822867,3.826475167774936e-08
-0.4915,0.3204501679998112,3.935968169551321e-08
-0.49146875,0.3206092455822867,4.04815695368675e-08
-0.4914375,0.3204501679998112,4.163097048677305e-08
-0.49140625,0.320529706791049,4.280844899881929e-08
-0.491375,0.320529706791049,4.401457880785313e-08
-0.49134375,0.3206092455822867,4.524994304347694e-08
-0.4913125,0.320529706791049,4.651513434441742e-08
-0.49128125,0.320529706791049,4.78107549737669e-08
-0.49125,0.3204501679998112,4.913741693509907e-08
-0.49121875,0.3203706292085735,5.049574208946067e-08
-0.4911875,0.3201320128348604,5.188636227324059e-08
-0.49115625,0.3202910904173358,5.330991941691833e-08
-0.491125,0.3202115516260981,5.476706566469317e-08
-0.49109375,0.3202115516260981,5.625846349499562e-08
-0.4910625,0.3200524740436226,5.778478584188275e-08
-0.49103125,0.3202910904173358,5.934671621731885e-08
-0.491,0.3200524740436226,6.094494883434274e-08
-0.49096875,0.3201320128348604,6.25801887311234e-08
-0.4909375,0.3201320128348604,6.425315189590514e-08
-0.49090625,0.3201320128348604,6.596456539284363e-08
-0.490875,0.3199729352523849,6.771516748873442e-08
-0.49084375,0.3199729352523849,6.950570778063465e-08
-0.4908125,0.3199729352523849,7.133694732438006e-08
-0.49078125,0.3200524740436226,7.320965876399768e-08
-0.49075,0.3198933964611472,7.512462646201592e-08
-0.49071875,0.3198933964611472,7.70826466306733e-08
-0.4906875,0.3199729352523849,7.908452746402638e-08
-0.49065625,0.3198933964611472,8.113108927095873e-08
-0.490625,0.3198933964611472,8.322316460909154e-08
-0.49059375,0.3199729352523849,8.536159841959687e-08
-0.4905625,0.3199729352523849,8.754724816291512e-08
-0.49053125,0.3197343188786717,8.978098395537696e-08
-0.4905,0.3198138576699094,9.206368870673115e-08
-0.49046875,0.3197343188786717,9.439625825857902e-08
-0.4904375,0.3198933964611472,9.677960152371651e-08
-0.49040625,0.3198138576699094,9.921464062638475e-08
-0.490375,0.3198138576699094,1.017023110434295e-07
-0.49034375,0.3197343188786717,1.04243561746371e-07
-0.4903125,0.319654780087434,1.068393553443846e-07
-0.49028125,0.3197343188786717,1.094906682281924e-07
-0.49025,0.3197343188786717,1.121984907148677e-07
-0.49021875,0.3197343188786717,1.149638271935519e-07
-0.4901875,0.3197343188786717,1.17787696272085e-07
-0.49015625,0.3198138576699094,1.206711309245502e-07
-0.490125,0.319654780087434,1.23615178639733e-07
-0.49009375,0.3195752412961962,1.266209015704956e-07
-0.4900625,0.319654780087434,1.29689376684067e-07
-0.49003125,0.3195752412961962,1.328216959132488e-07
-0.49,0.319654780087434,1.360189663085382e-07
-0.48996875,0.319654780087434,1.392823101911674e-07
-0.4899375,0.319654780087434,1.426128653070605e-07
-0.48990625,0.319654780087434,1.460117849817081e-07
-0.489875,0.319654780087434,1.494802382759597e-07
-0.48984375,0.319654780087434,1.530194101427345e-07
-0.4898125,0.3195752412961962,1.566305015846502e-07
-0.48978125,0.319654780087434,1.603147298125712e-07
-0.48975,0.319654780087434,1.640733284050749e-07
-0.48971875,0.3197343188786717,1.679075474688368e-07
-0.4896875,0.3197343188786717,1.718186537999359e-07
-0.48965625,0.3197343188786717,1.758079310460775e-07
-0.489625,0.319654780087434,1.798766798697362e-07
-0.48959375,0.3197343188786717,1.84026218112218e-07
-0.4895625,0.3197343188786717,1.88257880958641e-07
-0.48953125,0.3197343188786717,1.925730211038356e-07
-0.4895,0.3195752412961962,1.969730089191635e-07
-0.48946875,0.3195752412961962,2.014592326202554e-07
-0.4894375,0.3197343188786717,2.060330984356675e-07
-0.48940625,0.319654780087434,2.106960307764562e-07
-0.489375,0.319654780087434,2.154494724066717e-07
-0.48934375,0.319654780087434,2.202948846147684e-07
-0.4893125,0.3197343188786717,2.252337473859344e-07
-0.48928125,0.319654780087434,2.302675595753365e-07
-0.48925,0.3195752412961962,2.353978390822845e-07
-0.48921875,0.3194957025049585,2.406261230253095e-07
-0.4891875,0.319654780087434,2.459539679181606e-07
-0.48915625,0.3197343188786717,2.513829498467156e-07
-0.489125,0.3197343188786717,2.569146646468081e-07
-0.48909375,0.319654780087434,2.62550728082968e-07
-0.4890625,0.3197343188786717,2.682927760280777e-07
-0.48903125,0.3198933964611472,2.741424646439396e-07
-0.489,0.3198138576699094,2.801014705627591e-07
-0.48896875,0.3198138576699094,2.861714910695371e-07
-0.4889375,0.3198138576699094,2.92354244285376e-07
-0.48890625,0.3198138576699094,2.986514693516955e-07
-0.488875,0.3198138576699094,3.050649266153588e-07
-0.48884375,0.3195752412961962,3.115963978147073e-07
-0.4888125,0.319654780087434,3.182476862665046e-07
-0.48878125,0.3198933964611472,3.250206170537875e-07
-0.48875,0.3198138576699094,3.319170372146235e-07
-0.48871875,0.3198933964611472,3.38938815931774e-07
-0.4886875,0.3198933964611472,3.460878447232625e-07
-0.48865625,0.3198138576699094,3.533660376338469e-07
-0.488625,0.3198933964611472,3.607753314273927e-07
-0.48859375,0.3199729352523849,3.683176857801501e-07
-0.4885625,0.3198933964611472,3.759950834749299e-07
-0.48853125,0.3200524740436226,3.838095305961799e-07
-0.4885,0.3198933964611472,3.91763056725959e-07
-0.48846875,0.3200524740436226,3.998577151408077e-07
-0.4884375,0.3199729352523849,4.080955830095162e-07
-0.48840625,0.3198933964611472,4.164787615917851e-07
-0.488375,0.3198933964611472,4.250093764377804e-07
