Task5_20Hz_500mV_45+10.csv

#Digilent WaveForms Oscilloscope Acquisition
#Device Name: Discovery3
#Serial Number: SN:210415BD63A1
#Date Time: 2026-09-24 11:20:38.299.602.710
#Sample rate: 32000Hz
#Samples: 32000
#Trigger: Source: Channel 1 Type: Edge Condition: Rising Level: 0 V Hyst.: Auto HoldOff: 0 s
#Channel 1: Range: 500 mV/div Offset: 0 V Sample Mode: Average
#Math 1: Input: C1 Reference: Internal Frequency: 20 Hz Phase: 90 ° Filter: IIR Butterworth 8  Low-Pass CutOff: 5 Hz Output: Amplitude

#Wavegen Channel 1: Running
#Mode: Simple
#Type: Sine
#Frequency: 20 Hz
#Period: 50 ms
#Amplitude: 500 mV
#Offset: 0 V
#Symmetry: 50 %
#Phase: 0 °

Time (s),Channel 1 (V),Math 1 (V)
-0.5,0.334767150422602,1.124061318033193e-27
-0.49996875,0.3348466892138397,1.910337766626593e-26
-0.4999375,0.3349262280050774,1.628866654759882e-25
-0.49990625,0.3348466892138397,9.354155827215606e-25
-0.499875,0.3348466892138397,4.096024482682259e-24
-0.49984375,0.3350057667963152,1.46683603408156e-23
-0.4998125,0.3350853055875529,4.495237583248606e-23
-0.49978125,0.3350057667963152,1.216811826383847e-22
-0.49975,0.3349262280050774,2.977454502984744e-22
-0.49971875,0.3349262280050774,6.701884816197055e-22
-0.4996875,0.3350057667963152,1.406454105757547e-21
-0.49965625,0.3349262280050774,2.781147110324053e-21
-0.499625,0.3350853055875529,5.225842080803743e-21
-0.49959375,0.3350057667963152,9.394751228196527e-21
-0.4995625,0.3350057667963152,1.624933506479225e-20
-0.49953125,0.3350057667963152,2.716521162995317e-20
-0.4995,0.3350057667963152,4.406499036940645e-20
-0.49946875,0.3350853055875529,6.958092573513741e-20
-0.4994375,0.3350853055875529,1.072515531056461e-19
-0.49940625,0.3350853055875529,1.617567357386505e-19
-0.499375,0.3349262280050774,2.391958161716183e-19
-0.49934375,0.3350853055875529,3.474138287849249e-19
-0.4993125,0.3350853055875529,4.96380992134022e-19
-0.49928125,0.3350057667963152,6.986309601323029e-19
-0.49925,0.3350853055875529,9.697635702212371e-19
-0.49921875,0.3351648443787906,1.329018084306722e-18
-0.4991875,0.3350057667963152,1.799923174481826e-18
-0.49915625,0.3351648443787906,2.411030160389632e-18
-0.499125,0.3350853055875529,3.196736258482391e-18
-0.49909375,0.3351648443787906,4.198204855393617e-18
-0.4990625,0.3350853055875529,5.464390068171794e-18
-0.49903125,0.3350057667963152,7.053173103247241e-18
-0.499,0.3386645511932506,9.032618173725427e-18
-0.49896875,0.3385850124020128,1.148235598092857e-17
-0.4989375,0.3386645511932506,1.449510301105546e-17
-0.49890625,0.3385850124020128,1.817832514139653e-17
-0.498875,0.3386645511932506,2.265605429271271e-17
-0.49884375,0.3386645511932506,2.807086710516348e-17
-0.4988125,0.3386645511932506,3.458603485457492e-17
-0.49878125,0.3386645511932506,4.238785406388369e-17
-0.49875,0.3386645511932506,5.168816750125355e-17
-0.49871875,0.3385850124020128,6.272708549160535e-17
-0.4986875,0.3386645511932506,7.57759177021226e-17
-0.49865625,0.3385850124020128,9.114032579471369e-17
-0.498625,0.3385850124020128,1.091637075694641e-16
-0.49859375,0.3386645511932506,1.302308234528129e-16
-0.4985625,0.3386645511932506,1.547716764125219e-16
-0.49853125,0.3386645511932506,1.832656566084609e-16
-0.4985,0.3385054736107751,2.162459623137931e-16
-0.49846875,0.3386645511932506,2.543043088653558e-16
-0.4984375,0.3385850124020128,2.98095937624876e-16
-0.49840625,0.3385850124020128,3.483449371541705e-16
-0.498375,0.3386645511932506,4.058498890276173e-16
-0.49834375,0.3386645511932506,4.714898509239824e-16
-0.4983125,0.3387440899844883,5.462306898571311e-16
-0.49828125,0.338823628775726,6.311317786212422e-16
-0.49825,0.3386645511932506,7.273530687408755e-16
-0.49821875,0.3385850124020128,8.361625534295996e-16
-0.4981875,0.3386645511932506,9.589441342729174e-16
-0.49815625,0.3385850124020128,1.09720590556192e-15
-0.498125,0.3385850124020128,1.252588870413467e-15
-0.49809375,0.3386645511932506,1.426876103020698e-15
-0.4980625,0.3386645511932506,1.622002371584354e-15
-0.49803125,0.3386645511932506,1.840064236680657e-15
-0.498,0.3385850124020128,2.083330640025446e-15
-0.49796875,0.3386645511932506,2.354253998796819e-15
-0.4979375,0.3385850124020128,2.655481820879781e-15
-0.49790625,0.3386645511932506,2.989868856596275e-15
-0.497875,0.3385850124020128,3.360489802682621e-15
-0.49784375,0.3386645511932506,3.770652574473574e-15
-0.4978125,0.3387440899844883,4.223912162448203e-15
-0.49778125,0.3384259348195374,4.724085089487311e-15
-0.49775,0.3385850124020128,5.275264485385413e-15
-0.49771875,0.3385054736107751,5.881835795352198e-15
-0.4976875,0.3384259348195374,6.548493139429077e-15
-0.49765625,0.3385850124020128,7.280256339935709e-15
-0.497625,0.3385054736107751,8.082488634249391e-15
-0.49759375,0.3384259348195374,8.960915090406921e-15
-0.4975625,0.3385054736107751,9.921641743203807e-15
-0.49753125,0.3384259348195374,1.097117546864989e-14
-0.4975,0.3384259348195374,1.211644461482305e-14
-0.49746875,0.3385850124020128,1.336482040734437e-14
-0.4974375,0.3384259348195374,1.472413914787805e-14
-0.49740625,0.3384259348195374,1.620272522423865e-14
-0.497375,0.3385054736107751,1.780941495086549e-14
-0.49734375,0.3384259348195374,1.955358125860074e-14
-0.4973125,0.3384259348195374,2.144515925288235e-14
-0.49728125,0.3385850124020128,2.349467265963707e-14
-0.49725,0.3385054736107751,2.57132611783309e-14
-0.49721875,0.3385850124020128,2.811270876180554e-14
-0.4971875,0.3385054736107751,3.070547284269952e-14
-0.49715625,0.3385054736107751,3.350471452642073e-14
-0.497125,0.3383463960282997,3.652432977080517e-14
-0.49709375,0.3385054736107751,3.97789815727618e-14
-0.4970625,0.3385054736107751,4.328413318236924e-14
-0.49703125,0.3386645511932506,4.705608236505251e-14
-0.497,0.3385850124020128,5.111199673263085e-14
-0.49696875,0.3383463960282997,5.546995016418837e-14
-0.4969375,0.338266857237062,6.01489603378791e-14
-0.49690625,0.3384259348195374,6.516902739493606e-14
-0.496875,0.3385054736107751,7.055117375731163e-14
-0.49684375,0.3385054736107751,7.63174851205319e-14
-0.4968125,0.338266857237062,8.249115264350237e-14
-0.49678125,0.338266857237062,8.909651635715587e-14
-0.49675,0.338266857237062,9.615910981398553e-14
-0.49671875,0.338266857237062,1.037057060006567e-13
-0.4966875,0.3383463960282997,1.117643645360404e-13
-0.49665625,0.338266857237062,1.203644801771612e-13
-0.496625,0.3381873184458242,1.29536832655696e-13
-0.49659375,0.3381077796545865,1.393136378678109e-13
-0.4965625,0.3381077796545865,1.497286004402628e-13
-0.49653125,0.3381873184458242,1.608169676958393e-13
-0.4965,0.3381873184458242,1.726155850413514e-13
-0.49646875,0.3381873184458242,1.851629528015342e-13
-0.4964375,0.3381077796545865,1.984992845223512e-13
-0.49640625,0.3381873184458242,2.12666566767334e-13
-0.496375,0.3381077796545865,2.277086204307309e-13
-0.49634375,0.3381873184458242,2.43671163591368e-13
-0.4963125,0.3381873184458242,2.606018759312663e-13
-0.49628125,0.3381077796545865,2.785504647431885e-13
-0.49625,0.3381873184458242,2.975687325514232e-13
-0.49621875,0.3381077796545865,3.177106463702442e-13
-0.4961875,0.3381077796545865,3.39032408624613e-13
-0.49615625,0.3381077796545865,3.615925297578216e-13
-0.496125,0.3380282408633488,3.854519025508983e-13
-0.49609375,0.3381077796545865,4.106738781787282e-13
-0.4960625,0.3381873184458242,4.373243440279631e-13
-0.49603125,0.3381077796545865,4.654718033019189e-13
-0.496,0.337948702072111,4.951874564377825e-13
-0.49596875,0.3380282408633488,5.265452843615733e-13
-0.4959375,0.3377896244896356,5.596221336064167e-13
-0.49590625,0.3377896244896356,5.944978033198169e-13
-0.495875,0.3378691632808733,6.312551341857249e-13
-0.49584375,0.3378691632808733,6.699800992873197e-13
-0.4958125,0.3378691632808733,7.107618969365305e-13
-0.49578125,0.337948702072111,7.536930454964492e-13
-0.49575,0.337948702072111,7.988694802228889e-13
-0.49571875,0.3377896244896356,8.463906521514568e-13
-0.4956875,0.3378691632808733,8.963596290566265e-13
-0.49565625,0.3377100856983978,9.488831985093948e-13
-0.495625,0.3377100856983978,1.004071973060222e-12
-0.49559375,0.3377100856983978,1.062040497574064e-12
-0.4955625,0.3378691632808733,1.122907358744397e-12
-0.49553125,0.3377896244896356,1.186795296813267e-12
-0.4955,0.3377100856983978,1.253831319524461e-12
-0.49546875,0.3377100856983978,1.324146818337042e-12
-0.4954375,0.3377100856983978,1.397877686926546e-12
-0.49540625,0.3377100856983978,1.475164442001296e-12
-0.495375,0.3375510081159224,1.556152346461314e-12
-0.49534375,0.3376305469071602,1.640991534927483e-12
-0.4953125,0.3377100856983978,1.729837141668651e-12
-0.49528125,0.3375510081159224,1.822849430954507e-12
-0.49525,0.3375510081159224,1.92019392986211e-12
-0.49521875,0.3375510081159224,2.022041563564089e-12
-0.4951875,0.337391930533447,2.128568793126595e-12
-0.49515625,0.337391930533447,2.239957755845179e-12
-0.495125,0.3374714693246847,2.356396408146881e-12
-0.49509375,0.3375510081159224,2.478078671086874e-12
-0.4950625,0.3375510081159224,2.605204578468114e-12
-0.49503125,0.337391930533447,2.737980427612531e-12
-0.495,0.3373123917422092,2.876618932812372e-12
-0.49496875,0.337391930533447,3.021339381490393e-12
-0.4949375,0.3374714693246847,3.17236779309771e-12
-0.49490625,0.3374714693246847,3.329937080778128e-12
-0.494875,0.3374714693246847,3.494287215827939e-12
-0.49484375,0.3373123917422092,3.665665394980186e-12
-0.4948125,0.337391930533447,3.844326210542508e-12
-0.49478125,0.337391930533447,4.03053182341774e-12
-0.49475,0.3372328529509715,4.22455213903654e-12
-0.49471875,0.3371533141597338,4.426664986231345e-12
-0.4946875,0.3371533141597338,4.637156299081099e-12
-0.49465625,0.337391930533447,4.8563203017562e-12
-0.494625,0.3372328529509715,5.084459696393233e-12
-0.49459375,0.3371533141597338,5.321885854029105e-12
-0.4945625,0.3371533141597338,5.568919008624263e-12
-0.49453125,0.3369942365772583,5.825888454204776e-12
-0.4945,0.3369942365772583,6.093132745153085e-12
-0.49446875,0.3369146977860206,6.370999899677304e-12
-0.4944375,0.3369146977860206,6.659847606489073e-12
-0.49440625,0.3369146977860206,6.960043434719923e-12
-0.494375,0.3368351589947829,7.27196504710628e-12
-0.49434375,0.3369146977860206,7.596000416473242e-12
-0.4943125,0.3368351589947829,7.93254804554732e-12
-0.49428125,0.3368351589947829,8.282017190128421e-12
-0.49425,0.3368351589947829,8.644828085651394e-12
-0.49421875,0.3369942365772583,9.021412177167504e-12
-0.4941875,0.3368351589947829,9.4122123527763e-12
-0.49415625,0.3369146977860206,9.817683180538342e-12
-0.494125,0.3369146977860206,1.023829114889933e-11
-0.49409375,0.3369942365772583,1.067451491065627e-11
-0.4940625,0.3369942365772583,1.112684553049628e-11
-0.49403125,0.3369146977860206,1.159578673613873e-11
-0.494,0.3368351589947829,1.208185517311158e-11
-0.49396875,0.3369146977860206,1.258558066319252e-11
-0.4939375,0.3369942365772583,1.310750646654595e-11
-0.49390625,0.3367556202035452,1.364818954758657e-11
-0.493875,0.3369146977860206,1.420820084460055e-11
-0.49384375,0.3368351589947829,1.47881255431553e-11
-0.4938125,0.3369942365772583,1.538856335332884e-11
-0.49378125,0.3369146977860206,1.601012879078978e-11
-0.49375,0.3369942365772583,1.665345146175912e-11
-0.49371875,0.3369942365772583,1.731917635188501e-11
-0.4936875,0.3369942365772583,1.800796411906151e-11
-0.49365625,0.3369146977860206,1.872049139022281e-11
-0.493625,0.3368351589947829,1.945745106214401e-11
-0.49359375,0.3367556202035452,2.021955260627972e-11
-0.4935625,0.3369146977860206,2.100752237767207e-11
-0.49353125,0.3369942365772583,2.18221039279592e-11
-0.4935,0.3368351589947829,2.266405832251575e-11
-0.49346875,0.3368351589947829,2.35341644617569e-11
-0.4934375,0.3368351589947829,2.443321940663723e-11
-0.49340625,0.3367556202035452,2.536203870837596e-11
-0.493375,0.3367556202035452,2.632145674244024e-11
-0.49334375,0.3368351589947829,2.731232704681777e-11
-0.4933125,0.3369942365772583,2.833552266461057e-11
-0.49328125,0.3369146977860206,2.939193649098137e-11
-0.49325,0.3369146977860206,3.048248162448427e-11
-0.49321875,0.3369146977860206,3.160809172281136e-11
-0.4931875,0.3369942365772583,3.276972136298696e-11
-0.49315625,0.3368351589947829,3.396834640604115e-11
-0.493125,0.3368351589947829,3.520496436619429e-11
-0.49309375,0.3368351589947829,3.648059478458438e-11
-0.4930625,0.3369146977860206,3.779627960756888e-11
-0.49303125,0.3368351589947829,3.915308356963275e-11
-0.493,0.3369146977860206,4.055209458093473e-11
-0.49296875,0.3369942365772583,4.199442411952336e-11
-0.4929375,0.3367556202035452,4.348120762825473e-11
-0.49290625,0.3368351589947829,4.501360491644383e-11
-0.492875,0.3369942365772583,4.659280056628122e-11
-0.49284375,0.3369146977860206,4.82200043440469e-11
-0.4928125,0.337073775368496,4.989645161615335e-11
-0.49278125,0.3369146977860206,5.162340377004953e-11
-0.49275,0.3368351589947829,5.340214864001775e-11
-0.49271875,0.3368351589947829,5.523400093789531e-11
-0.4926875,0.3369146977860206,5.712030268875274e-11
-0.49265625,0.3369146977860206,5.906242367156069e-11
-0.492625,0.3369942365772583,6.106176186487731e-11
-0.49259375,0.337073775368496,6.311974389758798e-11
-0.4925625,0.3369146977860206,6.523782550472929e-11
-0.49253125,0.3369942365772583,6.741749198842949e-11
-0.4925,0.3369146977860206,6.966025868399676e-11
-0.49246875,0.3369942365772583,7.196767143118793e-11
-0.4924375,0.3369942365772583,7.434130705068895e-11
-0.49240625,0.3368351589947829,7.678277382583934e-11
-0.492375,0.3369146977860206,7.929371198963256e-11
-0.49234375,0.3369146977860206,8.187579421702409e-11
-0.4923125,0.3369146977860206,8.453072612257899e-11
-0.49228125,0.3369942365772583,8.726024676349148e-11
-0.49225,0.3369942365772583,9.006612914800747e-11
-0.49221875,0.337073775368496,9.295018074928274e-11
-0.4921875,0.3369146977860206,9.59142440247083e-11
-0.49215625,0.3369146977860206,9.89601969407349e-11
-0.492125,0.3368351589947829,1.020899535032283e-10
-0.49209375,0.3369942365772583,1.053054642933877e-10
-0.4920625,0.337073775368496,1.086087170092584e-10
-0.49203125,0.3371533141597338,1.120017370128712e-10
-0.492,0.3369942365772583,1.154865878830404e-10
-0.49196875,0.3369942365772583,1.190653719738512e-10
-0.4919375,0.3369942365772583,1.227402309788692e-10
-0.49190625,0.337073775368496,1.265133465011042e-10
-0.491875,0.3371533141597338,1.303869406287581e-10
-0.49184375,0.337073775368496,1.343632765167913e-10
-0.4918125,0.337073775368496,1.384446589743369e-10
-0.49178125,0.337073775368496,1.426334350579958e-10
-0.49175,0.337073775368496,1.46931994671044e-10
-0.49171875,0.3369942365772583,1.513427711685837e-10
-0.4916875,0.3369942365772583,1.558682419686697e-10
-0.49165625,0.3369942365772583,1.605109291694428e-10
-0.491625,0.3371533141597338,1.652734001723023e-10
-0.49159375,0.337073775368496,1.70158268311148e-10
-0.4915625,0.3371533141597338,1.751681934877244e-10
-0.49153125,0.3371533141597338,1.803058828130978e-10
-0.4915,0.3371533141597338,1.855740912552982e-10
-0.49146875,0.3371533141597338,1.90975622293157e-10
-0.4914375,0.3371533141597338,1.965133285763726e-10
-0.49140625,0.337073775368496,2.021901125918346e-10
-0.491375,0.3371533141597338,2.080089273362384e-10
-0.49134375,0.337073775368496,2.139727769950212e-10
-0.4913125,0.3371533141597338,2.200847176276505e-10
-0.49128125,0.3372328529509715,2.263478578592974e-10
-0.49125,0.3372328529509715,2.327653595789247e-10
-0.49121875,0.3371533141597338,2.393404386438211e-10
-0.4911875,0.3372328529509715,2.460763655906137e-10
-0.49115625,0.3372328529509715,2.529764663527886e-10
-0.491125,0.3373123917422092,2.600441229847517e-10
-0.49109375,0.3372328529509715,2.672827743924599e-10
-0.4910625,0.3373123917422092,2.746959170706538e-10
-0.49103125,0.3372328529509715,2.822871058467241e-10
-0.491,0.3371533141597338,2.900599546312403e-10
-0.49096875,0.337073775368496,2.980181371751746e-10
-0.4909375,0.3372328529509715,3.061653878338512e-10
-0.49090625,0.3372328529509715,3.145055023376507e-10
-0.490875,0.3371533141597338,3.230423385695023e-10
-0.49084375,0.3371533141597338,3.31779817349193e-10
-0.4908125,0.3371533141597338,3.407219232245241e-10
-0.49078125,0.3371533141597338,3.498727052693483e-10
-0.49075,0.3373123917422092,3.59236277888513e-10
-0.49071875,0.3373123917422092,3.688168216297466e-10
-0.4906875,0.3372328529509715,3.786185840025119e-10
-0.49065625,0.3373123917422092,3.886458803038617e-10
-0.490625,0.3372328529509715,3.989030944513253e-10
-0.49059375,0.3373123917422092,4.093946798228546e-10
-0.4905625,0.3373123917422092,4.201251601038632e-10
-0.49053125,0.3373123917422092,4.310991301413857e-10
-0.4905,0.3373123917422092,4.423212568053894e-10
-0.49046875,0.3373123917422092,4.537962798572671e-10
-0.4904375,0.337391930533447,4.655290128255423e-10
-0.49040625,0.3373123917422092,4.775243438888148e-10
-0.490375,0.337391930533447,4.89787236765979e-10
-0.49034375,0.337391930533447,5.02322731613743e-10
-0.4903125,0.337391930533447,5.151359459314784e-10
-0.49028125,0.3374714693246847,5.282320754734316e-10
-0.49025,0.3374714693246847,5.416163951683256e-10
-0.49021875,0.3374714693246847,5.552942600463807e-10
-0.4901875,0.3373123917422092,5.692711061737868e-10
-0.49015625,0.337391930533447,5.835524515946517e-10
-0.490125,0.337391930533447,5.981438972804614e-10
-0.49009375,0.3373123917422092,6.130511280870758e-10
-0.4900625,0.3375510081159224,6.282799137192915e-10
-0.49003125,0.337391930533447,6.438361097030019e-10
-0.49,0.3375510081159224,6.597256583649816e-10
-0.48996875,0.3374714693246847,6.759545898203268e-10
-0.4899375,0.3374714693246847,6.925290229675761e-10
-0.48990625,0.3375510081159224,7.094551664915482e-10
-0.489875,0.3374714693246847,7.26739319873915e-10
-0.48984375,0.3374714693246847,7.443878744115509e-10
-0.4898125,0.3375510081159224,7.624073142426757e-10
-0.48978125,0.3374714693246847,7.808042173808279e-10
-0.48975,0.3376305469071602,7.995852567566927e-10
-0.48971875,0.3375510081159224,8.187572012678143e-10
-0.4896875,0.3375510081159224,8.383269168362217e-10
-0.48965625,0.3376305469071602,8.583013674739954e-10
-0.489625,0.337391930533447,8.78687616356803e-10
-0.48959375,0.337391930533447,8.994928269054336e-10
-0.4895625,0.3374714693246847,9.207242638753574e-10
-0.48953125,0.337391930533447,9.423892944543372e-10
-0.4895,0.3376305469071602,9.644953893681259e-10
-0.48946875,0.3375510081159224,9.87050123994269e-10
-0.4894375,0.3376305469071602,1.010061179484048e-09
-0.48940625,0.3376305469071602,1.033536343892589e-09
-0.489375,0.3375510081159224,1.057483513317157e-09
-0.48934375,0.3375510081159224,1.081910693043684e-09
-0.4893125,0.3376305469071602,1.106825998701532e-09
-0.48928125,0.3377100856983978,1.132237657426538e-09
-0.48925,0.3376305469071602,1.15815400903236e-09
-0.48921875,0.3375510081159224,1.184583507190152e-09
-0.4891875,0.3376305469071602,1.211534720616597e-09
-0.48915625,0.3377100856983978,1.239016334270325e-09
-0.489125,0.3377100856983978,1.267037150556736e-09
-0.48909375,0.3377100856983978,1.29560609054127e-09
-0.4890625,0.3376305469071602,1.324732195171133e-09
-0.48903125,0.3376305469071602,1.354424626505521e-09
-0.489,0.3376305469071602,1.384692668954354e-09
-0.48896875,0.3375510081159224,1.415545730525566e-09
-0.4889375,0.3377896244896356,1.446993344080952e-09
-0.48890625,0.3377100856983978,1.479045168600622e-09
-0.488875,0.3377896244896356,1.511710990456079e-09
-0.48884375,0.3376305469071602,1.545000724691934e-09
-0.4888125,0.3377100856983978,1.578924416316315e-09
-0.48878125,0.3377100856983978,1.61349224159996e-09
-0.48875,0.3377896244896356,1.648714509384054e-09
-0.48871875,0.3377896244896356,1.6846016623968e-09
-0.4886875,0.3377100856983978,1.721164278578791e-09
-0.48865625,0.3377100856983978,1.758413072417165e-09
-0.488625,0.3377100856983978,1.796358896288606e-09
-0.48859375,0.3376305469071602,1.835012741811194e-09
-0.4885625,0.3375510081159224,1.874385741205132e-09
-0.48853125,0.3377896244896356,1.914489168662386e-09
-0.4885,0.3376305469071602,1.955334441725251e-09
-0.48846875,0.3377100856983978,1.996933122673877e-09
-0.4884375,0.3377100856983978,2.039296919922769e-09
-0.48840625,0.3377896244896356,2.082437689426299e-09
-0.488375,0.3376305469071602,2.126367436093248e-09
