Task5_40Hz_500mV_45-5.csv

#Digilent WaveForms Oscilloscope Acquisition
#Device Name: Discovery3
#Serial Number: SN:210415BD63A1
#Date Time: 2026-09-24 11:22:03.698.217.340
#Sample rate: 32000Hz
#Samples: 32000
#Trigger: Source: Channel 1 Type: Edge Condition: Rising Level: 0 V Hyst.: Auto HoldOff: 0 s
#Channel 1: Range: 500 mV/div Offset: 0 V Sample Mode: Average
#Math 1: Input: C1 Reference: Internal Frequency: 40 Hz Phase: 90 ° Filter: IIR Butterworth 8  Low-Pass CutOff: 5 Hz Output: Amplitude

#Wavegen Channel 1: Running
#Mode: Simple
#Type: Sine
#Frequency: 40 Hz
#Period: 25 ms
#Amplitude: 500 mV
#Offset: 0 V
#Symmetry: 50 %
#Phase: 0 °

Time (s),Channel 1 (V),Math 1 (V)
-0.5,0.4644949189313336,1.534065103113816e-27
-0.49996875,0.4644153801400959,2.607080749958496e-26
-0.4999375,0.4644153801400959,2.222911064843427e-25
-0.49990625,0.4643358413488581,1.276541850149581e-24
-0.499875,0.4643358413488581,5.589699353866865e-24
-0.49984375,0.4644153801400959,2.001724448254593e-23
-0.4998125,0.4645744577225713,6.13441779376593e-23
-0.49978125,0.4644949189313336,1.660515891890348e-22
-0.49975,0.4644949189313336,4.063164124302102e-22
-0.49971875,0.4643358413488581,9.145685849284058e-22
-0.4996875,0.4644153801400959,1.919310445794669e-21
-0.49965625,0.4642563025576204,3.795281769120213e-21
-0.499625,0.4644153801400959,7.131430318492416e-21
-0.49959375,0.4644949189313336,1.282052225120738e-20
-0.4995625,0.4644949189313336,2.217459910188668e-20
-0.49953125,0.4644153801400959,3.707085844235666e-20
-0.4995,0.4644153801400959,6.013290364495216e-20
-0.49946875,0.4644949189313336,9.495267446487808e-20
-0.4994375,0.4644153801400959,1.463587344050791e-19
-0.49940625,0.4644153801400959,2.207369530380984e-19
-0.499375,0.4644153801400959,3.264099816213404e-19
-0.49934375,0.4645744577225713,4.740822784172691e-19
-0.4993125,0.4643358413488581,6.773577960782049e-19
-0.49928125,0.4644949189313336,9.533377972668081e-19
-0.49925,0.464653996513809,1.323306616380801e-18
-0.49921875,0.4644153801400959,1.813513534860358e-18
-0.4991875,0.4645744577225713,2.45605928508688e-18
-0.49915625,0.4645744577225713,3.289896043327762e-18
-0.499125,0.4645744577225713,4.36195011554123e-18
-0.49909375,0.4647335353050467,5.728376861129409e-18
-0.4990625,0.4647335353050467,7.455957738911598e-18
-0.49903125,0.4647335353050467,9.623649696672145e-18
-0.499,0.4645744577225713,1.232429746060562e-17
-0.49896875,0.464653996513809,1.566651961382084e-17
-0.4989375,0.464653996513809,1.977677968375716e-17
-0.49890625,0.464653996513809,2.480165378690075e-17
-0.498875,0.4645744577225713,3.091030670556559e-17
-0.49884375,0.464653996513809,3.829718859573254e-17
-0.4988125,0.4644153801400959,4.718496484702508e-17
-0.49878125,0.4644949189313336,5.782769193583698e-17
-0.49875,0.4644949189313336,7.051425243040589e-17
-0.49871875,0.4644949189313336,8.557206262224767e-17
-0.4986875,0.4645744577225713,1.033710665718256e-16
-0.49865625,0.4644949189313336,1.243280306676161e-16
-0.498625,0.4644153801400959,1.489111531068324e-16
-0.49859375,0.4644949189313336,1.776450030129687e-16
-0.4985625,0.4644949189313336,2.111158042100368e-16
-0.49853125,0.4644949189313336,2.49977078975886e-16
-0.4985,0.4645744577225713,2.949556673973439e-16
-0.49846875,0.464653996513809,3.468581382480803e-16
-0.4984375,0.4645744577225713,4.065776076060918e-16
-0.49840625,0.4645744577225713,4.751009817214915e-16
-0.498375,0.4645744577225713,5.535166409368884e-16
-0.49834375,0.464653996513809,6.430225817520224e-16
-0.4983125,0.4645744577225713,7.449350344115354e-16
-0.49828125,0.4647335353050467,8.606975736797569e-16
-0.49825,0.4647335353050467,9.91890740749201e-16
-0.49821875,0.464653996513809,1.140242194510065e-15
-0.4981875,0.4647335353050467,1.307637410686394e-15
-0.49815625,0.4648130740962845,1.496130947620742e-15
-0.498125,0.4647335353050467,1.707958297763094e-15
-0.49809375,0.4648130740962845,1.94554834419152e-15
-0.4980625,0.4647335353050467,2.211536441761497e-15
-0.49803125,0.4648926128875222,2.508778142748111e-15
-0.498,0.4648130740962845,2.840363587110389e-15
-0.49796875,0.4647335353050467,3.209632577769878e-15
-0.4979375,0.4578136604673645,3.620190361556239e-15
-0.49790625,0.4578931992586023,4.075924136731046e-15
-0.497875,0.4578931992586023,4.58102030825716e-15
-0.49784375,0.4578931992586023,5.13998251223497e-15
-0.4978125,0.45797273804984,5.757650431178482e-15
-0.49778125,0.4578136604673645,6.439219422053602e-15
-0.49775,0.4577341216761268,7.190260979248095e-15
-0.49771875,0.4578931992586023,8.016744054887565e-15
-0.4976875,0.4578136604673645,8.925057259154339e-15
-0.49765625,0.45797273804984,9.922031963506486e-15
-0.497625,0.45797273804984,1.101496632993233e-14
-0.49759375,0.45797273804984,1.221165028961166e-14
-0.4975625,0.4578136604673645,1.352039149458848e-14
-0.49753125,0.4578931992586023,1.495004226629141e-14
-0.4975,0.45797273804984,1.651002756496693e-14
-0.49746875,0.4578931992586023,1.821037400431765e-14
-0.4974375,0.45797273804984,2.006173993586204e-14
-0.49740625,0.4578931992586023,2.207544662775458e-14
-0.497375,0.4578136604673645,2.426351056302534e-14
-0.49734375,0.4578136604673645,2.663867688241548e-14
-0.4973125,0.4580522768410777,2.921445399720101e-14
-0.49728125,0.45797273804984,3.200514939760987e-14
-0.49725,0.4578931992586023,3.502590668264862e-14
-0.49721875,0.4580522768410777,3.829274383736352e-14
-0.4971875,0.45797273804984,4.182259278376726e-14
-0.49715625,0.45797273804984,4.563334023186636e-14
-0.497125,0.45797273804984,4.974386985742656e-14
-0.49709375,0.4581318156323155,5.417410583331262e-14
-0.4970625,0.4581318156323155,5.894505774143616e-14
-0.49703125,0.4581318156323155,6.407886689254043e-14
-0.497,0.4581318156323155,6.959885408124333e-14
-0.49696875,0.4581318156323155,7.552956880395033e-14
-0.4969375,0.4580522768410777,8.189683996743707e-14
-0.49690625,0.4581318156323155,8.87278281160875e-14
-0.496875,0.4581318156323155,9.605107920595667e-14
-0.49684375,0.4582113544235532,1.03896579954008e-13
-0.4968125,0.4580522768410777,1.122958147910553e-13
-0.49678125,0.4581318156323155,1.212818244471148e-13
-0.49675,0.4581318156323155,1.308892661980474e-13
-0.49671875,0.4581318156323155,1.411544758025443e-13
-0.4966875,0.4582113544235532,1.521155311586779e-13
-0.49665625,0.4581318156323155,1.638123177094075e-13
-0.496625,0.4580522768410777,1.762865956265946e-13
-0.49659375,0.4582113544235532,1.895820688032465e-13
-0.4965625,0.4581318156323155,2.037444556838657e-13
-0.49653125,0.4582908932147909,2.188215619629427e-13
-0.4965,0.4580522768410777,2.348633551817849e-13
-0.49646875,0.4581318156323155,2.519220412540284e-13
-0.4964375,0.4581318156323155,2.700521429503305e-13
-0.49640625,0.4582113544235532,2.893105803728924e-13
-0.496375,0.4582113544235532,3.097567534506036e-13
-0.49634375,0.4581318156323155,3.314526264857489e-13
-0.4963125,0.4581318156323155,3.544628147833602e-13
-0.49628125,0.4582113544235532,3.78854673394433e-13
-0.49625,0.4582113544235532,4.046983880043674e-13
-0.49621875,0.4581318156323155,4.320670679981301e-13
-0.4961875,0.4580522768410777,4.610368417337643e-13
-0.49615625,0.4582113544235532,4.916869540560081e-13
-0.496125,0.4582113544235532,5.240998660819079e-13
-0.49609375,0.4582113544235532,5.58361357290444e-13
-0.4960625,0.4581318156323155,5.94560629948305e-13
-0.49603125,0.4582113544235532,6.32790415904072e-13
-0.496,0.4582113544235532,6.731470857831945e-13
-0.49596875,0.4582113544235532,7.157307606162534e-13
-0.4959375,0.4582113544235532,7.606454259331269e-13
-0.49590625,0.4582113544235532,8.079990483557816e-13
-0.495875,0.4582113544235532,8.579036947225291e-13
-0.49584375,0.4582908932147909,9.104756537766897e-13
-0.4958125,0.4582908932147909,9.658355604527162e-13
-0.49578125,0.4582908932147909,1.024108522792932e-12
-0.49575,0.4582908932147909,1.085424251528139e-12
-0.49571875,0.4582908932147909,1.149917192355456e-12
-0.4956875,0.4582908932147909,1.217726660946829e-12
-0.49565625,0.4582113544235532,1.288996980721775e-12
-0.495625,0.4581318156323155,1.363877623417993e-12
-0.49559375,0.4582113544235532,1.44252335249357e-12
-0.4955625,0.4582113544235532,1.525094369394607e-12
-0.49553125,0.4582908932147909,1.611756462722162e-12
-0.4955,0.4584499707972664,1.702681160332513e-12
-0.49546875,0.4582908932147909,1.798045884404787e-12
-0.4954375,0.4582908932147909,1.89803410951013e-12
-0.49540625,0.4583704320060287,2.002835523716623e-12
-0.495375,0.4582908932147909,2.112646192764255e-12
-0.49534375,0.4582908932147909,2.227668727344322e-12
-0.4953125,0.4582113544235532,2.348112453517695e-12
-0.49528125,0.4583704320060287,2.474193586306472e-12
-0.49525,0.4583704320060287,2.606135406493579e-12
-0.49521875,0.4582908932147909,2.744168440664973e-12
-0.4951875,0.4583704320060287,2.888530644529143e-12
-0.49515625,0.4582908932147909,3.039467589548665e-12
-0.495125,0.4585295095885041,3.197232652918639e-12
-0.49509375,0.4584499707972664,3.362087210926862e-12
-0.4950625,0.4583704320060287,3.534300835730691e-12
-0.49503125,0.4582908932147909,3.714151495585529e-12
-0.495,0.4584499707972664,3.901925758560002e-12
-0.49496875,0.4582908932147909,4.097918999772857e-12
-0.4949375,0.4582908932147909,4.302435612186722e-12
-0.49490625,0.4583704320060287,4.515789220993859e-12
-0.494875,0.4584499707972664,4.738302901629117e-12
-0.49484375,0.4583704320060287,4.970309401445316e-12
-0.4948125,0.4582908932147909,5.212151365086312e-12
-0.49478125,0.4584499707972664,5.464181563593065e-12
-0.49475,0.4583704320060287,5.726763127278011e-12
-0.49471875,0.4582113544235532,6.000269782403113e-12
-0.4946875,0.4582908932147909,6.285086091696981e-12
-0.49465625,0.4584499707972664,6.581607698746437e-12
-0.494625,0.4584499707972664,6.890241576297994e-12
-0.49459375,0.4584499707972664,7.211406278504666e-12
-0.4945625,0.4584499707972664,7.545532197153596e-12
-0.49453125,0.4584499707972664,7.893061821909972e-12
-0.4945,0.4583704320060287,8.25445000461273e-12
-0.49446875,0.4584499707972664,8.630164227657569e-12
-0.4944375,0.4583704320060287,9.020684876502752e-12
-0.49440625,0.4584499707972664,9.426505516333259e-12
-0.494375,0.4584499707972664,9.848133172918803e-12
-0.49434375,0.4583704320060287,1.028608861770123e-11
-0.4943125,0.4582908932147909,1.074090665714685e-11
-0.49428125,0.4585295095885041,1.121313642639924e-11
-0.49425,0.4583704320060287,1.170334168726796e-11
-0.49421875,0.4584499707972664,1.221210113058887e-11
-0.4941875,0.4584499707972664,1.274000868299141e-11
-0.49415625,0.4584499707972664,1.328767381810836e-11
-0.494125,0.4584499707972664,1.385572187226368e-11
-0.49409375,0.4583704320060287,1.444479436467381e-11
-0.4940625,0.4585295095885041,1.505554932219787e-11
-0.49403125,0.4585295095885041,1.568866160867232e-11
-0.494,0.4584499707972664,1.634482325886538e-11
-0.49396875,0.4583704320060287,1.702474381708672e-11
-0.4939375,0.4584499707972664,1.772915068048763e-11
-0.49390625,0.4584499707972664,1.845878944708725e-11
-0.493875,0.4585295095885041,1.921442426855998e-11
-0.49384375,0.4584499707972664,1.999683820781947e-11
-0.4938125,0.4584499707972664,2.080683360143439e-11
-0.49378125,0.4583704320060287,2.164523242691127e-11
-0.49375,0.4584499707972664,2.251287667487952e-11
-0.49371875,0.4584499707972664,2.341062872621384e-11
-0.4936875,0.4585295095885041,2.433937173412905e-11
-0.49365625,0.4584499707972664,2.530001001128257e-11
-0.493625,0.4585295095885041,2.629346942191934e-11
-0.49359375,0.4583704320060287,2.732069777909435e-11
-0.4935625,0.4583704320060287,2.838266524700754e-11
-0.49353125,0.4584499707972664,2.948036474848618e-11
-0.4935,0.4583704320060287,3.061481237764927e-11
-0.49346875,0.4585295095885041,3.178704781778889e-11
-0.4934375,0.4585295095885041,3.299813476450325e-11
-0.49340625,0.4585295095885041,3.424916135411601e-11
-0.493375,0.4585295095885041,3.55412405974163e-11
-0.49334375,0.4586090483797418,3.687551081875455e-11
-0.4933125,0.4585295095885041,3.825313610052773e-11
-0.49328125,0.4585295095885041,3.967530673308921e-11
-0.49325,0.4585295095885041,4.114323967011708e-11
-0.49321875,0.4585295095885041,4.265817898947535e-11
-0.4931875,0.4584499707972664,4.422139635960227e-11
-0.49315625,0.4585295095885041,4.583419151145975e-11
-0.493125,0.4585295095885041,4.749789271607804e-11
-0.49309375,0.4585295095885041,4.921385726772963e-11
-0.4930625,0.4585295095885041,5.09834719727661e-11
-0.49303125,0.4586090483797418,5.280815364415193e-11
-0.493,0.4585295095885041,5.46893496017289e-11
-0.49296875,0.4583704320060287,5.66285381782446e-11
-0.4929375,0.4583704320060287,5.862722923117889e-11
-0.49290625,0.4583704320060287,6.068696466040135e-11
-0.492875,0.4583704320060287,6.280931893169356e-11
-0.49284375,0.4583704320060287,6.4995899606169e-11
-0.4928125,0.4583704320060287,6.724834787562427e-11
-0.49278125,0.4582908932147909,6.956833910385413e-11
-0.49275,0.4582908932147909,7.195758337396397e-11
-0.49271875,0.4583704320060287,7.4417826041712e-11
-0.4926875,0.4584499707972664,7.695084829491441e-11
-0.49265625,0.4584499707972664,7.955846771894596e-11
-0.492625,0.4582908932147909,8.224253886836861e-11
-0.49259375,0.4582908932147909,8.500495384472062e-11
-0.4925625,0.4583704320060287,8.784764288049852e-11
-0.49253125,0.4582908932147909,9.077257492936438e-11
-0.4925,0.4583704320060287,9.378175826261006e-11
-0.49246875,0.4584499707972664,9.687724107191103e-11
-0.4924375,0.4583704320060287,1.000611120784012e-10
-0.49240625,0.4584499707972664,1.033355011481008e-10
-0.492375,0.4583704320060287,1.067025799137289e-10
-0.49234375,0.4583704320060287,1.101645624029323e-10
-0.4923125,0.4584499707972664,1.137237056729618e-10
-0.49228125,0.4583704320060287,1.173823104518276e-10
-0.49225,0.4582908932147909,1.211427217859649e-10
-0.49221875,0.4583704320060287,1.250073296944402e-10
-0.4921875,0.4582908932147909,1.289785698297307e-10
-0.49215625,0.4582908932147909,1.330589241451051e-10
-0.492125,0.4581318156323155,1.372509215686398e-10
-0.49209375,0.4581318156323155,1.415571386838973e-10
-0.4920625,0.4582113544235532,1.459802004173005e-10
-0.49203125,0.4582113544235532,1.50522780732231e-10
-0.492,0.4582908932147909,1.551876033298823e-10
-0.49196875,0.4582908932147909,1.599774423568981e-10
-0.4919375,0.4582113544235532,1.648951231198251e-10
-0.49190625,0.4583704320060287,1.699435228064096e-10
-0.491875,0.4582113544235532,1.751255712137688e-10
-0.49184375,0.4582113544235532,1.804442514834649e-10
-0.4918125,0.4582908932147909,1.859026008435117e-10
-0.49178125,0.45797273804984,1.915037113573427e-10
-0.49175,0.45797273804984,1.972507306797701e-10
-0.49171875,0.45797273804984,2.031468628199626e-10
-0.4916875,0.45797273804984,2.091953689114717e-10
-0.49165625,0.4581318156323155,2.153995679893338e-10
-0.491625,0.4581318156323155,2.21762837774278e-10
-0.49159375,0.4581318156323155,2.282886154640653e-10
-0.4915625,0.4580522768410777,2.349803985319905e-10
-0.49153125,0.4581318156323155,2.418417455325713e-10
-0.4915,0.45797273804984,2.48876276914455e-10
-0.49146875,0.4580522768410777,2.56087675840568e-10
-0.4914375,0.4581318156323155,2.634796890155378e-10
-0.49140625,0.45797273804984,2.710561275204122e-10
-0.491375,0.4578931992586023,2.788208676547052e-10
-0.49134375,0.45797273804984,2.867778517857938e-10
-0.4913125,0.45797273804984,2.949310892056949e-10
-0.49128125,0.45797273804984,3.03284656995247e-10
-0.49125,0.4578931992586023,3.118427008957238e-10
-0.49121875,0.4578931992586023,3.20609436187906e-10
-0.4911875,0.4578931992586023,3.295891485786354e-10
-0.49115625,0.45797273804984,3.387861950948817e-10
-0.491125,0.4580522768410777,3.48205004985341e-10
-0.49109375,0.45797273804984,3.578500806295967e-10
-0.4910625,0.4578136604673645,3.677259984548664e-10
-0.49103125,0.4578136604673645,3.778374098603593e-10
-0.491,0.4577341216761268,3.881890421492687e-10
-0.49096875,0.4577341216761268,3.987856994684259e-10
-0.4909375,0.4577341216761268,4.096322637556389e-10
-0.49090625,0.4577341216761268,4.207336956947389e-10
-0.490875,0.4578136604673645,4.320950356783627e-10
-0.49084375,0.4577341216761268,4.437214047784893e-10
-0.4908125,0.4577341216761268,4.556180057247594e-10
-0.49078125,0.4577341216761268,4.677901238905993e-10
-0.49075,0.4575750440936514,4.802431282871703e-10
-0.49071875,0.4574955053024137,4.929824725651731e-10
-0.4906875,0.4575750440936514,5.060136960245214e-10
-0.49065625,0.4575750440936514,5.193424246319148e-10
-0.490625,0.4575750440936514,5.329743720463305e-10
-0.49059375,0.4575750440936514,5.469153406524559e-10
-0.4905625,0.4575750440936514,5.611712226020842e-10
-0.49053125,0.4574955053024137,5.757480008634965e-10
-0.4905,0.4575750440936514,5.906517502788496e-10
-0.49046875,0.4574955053024137,6.058886386295942e-10
-0.4904375,0.4574955053024137,6.214649277099414e-10
-0.49040625,0.4574159665111759,6.37386974408401e-10
-0.490375,0.4573364277199382,6.536612317974112e-10
-0.49034375,0.4573364277199382,6.702942502310814e-10
-0.4903125,0.4574159665111759,6.87292678451067e-10
-0.49028125,0.4574159665111759,7.046632647005982e-10
-0.49025,0.4573364277199382,7.224128578466823e-10
-0.49021875,0.4573364277199382,7.405484085104974e-10
-0.4901875,0.4574159665111759,7.590769702060004e-10
-0.49015625,0.4573364277199382,7.780057004867667e-10
-0.490125,0.4574159665111759,7.973418621010791e-10
-0.49009375,0.4574159665111759,8.170928241552899e-10
-0.4900625,0.4573364277199382,8.37266063285469e-10
-0.49003125,0.4574159665111759,8.578691648373603e-10
-0.49,0.4573364277199382,8.78909824054664e-10
-0.48996875,0.4573364277199382,9.003958472756619e-10
-0.4899375,0.4575750440936514,9.223351531382031e-10
-0.48990625,0.4575750440936514,9.447357737930712e-10
-0.489875,0.4574159665111759,9.676058561257446e-10
-0.48984375,0.4574159665111759,9.909536629865726e-10
-0.4898125,0.4573364277199382,1.014787574429381e-09
-0.48978125,0.4574159665111759,1.039116088958524e-09
-0.48975,0.4573364277199382,1.063947824784401e-09
-0.48971875,0.4574159665111759,1.089291521087451e-09
-0.4896875,0.4574955053024137,1.115156039290644e-09
-0.48965625,0.4574955053024137,1.141550364340484e-09
-0.489625,0.4575750440936514,1.16848360599654e-09
-0.48959375,0.4574159665111759,1.195965000129513e-09
-0.4895625,0.4574159665111759,1.224003910027867e-09
-0.48953125,0.4572568889287005,1.252609827713032e-09
-0.4895,0.4574955053024137,1.281792375263188e-09
-0.48946875,0.4574159665111759,1.311561306145651e-09
-0.4894375,0.4572568889287005,1.341926506557883e-09
-0.48940625,0.4573364277199382,1.372897996777117e-09
-0.489375,0.4573364277199382,1.404485932518632e-09
-0.48934375,0.4573364277199382,1.436700606302685e-09
-0.4893125,0.4573364277199382,1.46955244883011e-09
-0.48928125,0.4573364277199382,1.503052030366596e-09
-0.48925,0.4573364277199382,1.537210062135662e-09
-0.48921875,0.4572568889287005,1.572037397720341e-09
-0.4891875,0.4574159665111759,1.607545034473577e-09
-0.48915625,0.4574159665111759,1.64374411493736e-09
-0.489125,0.4574159665111759,1.680645928270597e-09
-0.48909375,0.4574955053024137,1.71826191168574e-09
-0.4890625,0.4574159665111759,1.756603651894178e-09
-0.48903125,0.4573364277199382,1.79568288656041e-09
-0.489,0.4574955053024137,1.835511505764994e-09
-0.48896875,0.4574159665111759,1.876101553476302e-09
-0.4889375,0.4574955053024137,1.91746522903108e-09
-0.48890625,0.4574955053024137,1.959614888623822e-09
-0.488875,0.4575750440936514,2.002563046804977e-09
-0.48884375,0.4574955053024137,2.046322377987984e-09
-0.4888125,0.4574955053024137,2.09090571796516e-09
-0.48878125,0.4575750440936514,2.136326065432434e-09
-0.48875,0.4574159665111759,2.182596583522955e-09
-0.48871875,0.4573364277199382,2.229730601349556e-09
-0.4886875,0.4573364277199382,2.277741615556118e-09
-0.48865625,0.4574955053024137,2.326643291877796e-09
-0.488625,0.4574159665111759,2.376449466710162e-09
-0.48859375,0.4574159665111759,2.427174148687238e-09
-0.4885625,0.4573364277199382,2.478831520268441e-09
-0.48853125,0.4575750440936514,2.531435939334444e-09
-0.4885,0.4574955053024137,2.585001940791963e-09
-0.48846875,0.4575750440936514,2.639544238187471e-09
-0.4884375,0.4574159665111759,2.695077725329839e-09
-0.48840625,0.4575750440936514,2.751617477921933e-09
-0.488375,0.4574955053024137,2.809178755201152e-09
