Task5_45+7.csv

#Digilent WaveForms Oscilloscope Acquisition
#Device Name: Discovery3
#Serial Number: SN:210415BD63A1
#Date Time: 2026-09-24 10:52:15.142.053.190
#Sample rate: 32000Hz
#Samples: 32000
#Trigger: Source: Channel 1 Type: Edge Condition: Rising Level: 0 V Hyst.: Auto HoldOff: 0 s
#Channel 1: Range: 500 mV/div Offset: 0 V Sample Mode: Average
#Math 1: Input: C1 Reference: Internal Frequency: 20 Hz Phase: 90 ° Filter: IIR Butterworth 8  Low-Pass CutOff: 10 Hz Output: Amplitude

#Wavegen Channel 1: Running
#Mode: Simple
#Type: Sine
#Frequency: 20 Hz
#Period: 50 ms
#Amplitude: 200 mV
#Offset: 0 V
#Symmetry: 50 %
#Phase: 0 °

Time (s),Channel 1 (V),Math 1 (V)
-0.5,0.3572766283428785,3.07184368404937e-25
-0.49996875,0.3571970895516408,5.218972067437558e-24
-0.4999375,0.3571175507604031,4.44849648084122e-23
-0.49990625,0.3572766283428785,2.553717336159961e-22
-0.499875,0.3571175507604031,1.117788802922975e-21
-0.49984375,0.3571175507604031,4.001266592031721e-21
-0.4998125,0.3571175507604031,1.225683662441445e-20
-0.49978125,0.3570380119691653,3.316282406354104e-20
-0.49975,0.3570380119691653,8.110905023937402e-20
-0.49971875,0.3570380119691653,1.824786536883256e-19
-0.4996875,0.3569584731779276,3.82760682369531e-19
-0.49965625,0.3569584731779276,7.564997953215098e-19
-0.499625,0.3570380119691653,1.420761839494447e-18
-0.49959375,0.3568789343866899,2.552865732895135e-18
-0.4995625,0.3568789343866899,4.413202987780559e-18
-0.49953125,0.3569584731779276,7.374036351170563e-18
-0.4995,0.3568789343866899,1.195523842726246e-17
-0.49946875,0.3568789343866899,1.886799977609931e-17
-0.4994375,0.3569584731779276,2.906760385378649e-17
-0.49940625,0.3567198568042144,4.381643327663095e-17
-0.499375,0.3567993955954522,6.475843826580561e-17
-0.49934375,0.3566403180129767,9.400636377130784e-17
-0.4993125,0.3567993955954522,1.342430966896799e-16
-0.49928125,0.3567198568042144,1.888385587801185e-16
-0.49925,0.3567993955954522,2.619836343480045e-16
-0.49921875,0.3567993955954522,3.588426845049802e-16
-0.4991875,0.3567198568042144,4.857262618348772e-16
-0.49915625,0.3566403180129767,6.502857006011302e-16
-0.499125,0.356560779221739,8.617313182271737e-16
-0.49909375,0.3566403180129767,1.131076023665277e-15
-0.4990625,0.3564812404305013,1.471406187439677e-15
-0.49903125,0.356560779221739,1.898181686610263e-15
-0.499,0.356560779221739,2.429567095660573e-15
-0.49896875,0.3564812404305013,3.086796051374223e-15
-0.4989375,0.3564812404305013,3.894570876129854e-15
-0.49890625,0.356560779221739,4.881499599716842e-15
-0.498875,0.356560779221739,6.080572574752498e-15
-0.49884375,0.3563221628480258,7.529680935067857e-15
-0.4988125,0.3563221628480258,9.272179200028211e-15
-0.49878125,0.3564017016392635,1.135749438067268e-14
-0.49875,0.3564017016392635,1.384178399579949e-14
-0.49871875,0.3564812404305013,1.678864545769653e-14
-0.4986875,0.3564812404305013,2.02698793381262e-14
-0.49865625,0.3564017016392635,2.436630907542443e-14
-0.498625,0.3564017016392635,2.916865973316473e-14
-0.49859375,0.3563221628480258,3.477849846976773e-14
-0.4985625,0.3563221628480258,4.130923942670328e-14
-0.49853125,0.3563221628480258,4.888721579053795e-14
-0.4985,0.3563221628480258,5.76528218310308e-14
-0.49846875,0.3564017016392635,6.77617277637804e-14
-0.4984375,0.3564812404305013,7.938617033158323e-14
-0.49840625,0.3564812404305013,9.271632204367611e-14
-0.498375,0.3564017016392635,1.079617420564047e-13
-0.49834375,0.3563221628480258,1.253529117225868e-13
-0.4983125,0.3564017016392635,1.45142857879927e-13
-0.49828125,0.3564017016392635,1.676088669913013e-13
-0.49825,0.3564017016392635,1.930542932915596e-13
-0.49821875,0.3563221628480258,2.218104641367085e-13
-0.4981875,0.3563221628480258,2.542386857919259e-13
-0.49815625,0.3562426240567881,2.907323529348354e-13
-0.498125,0.3563221628480258,3.317191651898268e-13
-0.49809375,0.3564017016392635,3.776634540479584e-13
-0.4980625,0.3563221628480258,4.290686235651208e-13
-0.49803125,0.3564017016392635,4.864797082686777e-13
-0.498,0.3563221628480258,5.504860517397413e-13
-0.49796875,0.3564812404305013,6.217241093745619e-13
-0.4979375,0.3564017016392635,7.0088037886425e-13
-0.49790625,0.3564017016392635,7.886944619671803e-13
-0.497875,0.3566403180129767,8.859622611829621e-13
-0.49784375,0.3564812404305013,9.935393149708231e-13
-0.4978125,0.3563221628480258,1.112344275188616e-12
-0.49778125,0.3564017016392635,1.243362530461449e-12
-0.49775,0.356560779221739,1.387649979221115e-12
-0.49771875,0.3564812404305013,1.546336956189144e-12
-0.4976875,0.3564812404305013,1.720632316107302e-12
-0.49765625,0.356560779221739,1.911827678549865e-12
-0.497625,0.356560779221739,2.121301837681892e-12
-0.49759375,0.3566403180129767,2.35052534085707e-12
-0.4975625,0.356560779221739,2.601065239977507e-12
-0.49753125,0.356560779221739,2.874590019566087e-12
-0.4975,0.356560779221739,3.172874705529668e-12
-0.49746875,0.356560779221739,3.497806158618573e-12
-0.4974375,0.3566403180129767,3.851388556614381e-12
-0.49740625,0.356560779221739,4.235749069304092e-12
-0.497375,0.3566403180129767,4.653143730324238e-12
-0.49734375,0.3564812404305013,5.105963509983501e-12
-0.4973125,0.356560779221739,5.596740593196806e-12
-0.49728125,0.356560779221739,6.128154866687729e-12
-0.49725,0.3567198568042144,6.703040619639446e-12
-0.49721875,0.3567993955954522,7.324393461997206e-12
-0.4971875,0.3566403180129767,7.995377464647627e-12
-0.49715625,0.3566403180129767,8.719332525721848e-12
-0.497125,0.3567198568042144,9.499781967290763e-12
-0.49709375,0.3567198568042144,1.034044036674135e-11
-0.4970625,0.3567198568042144,1.124522162714322e-11
-0.49703125,0.3567198568042144,1.221824729093418e-11
-0.497,0.3569584731779276,1.326385510127286e-11
-0.49696875,0.3567993955954522,1.438660781542497e-11
-0.4969375,0.3567993955954522,1.559130227456811e-11
-0.49690625,0.3568789343866899,1.688297873441749e-11
-0.496875,0.3569584731779276,1.826693046109243e-11
-0.49684375,0.3568789343866899,1.974871359665954e-11
-0.4968125,0.3567993955954522,2.13341572988056e-11
-0.49678125,0.3567993955954522,2.302937415910768e-11
-0.49675,0.3567993955954522,2.484077090438431e-11
-0.49671875,0.3568789343866899,2.677505938562531e-11
-0.4966875,0.3567993955954522,2.88392678590129e-11
-0.49665625,0.3567993955954522,3.104075256355986e-11
-0.496625,0.3568789343866899,3.338720959990392e-11
-0.49659375,0.3569584731779276,3.588668711481083e-11
-0.4965625,0.3567993955954522,3.854759779595013e-11
-0.49653125,0.3568789343866899,4.137873168152e-11
-0.4965,0.3569584731779276,4.438926928930893e-11
-0.49646875,0.3570380119691653,4.758879506979266e-11
-0.4964375,0.3570380119691653,5.098731118787545e-11
-0.49640625,0.3569584731779276,5.459525163789483e-11
-0.496375,0.3571175507604031,5.842349669651838e-11
-0.49634375,0.3571175507604031,6.248338771817016e-11
-0.4963125,0.3569584731779276,6.678674227763333e-11
-0.49628125,0.3569584731779276,7.13458696644833e-11
-0.49625,0.3570380119691653,7.617358673401413e-11
-0.49621875,0.3569584731779276,8.128323411932722e-11
-0.4961875,0.3568789343866899,8.668869280925945e-11
-0.49615625,0.3569584731779276,9.240440109683343e-11
-0.496125,0.3570380119691653,9.844537190291867e-11
-0.49609375,0.3571175507604031,1.048272104797986e-10
-0.4960625,0.3569584731779276,1.115661324993427e-10
-0.49603125,0.3570380119691653,1.186789825304892e-10
-0.496,0.3568789343866899,1.261832529107446e-10
-0.49596875,0.3568789343866899,1.340971030164166e-10
-0.4959375,0.3569584731779276,1.42439378936292e-10
-0.49590625,0.3570380119691653,1.512296335534828e-10
-0.495875,0.3571175507604031,1.604881470401589e-10
-0.49584375,0.3571970895516408,1.702359477698944e-10
-0.4958125,0.3571970895516408,1.80494833652351e-10
-0.49578125,0.3571970895516408,1.912873938950266e-10
-0.49575,0.3571175507604031,2.026370311967985e-10
-0.49571875,0.3570380119691653,2.145679843779877e-10
-0.4956875,0.3571970895516408,2.27105351451676e-10
-0.49565625,0.3571175507604031,2.402751131410019e-10
-0.495625,0.3571175507604031,2.541041568471673e-10
-0.49559375,0.3571175507604031,2.686203010728792e-10
-0.4955625,0.3572766283428785,2.838523203059537e-10
-0.49553125,0.3571175507604031,2.998299703678078e-10
-0.4955,0.3571175507604031,3.165840142315593e-10
-0.49546875,0.3571970895516408,3.341462483144562e-10
-0.4954375,0.3571970895516408,3.52549529249352e-10
-0.49540625,0.3572766283428785,3.718278011399405e-10
-0.495375,0.3571970895516408,3.92016123304462e-10
-0.49534375,0.3571970895516408,4.131506985125839e-10
-0.4953125,0.3571970895516408,4.352689017201605e-10
-0.49528125,0.3572766283428785,4.584093093065706e-10
-0.49525,0.3572766283428785,4.826117288193195e-10
-0.49521875,0.3572766283428785,5.079172292305995e-10
-0.4951875,0.3572766283428785,5.343681717104845e-10
-0.49515625,0.3573561671341163,5.620082409214377e-10
-0.495125,0.3573561671341163,5.908824768387983e-10
-0.49509375,0.357435705925354,6.210373071019114e-10
-0.4950625,0.357435705925354,6.525205799005537e-10
-0.49503125,0.3573561671341163,6.853815974013053e-10
-0.495,0.3573561671341163,7.19671149718503e-10
-0.49496875,0.3575152447165917,7.55441549434412e-10
-0.4949375,0.357435705925354,7.927466666732329e-10
-0.49490625,0.3575152447165917,8.316419647335644e-10
-0.494875,0.3575152447165917,8.721845362839204e-10
-0.49484375,0.357435705925354,9.14433140125903e-10
-0.4948125,0.3573561671341163,9.584482385296138e-10
-0.49478125,0.357435705925354,1.004292035145879e-09
-0.49475,0.3575152447165917,1.052028513499856e-09
-0.49471875,0.357435705925354,1.101723476070575e-09
-0.4946875,0.357435705925354,1.153444583960959e-09
-0.49465625,0.3575947835078294,1.20726139716285e-09
-0.494625,0.3575947835078294,1.263245415421575e-09
-0.49459375,0.3575947835078294,1.321470119704543e-09
-0.4945625,0.3575947835078294,1.382011014278385e-09
-0.49453125,0.3575152447165917,1.44494566939911e-09
-0.4945,0.3576743222990671,1.510353764619748e-09
-0.49446875,0.3576743222990671,1.578317132719953e-09
-0.4944375,0.3575152447165917,1.648919804261983e-09
-0.49440625,0.3575947835078294,1.722248052777515e-09
-0.494375,0.3575947835078294,1.798390440589692e-09
-0.49434375,0.3575152447165917,1.877437865274813e-09
-0.4943125,0.3575152447165917,1.959483606768048e-09
-0.49428125,0.3575947835078294,2.044623375117561e-09
-0.49425,0.3575152447165917,2.132955358891378e-09
-0.49421875,0.3575947835078294,2.224580274241364e-09
-0.4941875,0.3575947835078294,2.319601414628619e-09
-0.49415625,0.3577538610903049,2.418124701214609e-09
-0.494125,0.3577538610903049,2.520258733922321e-09
-0.49409375,0.3576743222990671,2.626114843171732e-09
-0.4940625,0.3576743222990671,2.735807142293826e-09
-0.49403125,0.3577538610903049,2.849452580627428e-09
-0.494,0.3577538610903049,2.967170997303069e-09
-0.49396875,0.3577538610903049,3.089085175718079e-09
-0.4939375,0.3578333998815426,3.215320898707119e-09
-0.49390625,0.3577538610903049,3.346007004412307e-09
-0.493875,0.3578333998815426,3.481275442857093e-09
-0.49384375,0.3576743222990671,3.621261333228025e-09
-0.4938125,0.3577538610903049,3.766103021868508e-09
-0.49378125,0.3576743222990671,3.915942140988667e-09
-0.49375,0.3579129386727803,4.070923668095371e-09
-0.49371875,0.3576743222990671,4.231195986146498e-09
-0.4936875,0.3579924774640181,4.396910944433449e-09
-0.49365625,0.3578333998815426,4.568223920195964e-09
-0.493625,0.3576743222990671,4.745293880973193e-09
-0.49359375,0.3577538610903049,4.928283447695025e-09
-0.4935625,0.3577538610903049,5.117358958517635e-09
-0.49353125,0.3575947835078294,5.312690533407151e-09
-0.4935,0.3576743222990671,5.514452139475377e-09
-0.49346875,0.3578333998815426,5.722821657071471e-09
-0.4934375,0.3578333998815426,5.937980946633393e-09
-0.49340625,0.3576743222990671,6.16011591630305e-09
-0.493375,0.3575947835078294,6.389416590308881e-09
-0.49334375,0.3576743222990671,6.626077178119739e-09
-0.4933125,0.3577538610903049,6.870296144373826e-09
-0.49328125,0.3576743222990671,7.122276279586424e-09
-0.49325,0.3577538610903049,7.38222477164019e-09
-0.49321875,0.3576743222990671,7.650353278061675e-09
-0.4931875,0.3578333998815426,7.926877999087806e-09
-0.49315625,0.3577538610903049,8.212019751525931e-09
-0.493125,0.3577538610903049,8.506004043411133e-09
-0.49309375,0.3579129386727803,8.809061149464346e-09
-0.4930625,0.3579129386727803,9.121426187354948e-09
-0.49303125,0.3578333998815426,9.443339194771306e-09
-0.493,0.3576743222990671,9.775045207302901e-09
-0.49296875,0.3576743222990671,1.011679433713745e-08
-0.4929375,0.3575947835078294,1.046884185257663e-08
-0.49290625,0.3578333998815426,1.083144825837369e-08
-0.492875,0.3577538610903049,1.120487937689665e-08
-0.49284375,0.3577538610903049,1.158940643012019e-08
-0.4928125,0.3577538610903049,1.198530612244987e-08
-0.49278125,0.3578333998815426,1.239286072438191e-08
-0.49275,0.3577538610903049,1.281235815700189e-08
-0.49271875,0.3578333998815426,1.324409207732565e-08
-0.4926875,0.3577538610903049,1.368836196448577e-08
-0.49265625,0.3576743222990671,1.414547320676668e-08
-0.492625,0.3578333998815426,1.46157371894919e-08
-0.49259375,0.3577538610903049,1.509947138376636e-08
-0.4925625,0.3577538610903049,1.559699943607706e-08
-0.49253125,0.3578333998815426,1.610865125875531e-08
-0.4925,0.3576743222990671,1.663476312130349e-08
-0.49246875,0.3575947835078294,1.717567774258951e-08
-0.4924375,0.3575947835078294,1.773174438391207e-08
-0.49240625,0.3576743222990671,1.830331894293965e-08
-0.492375,0.3575947835078294,1.88907640485263e-08
-0.49234375,0.3575947835078294,1.949444915640716e-08
-0.4923125,0.3575947835078294,2.011475064577674e-08
-0.49228125,0.3575947835078294,2.075205191675268e-08
-0.49225,0.3575947835078294,2.14067434887282e-08
-0.49221875,0.3576743222990671,2.207922309961567e-08
-0.4921875,0.3575947835078294,2.276989580598459e-08
-0.49215625,0.3576743222990671,2.347917408409634e-08
-0.492125,0.3576743222990671,2.420747793183884e-08
-0.49209375,0.3577538610903049,2.495523497156359e-08
-0.4920625,0.3576743222990671,2.572288055382792e-08
-0.49203125,0.3577538610903049,2.651085786204511e-08
-0.492,0.3576743222990671,2.731961801804506e-08
-0.49196875,0.3577538610903049,2.814962018854802e-08
-0.4919375,0.3576743222990671,2.900133169255404e-08
-0.49190625,0.3575947835078294,2.987522810965078e-08
-0.491875,0.3575947835078294,3.077179338924201e-08
-0.49184375,0.3575947835078294,3.169151996069941e-08
-0.4918125,0.3575947835078294,3.263490884444021e-08
-0.49178125,0.3575152447165917,3.360246976393287e-08
-0.49175,0.3575947835078294,3.459472125863344e-08
-0.49171875,0.3576743222990671,3.561219079785482e-08
-0.4916875,0.3575947835078294,3.665541489557132e-08
-0.49165625,0.3575152447165917,3.772493922616075e-08
-0.491625,0.3575152447165917,3.882131874108652e-08
-0.49159375,0.3575152447165917,3.99451177865216e-08
-0.4915625,0.3575152447165917,4.109691022191701e-08
-0.49153125,0.3575152447165917,4.227727953951662e-08
-0.4915,0.3575152447165917,4.348681898482072e-08
-0.49146875,0.3572766283428785,4.472613167800018e-08
-0.4914375,0.3573561671341163,4.599583073626352e-08
-0.49140625,0.357435705925354,4.729653939717883e-08
-0.491375,0.3575152447165917,4.862889114295254e-08
-0.49134375,0.3575152447165917,4.999352982566698e-08
-0.4913125,0.3575947835078294,5.139110979347884e-08
-0.49128125,0.357435705925354,5.282229601778031e-08
-0.49125,0.357435705925354,5.428776422132475e-08
-0.49121875,0.3575152447165917,5.578820100731882e-08
-0.4911875,0.3573561671341163,5.732430398948294e-08
-0.49115625,0.3571970895516408,5.889678192308165e-08
-0.491125,0.3572766283428785,6.050635483692587e-08
-0.49109375,0.3573561671341163,6.215375416634848e-08
-0.4910625,0.3573561671341163,6.383972288715528e-08
-0.49103125,0.3573561671341163,6.556501565055254e-08
-0.491,0.3573561671341163,6.733039891905318e-08
-0.49096875,0.3572766283428785,6.913665110336277e-08
-0.4909375,0.3572766283428785,7.098456270024707e-08
-0.49090625,0.3573561671341163,7.287493643138291e-08
-0.490875,0.3572766283428785,7.480858738319312e-08
-0.49084375,0.3571970895516408,7.67863431476677e-08
-0.4908125,0.3572766283428785,7.88090439641724e-08
-0.49078125,0.3571175507604031,8.087754286224591e-08
-0.49075,0.3572766283428785,8.299270580538706e-08
-0.49071875,0.3571970895516408,8.515541183583347e-08
-0.4906875,0.3571175507604031,8.736655322033297e-08
-0.49065625,0.3569584731779276,8.962703559690868e-08
-0.490625,0.3570380119691653,9.193777812261908e-08
-0.49059375,0.3569584731779276,9.429971362231457e-08
-0.4905625,0.3571175507604031,9.67137887383912e-08
-0.49053125,0.3569584731779276,9.91809640815428e-08
-0.4905,0.3568789343866899,1.017022143825126e-07
-0.49046875,0.3567993955954522,1.042785286448458e-07
-0.4904375,0.3567198568042144,1.069109102986426e-07
-0.49040625,0.3568789343866899,1.096003773553148e-07
-0.490375,0.3567993955954522,1.123479625633451e-07
-0.49034375,0.3568789343866899,1.151547135650508e-07
-0.4903125,0.3567993955954522,1.180216930543526e-07
-0.49028125,0.3569584731779276,1.209499789355491e-07
-0.49025,0.3569584731779276,1.239406644830982e-07
-0.49021875,0.3569584731779276,1.269948585024058e-07
-0.4901875,0.3567993955954522,1.301136854916223e-07
-0.49015625,0.3567198568042144,1.332982858044484e-07
-0.490125,0.3566403180129767,1.365498158139498e-07
-0.49009375,0.3567993955954522,1.39869448077382e-07
-0.4900625,0.3568789343866899,1.432583715020255e-07
-0.49003125,0.3567993955954522,1.467177915120325e-07
-0.49,0.3567198568042144,1.502489302162846e-07
-0.48996875,0.3567198568042144,1.538530265772623e-07
-0.4899375,0.3567993955954522,1.575313365809277e-07
-0.48990625,0.3568789343866899,1.612851334076193e-07
-0.489875,0.3566403180129767,1.651157076039598e-07
-0.48984375,0.3568789343866899,1.69024367255778e-07
-0.4898125,0.3566403180129767,1.730124381620432e-07
-0.48978125,0.3566403180129767,1.770812640098149e-07
-0.48975,0.3567198568042144,1.81232206550205e-07
-0.48971875,0.3567993955954522,1.854666457753558e-07
-0.4896875,0.356560779221739,1.897859800964311e-07
-0.48965625,0.3567198568042144,1.941916265226223e-07
-0.489625,0.3566403180129767,1.986850208411692e-07
-0.48959375,0.356560779221739,2.032676177983941e-07
-0.4895625,0.3564812404305013,2.079408912817525e-07
-0.48953125,0.3564812404305013,2.127063345028957e-07
-0.4895,0.3564812404305013,2.175654601817494e-07
-0.48946875,0.356560779221739,2.225198007316062e-07
-0.4894375,0.3564017016392635,2.275709084452315e-07
-0.48940625,0.3564017016392635,2.327203556819836e-07
-0.489375,0.3564812404305013,2.379697350559469e-07
-0.48934375,0.3564017016392635,2.433206596250792e-07
-0.4893125,0.3564812404305013,2.487747630813712e-07
-0.48928125,0.3564017016392635,2.543336999420183e-07
-0.48925,0.3563221628480258,2.599991457416056e-07
-0.48921875,0.3564017016392635,2.657727972253036e-07
-0.4891875,0.3564017016392635,2.716563725430759e-07
-0.48915625,0.3563221628480258,2.776516114448971e-07
-0.489125,0.3564812404305013,2.837602754769813e-07
-0.48909375,0.3563221628480258,2.899841481790204e-07
-0.4890625,0.3561630852655503,2.963250352824303e-07
-0.48903125,0.3561630852655503,3.027847649096072e-07
-0.489,0.3560835464743126,3.093651877741903e-07
-0.48896875,0.3561630852655503,3.160681773823318e-07
-0.4889375,0.3561630852655503,3.228956302349734e-07
-0.48890625,0.3560835464743126,3.298494660311279e-07
-0.488875,0.3561630852655503,3.369316278721651e-07
-0.48884375,0.3560040076830749,3.441440824671022e-07
-0.4888125,0.3560835464743126,3.514888203388961e-07
-0.48878125,0.3559244688918372,3.589678560317381e-07
-0.48875,0.3560835464743126,3.665832283193489e-07
-0.48871875,0.3560835464743126,3.743370004142746e-07
-0.4886875,0.3560835464743126,3.822312601781799e-07
-0.48865625,0.3561630852655503,3.9026812033314e-07
-0.488625,0.3561630852655503,3.984497186739291e-07
-0.48859375,0.3562426240567881,4.067782182813032e-07
-0.4885625,0.3563221628480258,4.152558077362784e-07
-0.48853125,0.3560835464743126,4.23884701335402e-07
-0.4885,0.3561630852655503,4.326671393070138e-07
-0.48846875,0.3562426240567881,4.416053880284996e-07
-0.4884375,0.3560040076830749,4.507017402445326e-07
-0.48840625,0.3562426240567881,4.599585152863025e-07
-0.488375,0.3561630852655503,4.693780592917316e-07
