Task5_45-7.csv

#Digilent WaveForms Oscilloscope Acquisition
#Device Name: Discovery3
#Serial Number: SN:210415BD63A1
#Date Time: 2026-09-24 10:57:39.799.016.280
#Sample rate: 32000Hz
#Samples: 32000
#Trigger: Source: Channel 1 Type: Edge Condition: Rising Level: 0 V Hyst.: Auto HoldOff: 0 s
#Channel 1: Range: 500 mV/div Offset: 0 V Sample Mode: Average
#Math 1: Input: C1 Reference: Internal Frequency: 20 Hz Phase: 90 ° Filter: IIR Butterworth 8  Low-Pass CutOff: 10 Hz Output: Amplitude

#Wavegen Channel 1: Running
#Mode: Simple
#Type: Sine
#Frequency: 20 Hz
#Period: 50 ms
#Amplitude: 200 mV
#Offset: 0 V
#Symmetry: 50 %
#Phase: 0 °

Time (s),Channel 1 (V),Math 1 (V)
-0.5,0.473085108385008,4.041643536141466e-25
-0.49996875,0.4730055695937703,6.866928233972398e-24
-0.4999375,0.473085108385008,5.85339899706719e-23
-0.49990625,0.473085108385008,3.360341717708137e-22
-0.499875,0.473085108385008,1.470903958242707e-21
-0.49984375,0.473085108385008,5.265433526425523e-21
-0.4998125,0.4729260308025325,1.612966520786991e-20
-0.49978125,0.4729260308025325,4.364225579180776e-20
-0.49975,0.4730055695937703,1.067412764755276e-19
-0.49971875,0.473085108385008,2.401493667389457e-19
-0.4996875,0.4729260308025325,5.037349837842701e-19
-0.49965625,0.4730055695937703,9.956077971922803e-19
-0.499625,0.473085108385008,1.869841569987753e-18
-0.49959375,0.4731646471762457,3.359812146906648e-18
-0.4995625,0.4730055695937703,5.808231445634339e-18
-0.49953125,0.4729260308025325,9.705050625235463e-18
-0.4995,0.4730055695937703,1.573449689481336e-17
-0.49946875,0.473085108385008,2.483259872908913e-17
-0.4994375,0.4730055695937703,3.825664357896545e-17
-0.49940625,0.4728464920112949,5.766810050740621e-17
-0.499375,0.4729260308025325,8.52306275484471e-17
-0.49934375,0.4730055695937703,1.237248699849964e-16
-0.4993125,0.4730055695937703,1.766818411737257e-16
-0.49928125,0.4729260308025325,2.485367620149747e-16
-0.49925,0.4729260308025325,3.448053186736394e-16
-0.49921875,0.473085108385008,4.722843807082176e-16
-0.4991875,0.4729260308025325,6.392793033680138e-16
-0.49915625,0.4730055695937703,8.55860018480958e-16
-0.499125,0.4729260308025325,1.134148198082091e-15
-0.49909375,0.4729260308025325,1.488637853730436e-15
-0.4990625,0.4729260308025325,1.936551812335058e-15
-0.49903125,0.4730055695937703,2.498236586264628e-15
-0.499,0.4730055695937703,3.197598231553353e-15
-0.49896875,0.473085108385008,4.062581863142958e-15
-0.4989375,0.473085108385008,5.125697570317154e-15
-0.49890625,0.473085108385008,6.424595548792196e-15
-0.498875,0.4729260308025325,8.002693338327822e-15
-0.49884375,0.4729260308025325,9.909858126222138e-15
-0.4988125,0.4728464920112949,1.220314714765673e-14
-0.49878125,0.4727669532200571,1.494760928356717e-14
-0.49875,0.4728464920112949,1.821715102552924e-14
-0.49871875,0.4728464920112949,2.209547004507627e-14
-0.4986875,0.4729260308025325,2.667705967190538e-14
-0.49865625,0.4726874144288194,3.206828765160231e-14
-0.498625,0.4728464920112949,3.838855261882294e-14
-0.49859375,0.4728464920112949,4.577152178631299e-14
-0.4985625,0.4728464920112949,5.436645341372226e-14
-0.49853125,0.4730055695937703,6.433960768287698e-14
-0.4985,0.4729260308025325,7.587574966801847e-14
-0.49846875,0.4729260308025325,8.917974815050697e-14
-0.4984375,0.4729260308025325,1.044782740876325e-13
-0.49840625,0.4729260308025325,1.220216026044759e-13
-0.498375,0.4729260308025325,1.420855224362295e-13
-0.49834375,0.4728464920112949,1.649733568060237e-13
-0.4983125,0.4728464920112949,1.910180997801153e-13
-0.49828125,0.4726078756375817,2.205846721982801e-13
-0.49825,0.4726874144288194,2.540723013324183e-13
-0.49821875,0.4728464920112949,2.919170284807199e-13
-0.4981875,0.4727669532200571,3.345943487582648e-13
-0.49815625,0.4726078756375817,3.826219873976389e-13
-0.498125,0.4724487980551062,4.365628169250541e-13
-0.49809375,0.4724487980551062,4.970279196285604e-13
-0.4980625,0.4725283368463439,5.64679799785238e-13
-0.49803125,0.4726874144288194,6.402357501637589e-13
-0.498,0.4726078756375817,7.244713773674311e-13
-0.49796875,0.4726874144288194,8.182242906307822e-13
-0.4979375,0.4726078756375817,9.223979587299022e-13
-0.49790625,0.4726078756375817,1.03796573971316e-12
-0.497875,0.4726078756375817,1.165975088204508e-12
-0.49784375,0.4724487980551062,1.307551945076432e-12
-0.4978125,0.4723692592638685,1.463905314333657e-12
-0.49778125,0.4707784834391139,1.636332032092031e-12
-0.49775,0.4709375610215894,1.82622173257953e-12
-0.49771875,0.4709375610215894,2.035062016128083e-12
-0.4976875,0.4709375610215894,2.264443824165968e-12
-0.49765625,0.4709375610215894,2.516067026260766e-12
-0.497625,0.4709375610215894,2.791746224302393e-12
-0.49759375,0.4708580222303517,3.093416778954549e-12
-0.4975625,0.4709375610215894,3.42314106354095e-12
-0.49753125,0.4709375610215894,3.783114950570081e-12
-0.4975,0.4708580222303517,4.175674536138812e-12
-0.49746875,0.4708580222303517,4.603303107491136e-12
-0.4974375,0.4708580222303517,5.068638359043458e-12
-0.49740625,0.4708580222303517,5.574479862222355e-12
-0.497375,0.4707784834391139,6.123796794494464e-12
-0.49734375,0.4706989446478762,6.719735933001257e-12
-0.4973125,0.4707784834391139,7.365629918243718e-12
-0.49728125,0.4707784834391139,8.065005793293685e-12
-0.49725,0.4706194058566385,8.82159382403947e-12
-0.49721875,0.4706989446478762,9.63933660600363e-12
-0.4971875,0.4705398670654008,1.052239846330038e-11
-0.49715625,0.4706194058566385,1.147517514532891e-11
-0.497125,0.4704603282741631,1.250230382682705e-11
-0.49709375,0.4703807894829253,1.360867341693743e-11
-0.4970625,0.4704603282741631,1.479943518296481e-11
-0.49703125,0.4704603282741631,1.608001369452959e-11
-0.497,0.4703012506916876,1.745611809384808e-11
-0.49696875,0.4703807894829253,1.893375369789457e-11
-0.4969375,0.4703012506916876,2.051923393822489e-11
-0.49690625,0.4703807894829253,2.221919264426415e-11
-0.496875,0.4703807894829253,2.404059667588463e-11
-0.49684375,0.4704603282741631,2.599075891112154e-11
-0.4968125,0.4702217119004499,2.80773515948965e-11
-0.49678125,0.4702217119004499,3.030842005463858e-11
-0.49675,0.4703012506916876,3.2692396788714e-11
-0.49671875,0.4703807894829253,3.523811593359431e-11
-0.4966875,0.4701421731092121,3.795482811571258e-11
-0.49665625,0.4702217119004499,4.085221569397468e-11
-0.496625,0.4702217119004499,4.394040839891139e-11
-0.49659375,0.4701421731092121,4.722999937447312e-11
-0.4965625,0.4703012506916876,5.073206162848637e-11
-0.49653125,0.4699830955267367,5.445816489780631e-11
-0.4965,0.4699830955267367,5.84203929342154e-11
-0.49646875,0.4700626343179744,6.263136121713254e-11
-0.4964375,0.4700626343179744,6.710423509921095e-11
-0.49640625,0.4701421731092121,7.185274839091713e-11
-0.496375,0.4699830955267367,7.689122239019523e-11
-0.49634375,0.4699830955267367,8.22345853633339e-11
-0.4963125,0.4699830955267367,8.78983924831642e-11
-0.49628125,0.4699830955267367,9.38988462307282e-11
-0.49625,0.4699035567354989,1.002528172665682e-10
-0.49621875,0.4699035567354989,1.069778657777969e-10
-0.4961875,0.4699830955267367,1.14092263307118e-10
-0.49615625,0.4698240179442613,1.216150150699742e-10
-0.496125,0.4698240179442613,1.295658827660113e-10
-0.49609375,0.4697444791530235,1.379654078910496e-10
-0.4960625,0.4698240179442613,1.468349355557657e-10
-0.49603125,0.4697444791530235,1.56196638817292e-10
-0.496,0.4697444791530235,1.660735435299461e-10
-0.49596875,0.4698240179442613,1.764895537213104e-10
-0.4959375,0.4697444791530235,1.87469477499886e-10
-0.49590625,0.4699035567354989,1.990390535005471e-10
-0.495875,0.4699035567354989,2.112249778740294e-10
-0.49584375,0.4699035567354989,2.240549318266878e-10
-0.4958125,0.4699035567354989,2.375576097167594e-10
-0.49578125,0.4699830955267367,2.517627477133729e-10
-0.49575,0.4699830955267367,2.667011530245467e-10
-0.49571875,0.4700626343179744,2.824047337004155e-10
-0.4956875,0.4699035567354989,2.989065290179324e-10
-0.49565625,0.4699830955267367,3.162407404532853e-10
-0.495625,0.4697444791530235,3.344427632482755e-10
-0.49559375,0.4699035567354989,3.535492185768945e-10
-0.4955625,0.4699830955267367,3.735979863183442e-10
-0.49553125,0.4700626343179744,3.946282384427357e-10
-0.4955,0.4699830955267367,4.166804730157043e-10
-0.49546875,0.4699035567354989,4.397965488281713e-10
-0.4954375,0.4699830955267367,4.640197206574849e-10
-0.49540625,0.4699035567354989,4.89394675166162e-10
-0.495375,0.4698240179442613,5.159675674444547e-10
-0.49534375,0.4699035567354989,5.437860582029557e-10
-0.4953125,0.4699035567354989,5.728993516214528e-10
-0.49528125,0.4701421731092121,6.033582338602381e-10
-0.49525,0.4702217119004499,6.352151122400691e-10
-0.49521875,0.4699830955267367,6.685240550969727e-10
-0.4951875,0.4699830955267367,7.033408323180757e-10
-0.49515625,0.4700626343179744,7.397229565646393e-10
-0.495125,0.4700626343179744,7.777297251884625e-10
-0.49509375,0.4700626343179744,8.17422262847817e-10
-0.4950625,0.4699830955267367,8.588635648290576e-10
-0.49503125,0.4700626343179744,9.021185410800557e-10
-0.495,0.4699830955267367,9.472540609615788e-10
-0.49496875,0.4701421731092121,9.94338998722739e-10
-0.4949375,0.4701421731092121,1.043444279706618e-09
-0.49490625,0.4700626343179744,1.094642927292167e-09
-0.494875,0.4701421731092121,1.148010110578461e-09
-0.49484375,0.4701421731092121,1.203623192817386e-09
-0.4948125,0.4702217119004499,1.261561780600816e-09
-0.49478125,0.4700626343179744,1.321907773808331e-09
-0.49475,0.4700626343179744,1.384745416321494e-09
-0.49471875,0.4699830955267367,1.450161347510728e-09
-0.4946875,0.4702217119004499,1.518244654500777e-09
-0.49465625,0.4702217119004499,1.589086925220759e-09
-0.494625,0.4703012506916876,1.662782302244762e-09
-0.49459375,0.4703012506916876,1.739427537428965e-09
-0.4945625,0.4703012506916876,1.819122047351214e-09
-0.49453125,0.4703012506916876,1.901967969558979e-09
-0.4945,0.4702217119004499,1.9880702196316e-09
-0.49446875,0.4703012506916876,2.077536549062723e-09
-0.4944375,0.4702217119004499,2.170477603968788e-09
-0.49440625,0.4703807894829253,2.267006984629427e-09
-0.494375,0.4703807894829253,2.367241305865618e-09
-0.49434375,0.4704603282741631,2.471300258261398e-09
-0.4943125,0.4703012506916876,2.579306670234954e-09
-0.49428125,0.4703807894829253,2.691386570964838e-09
-0.49425,0.4703807894829253,2.807669254177113e-09
-0.49421875,0.4703012506916876,2.928287342799114e-09
-0.4941875,0.4702217119004499,3.053376854485593e-09
-0.49415625,0.4703807894829253,3.183077268022897e-09
-0.494125,0.4703807894829253,3.317531590616899e-09
-0.49409375,0.4704603282741631,3.456886426070293e-09
-0.4940625,0.4705398670654008,3.601292043854918e-09
-0.49403125,0.4703807894829253,3.750902449084695e-09
-0.494,0.4704603282741631,3.905875453394777e-09
-0.49396875,0.4705398670654008,4.066372746732462e-09
-0.4939375,0.4706194058566385,4.232559970065414e-09
-0.49390625,0.4704603282741631,4.404606789012707e-09
-0.493875,0.4706194058566385,4.582686968404174e-09
-0.49384375,0.4706194058566385,4.766978447773527e-09
-0.4938125,0.4707784834391139,4.957663417790703e-09
-0.49378125,0.4706989446478762,5.154928397638812e-09
-0.49375,0.4706194058566385,5.35896431334113e-09
-0.49371875,0.4706194058566385,5.569966577043442e-09
-0.4936875,0.4706194058566385,5.788135167257112e-09
-0.49365625,0.4706194058566385,6.013674710068168e-09
-0.493625,0.4709375610215894,6.246794561317696e-09
-0.49359375,0.4707784834391139,6.487708889758779e-09
-0.4935625,0.4706989446478762,6.736636761195231e-09
-0.49353125,0.4709375610215894,6.993802223607307e-09
-0.4935,0.4707784834391139,7.25943439326956e-09
-0.49346875,0.4706989446478762,7.533767541866005e-09
-0.4934375,0.4707784834391139,7.817041184607674e-09
-0.49340625,0.4709375610215894,8.109500169357666e-09
-0.493375,0.4709375610215894,8.411394766768742e-09
-0.49334375,0.4708580222303517,8.722980761438486e-09
-0.4933125,0.4708580222303517,9.044519544087021e-09
-0.49328125,0.4708580222303517,9.376278204762243e-09
-0.49325,0.4708580222303517,9.718529627077532e-09
-0.49321875,0.4709375610215894,1.007155258348679e-08
-0.4931875,0.4708580222303517,1.043563183160175e-08
-0.49315625,0.4708580222303517,1.081105821155626e-08
-0.493125,0.4707784834391139,1.119812874442257e-08
-0.49309375,0.4709375610215894,1.159714673168416e-08
-0.4930625,0.4709375610215894,1.200842185576997e-08
-0.49303125,0.4708580222303517,1.243227028165479e-08
-0.493,0.4709375610215894,1.286901475953033e-08
-0.49296875,0.4709375610215894,1.331898472855179e-08
-0.4929375,0.4710170998128271,1.37825164216644e-08
-0.49290625,0.4708580222303517,1.425995297151458e-08
-0.492875,0.4710170998128271,1.475164451745023e-08
-0.49284375,0.4710170998128271,1.52579483136147e-08
-0.4928125,0.4708580222303517,1.57792288381388e-08
-0.49278125,0.4710170998128271,1.631585790343549e-08
-0.49275,0.4709375610215894,1.686821476760145e-08
-0.49271875,0.4710170998128271,1.743668624692993e-08
-0.4926875,0.4710170998128271,1.802166682953941e-08
-0.49265625,0.4710170998128271,1.862355879012207e-08
-0.492625,0.4709375610215894,1.924277230581656e-08
-0.49259375,0.4710170998128271,1.987972557320917e-08
-0.4925625,0.4709375610215894,2.053484492646765e-08
-0.49253125,0.4711761773953026,2.120856495661179e-08
-0.4925,0.4711761773953026,2.190132863192491e-08
-0.49246875,0.4710966386040649,2.261358741951026e-08
-0.4924375,0.4710966386040649,2.334580140799652e-08
-0.49240625,0.4711761773953026,2.409843943139628e-08
-0.492375,0.4710170998128271,2.487197919412137e-08
-0.49234375,0.4710966386040649,2.566690739715928e-08
-0.4923125,0.4712557161865403,2.648371986541422e-08
-0.49228125,0.4713352549777781,2.732292167621688e-08
-0.49225,0.4710966386040649,2.818502728900661e-08
-0.49221875,0.4712557161865403,2.907056067618981e-08
-0.4921875,0.4712557161865403,2.99800554551783e-08
-0.49215625,0.4711761773953026,3.091405502161127e-08
-0.492125,0.4712557161865403,3.187311268376457e-08
-0.49209375,0.4713352549777781,3.285779179815091e-08
-0.4920625,0.4712557161865403,3.386866590631451e-08
-0.49203125,0.4714147937690157,3.490631887282375e-08
-0.492,0.4712557161865403,3.597134502446546e-08
-0.49196875,0.4712557161865403,3.706434929064391e-08
-0.4919375,0.4713352549777781,3.818594734498849e-08
-0.49190625,0.4714147937690157,3.933676574817291e-08
-0.491875,0.4713352549777781,4.051744209194952e-08
-0.49184375,0.4713352549777781,4.172862514440208e-08
-0.4918125,0.4714943325602535,4.297097499642005e-08
-0.49178125,0.4713352549777781,4.424516320939779e-08
-0.49175,0.4714943325602535,4.555187296416166e-08
-0.49171875,0.4713352549777781,4.68917992111283e-08
-0.4916875,0.4713352549777781,4.82656488216971e-08
-0.49165625,0.4713352549777781,4.96741407408798e-08
-0.491625,0.4713352549777781,5.111800614117052e-08
-0.49159375,0.4714147937690157,5.259798857765874e-08
-0.4915625,0.4715738713514912,5.411484414438857e-08
-0.49153125,0.4716534101427289,5.566934163196692e-08
-0.4915,0.4715738713514912,5.726226268642339e-08
-0.49146875,0.4715738713514912,5.889440196932484e-08
-0.4914375,0.4714943325602535,6.056656731914722e-08
-0.49140625,0.4715738713514912,6.227957991390748e-08
-0.491375,0.4715738713514912,6.403427443505798e-08
-0.49134375,0.4716534101427289,6.583149923264639e-08
-0.4913125,0.4716534101427289,6.767211649174333e-08
-0.49128125,0.4715738713514912,6.955700240014031e-08
-0.49125,0.4717329489339667,7.148704731732061e-08
-0.49121875,0.4715738713514912,7.346315594470544e-08
-0.4911875,0.4715738713514912,7.548624749717761e-08
-0.49115625,0.4718124877252044,7.755725587588541e-08
-0.491125,0.4717329489339667,7.96771298423287e-08
-0.49109375,0.4718124877252044,8.184683319372953e-08
-0.4910625,0.4718124877252044,8.406734493968961e-08
-0.49103125,0.4716534101427289,8.633965948013669e-08
-0.491,0.4717329489339667,8.866478678456192e-08
-0.49096875,0.4715738713514912,9.104375257255055e-08
-0.4909375,0.4714147937690157,9.347759849560755e-08
-0.49090625,0.4714943325602535,9.596738232028059e-08
-0.490875,0.4715738713514912,9.851417811258197e-08
-0.49084375,0.4716534101427289,1.011190764237116e-07
-0.4908125,0.4714943325602535,1.037831844770827e-07
-0.49078125,0.4715738713514912,1.065076263566526e-07
-0.49075,0.4716534101427289,1.09293543196559e-07
-0.49071875,0.4715738713514912,1.121420933720652e-07
-0.4906875,0.4716534101427289,1.150544526918149e-07
-0.49065625,0.4716534101427289,1.180318145913979e-07
-0.490625,0.4716534101427289,1.210753903282298e-07
-0.49059375,0.4717329489339667,1.241864091777445e-07
-0.4905625,0.4717329489339667,1.273661186309044e-07
-0.49053125,0.4717329489339667,1.306157845930272e-07
-0.4905,0.4718124877252044,1.339366915839311e-07
-0.49046875,0.4716534101427289,1.37330142939401e-07
-0.4904375,0.4715738713514912,1.407974610139752e-07
-0.49040625,0.4714943325602535,1.443399873850555e-07
-0.490375,0.4716534101427289,1.479590830583408e-07
-0.49034375,0.4715738713514912,1.516561286745855e-07
-0.4903125,0.4717329489339667,1.554325247176843e-07
-0.49028125,0.4716534101427289,1.592896917240844e-07
-0.49025,0.4717329489339667,1.632290704935251e-07
-0.49021875,0.4716534101427289,1.672521223011072e-07
-0.4901875,0.4716534101427289,1.713603291106922e-07
-0.49015625,0.4717329489339667,1.755551937896323e-07
-0.490125,0.4714943325602535,1.798382403248326e-07
-0.49009375,0.4715738713514912,1.842110140401448e-07
-0.4900625,0.4717329489339667,1.886750818150955e-07
-0.49003125,0.4718124877252044,1.932320323049472e-07
-0.49,0.4716534101427289,1.978834761620943e-07
-0.48996875,0.4716534101427289,2.026310462587946e-07
-0.4899375,0.4716534101427289,2.074763979112356e-07
-0.48990625,0.4716534101427289,2.124212091049377e-07
-0.489875,0.4717329489339667,2.174671807214932e-07
-0.48984375,0.4716534101427289,2.226160367666431e-07
-0.4898125,0.4717329489339667,2.278695245996908e-07
-0.48978125,0.4716534101427289,2.332294151642527e-07
-0.48975,0.4717329489339667,2.386975032203483e-07
-0.48971875,0.4715738713514912,2.442756075778262e-07
-0.4896875,0.4716534101427289,2.499655713311305e-07
-0.48965625,0.4714147937690157,2.557692620954034e-07
-0.489625,0.4715738713514912,2.616885722439273e-07
-0.48959375,0.4715738713514912,2.677254191469057e-07
-0.4895625,0.4715738713514912,2.738817454115804e-07
-0.48953125,0.4716534101427289,2.801595191236892e-07
-0.4895,0.4716534101427289,2.865607340902603e-07
-0.48946875,0.4716534101427289,2.930874100837446e-07
-0.4894375,0.4716534101427289,2.997415930874861e-07
-0.48940625,0.4716534101427289,3.065253555425296e-07
-0.489375,0.4717329489339667,3.134407965957646e-07
-0.48934375,0.4717329489339667,3.204900423494067e-07
-0.4893125,0.4717329489339667,3.276752461118151e-07
-0.48928125,0.4716534101427289,3.34998588649645e-07
-0.48925,0.4717329489339667,3.424622784413362e-07
-0.48921875,0.4716534101427289,3.500685519319352e-07
-0.4891875,0.4715738713514912,3.578196737892526e-07
-0.48915625,0.4716534101427289,3.657179371613521e-07
-0.489125,0.4716534101427289,3.73765663935374e-07
-0.48909375,0.4717329489339667,3.819652049976882e-07
-0.4890625,0.4716534101427289,3.903189404953804e-07
-0.48903125,0.4714943325602535,3.988292800990671e-07
-0.489,0.4715738713514912,4.074986632670395e-07
-0.48896875,0.4714943325602535,4.163295595107368e-07
-0.4889375,0.4715738713514912,4.253244686615456e-07
-0.48890625,0.4714943325602535,4.344859211389259e-07
-0.488875,0.4714943325602535,4.43816478219862e-07
-0.48884375,0.4714943325602535,4.533187323096373e-07
-0.4888125,0.4714943325602535,4.629953072139319e-07
-0.48878125,0.4714943325602535,4.728488584122405e-07
-0.48875,0.4714943325602535,4.828820733326123e-07
-0.48871875,0.4715738713514912,4.930976716277075e-07
-0.4886875,0.4714943325602535,5.03498405452173e-07
-0.48865625,0.4714943325602535,5.140870597413321e-07
-0.488625,0.4714943325602535,5.248664524911903e-07
-0.48859375,0.4714943325602535,5.358394350397522e-07
-0.4885625,0.4714943325602535,5.470088923496516e-07
-0.48853125,0.4714943325602535,5.583777432920883e-07
-0.4885,0.4713352549777781,5.69948940932076e-07
-0.48846875,0.4713352549777781,5.817254728149941e-07
-0.4884375,0.4714147937690157,5.937103612544444e-07
-0.48840625,0.4714943325602535,6.0590666362141e-07
