Task5_25Hz.csv

#Digilent WaveForms Oscilloscope Acquisition
#Device Name: Discovery3
#Serial Number: SN:210415BD63A1
#Date Time: 2026-09-24 11:12:00.517.629.240
#Sample rate: 32000Hz
#Samples: 32000
#Trigger: Source: Channel 1 Type: Edge Condition: Rising Level: 0 V Hyst.: Auto HoldOff: 0 s
#Channel 1: Range: 500 mV/div Offset: 0 V Sample Mode: Average
#Math 1: Input: C1 Reference: Internal Frequency: 25 Hz Phase: 90 ° Filter: IIR Butterworth 8  Low-Pass CutOff: 5 Hz Output: Amplitude

#Wavegen Channel 1: Running
#Mode: Simple
#Type: Sine
#Frequency: 25 Hz
#Period: 40 ms
#Amplitude: 50 mV
#Offset: 0 V
#Symmetry: 50 %
#Phase: 0 °

Time (s),Channel 1 (V),Math 1 (V)
-0.5,0.4383266566141216,1.473086066585191e-27
-0.49996875,0.4384061954053594,2.503556835606207e-26
-0.4999375,0.4383266566141216,2.134728402042076e-25
-0.49990625,0.4382471178228839,1.225947245892712e-24
-0.499875,0.4383266566141216,5.368336701413405e-24
-0.49984375,0.4382471178228839,1.922509237207711e-23
-0.4998125,0.4382471178228839,5.891808358266521e-23
-0.49978125,0.4384061954053594,1.594879216273684e-22
-0.49975,0.4384061954053594,3.902628312287424e-22
-0.49971875,0.4383266566141216,8.784477929516914e-22
-0.4996875,0.4382471178228839,1.843532436366204e-21
-0.49965625,0.4384061954053594,3.645480047058332e-21
-0.499625,0.4384061954053594,6.850022068915417e-21
-0.49959375,0.4382471178228839,1.231474262966446e-20
-0.4995625,0.4383266566141216,2.129999588407333e-20
-0.49953125,0.4383266566141216,3.560905535125505e-20
-0.4995,0.4384061954053594,5.776224891484485e-20
-0.49946875,0.4383266566141216,9.121018574871841e-20
-0.4994375,0.4382471178228839,1.405915321185264e-19
-0.49940625,0.4382471178228839,2.120411417884349e-19
-0.499375,0.4383266566141216,3.135546936413162e-19
-0.49934375,0.4382471178228839,4.554163341194402e-19
-0.4993125,0.4382471178228839,6.506961652310725e-19
-0.49928125,0.4382471178228839,9.15824760143946e-19
-0.49925,0.4381675790316462,1.271252227772523e-18
-0.49921875,0.4384061954053594,1.742199685237472e-18
-0.4991875,0.4382471178228839,2.359511332634264e-18
-0.49915625,0.4382471178228839,3.160615658213354e-18
-0.499125,0.4381675790316462,4.190604633863594e-18
-0.49909375,0.4381675790316462,5.503440090709888e-18
-0.4990625,0.4380085014491707,7.163296792689494e-18
-0.49903125,0.4380880402404084,9.246052052162716e-18
-0.499,0.4381675790316462,1.184093205594387e-17
-0.49896875,0.4380085014491707,1.505232539259579e-17
-0.4989375,0.4378494238666953,1.900177459239401e-17
-0.49890625,0.4377698850754576,2.383015681002028e-17
-0.498875,0.437928962657933,2.970006509680279e-17
-0.49884375,0.4377698850754576,3.679840202420999e-17
-0.4988125,0.4377698850754576,4.533919773334677e-17
-0.49878125,0.4377698850754576,5.556666479639307e-17
-0.49875,0.4377698850754576,6.775850258525644e-17
-0.49871875,0.4376903462842198,8.22294641501721e-17
-0.4986875,0.4376108074929821,9.933519891657734e-17
-0.49865625,0.4375312687017444,1.194763848123252e-16
-0.498625,0.4375312687017444,1.431031637392056e-16
-0.49859375,0.4375312687017444,1.707198946028183e-16
-0.4985625,0.4376108074929821,2.028902384130779e-16
-0.49853125,0.4373721911192689,2.402425902640187e-16
-0.4985,0.4375312687017444,2.83475873296074e-16
-0.49846875,0.4375312687017444,3.333657100366559e-16
-0.4984375,0.4375312687017444,3.907709868056571e-16
-0.49840625,0.4376108074929821,4.566408271614702e-16
-0.498375,0.4373721911192689,5.320219906502706e-16
-0.49834375,0.4374517299105066,6.180667134066091e-16
-0.4983125,0.4373721911192689,7.160410074368152e-16
-0.49828125,0.4374517299105066,8.273334356983126e-16
-0.49825,0.4374517299105066,9.534643803677235e-16
-0.49821875,0.4372926523280312,1.096095821968565e-15
-0.4981875,0.4372131135367934,1.257041647305432e-15
-0.49815625,0.4373721911192689,1.43827850442579e-15
-0.498125,0.4372926523280312,1.641957223102922e-15
-0.49809375,0.4372131135367934,1.870414819604185e-15
-0.4980625,0.4372926523280312,2.126187104777477e-15
-0.49803125,0.4372131135367934,2.412021914755814e-15
-0.498,0.4371335747455558,2.730892983844889e-15
-0.49796875,0.4372131135367934,3.086014479421757e-15
-0.4979375,0.4372131135367934,3.480856218934114e-15
-0.49790625,0.4371335747455558,3.919159589349169e-15
-0.497875,0.437054035954318,4.40495418965882e-15
-0.49784375,0.437054035954318,4.942575217303652e-15
-0.4978125,0.4371335747455558,5.536681619632273e-15
-0.49778125,0.437054035954318,6.192275031764596e-15
-0.49775,0.437054035954318,6.914719522478099e-15
-0.49771875,0.4369744971630803,7.709762169984506e-15
-0.4976875,0.4369744971630803,8.583554489711186e-15
-0.49765625,0.4368154195806048,9.542674736446377e-15
-0.497625,0.4368949583718426,1.059415110345053e-14
-0.49759375,0.4368949583718426,1.174548584137736e-14
-0.4975625,0.4368949583718426,1.300468032008755e-14
-0.49753125,0.4368154195806048,1.438026105667595e-14
-0.4975,0.4368154195806048,1.588130673326875e-14
-0.49746875,0.4366563419981294,1.751747622838134e-14
-0.4974375,0.4366563419981294,1.92990376858596e-14
-0.49740625,0.4366563419981294,2.123689864565793e-14
-0.497375,0.4366563419981294,2.334263726093572e-14
-0.49734375,0.4366563419981294,2.562853462618093e-14
-0.4973125,0.4366563419981294,2.810760824129407e-14
-0.49728125,0.4366563419981294,3.079364663678944e-14
-0.49725,0.4364972644156539,3.370124518549145e-14
-0.49721875,0.4367358807893671,3.684584312632382e-14
-0.4971875,0.4365768032068916,4.024376182600686e-14
-0.49715625,0.4364972644156539,4.391224430469438e-14
-0.497125,0.4364972644156539,4.786949605179563e-14
-0.49709375,0.4364972644156539,5.213472715844044e-14
-0.4970625,0.4364177256244162,5.672819579325608e-14
-0.49703125,0.4364972644156539,6.16712530483331e-14
-0.497,0.4364972644156539,6.69863891824648e-14
-0.49696875,0.4364972644156539,7.269728128894955e-14
-0.4969375,0.4364177256244162,7.882884241544942e-14
-0.49690625,0.4364972644156539,8.54072721635994e-14
-0.496875,0.4364972644156539,9.246010879626227e-14
-0.49684375,0.4363381868331785,1.000162828805213e-13
-0.4968125,0.4362586480419408,1.081061724947001e-13
-0.49678125,0.4363381868331785,1.167616600278931e-13
-0.49675,0.4362586480419408,1.260161906006826e-13
-0.49671875,0.4363381868331785,1.359048321359099e-13
-0.4966875,0.4363381868331785,1.464643371085571e-13
-0.49665625,0.4363381868331785,1.577332060039819e-13
-0.496625,0.4364177256244162,1.697517525139374e-13
-0.49659375,0.4364177256244162,1.825621704999874e-13
-0.4965625,0.4364177256244162,1.962086027541144e-13
-0.49653125,0.4362586480419408,2.107372115864961e-13
-0.4965,0.4363381868331785,2.261962512706043e-13
-0.49646875,0.4364972644156539,2.426361423759578e-13
-0.4964375,0.4364177256244162,2.601095480190362e-13
-0.49640625,0.4365768032068916,2.786714520630342e-13
-0.496375,0.4364972644156539,2.983792392973082e-13
-0.49634375,0.4364972644156539,3.192927776275353e-13
-0.4963125,0.4364972644156539,3.414745023077765e-13
-0.49628125,0.4364177256244162,3.64989502245798e-13
-0.49625,0.4364972644156539,3.899056084131718e-13
-0.49621875,0.4363381868331785,4.162934843918389e-13
-0.4961875,0.4364177256244162,4.442267190889808e-13
-0.49615625,0.4363381868331785,4.737819216522012e-13
-0.496125,0.4364972644156539,5.05038818617182e-13
-0.49609375,0.4364972644156539,5.380803533201299e-13
-0.4960625,0.4364972644156539,5.729927876074868e-13
-0.49603125,0.4364972644156539,6.098658058755265e-13
-0.496,0.4364972644156539,6.48792621472618e-13
-0.49596875,0.4364177256244162,6.898700854970752e-13
-0.4959375,0.4364972644156539,7.331987980236681e-13
-0.49590625,0.4364177256244162,7.788832217920146e-13
-0.495875,0.4364177256244162,8.270317983902136e-13
-0.49584375,0.4364972644156539,8.777570669672251e-13
-0.4958125,0.4364972644156539,9.311757855076413e-13
-0.49578125,0.4365768032068916,9.874090547026373e-13
-0.49575,0.4365768032068916,1.046582444451019e-12
-0.49571875,0.4365768032068916,1.108826123024428e-12
-0.4956875,0.4364972644156539,1.174274988930893e-12
-0.49565625,0.4365768032068916,1.24306880551106e-12
-0.495625,0.4366563419981294,1.31535233830154e-12
-0.49559375,0.4364972644156539,1.391275495199973e-12
-0.4955625,0.4365768032068916,1.470993469466515e-12
-0.49553125,0.4366563419981294,1.554666885596579e-12
-0.4955,0.4364972644156539,1.642461948099788e-12
-0.49546875,0.4367358807893671,1.734550593220246e-12
-0.4954375,0.4366563419981294,1.831110643633292e-12
-0.49540625,0.4365768032068916,1.932325966154093e-12
-0.495375,0.4364972644156539,2.038386632493501e-12
-0.49534375,0.4366563419981294,2.149489083096726e-12
-0.4953125,0.4366563419981294,2.265836294100501e-12
-0.49528125,0.4365768032068916,2.387637947444521e-12
-0.49525,0.4364177256244162,2.515110604173038e-12
-0.49521875,0.4365768032068916,2.648477880962633e-12
-0.4951875,0.4364972644156539,2.78797062991225e-12
-0.49515625,0.4367358807893671,2.933827121631727e-12
-0.495125,0.4366563419981294,3.086293231665123e-12
-0.49509375,0.4366563419981294,3.245622630285291e-12
-0.4950625,0.4367358807893671,3.412076975696183e-12
-0.49503125,0.4367358807893671,3.585926110679541e-12
-0.495,0.4367358807893671,3.767448262722672e-12
-0.49496875,0.4367358807893671,3.956930247664129e-12
-0.4949375,0.4367358807893671,4.154667676894219e-12
-0.49490625,0.4367358807893671,4.360965168147308e-12
-0.494875,0.4367358807893671,4.576136559923056e-12
-0.49484375,0.4367358807893671,4.800505129573742e-12
-0.4948125,0.4368154195806048,5.034403815094943e-12
-0.49478125,0.4367358807893671,5.278175440656952e-12
-0.49475,0.4367358807893671,5.532172945914352e-12
-0.49471875,0.4367358807893671,5.796759619131279e-12
-0.4946875,0.4368154195806048,6.072309334159981e-12
-0.49465625,0.4368154195806048,6.359206791310375e-12
-0.494625,0.4367358807893671,6.657847762148333e-12
-0.49459375,0.4366563419981294,6.968639338260569e-12
-0.4945625,0.4368949583718426,7.292000184024038e-12
-0.49453125,0.4368949583718426,7.628360793417829e-12
-0.4945,0.4368949583718426,7.978163750915624e-12
-0.49446875,0.4368154195806048,8.341863996496853e-12
-0.4944375,0.4368154195806048,8.719929094814753e-12
-0.49440625,0.4369744971630803,9.112839508559578e-12
-0.494375,0.4369744971630803,9.521088876055357e-12
-0.49434375,0.437054035954318,9.945184293128506e-12
-0.4943125,0.437054035954318,1.038564659928685e-11
-0.49428125,0.4372131135367934,1.08430106682475e-11
-0.49425,0.4369744971630803,1.131782570285228e-11
-0.49421875,0.4369744971630803,1.181065553440918e-11
-0.4941875,0.4371335747455558,1.23220789264987e-11
-0.49415625,0.437054035954318,1.285268988328371e-11
-0.494125,0.4371335747455558,1.340309796236176e-11
-0.49409375,0.437054035954318,1.397392859219855e-11
-0.4940625,0.4372131135367934,1.456582339418161e-11
-0.49403125,0.4371335747455558,1.517944050933306e-11
-0.494,0.437054035954318,1.581545492972044e-11
-0.49396875,0.437054035954318,1.647455883460483e-11
-0.4939375,0.4371335747455558,1.715746193136508e-11
-0.49390625,0.4373721911192689,1.786489180123754e-11
-0.493875,0.4373721911192689,1.859759424991035e-11
-0.49384375,0.4372131135367934,1.93563336630115e-11
-0.4938125,0.4373721911192689,2.014189336653e-11
-0.49378125,0.4373721911192689,2.095507599220933e-11
-0.49375,0.4374517299105066,2.179670384795271e-11
-0.49371875,0.4373721911192689,2.266761929327923e-11
-0.4936875,0.4375312687017444,2.356868511987064e-11
-0.49365625,0.4375312687017444,2.450078493724784e-11
-0.493625,0.4375312687017444,2.546482356361682e-11
-0.49359375,0.4376903462842198,2.646172742192331e-11
-0.4935625,0.4376108074929821,2.749244494115593e-11
-0.49353125,0.4376903462842198,2.855794696293697e-11
-0.4935,0.4376903462842198,2.965922715344083e-11
-0.49346875,0.4376108074929821,3.079730242067933e-11
-0.4934375,0.4376903462842198,3.197321333719362e-11
-0.49340625,0.4376903462842198,3.318802456819248e-11
-0.493375,0.4376108074929821,3.444282530517624e-11
-0.49334375,0.4376903462842198,3.573872970508645e-11
-0.4933125,0.4376108074929821,3.707687733502071e-11
-0.49328125,0.4377698850754576,3.845843362255219e-11
-0.49325,0.4377698850754576,3.988459031169399e-11
-0.49321875,0.4377698850754576,4.135656592454762e-11
-0.4931875,0.4378494238666953,4.287560622867548e-11
-0.49315625,0.4378494238666953,4.444298471023722e-11
-0.493125,0.437928962657933,4.606000305292921e-11
-0.49309375,0.4380085014491707,4.772799162276756e-11
-0.4930625,0.4380085014491707,4.944830995875383e-11
-0.49303125,0.437928962657933,5.122234726946346e-11
-0.493,0.4380085014491707,5.305152293559655e-11
-0.49296875,0.4378494238666953,5.493728701853085e-11
-0.4929375,0.4378494238666953,5.68811207749165e-11
-0.49290625,0.437928962657933,5.888453717735246e-11
-0.492875,0.4380880402404084,6.094908144118417e-11
-0.49284375,0.437928962657933,6.307633155746238e-11
-0.4928125,0.4380880402404084,6.526789883210257e-11
-0.49278125,0.4381675790316462,6.752542843128486e-11
-0.49275,0.4381675790316462,6.98505999331342e-11
-0.49271875,0.4381675790316462,7.224512788572023e-11
-0.4926875,0.4382471178228839,7.471076237141659e-11
-0.49265625,0.4382471178228839,7.724928957765957e-11
-0.492625,0.4382471178228839,7.986253237414533e-11
-0.49259375,0.4382471178228839,8.25523508965056e-11
-0.4925625,0.4380880402404084,8.532064313650132e-11
-0.49253125,0.4380880402404084,8.816934553877393e-11
-0.4925,0.4381675790316462,9.110043360419362e-11
-0.49246875,0.4382471178228839,9.411592249984438e-11
-0.4924375,0.4382471178228839,9.721786767568514e-11
-0.49240625,0.4382471178228839,1.004083654879265e-10
-0.492375,0.4382471178228839,1.036895538291627e-10
-0.49234375,0.4381675790316462,1.070636127652979e-10
-0.4923125,0.4382471178228839,1.105327651793066e-10
-0.49228125,0.4383266566141216,1.140992774218671e-10
-0.49225,0.4383266566141216,1.177654599689079e-10
-0.49221875,0.4383266566141216,1.215336680861056e-10
-0.4921875,0.4384061954053594,1.254063025003741e-10
-0.49215625,0.4384061954053594,1.29385810078385e-10
-0.492125,0.4384061954053594,1.334746845121558e-10
-0.49209375,0.4382471178228839,1.376754670117488e-10
-0.4920625,0.4384061954053594,1.419907470051167e-10
-0.49203125,0.4384061954053594,1.464231628451354e-10
-0.492,0.4384857341965971,1.509754025238627e-10
-0.49196875,0.4384061954053594,1.556502043940619e-10
-0.4919375,0.4384061954053594,1.604503578980297e-10
-0.49190625,0.4384061954053594,1.653787043037664e-10
-0.491875,0.4384857341965971,1.704381374485275e-10
-0.49184375,0.4383266566141216,1.756316044897962e-10
-0.4918125,0.4383266566141216,1.809621066637148e-10
-0.49178125,0.4383266566141216,1.864327000510141e-10
-0.49175,0.4384857341965971,1.920464963504786e-10
-0.49171875,0.4384857341965971,1.978066636599876e-10
-0.4916875,0.4385652729878348,2.037164272651692e-10
-0.49165625,0.4385652729878348,2.097790704357069e-10
-0.491625,0.4385652729878348,2.159979352293358e-10
-0.49159375,0.4383266566141216,2.223764233035681e-10
-0.4915625,0.4383266566141216,2.289179967351864e-10
-0.49153125,0.4384857341965971,2.356261788475406e-10
-0.4915,0.4384061954053594,2.425045550456894e-10
-0.49146875,0.4384061954053594,2.495567736594234e-10
-0.4914375,0.4384061954053594,2.567865467942077e-10
-0.49140625,0.4384061954053594,2.641976511900809e-10
-0.491375,0.4384857341965971,2.717939290885516e-10
-0.49134375,0.4384061954053594,2.795792891075264e-10
-0.4913125,0.4384857341965971,2.875577071243099e-10
-0.49128125,0.4383266566141216,2.95733227166713e-10
-0.49125,0.4383266566141216,3.041099623123079e-10
-0.49121875,0.4384061954053594,3.126920955958666e-10
-0.4911875,0.4384857341965971,3.214838809250208e-10
-0.49115625,0.4384061954053594,3.304896440041805e-10
-0.491125,0.4385652729878348,3.397137832667491e-10
-0.49109375,0.4384857341965971,3.491607708156709e-10
-0.4910625,0.4384857341965971,3.5883515337235e-10
-0.49103125,0.4386448117790726,3.687415532339752e-10
-0.491,0.4386448117790726,3.788846692392916e-10
-0.49096875,0.4385652729878348,3.892692777428511e-10
-0.4909375,0.4386448117790726,3.999002335977826e-10
-0.49090625,0.4385652729878348,4.107824711471166e-10
-0.490875,0.4384857341965971,4.219210052237019e-10
-0.49084375,0.4386448117790726,4.333209321587489e-10
-0.4908125,0.4384061954053594,4.449874307990395e-10
-0.49078125,0.4385652729878348,4.569257635328363e-10
-0.49075,0.4384857341965971,4.691412773245294e-10
-0.49071875,0.4384061954053594,4.816394047580577e-10
-0.4906875,0.4383266566141216,4.944256650891372e-10
-0.49065625,0.4382471178228839,5.075056653063383e-10
-0.490625,0.4383266566141216,5.208851012010405e-10
-0.49059375,0.4384061954053594,5.345697584463075e-10
-0.4905625,0.4384061954053594,5.48565513684714e-10
-0.49053125,0.4384061954053594,5.628783356251601e-10
-0.4905,0.4382471178228839,5.775142861487122e-10
-0.49046875,0.4383266566141216,5.924795214234995e-10
-0.4904375,0.4384857341965971,6.07780293028709e-10
-0.49040625,0.4384061954053594,6.234229490877077e-10
-0.490375,0.4383266566141216,6.394139354103319e-10
-0.49034375,0.4383266566141216,6.557597966443744e-10
-0.4903125,0.4384061954053594,6.724671774363081e-10
-0.49028125,0.4383266566141216,6.895428236012783e-10
-0.49025,0.4381675790316462,7.069935833023995e-10
-0.49021875,0.4382471178228839,7.248264082393915e-10
-0.4901875,0.4382471178228839,7.430483548465877e-10
-0.49015625,0.4382471178228839,7.616665855003519e-10
-0.490125,0.4382471178228839,7.806883697359368e-10
-0.49009375,0.4382471178228839,8.001210854738172e-10
-0.4900625,0.4382471178228839,8.199722202555341e-10
-0.49003125,0.4380880402404084,8.40249372489083e-10
-0.49,0.4381675790316462,8.609602527038774e-10
-0.48996875,0.4382471178228839,8.821126848153265e-10
-0.4899375,0.4380880402404084,9.037146073990543e-10
-0.48990625,0.4380880402404084,9.257740749747987e-10
-0.489875,0.4380880402404084,9.482992593000209e-10
-0.48984375,0.4381675790316462,9.712984506732591e-10
-0.4898125,0.4381675790316462,9.947800592472599e-10
-0.48978125,0.4380085014491707,1.01875261635192e-09
-0.48975,0.4380880402404084,1.04322477582707e-09
-0.48971875,0.4380880402404084,1.068205315365133e-09
-0.4896875,0.4381675790316462,1.093703137863697e-09
-0.48965625,0.4380880402404084,1.119727272788016e-09
-0.489625,0.4380085014491707,1.1462868775435e-09
-0.48959375,0.4380880402404084,1.17339123885819e-09
-0.4895625,0.437928962657933,1.201049774175293e-09
-0.48953125,0.437928962657933,1.229272033055761e-09
-0.4895,0.437928962657933,1.25806769859099e-09
-0.48946875,0.437928962657933,1.287446588825644e-09
-0.4894375,0.4380085014491707,1.317418658190636e-09
-0.48940625,0.437928962657933,1.347993998946311e-09
-0.489375,0.4378494238666953,1.379182842635858e-09
-0.48934375,0.4377698850754576,1.410995561548967e-09
-0.4893125,0.4378494238666953,1.443442670195784e-09
-0.48928125,0.4378494238666953,1.47653482679118e-09
-0.48925,0.4378494238666953,1.51028283474937e-09
-0.48921875,0.4378494238666953,1.544697644188911e-09
-0.4891875,0.4377698850754576,1.579790353448108e-09
-0.48915625,0.4377698850754576,1.615572210610869e-09
-0.489125,0.4378494238666953,1.652054615043011e-09
-0.48909375,0.4377698850754576,1.689249118939089e-09
-0.4890625,0.4378494238666953,1.727167428879736e-09
-0.48903125,0.4377698850754576,1.765821407399572e-09
-0.489,0.4377698850754576,1.805223074565697e-09
-0.48896875,0.4376903462842198,1.845384609566809e-09
-0.4889375,0.4376108074929821,1.886318352312953e-09
-0.48890625,0.4377698850754576,1.928036805045967e-09
-0.488875,0.4376903462842198,1.970552633960616e-09
-0.48884375,0.4375312687017444,2.013878670836467e-09
-0.4888125,0.4376903462842198,2.058027914680524e-09
-0.48878125,0.4376108074929821,2.103013533380652e-09
-0.48875,0.4374517299105066,2.148848865369826e-09
-0.48871875,0.4375312687017444,2.195547421301216e-09
-0.4886875,0.4375312687017444,2.243122885734153e-09
-0.48865625,0.4374517299105066,2.291589118830997e-09
-0.488625,0.4373721911192689,2.340960158064933e-09
-0.48859375,0.4374517299105066,2.391250219938725e-09
-0.4885625,0.4373721911192689,2.442473701714449e-09
-0.48853125,0.4373721911192689,2.494645183154252e-09
-0.4885,0.4373721911192689,2.547779428272128e-09
-0.48846875,0.4373721911192689,2.601891387096778e-09
-0.4884375,0.4373721911192689,2.656996197445549e-09
-0.48840625,0.4375312687017444,2.713109186709501e-09
-0.488375,0.4372926523280312,2.770245873649608e-09
