Task5_10Hz_500mV_45+5.csv

#Digilent WaveForms Oscilloscope Acquisition
#Device Name: Discovery3
#Serial Number: SN:210415BD63A1
#Date Time: 2026-09-24 11:25:21.217.839.840
#Sample rate: 16000Hz
#Samples: 32000
#Trigger: Source: Channel 1 Type: Edge Condition: Rising Level: 0 V Hyst.: Auto HoldOff: 0 s
#Channel 1: Range: 500 mV/div Offset: 0 V Sample Mode: Average
#Math 1: Input: C1 Reference: Internal Frequency: 10 Hz Phase: 90 ° Filter: IIR Butterworth 8  Low-Pass CutOff: 2 Hz Output: Amplitude

#Wavegen Channel 1: Running
#Mode: Simple
#Type: Sine
#Frequency: 10 Hz
#Period: 100 ms
#Amplitude: 500 mV
#Offset: 0 V
#Symmetry: 50 %
#Phase: 0 °

Time (s),Channel 1 (V),Math 1 (V)
-1,0.3731843865904238,2.223961415849756e-28
-0.9999375,0.3731843865904238,3.779837466602071e-27
-0.999875,0.3731843865904238,3.223129599906419e-26
-0.9998125,0.3731843865904238,1.851098370199307e-25
-0.99975,0.3731048477991861,8.106310018662372e-25
-0.9996875,0.3732639253816615,2.903225430242179e-24
-0.999625,0.3732639253816615,8.898007383320399e-24
-0.9995625,0.3732639253816615,2.40883201007977e-23
-0.9995000000000001,0.3732639253816615,5.894852550005738e-23
-0.9994375,0.3731843865904238,1.327000054742283e-22
-0.999375,0.3731843865904238,2.785139134191314e-22
-0.9993125,0.3732639253816615,5.507995555819255e-22
-0.99925,0.3734230029641369,1.035082390620636e-21
-0.9991875,0.3734230029641369,1.861030512081924e-21
-0.999125,0.3734230029641369,3.219243123964742e-21
-0.9990625,0.3733434641728993,5.38246893615926e-21
-0.999,0.3733434641728993,8.731976594776077e-21
-0.9989375,0.3731843865904238,1.378985322184401e-20
-0.998875,0.3733434641728993,2.125806087031317e-20
-0.9988125,0.3733434641728993,3.206513420486869e-20
-0.99875,0.3733434641728993,4.742145599610358e-20
-0.9986875,0.3732639253816615,6.888410006300569e-20
-0.998625,0.3732639253816615,9.843228411509761e-20
-0.9985625,0.3732639253816615,1.385545275313019e-19
-0.9985000000000001,0.3734230029641369,1.92348661468727e-19
-0.9984375,0.3733434641728993,2.636358908215416e-19
-0.998375,0.3733434641728993,3.570901594482921e-19
-0.9983125,0.3733434641728993,4.783841217570382e-19
-0.99825,0.3733434641728993,6.343530751838216e-19
-0.9981875,0.3734230029641369,8.331782593217292e-19
-0.998125,0.3734230029641369,1.084590978453241e-18
-0.9980625,0.3734230029641369,1.400099055005562e-18
-0.998,0.3734230029641369,1.793237171986258e-18
-0.9979375,0.3955347869282249,2.279842712763944e-18
-0.997875,0.3955347869282249,2.87835875663529e-18
-0.9978125,0.3954552481369871,3.610165938466349e-18
-0.99775,0.3954552481369871,4.499944930315177e-18
-0.9976874999999999,0.3954552481369871,5.576071352334929e-18
-0.997625,0.3954552481369871,6.871044969421999e-18
-0.9975625,0.3954552481369871,8.421955079012406e-18
-0.9975000000000001,0.3954552481369871,1.027098404414368e-17
-0.9974375,0.3953757093457494,1.246595097438949e-17
-0.997375,0.3953757093457494,1.506089760553934e-17
-0.9973125,0.3953757093457494,1.8116718476933e-17
-0.99725,0.3952961705545117,2.170183755316671e-17
-0.9971875,0.3952961705545117,2.589293348446461e-17
-0.997125,0.395216631763274,3.077571574735544e-17
-0.9970625,0.395216631763274,3.64457539544107e-17
-0.997,0.395216631763274,4.300936266868962e-17
-0.9969375,0.3951370929720363,5.058454410519739e-17
-0.996875,0.3952961705545117,5.930199114809788e-17
-0.9968125,0.395216631763274,6.930615315863195e-17
-0.99675,0.3952961705545117,8.075636709467524e-17
-0.9966874999999999,0.3952961705545117,9.382805650862465e-17
-0.996625,0.3951370929720363,1.0871400103583e-16
-0.9965625,0.3949780153895608,1.256256790310846e-16
-0.9965000000000001,0.3950575541807985,1.447946860557579e-16
-0.9964375,0.3949780153895608,1.66474231962995e-16
-0.996375,0.3949780153895608,1.909407193730213e-16
-0.9963125,0.3949780153895608,2.184954063749751e-16
-0.99625,0.3949780153895608,2.49466156335848e-16
-0.9961875,0.3949780153895608,2.842092777410397e-16
-0.996125,0.3948984765983231,3.231114570347324e-16
-0.9960625,0.3947393990158476,3.665917874717584e-16
-0.996,0.3948189378070853,4.15103897035881e-16
-0.9959375,0.3948189378070853,4.691381785224245e-16
-0.995875,0.3948189378070853,5.292241249259788e-16
-0.9958125,0.3946598602246099,5.959327733164621e-16
-0.99575,0.3946598602246099,6.698792604291497e-16
-0.9956874999999999,0.3945803214333722,7.517254932363785e-16
-0.995625,0.3945007826421345,8.421829378105063e-16
-0.9955625,0.3945803214333722,9.420155298293543e-16
-0.9955000000000001,0.3945007826421345,1.052042710116785e-15
-0.9954375,0.3944212438508967,1.173142588652254e-15
-0.995375,0.3944212438508967,1.306255240524159e-15
-0.9953125,0.3941826274771835,1.452386137342542e-15
-0.99525,0.3942621662684213,1.612609717667251e-15
-0.9951875,0.394341705059659,1.788073100047929e-15
-0.995125,0.394341705059659,1.979999942312321e-15
-0.9950625,0.3942621662684213,2.189694450779182e-15
-0.995,0.3941826274771835,2.418545543111713e-15
-0.9949375,0.3941826274771835,2.668031168566853e-15
-0.994875,0.3941030886859458,2.939722789434916e-15
-0.9948125,0.3941030886859458,3.235290027503006e-15
-0.99475,0.3941030886859458,3.556505479414407e-15
-0.9946874999999999,0.3941030886859458,3.905249704834595e-15
-0.994625,0.3940235498947081,4.283516391372839e-15
-0.9945625,0.3940235498947081,4.693417700246439e-15
-0.9945000000000001,0.3939440111034703,5.137189796712464e-15
-0.9944375,0.3939440111034703,5.617198569329557e-15
-0.994375,0.3939440111034703,6.135945542149742e-15
-0.9943125,0.3940235498947081,6.69607398397743e-15
-0.99425,0.3939440111034703,7.300375218869759e-15
-0.9941875,0.3940235498947081,7.951795142089196e-15
-0.994125,0.3941030886859458,8.653440945755858e-15
-0.9940625,0.3940235498947081,9.408588058483364e-15
-0.994,0.3942621662684213,1.02206873033181e-14
-0.9939375,0.3941826274771835,1.10933722783377e-14
-0.993875,0.3941826274771835,1.203046696430024e-14
-0.9938125,0.3941030886859458,1.303599356377112e-14
-0.99375,0.3941030886859458,1.411418057618976e-14
-0.9936874999999999,0.3940235498947081,1.526947111337346e-14
-0.993625,0.3941030886859458,1.650653145999049e-14
-0.9935625,0.3941826274771835,1.783025988356902e-14
-0.9935,0.3941030886859458,1.924579569864307e-14
-0.9934375,0.3941826274771835,2.075852858967072e-14
-0.993375,0.3941826274771835,2.237410819739373e-14
-0.9933125,0.3941826274771835,2.409845397334174e-14
-0.99325,0.3941826274771835,2.593776530721741e-14
-0.9931875,0.3941826274771835,2.789853193193242e-14
-0.993125,0.3942621662684213,2.998754461109734e-14
-0.9930625,0.3942621662684213,3.22119061138013e-14
-0.993,0.3944212438508967,3.457904248154996e-14
-0.9929375,0.3942621662684213,3.70967145922629e-14
-0.992875,0.3942621662684213,3.977303002626367e-14
-0.9928125,0.3942621662684213,4.261645523922813e-14
-0.99275,0.3944212438508967,4.563582804708787e-14
-0.9926874999999999,0.3944212438508967,4.884037042791796e-14
-0.992625,0.394341705059659,5.2239701645869e-14
-0.9925625,0.3945007826421345,5.584385170223512e-14
-0.9925,0.3945007826421345,5.966327511878008e-14
-0.9924375,0.3945007826421345,6.370886505847511e-14
-0.992375,0.3945007826421345,6.799196778883161e-14
-0.9923125,0.3944212438508967,7.252439749304353e-14
-0.99225,0.3944212438508967,7.731845143418315e-14
-0.9921875,0.3945803214333722,8.238692547772464e-14
-0.992125,0.3945803214333722,8.774312997769931e-14
-0.9920625,0.3945803214333722,9.340090603181577e-14
-0.992,0.3945803214333722,9.937464211090789e-14
-0.9919375,0.3945803214333722,1.056792910681023e-13
-0.991875,0.3946598602246099,1.123303875331259e-13
-0.9918125,0.3946598602246099,1.193440656972025e-13
-0.99175,0.3947393990158476,1.267370774940178e-13
-0.9916875000000001,0.3946598602246099,1.345268111822561e-13
-0.991625,0.3948189378070853,1.427313103352454e-13
-0.9915625,0.3947393990158476,1.513692932432713e-13
-0.9915,0.3947393990158476,1.604601727341502e-13
-0.9914375,0.3948984765983231,1.70024076417677e-13
-0.991375,0.3949780153895608,1.800818673595943e-13
-0.9913125,0.3950575541807985,1.906551651907509e-13
-0.99125,0.3948984765983231,2.017663676571514e-13
-0.9911875,0.3949780153895608,2.134386726166169e-13
-0.991125,0.3949780153895608,2.256961004878128e-13
-0.9910625,0.3949780153895608,2.385635171574159e-13
-0.991,0.3949780153895608,2.520666573512278e-13
-0.9909375,0.3950575541807985,2.662321484750611e-13
-0.990875,0.3951370929720363,2.810875349312535e-13
-0.9908125,0.3950575541807985,2.966613029166895e-13
-0.99075,0.3949780153895608,3.12982905708235e-13
-0.9906875000000001,0.3951370929720363,3.300827894415131e-13
-0.990625,0.3951370929720363,3.479924193889786e-13
-0.9905625,0.3951370929720363,3.667443067432659e-13
-0.9905,0.395216631763274,3.86372035911818e-13
-0.9904375,0.3950575541807985,4.069102923288215e-13
-0.990375,0.3950575541807985,4.283948907904993e-13
-0.9903125,0.395216631763274,4.508628043198372e-13
-0.99025,0.3951370929720363,4.743521935668417e-13
-0.9901875,0.395216631763274,4.989024367504519e-13
-0.990125,0.395216631763274,5.245541601482492e-13
-0.9900625,0.3952961705545117,5.513492691401346e-13
-0.99,0.3953757093457494,5.793309798121624e-13
-0.9899375,0.3952961705545117,6.085438511267441e-13
-0.9898749999999999,0.395216631763274,6.390338176654568e-13
-0.9898125,0.395216631763274,6.708482229507155e-13
-0.98975,0.3953757093457494,7.040358533525862e-13
-0.9896875000000001,0.3953757093457494,7.386469725870426e-13
-0.989625,0.3953757093457494,7.747333568119865e-13
-0.9895625,0.3954552481369871,8.123483303273787e-13
-0.9895,0.3955347869282249,8.515468018858399e-13
-0.9894375,0.3955347869282249,8.92385301620114e-13
-0.989375,0.3953757093457494,9.349220185937929e-13
-0.9893125,0.3954552481369871,9.792168389817341e-13
-0.98925,0.3955347869282249,1.025331384886616e-12
-0.9891875,0.3955347869282249,1.0733290537981e-12
-0.989125,0.3954552481369871,1.123275058701078e-12
-0.9890625,0.3954552481369871,1.175236468839528e-12
-0.989,0.3955347869282249,1.229282251142486e-12
-0.9889375,0.3955347869282249,1.285483312318687e-12
-0.9888749999999999,0.3954552481369871,1.343912541626444e-12
-0.9888125,0.3955347869282249,1.404644854325338e-12
-0.98875,0.3956143257194626,1.467757235816333e-12
-0.9886875000000001,0.3955347869282249,1.533328786476914e-12
-0.988625,0.3956143257194626,1.601440767197921e-12
-0.9885625,0.3955347869282249,1.672176645628699e-12
-0.9885,0.3955347869282249,1.745622143137261e-12
-0.9884375,0.3955347869282249,1.821865282492149e-12
-0.988375,0.3953757093457494,1.900996436272704e-12
-0.9883125,0.3953757093457494,1.983108376014463e-12
-0.98825,0.3953757093457494,2.068296322096442e-12
-0.9881875,0.3954552481369871,2.156657994377051e-12
-0.988125,0.3956143257194626,2.248293663585427e-12
-0.9880625,0.3955347869282249,2.343306203474971e-12
-0.988,0.3955347869282249,2.441801143745903e-12
-0.9879375,0.3954552481369871,2.543886723743668e-12
-0.9878749999999999,0.3954552481369871,2.649673946940014e-12
-0.9878125,0.3955347869282249,2.759276636203621e-12
-0.98775,0.3953757093457494,2.872811489867143e-12
-0.9876875000000001,0.3955347869282249,2.990398138597544e-12
-0.987625,0.3953757093457494,3.112159203076655e-12
-0.9875625,0.3954552481369871,3.238220352498838e-12
-0.9875,0.3953757093457494,3.36871036389271e-12
-0.9874375,0.3953757093457494,3.503761182273876e-12
-0.987375,0.3953757093457494,3.643507981635615e-12
-0.9873125,0.3952961705545117,3.788089226784506e-12
-0.98725,0.3951370929720363,3.937646736027982e-12
-0.9871875,0.395216631763274,4.092325744720818e-12
-0.987125,0.3952961705545117,4.252274969677554e-12
-0.9870625,0.395216631763274,4.417646674457901e-12
-0.987,0.3951370929720363,4.588596735532159e-12
-0.9869375,0.395216631763274,4.765284709333714e-12
-0.9868749999999999,0.3951370929720363,4.947873900205671e-12
-0.9868125,0.3951370929720363,5.136531429248703e-12
-0.98675,0.3951370929720363,5.331428304077228e-12
-0.9866875000000001,0.3951370929720363,5.532739489490989e-12
-0.986625,0.3951370929720363,5.740643979069175e-12
-0.9865625,0.3950575541807985,5.955324867694214e-12
-0.9865,0.3950575541807985,6.176969425012355e-12
-0.9864375,0.3950575541807985,6.405769169838225e-12
-0.986375,0.3949780153895608,6.641919945510471e-12
-0.9863125,0.3949780153895608,6.885621996205738e-12
-0.98625,0.3949780153895608,7.13708004421808e-12
-0.9861875,0.3948984765983231,7.396503368211057e-12
-0.986125,0.3948984765983231,7.664105882449723e-12
-0.9860625,0.3947393990158476,7.94010621701967e-12
-0.986,0.3948189378070853,8.22472779904041e-12
-0.9859375,0.3947393990158476,8.518198934880315e-12
-0.9858749999999999,0.3946598602246099,8.820752893380314e-12
-0.9858125,0.3946598602246099,9.132627990093677e-12
-0.98575,0.3945803214333722,9.454067672549088e-12
-0.9856875,0.3946598602246099,9.785320606544308e-12
-0.985625,0.3945803214333722,1.012664076347771e-11
-0.9855625,0.3945007826421345,1.047828750872492e-11
-0.9855,0.3945803214333722,1.0840525691068e-11
-0.9854375,0.3944212438508967,1.121362573318431e-11
-0.985375,0.3945007826421345,1.159786372320246e-11
-0.9853125,0.394341705059659,1.199352150733267e-11
-0.98525,0.394341705059659,1.240088678357887e-11
-0.9851875,0.3941826274771835,1.282025319653977e-11
-0.985125,0.3941826274771835,1.325192043330651e-11
-0.9850625,0.3941826274771835,1.369619432046385e-11
-0.985,0.3941826274771835,1.415338692220266e-11
-0.9849375,0.3941826274771835,1.462381663955078e-11
-0.9848749999999999,0.3941030886859458,1.51078083107298e-11
-0.9848125,0.3941826274771835,1.560569331264503e-11
-0.98475,0.3940235498947081,1.611780966351606e-11
-0.9846875,0.3939440111034703,1.664450212665544e-11
-0.984625,0.3939440111034703,1.718612231540264e-11
-0.9845625,0.3938644723122326,1.774302879922088e-11
-0.9845,0.3939440111034703,1.831558721096412e-11
-0.9844375,0.3939440111034703,1.890417035532178e-11
-0.984375,0.3939440111034703,1.950915831844835e-11
-0.9843125,0.3939440111034703,2.013093857878563e-11
-0.98425,0.3938644723122326,2.076990611908471e-11
-0.9841875,0.3939440111034703,2.142646353963542e-11
-0.984125,0.3938644723122326,2.210102117271039e-11
-0.9840625,0.3938644723122326,2.279399719823147e-11
-0.984,0.3938644723122326,2.350581776066565e-11
-0.9839375,0.3938644723122326,2.423691708715816e-11
-0.9838750000000001,0.3939440111034703,2.498773760691013e-11
-0.9838125,0.3939440111034703,2.575873007180817e-11
-0.98375,0.3939440111034703,2.655035367831351e-11
-0.9836875,0.3939440111034703,2.736307619061799e-11
-0.983625,0.3940235498947081,2.819737406507444e-11
-0.9835625,0.3940235498947081,2.905373257590899e-11
-0.9835,0.3939440111034703,2.993264594222261e-11
-0.9834375,0.3940235498947081,3.08346174562895e-11
-0.983375,0.3938644723122326,3.176015961315976e-11
-0.9833125,0.3940235498947081,3.27097942415738e-11
-0.98325,0.3939440111034703,3.368405263619595e-11
-0.9831875,0.3941030886859458,3.468347569117483e-11
-0.983125,0.3941030886859458,3.570861403503786e-11
-0.9830625,0.3939440111034703,3.676002816692751e-11
-0.983,0.3941030886859458,3.783828859418664e-11
-0.9829375,0.3941030886859458,3.894397597130053e-11
-0.9828750000000001,0.3941826274771835,4.007768124020308e-11
-0.9828125,0.3942621662684213,4.124000577195448e-11
-0.98275,0.3941826274771835,4.243156150979822e-11
-0.9826875,0.3941826274771835,4.365297111360448e-11
-0.982625,0.394341705059659,4.490486810570771e-11
-0.9825625,0.3942621662684213,4.61878970181458e-11
-0.9825,0.394341705059659,4.750271354130823e-11
-0.9824375,0.3942621662684213,4.884998467400089e-11
-0.982375,0.3944212438508967,5.02303888749348e-11
-0.9823125,0.3942621662684213,5.164461621564644e-11
-0.98225,0.3944212438508967,5.309336853485713e-11
-0.9821875,0.3944212438508967,5.457735959427874e-11
-0.982125,0.394341705059659,5.609731523587353e-11
-0.9820624999999999,0.3945007826421345,5.76539735405755e-11
-0.982,0.3945007826421345,5.92480849884804e-11
-0.9819375,0.3944212438508967,6.088041262051253e-11
-0.9818750000000001,0.3945007826421345,6.255173220157516e-11
-0.9818125,0.3945803214333722,6.426283238519245e-11
-0.98175,0.3945007826421345,6.601451487965017e-11
-0.9816875,0.3945007826421345,6.780759461564276e-11
-0.981625,0.3946598602246099,6.964289991543427e-11
-0.9815625,0.3945803214333722,7.152127266354029e-11
-0.9815,0.3947393990158476,7.344356847893887e-11
-0.9814375,0.3946598602246099,7.541065688881748e-11
-0.981375,0.3945803214333722,7.742342150386366e-11
-0.9813125,0.3946598602246099,7.948276019510665e-11
-0.98125,0.3948189378070853,8.158958527231768e-11
-0.9811875,0.3948189378070853,8.374482366397616e-11
-0.981125,0.3948189378070853,8.59494170988094e-11
-0.9810624999999999,0.3947393990158476,8.820432228891299e-11
-0.981,0.3948189378070853,9.051051111445969e-11
-0.9809375,0.3948189378070853,9.28689708100039e-11
-0.9808750000000001,0.3947393990158476,9.528070415238935e-11
-0.9808125,0.3948189378070853,9.77467296502674e-11
-0.98075,0.3948984765983231,1.002680817352332e-10
-0.9806875,0.3949780153895608,1.028458109545873e-10
-0.980625,0.3949780153895608,1.054809841657301e-10
-0.9805625,0.3949780153895608,1.081746847321968e-10
-0.9805,0.3949780153895608,1.10928012721339e-10
-0.9804375,0.3949780153895608,1.137420851036625e-10
-0.980375,0.3949780153895608,1.166180359538268e-10
-0.9803125,0.3949780153895608,1.195570166533141e-10
-0.98025,0.3949780153895608,1.225601960947764e-10
-0.9801875,0.3950575541807985,1.256287608880659e-10
-0.980125,0.3950575541807985,1.287639155679584e-10
-0.9800624999999999,0.3950575541807985,1.319668828035745e-10
-0.98,0.3951370929720363,1.352389036095092e-10
-0.9799375,0.3950575541807985,1.385812375586735e-10
-0.9798750000000001,0.3951370929720363,1.419951629968586e-10
-0.9798125,0.3951370929720363,1.45481977259028e-10
-0.97975,0.3951370929720363,1.490429968873455e-10
-0.9796875,0.3951370929720363,1.526795578509468e-10
-0.979625,0.3950575541807985,1.563930157674606e-10
-0.9795625,0.395216631763274,1.60184746126289e-10
-0.9795,0.395216631763274,1.640561445136513e-10
-0.9794375,0.395216631763274,1.680086268394016e-10
-0.979375,0.395216631763274,1.720436295656245e-10
-0.9793125,0.3952961705545117,1.761626099370196e-10
-0.97925,0.395216631763274,1.80367046213078e-10
-0.9791875,0.3952961705545117,1.846584379020619e-10
-0.979125,0.3952961705545117,1.890383059967918e-10
-0.9790624999999999,0.395216631763274,1.935081932122499e-10
-0.979,0.3952961705545117,1.980696642250067e-10
-0.9789375,0.3951370929720363,2.027243059144773e-10
-0.9788750000000001,0.395216631763274,2.07473727606016e-10
-0.9788125,0.395216631763274,2.123195613158548e-10
-0.97875,0.3953757093457494,2.172634619978938e-10
-0.9786875,0.3952961705545117,2.223071077923515e-10
-0.978625,0.3953757093457494,2.274522002762801e-10
-0.9785625,0.3953757093457494,2.327004647159545e-10
-0.9785,0.3952961705545117,2.380536503211424e-10
-0.9784375,0.3953757093457494,2.43513530501261e-10
-0.978375,0.3953757093457494,2.49081903123429e-10
-0.9783125,0.3952961705545117,2.547605907724204e-10
-0.97825,0.395216631763274,2.605514410125265e-10
-0.9781875,0.395216631763274,2.664563266513354e-10
-0.978125,0.3951370929720363,2.724771460054329e-10
-0.9780624999999999,0.395216631763274,2.786158231680344e-10
-0.978,0.395216631763274,2.848743082785545e-10
-0.9779375,0.3951370929720363,2.91254577794119e-10
-0.977875,0.395216631763274,2.977586347630303e-10
-0.9778125,0.3953757093457494,3.0438850910019e-10
-0.97775,0.3952961705545117,3.111462578644862e-10
-0.9776875,0.3954552481369871,3.180339655381548e-10
-0.977625,0.3953757093457494,3.25053744308118e-10
-0.9775625,0.3952961705545117,3.322077343493105e-10
-0.9775,0.3953757093457494,3.394981041099987e-10
-0.9774375,0.395216631763274,3.469270505990986e-10
-0.977375,0.3952961705545117,3.544967996755034e-10
-0.9773125,0.3952961705545117,3.622096063394219e-10
-0.97725,0.3952961705545117,3.700677550257407e-10
-0.9771875,0.3952961705545117,3.780735598994117e-10
-0.977125,0.3952961705545117,3.86229365152876e-10
-0.9770624999999999,0.3951370929720363,3.945375453055282e-10
-0.977,0.3951370929720363,4.0300050550523e-10
-0.9769375,0.3950575541807985,4.116206818318777e-10
-0.976875,0.3950575541807985,4.20400541603033e-10
-0.9768125,0.3950575541807985,4.293425836816217e-10
-0.97675,0.3950575541807985,4.384493387857082e-10
