Task5_40Hz_200mV_45+5.csv

#Digilent WaveForms Oscilloscope Acquisition
#Device Name: Discovery3
#Serial Number: SN:210415BD63A1
#Date Time: 2026-09-24 11:22:53.632.986.110
#Sample rate: 32000Hz
#Samples: 32000
#Trigger: Source: Channel 1 Type: Edge Condition: Rising Level: 0 V Hyst.: Auto HoldOff: 0 s
#Channel 1: Range: 500 mV/div Offset: 0 V Sample Mode: Average
#Math 1: Input: C1 Reference: Internal Frequency: 40 Hz Phase: 90 ° Filter: IIR Butterworth 8  Low-Pass CutOff: 5 Hz Output: Amplitude

#Wavegen Channel 1: Running
#Mode: Simple
#Type: Sine
#Frequency: 40 Hz
#Period: 25 ms
#Amplitude: 200 mV
#Offset: 0 V
#Symmetry: 50 %
#Phase: 0 °

Time (s),Channel 1 (V),Math 1 (V)
-0.5,0.3811382657141964,1.281055591902942e-27
-0.49996875,0.3812178045054341,2.177146125532532e-26
-0.4999375,0.3812973432966719,1.856366035673289e-25
-0.49990625,0.3812973432966719,1.066066951749076e-24
-0.499875,0.3812973432966719,4.668154047183082e-24
-0.49984375,0.3812973432966719,1.671735991022587e-23
-0.4998125,0.3813768820879096,5.123217100781753e-23
-0.49978125,0.3814564208791473,1.386812679848596e-22
-0.49975,0.3813768820879096,3.393468941681444e-22
-0.49971875,0.3814564208791473,7.638357643783608e-22
-0.4996875,0.3814564208791473,1.602996816543121e-21
-0.49965625,0.3814564208791473,3.169821373628937e-21
-0.499625,0.3814564208791473,5.956215848811171e-21
-0.49959375,0.3816154984616228,1.070784998064555e-20
-0.4995625,0.3814564208791473,1.852059471703122e-20
-0.49953125,0.3812973432966719,3.096237327877567e-20
-0.4995,0.3815359596703851,5.022455663408449e-20
-0.49946875,0.3814564208791473,7.930734060744664e-20
-0.4994375,0.3816154984616228,1.222438461269119e-19
-0.49940625,0.3816154984616228,1.843679866770425e-19
-0.499375,0.3815359596703851,2.726314478613225e-19
-0.49934375,0.3815359596703851,3.959754230719544e-19
-0.4993125,0.3815359596703851,5.657630465999592e-19
-0.49928125,0.3816154984616228,7.962787610848022e-19
-0.49925,0.3816154984616228,1.105301150000496e-18
-0.49921875,0.3816950372528605,1.514756057909433e-18
-0.4991875,0.3817745760440982,2.051457111492255e-18
-0.49915625,0.3816950372528605,2.747941042884438e-18
-0.499125,0.3816950372528605,3.643405503610574e-18
-0.49909375,0.3815359596703851,4.784757342392157e-18
-0.4990625,0.3816154984616228,6.227779603305575e-18
-0.49903125,0.3816154984616228,8.038425782183536e-18
-0.499,0.3816950372528605,1.029425015878745e-17
-0.49896875,0.3817745760440982,1.308598330012776e-17
-0.4989375,0.3816950372528605,1.651926210636783e-17
-0.49890625,0.3816950372528605,2.071652404500693e-17
-0.498875,0.3816950372528605,2.581907549149789e-17
-0.49884375,0.3817745760440982,3.198934436511468e-17
-0.4988125,0.3816154984616228,3.941332751774227e-17
-0.49878125,0.3816154984616228,4.830324360030333e-17
-0.49875,0.3816950372528605,5.890040239675321e-17
-0.49871875,0.3817745760440982,7.147830187895708e-17
-0.4986875,0.3818541148353359,8.634596449730742e-17
-0.49865625,0.3817745760440982,1.038515244816508e-16
-0.498625,0.3816950372528605,1.243860781849697e-16
-0.49859375,0.3817745760440982,1.483878097583154e-16
-0.4985625,0.3816950372528605,1.763464046996956e-16
-0.49853125,0.3818541148353359,2.088077640719884e-16
-0.4985,0.3818541148353359,2.463790324354626e-16
-0.49846875,0.3819336536265737,2.897339527891494e-16
-0.4984375,0.3818541148353359,3.39618562062128e-16
-0.49840625,0.3817745760440982,3.96857240940786e-16
-0.498375,0.3816154984616228,4.623591320612704e-16
-0.49834375,0.3817745760440982,5.371249408376518e-16
-0.4983125,0.3818541148353359,6.222541334357631e-16
-0.49828125,0.3818541148353359,7.189525466402451e-16
-0.49825,0.3818541148353359,8.285404245980367e-16
-0.49821875,0.3818541148353359,9.524608976554115e-16
-0.4981875,0.3819336536265737,1.092288918737674e-15
-0.49815625,0.3818541148353359,1.249740672950807e-15
-0.498125,0.3818541148353359,1.426683476312677e-15
-0.49809375,0.3818541148353359,1.625146179747838e-15
-0.4980625,0.3818541148353359,1.847330094704539e-15
-0.49803125,0.3819336536265737,2.095620456975159e-15
-0.498,0.3818541148353359,2.372598445522068e-15
-0.49796875,0.3818541148353359,2.681053773329812e-15
-0.4979375,0.3819336536265737,3.023997867521503e-15
-0.49790625,0.3816154984616228,3.404677656192457e-15
-0.497875,0.3816154984616228,3.826589979627309e-15
-0.49784375,0.3816950372528605,4.293496643778282e-15
-0.4978125,0.3816154984616228,4.809440134091721e-15
-0.49778125,0.3817745760440982,5.378760007977742e-15
-0.49775,0.3817745760440982,6.006109984423556e-15
-0.49771875,0.3815359596703851,6.69647574945493e-15
-0.4976875,0.3817745760440982,7.455193496352436e-15
-0.49765625,0.3816950372528605,8.287969219729132e-15
-0.497625,0.3816950372528605,9.200898782774826e-15
-0.49759375,0.3816154984616228,1.020048877716832e-14
-0.4975625,0.3817745760440982,1.129367819535352e-14
-0.49753125,0.3816950372528605,1.248786093506797e-14
-0.4975,0.3816950372528605,1.379090915620276e-14
-0.49746875,0.3816950372528605,1.521119751026183e-14
-0.4974375,0.3817745760440982,1.675762826287524e-14
-0.49740625,0.3817745760440982,1.84396573300062e-14
-0.497375,0.3817745760440982,2.026732124867453e-14
-0.49734375,0.3817745760440982,2.225126510320053e-14
-0.4973125,0.3818541148353359,2.44027714281526e-14
-0.49728125,0.3817745760440982,2.673379010935915e-14
-0.49725,0.3817745760440982,2.925696930452133e-14
-0.49721875,0.3818541148353359,3.198568740513618e-14
-0.4971875,0.3817745760440982,3.4934086061612e-14
-0.49715625,0.3816950372528605,3.811710429362725e-14
-0.497125,0.3817745760440982,4.155051370795231e-14
-0.49709375,0.3817745760440982,4.525095484611955e-14
-0.4970625,0.3816950372528605,4.923597468449103e-14
-0.49703125,0.3817745760440982,5.352406530943608e-14
-0.497,0.3818541148353359,5.813470379049019e-14
-0.49696875,0.3817745760440982,6.308839327452668e-14
-0.4969375,0.3817745760440982,6.840670532412739e-14
-0.49690625,0.3818541148353359,7.411232352349503e-14
-0.496875,0.3817745760440982,8.022908837540103e-14
-0.49684375,0.3818541148353359,8.678204351281462e-14
-0.4968125,0.3819336536265737,9.379748324900689e-14
-0.49678125,0.3819336536265737,1.013030014900718e-13
-0.49675,0.3818541148353359,1.0932754203395e-13
-0.49671875,0.3818541148353359,1.179014502801851e-13
-0.4966875,0.3819336536265737,1.27056526374784e-13
-0.49665625,0.3819336536265737,1.368260798146901e-13
-0.496625,0.3819336536265737,1.472449855365189e-13
-0.49659375,0.3817745760440982,1.583497415143374e-13
-0.4965625,0.3818541148353359,1.701785278914046e-13
-0.49653125,0.3818541148353359,1.827712676709221e-13
-0.4965,0.3818541148353359,1.961696889909721e-13
-0.49646875,0.3817745760440982,2.104173890089487e-13
-0.4964375,0.3817745760440982,2.255598994209154e-13
-0.49640625,0.3818541148353359,2.41644753641444e-13
-0.496375,0.3817745760440982,2.587215556696133e-13
-0.49634375,0.3817745760440982,2.768420506669671e-13
-0.4963125,0.3820131924178114,2.960601972733466e-13
-0.49628125,0.3818541148353359,3.164322416866331e-13
-0.49625,0.3819336536265737,3.380167935325471e-13
-0.49621875,0.3817745760440982,3.60874903550765e-13
-0.4961875,0.3820131924178114,3.850701431237256e-13
-0.49615625,0.3819336536265737,4.106686856746057e-13
-0.496125,0.3819336536265737,4.377393899610524e-13
-0.49609375,0.3819336536265737,4.663538852913656e-13
-0.4960625,0.3819336536265737,4.965866586899228e-13
-0.49603125,0.3818541148353359,5.285151440387483e-13
-0.496,0.3817745760440982,5.622198132222173e-13
-0.49596875,0.3818541148353359,5.977842693019937e-13
-0.4959375,0.3818541148353359,6.352953417493871e-13
-0.49590625,0.3817745760440982,6.748431837624151e-13
-0.495875,0.3818541148353359,7.165213716949437e-13
-0.49584375,0.3820131924178114,7.604270066253731e-13
-0.4958125,0.3818541148353359,8.066608180924197e-13
-0.49578125,0.3818541148353359,8.553272700256361e-13
-0.49575,0.3819336536265737,9.065346688983903e-13
-0.49571875,0.3818541148353359,9.603952741311115e-13
-0.4956875,0.3818541148353359,1.017025410772689e-12
-0.49565625,0.3816950372528605,1.076545584487992e-12
-0.495625,0.3817745760440982,1.139080598879544e-12
-0.49559375,0.3817745760440982,1.204759675171479e-12
-0.4955625,0.3817745760440982,1.273716574283967e-12
-0.49553125,0.3816950372528605,1.346089721326364e-12
-0.4955,0.3816950372528605,1.422022332537424e-12
-0.49546875,0.3817745760440982,1.50166254470097e-12
-0.4954375,0.3816950372528605,1.585163547065483e-12
-0.49540625,0.3817745760440982,1.672683715796147e-12
-0.495375,0.3816154984616228,1.76438675098792e-12
-0.49534375,0.3817745760440982,1.860441816268307e-12
-0.4953125,0.3816154984616228,1.96102368101852e-12
-0.49528125,0.3817745760440982,2.066312865241797e-12
-0.49525,0.3816950372528605,2.176495787107701e-12
-0.49521875,0.3816950372528605,2.291764913201264e-12
-0.4951875,0.3815359596703851,2.412318911505906e-12
-0.49515625,0.3816950372528605,2.538362807149084e-12
-0.495125,0.3817745760440982,2.670108140939717e-12
-0.49509375,0.3816950372528605,2.807773130726416e-12
-0.4950625,0.3817745760440982,2.951582835605646e-12
-0.49503125,0.3816154984616228,3.101769323008969e-12
-0.495,0.3816950372528605,3.258571838698547e-12
-0.49496875,0.3816154984616228,3.422236979700136e-12
-0.4949375,0.3816950372528605,3.593018870202826e-12
-0.49490625,0.3816950372528605,3.77117934045483e-12
-0.494875,0.3815359596703851,3.956988108684658e-12
-0.49484375,0.3815359596703851,4.150722966077005e-12
-0.4948125,0.3816154984616228,4.352669964832782e-12
-0.49478125,0.3816154984616228,4.563123609342671e-12
-0.49475,0.3816154984616228,4.782387050503659e-12
-0.49471875,0.3816950372528605,5.010772283208014e-12
-0.4946875,0.3817745760440982,5.248600347034185e-12
-0.49465625,0.3816154984616228,5.496201530169131e-12
-0.494625,0.3813768820879096,5.753915576591597e-12
-0.49459375,0.3814564208791473,6.022091896545884e-12
-0.4945625,0.3815359596703851,6.301089780335674e-12
-0.49453125,0.3814564208791473,6.591278615467439e-12
-0.4945,0.3814564208791473,6.893038107173063e-12
-0.49446875,0.3814564208791473,7.206758502341214e-12
-0.4944375,0.3814564208791473,7.532840816887091e-12
-0.49440625,0.3814564208791473,7.871697066590138e-12
-0.494375,0.3816154984616228,8.223750501429294e-12
-0.49434375,0.3815359596703851,8.58943584344546e-12
-0.4943125,0.3814564208791473,8.969199528160688e-12
-0.49428125,0.3812973432966719,9.363499949583778e-12
-0.49425,0.3813768820879096,9.772807708831839e-12
-0.49421875,0.3813768820879096,1.019760586639742e-11
-0.4941875,0.3813768820879096,1.063839019809078e-11
-0.49415625,0.3813768820879096,1.109566945468693e-11
-0.494125,0.3814564208791473,1.156996562530697e-11
-0.49409375,0.3812973432966719,1.20618142045632e-11
-0.4940625,0.3812973432966719,1.257176446349781e-11
-0.49403125,0.3811382657141964,1.310037972434432e-11
-0.494,0.3812973432966719,1.364823763914159e-11
-0.49396875,0.3812178045054341,1.421593047222968e-11
-0.4939375,0.3811382657141964,1.480406538665718e-11
-0.49390625,0.3811382657141964,1.541326473452932e-11
-0.493875,0.3811382657141964,1.604416635132642e-11
-0.49384375,0.3811382657141964,1.669742385422201e-11
-0.4938125,0.3812178045054341,1.737370694442994e-11
-0.49378125,0.3812973432966719,1.807370171360994e-11
-0.49375,0.3811382657141964,1.879811095436089e-11
-0.49371875,0.3811382657141964,1.954765447483098e-11
-0.4936875,0.3811382657141964,2.032306941747422e-11
-0.49365625,0.3811382657141964,2.11251105819823e-11
-0.493625,0.3810587269229587,2.195455075242106e-11
-0.49359375,0.3810587269229587,2.281218102860079e-11
-0.4935625,0.3810587269229587,2.369881116170924e-11
-0.49353125,0.3811382657141964,2.461526989423657e-11
-0.4935,0.3810587269229587,2.556240530422122e-11
-0.49346875,0.3810587269229587,2.654108515384562e-11
-0.4934375,0.3811382657141964,2.755219724241055e-11
-0.49340625,0.380979188131721,2.859664976371733e-11
-0.493375,0.3810587269229587,2.967537166788624e-11
-0.49334375,0.3808996493404833,3.07893130276403e-11
-0.4933125,0.380979188131721,3.193944540908287e-11
-0.49328125,0.3808996493404833,3.312676224699782e-11
-0.49325,0.3808996493404833,3.435227922470091e-11
-0.49321875,0.3808201105492455,3.561703465847078e-11
-0.4931875,0.380979188131721,3.692208988658817e-11
-0.49315625,0.3808201105492455,3.826852966301168e-11
-0.493125,0.3808201105492455,3.965746255571854e-11
-0.49309375,0.3808996493404833,4.109002134973851e-11
-0.4930625,0.3808201105492455,4.256736345490916e-11
-0.49303125,0.3808996493404833,4.409067131838105e-11
-0.493,0.3807405717580078,4.566115284190014e-11
-0.49296875,0.3806610329667701,4.72800418038963e-11
-0.4929375,0.3805019553842946,4.894859828640511e-11
-0.49290625,0.3807405717580078,5.066810910685144e-11
-0.492875,0.3805814941755323,5.243988825472201e-11
-0.49284375,0.3805019553842946,5.426527733315525e-11
-0.4928125,0.3805019553842946,5.614564600547548e-11
-0.49278125,0.3805019553842946,5.808239244669949e-11
-0.49275,0.3805814941755323,6.00769438000426e-11
-0.49271875,0.3804224165930569,6.21307566384519e-11
-0.4926875,0.3804224165930569,6.424531743119371e-11
-0.49265625,0.3805019553842946,6.642214301552251e-11
-0.492625,0.3805019553842946,6.866278107345891e-11
-0.49259375,0.3805019553842946,7.096881061370283e-11
-0.4925625,0.3805019553842946,7.334184245870968e-11
-0.49253125,0.3803428778018191,7.578351973695597e-11
-0.4925,0.3804224165930569,7.829551838042117e-11
-0.49246875,0.3805019553842946,8.087954762731252e-11
-0.4924375,0.3805019553842946,8.353735053005943e-11
-0.49240625,0.3804224165930569,8.627070446860376e-11
-0.492375,0.3804224165930569,8.908142166901255e-11
-0.49234375,0.3805019553842946,9.197134972743927e-11
-0.4923125,0.3805019553842946,9.494237213946002e-11
-0.49228125,0.3804224165930569,9.799640883481049e-11
-0.49225,0.3804224165930569,1.011354167175498e-10
-0.49221875,0.3805814941755323,1.04361390211677e-10
-0.4921875,0.3805814941755323,1.076763618122258e-10
-0.49215625,0.3805814941755323,1.11082402641864e-10
-0.492125,0.3805814941755323,1.145816230130218e-10
-0.49209375,0.3803428778018191,1.181761729955753e-10
-0.4920625,0.3804224165930569,1.218682429901106e-10
-0.49203125,0.3804224165930569,1.256600643067932e-10
-0.492,0.3804224165930569,1.295539097498678e-10
-0.49196875,0.3804224165930569,1.335520942078141e-10
-0.4919375,0.3805019553842946,1.376569752491821e-10
-0.49190625,0.3805019553842946,1.418709537241334e-10
-0.491875,0.3805814941755323,1.461964743717121e-10
-0.49184375,0.3805814941755323,1.506360264328683e-10
-0.4918125,0.3806610329667701,1.551921442692628e-10
-0.49178125,0.3804224165930569,1.598674079878716e-10
-0.49175,0.3805019553842946,1.646644440714194e-10
-0.49171875,0.3804224165930569,1.695859260146625e-10
-0.4916875,0.3805019553842946,1.746345749665472e-10
-0.49165625,0.3805814941755323,1.798131603782654e-10
-0.491625,0.3805019553842946,1.851245006572337e-10
-0.49159375,0.3805019553842946,1.905714638270158e-10
-0.4915625,0.3805019553842946,1.961569681932154e-10
-0.49153125,0.3805814941755323,2.018839830153596e-10
-0.4915,0.3805019553842946,2.077555291847977e-10
-0.49146875,0.3805019553842946,2.137746799086375e-10
-0.4914375,0.3805814941755323,2.199445613997424e-10
-0.49140625,0.3805019553842946,2.262683535728113e-10
-0.491375,0.3804224165930569,2.327492907465638e-10
-0.49134375,0.3805019553842946,2.393906623520542e-10
-0.4913125,0.3805019553842946,2.461958136471344e-10
-0.49128125,0.3805019553842946,2.531681464370901e-10
-0.49125,0.3805814941755323,2.603111198014704e-10
-0.49121875,0.3805019553842946,2.676282508271329e-10
-0.4911875,0.3805019553842946,2.751231153475271e-10
-0.49115625,0.3806610329667701,2.827993486882354e-10
-0.491125,0.3806610329667701,2.906606464187961e-10
-0.49109375,0.3805019553842946,2.987107651108253e-10
-0.4910625,0.3806610329667701,3.06953523102463e-10
-0.49103125,0.3805814941755323,3.153928012691613e-10
-0.491,0.3805019553842946,3.24032543800837e-10
-0.49096875,0.3806610329667701,3.328767589854082e-10
-0.4909375,0.3805814941755323,3.419295199987356e-10
-0.49090625,0.3805019553842946,3.51194965700989e-10
-0.490875,0.3805019553842946,3.606773014394583e-10
-0.49084375,0.3805814941755323,3.7038079985783e-10
-0.4908125,0.3805814941755323,3.803098017119475e-10
-0.49078125,0.3805814941755323,3.904687166920769e-10
-0.49075,0.3806610329667701,4.008620242516945e-10
-0.49071875,0.3806610329667701,4.114942744428189e-10
-0.4906875,0.3806610329667701,4.223700887579033e-10
-0.49065625,0.3807405717580078,4.334941609783106e-10
-0.490625,0.3806610329667701,4.448712580293862e-10
-0.49059375,0.3806610329667701,4.565062208421501e-10
-0.4905625,0.3807405717580078,4.684039652216244e-10
-0.49053125,0.3806610329667701,4.80569482721817e-10
-0.4905,0.3808201105492455,4.930078415273768e-10
-0.49046875,0.3805814941755323,5.057241873419397e-10
-0.4904375,0.3808201105492455,5.187237442831842e-10
-0.49040625,0.3808201105492455,5.320118157846107e-10
-0.490375,0.3805019553842946,5.455937855040673e-10
-0.49034375,0.3806610329667701,5.594751182390322e-10
-0.4903125,0.3807405717580078,5.73661360848677e-10
-0.49028125,0.3806610329667701,5.881581431827214e-10
-0.49025,0.3806610329667701,6.029711790171019e-10
-0.49021875,0.3806610329667701,6.181062669964651e-10
-0.4901875,0.3805814941755323,6.335692915835062e-10
-0.49015625,0.3806610329667701,6.493662240151671e-10
-0.490125,0.3808201105492455,6.655031232657094e-10
-0.49009375,0.3807405717580078,6.819861370166803e-10
-0.4900625,0.3807405717580078,6.988215026337847e-10
-0.49003125,0.3807405717580078,7.160155481506786e-10
-0.49,0.3808996493404833,7.33574693259703e-10
-0.48996875,0.3807405717580078,7.515054503095667e-10
-0.4899375,0.3807405717580078,7.698144253099992e-10
-0.48990625,0.3808996493404833,7.885083189433844e-10
-0.489875,0.380979188131721,8.075939275833915e-10
-0.48984375,0.380979188131721,8.270781443206149e-10
-0.4898125,0.380979188131721,8.469679599952403e-10
-0.48978125,0.3810587269229587,8.672704642367495e-10
-0.48975,0.380979188131721,8.879928465106757e-10
-0.48971875,0.3808996493404833,9.091423971724266e-10
-0.4896875,0.3808996493404833,9.307265085281845e-10
-0.48965625,0.3808201105492455,9.527526759029008e-10
-0.489625,0.3807405717580078,9.752284987153919e-10
-0.48959375,0.3808201105492455,9.981616815605563e-10
-0.4895625,0.3808201105492455,1.02156003529872e-09
-0.48953125,0.3808996493404833,1.045431478152125e-09
-0.4895,0.380979188131721,1.069784036808569e-09
-0.48946875,0.380979188131721,1.09462584753222e-09
-0.4894375,0.3811382657141964,1.119965157281597e-09
-0.48940625,0.380979188131721,1.145810324834751e-09
-0.489375,0.3811382657141964,1.172169821921641e-09
-0.48934375,0.3810587269229587,1.199052234363724e-09
-0.4893125,0.380979188131721,1.226466263220765e-09
-0.48928125,0.3810587269229587,1.254420725944885e-09
-0.48925,0.3810587269229587,1.282924557541854e-09
-0.48921875,0.3808996493404833,1.311986811739629e-09
-0.4891875,0.380979188131721,1.341616662164166e-09
-0.48915625,0.3810587269229587,1.371823403522505e-09
-0.489125,0.380979188131721,1.402616452793131e-09
-0.48909375,0.380979188131721,1.434005350423642e-09
-0.4890625,0.3810587269229587,1.465999761535705e-09
-0.48903125,0.3811382657141964,1.498609477137337e-09
-0.489,0.3810587269229587,1.531844415342495e-09
-0.48896875,0.3811382657141964,1.565714622598003e-09
-0.4889375,0.3810587269229587,1.600230274917816e-09
-0.48890625,0.3812178045054341,1.635401679124624e-09
-0.488875,0.3812973432966719,1.671239274098817e-09
-0.48884375,0.3811382657141964,1.707753632034806e-09
-0.4888125,0.3810587269229587,1.74495545970472e-09
-0.48878125,0.3812178045054341,1.782855599729469e-09
-0.48875,0.3812178045054341,1.821465031857202e-09
-0.48871875,0.3811382657141964,1.860794874249148e-09
-0.4886875,0.3811382657141964,1.900856384772859e-09
-0.48865625,0.3810587269229587,1.941660962302856e-09
-0.488625,0.3811382657141964,1.98322014802868e-09
-0.48859375,0.3812973432966719,2.025545626770368e-09
-0.4885625,0.3812178045054341,2.068649228301344e-09
-0.48853125,0.3812178045054341,2.112542928678744e-09
-0.4885,0.3812178045054341,2.157238851581171e-09
-0.48846875,0.3812178045054341,2.202749269653884e-09
-0.4884375,0.3812178045054341,2.249086605861441e-09
-0.48840625,0.3813768820879096,2.296263434847782e-09
