Task5_45+3.csv

#Digilent WaveForms Oscilloscope Acquisition
#Device Name: Discovery3
#Serial Number: SN:210415BD63A1
#Date Time: 2026-09-24 10:51:06.897.318.750
#Sample rate: 32000Hz
#Samples: 32000
#Trigger: Source: Channel 1 Type: Edge Condition: Rising Level: 0 V Hyst.: Auto HoldOff: 0 s
#Channel 1: Range: 500 mV/div Offset: 0 V Sample Mode: Average
#Math 1: Input: C1 Reference: Internal Frequency: 20 Hz Phase: 90 ° Filter: IIR Butterworth 8  Low-Pass CutOff: 10 Hz Output: Amplitude

#Wavegen Channel 1: Running
#Mode: Simple
#Type: Sine
#Frequency: 20 Hz
#Period: 50 ms
#Amplitude: 200 mV
#Offset: 0 V
#Symmetry: 50 %
#Phase: 0 °

Time (s),Channel 1 (V),Math 1 (V)
-0.5,0.3958529420931758,3.402395182931465e-25
-0.49996875,0.3959324808844135,5.780713281206608e-24
-0.4999375,0.3957734033019381,4.927415443710501e-23
-0.49990625,0.3957734033019381,2.828698948325779e-22
-0.499875,0.3959324808844135,1.238169425436657e-21
-0.49984375,0.3960120196756513,4.432234396590286e-21
-0.4998125,0.3960120196756513,1.357710545765629e-20
-0.49978125,0.3959324808844135,3.673522747389991e-20
-0.49975,0.3958529420931758,8.984668857649302e-20
-0.49971875,0.3959324808844135,2.021369280285028e-19
-0.4996875,0.396091558466889,4.23995456135579e-19
-0.49965625,0.3961710972581267,8.37997163757048e-19
-0.499625,0.396091558466889,1.573817982193673e-18
-0.49959375,0.3960120196756513,2.827875986152488e-18
-0.4995625,0.3959324808844135,4.888607512822155e-18
-0.49953125,0.3960120196756513,8.168365500893455e-18
-0.4995,0.3960120196756513,1.324300403956361e-17
-0.49946875,0.396091558466889,2.090028906545076e-17
-0.4994375,0.396091558466889,3.219835025973091e-17
-0.49940625,0.396091558466889,4.853546348144316e-17
-0.499375,0.3960120196756513,7.173252652908544e-17
-0.49934375,0.3959324808844135,1.041296636566128e-16
-0.4993125,0.396091558466889,1.486984660870662e-16
-0.49928125,0.396091558466889,2.091714467713693e-16
-0.49925,0.396091558466889,2.901903578359919e-16
-0.49921875,0.3960120196756513,3.974750885577454e-16
-0.4991875,0.3960120196756513,5.380149303031297e-16
-0.49915625,0.396091558466889,7.202840626769273e-16
-0.499125,0.396091558466889,9.544831821427644e-16
-0.49909375,0.3961710972581267,1.252809260611308e-15
-0.4990625,0.396091558466889,1.62975548694466e-15
-0.49903125,0.3961710972581267,2.102443509001271e-15
-0.499,0.396091558466889,2.690990157744595e-15
-0.49896875,0.3962506360493644,3.418910898059836e-15
-0.4989375,0.3961710972581267,4.313562313267445e-15
-0.49890625,0.3962506360493644,5.406625991894764e-15
-0.498875,0.3962506360493644,6.73463624607824e-15
-0.49884375,0.3961710972581267,8.339554151026963e-15
-0.4988125,0.3963301748406021,1.026939045428762e-14
-0.49878125,0.3961710972581267,1.257887996211002e-14
-0.49875,0.396091558466889,1.53302100680211e-14
-0.49871875,0.3962506360493644,1.85938061457783e-14
-0.4986875,0.3961710972581267,2.244917658519748e-14
-0.49865625,0.3960120196756513,2.698582030494294e-14
-0.498625,0.3961710972581267,3.230419963123077e-14
-0.49859375,0.3961710972581267,3.851678148553637e-14
-0.4985625,0.3964097136318399,4.574914987781312e-14
-0.49853125,0.3963301748406021,5.414119275442433e-14
-0.4985,0.3961710972581267,6.384836630196632e-14
-0.49846875,0.3961710972581267,7.504303985941949e-14
-0.4984375,0.3961710972581267,8.791592464161e-14
-0.49840625,0.3962506360493644,1.026775895267989e-13
-0.498375,0.3961710972581267,1.195600672103444e-13
-0.49834375,0.3963301748406021,1.388185540748106e-13
-0.4983125,0.3963301748406021,1.607332071746195e-13
-0.49828125,0.3963301748406021,1.856110417803831e-13
-0.49825,0.3963301748406021,2.137879329743923e-13
-0.49821875,0.3963301748406021,2.456307248344035e-13
-0.4981875,0.3964097136318399,2.81539450787847e-13
-0.49815625,0.3964892524230776,3.219496687628824e-13
-0.498125,0.3964892524230776,3.673349148063584e-13
-0.49809375,0.3964097136318399,4.182092788816813e-13
-0.4980625,0.3964892524230776,4.751301066018693e-13
-0.49803125,0.3964097136318399,5.387008306946705e-13
-0.498,0.3965687912143153,6.095739360375537e-13
-0.49796875,0.3964892524230776,6.884540621406715e-13
-0.4979375,0.3965687912143153,7.761012469955251e-13
-0.49790625,0.3963301748406021,8.733343162460439e-13
-0.497875,0.3963301748406021,9.810344216771331e-13
-0.49784375,0.3962506360493644,1.100148733053434e-12
-0.4978125,0.3961710972581267,1.231694287378101e-12
-0.49778125,0.3962506360493644,1.376761999677801e-12
-0.49775,0.3961710972581267,1.536520839455931e-12
-0.49771875,0.396091558466889,1.712222176991141e-12
-0.4976875,0.3962506360493644,1.905204303692765e-12
-0.49765625,0.3962506360493644,2.116897130758571e-12
-0.497625,0.3963301748406021,2.348827070413479e-12
-0.49759375,0.3963301748406021,2.602622104040464e-12
-0.4975625,0.3963301748406021,2.88001704154687e-12
-0.49753125,0.3962506360493644,3.182858976340699e-12
-0.4975,0.3962506360493644,3.513112940322247e-12
-0.49746875,0.3963301748406021,3.872867763326612e-12
-0.4974375,0.3963301748406021,4.264342141482178e-12
-0.49740625,0.3964892524230776,4.689890918979163e-12
-0.497375,0.3964097136318399,5.15201158777067e-12
-0.49734375,0.3964097136318399,5.653351009756503e-12
-0.4973125,0.3964097136318399,6.196712366027187e-12
-0.49728125,0.3964097136318399,6.785062337772274e-12
-0.49725,0.3964097136318399,7.421538523483026e-12
-0.49721875,0.3962506360493644,8.109457097105023e-12
-0.4971875,0.3963301748406021,8.8523207118211e-12
-0.49715625,0.3962506360493644,9.653826654169245e-12
-0.497125,0.3964892524230776,1.051787525322383e-11
-0.49709375,0.3964097136318399,1.144857854959157e-11
-0.4970625,0.3964892524230776,1.245026922899622e-11
-0.49703125,0.3963301748406021,1.352750982524792e-11
-0.497,0.3964892524230776,1.468510219741452e-11
-0.49696875,0.3964892524230776,1.592809728603306e-11
-0.4969375,0.3965687912143153,1.726180515321999e-11
-0.49690625,0.3964097136318399,1.869180531155838e-11
-0.496875,0.3964892524230776,2.022395734665961e-11
-0.49684375,0.3964097136318399,2.186441183831586e-11
-0.4968125,0.3963301748406021,2.361962158517762e-11
-0.49678125,0.3964097136318399,2.549635313790826e-11
-0.49675,0.3964097136318399,2.750169864578468e-11
-0.49671875,0.3965687912143153,2.964308802172947e-11
-0.4966875,0.3965687912143153,3.192830143077606e-11
-0.49665625,0.3964892524230776,3.436548210698407e-11
-0.496625,0.3964097136318399,3.696314950383638e-11
-0.49659375,0.3963301748406021,3.973021278316458e-11
-0.4965625,0.3965687912143153,4.267598464766269e-11
-0.49653125,0.3963301748406021,4.581019552206312e-11
-0.4965,0.3965687912143153,4.914300808806104e-11
-0.49646875,0.3965687912143153,5.268503217808611e-11
-0.4964375,0.3966483300055531,5.644734003303233e-11
-0.49640625,0.3966483300055531,6.044148192906804e-11
-0.496375,0.3965687912143153,6.467950217865876e-11
-0.49634375,0.3965687912143153,6.91739555109464e-11
-0.4963125,0.3966483300055531,7.393792383663774e-11
-0.49628125,0.3965687912143153,7.898503340256466e-11
-0.49625,0.3965687912143153,8.432947234108746e-11
-0.49621875,0.3965687912143153,8.998600861952081e-11
-0.4961875,0.3966483300055531,9.597000839477042e-11
-0.49615625,0.3967278687967908,1.022974547783746e-10
-0.496125,0.3967278687967908,1.089849670171537e-10
-0.49609375,0.3965687912143153,1.160498200946747e-10
-0.4960625,0.3967278687967908,1.235099647587466e-10
-0.49603125,0.3968074075880285,1.313840479801657e-10
-0.496,0.3968869463792662,1.396914338479355e-10
-0.49596875,0.3969664851705039,1.484522249061924e-10
-0.4959375,0.3969664851705039,1.576872839380686e-10
-0.49590625,0.3968074075880285,1.674182562017315e-10
-0.495875,0.3968869463792662,1.776675921238393e-10
-0.49584375,0.3968074075880285,1.884585704556561e-10
-0.4958125,0.3968869463792662,1.998153218970728e-10
-0.49578125,0.3969664851705039,2.117628531937807e-10
-0.49575,0.3969664851705039,2.24327071712847e-10
-0.49571875,0.3969664851705039,2.37534810501943e-10
-0.4956875,0.3968869463792662,2.514138538374736e-10
-0.49565625,0.3968074075880285,2.659929632668612e-10
-0.495625,0.3968074075880285,2.813019041502325e-10
-0.49559375,0.3968869463792662,2.973714727067592e-10
-0.4955625,0.3969664851705039,3.14233523570899e-10
-0.49553125,0.3968074075880285,3.319209978637867e-10
-0.4955,0.3968074075880285,3.504679517850171e-10
-0.49546875,0.3969664851705039,3.69909585730065e-10
-0.4954375,0.3969664851705039,3.902822739385786e-10
-0.49540625,0.3968869463792662,4.116235946787861e-10
-0.495375,0.3968869463792662,4.339723609732448e-10
-0.49534375,0.3968074075880285,4.573686518711635e-10
-0.4953125,0.3968869463792662,4.818538442725213e-10
-0.49528125,0.3968074075880285,5.074706453092021e-10
-0.49525,0.3968869463792662,5.34263125288357e-10
-0.49521875,0.3969664851705039,5.622767512032075e-10
-0.4951875,0.3970460239617417,5.91558420816484e-10
-0.49515625,0.3970460239617417,6.221564973217038e-10
-0.495125,0.3970460239617417,6.541208445874699e-10
-0.49509375,0.3972051015442171,6.875028629899761e-10
-0.4950625,0.3970460239617417,7.223555258388916e-10
-0.49503125,0.3970460239617417,7.587334164017909e-10
-0.495,0.3970460239617417,7.966927655322849e-10
-0.49496875,0.3970460239617417,8.362914899070052e-10
-0.4949375,0.3970460239617417,8.775892308765762e-10
-0.49490625,0.3971255627529794,9.206473939357113e-10
-0.494875,0.3969664851705039,9.65529188817547e-10
-0.49484375,0.3970460239617417,1.012299670217329e-09
-0.4948125,0.3970460239617417,1.061025779150548e-09
-0.49478125,0.3971255627529794,1.111776384950615e-09
-0.49475,0.3971255627529794,1.164622327911149e-09
-0.49471875,0.3971255627529794,1.219636462577951e-09
-0.4946875,0.3970460239617417,1.2768937016957e-09
-0.49465625,0.3971255627529794,1.336471060814442e-09
-0.494625,0.3970460239617417,1.398447703560863e-09
-0.49459375,0.3971255627529794,1.462904987579392e-09
-0.4945625,0.3969664851705039,1.529926511148118e-09
-0.49453125,0.3971255627529794,1.599598160474517e-09
-0.4945,0.3972051015442171,1.672008157675957e-09
-0.49446875,0.3969664851705039,1.74724710944995e-09
-0.4944375,0.3971255627529794,1.825408056439076e-09
-0.49440625,0.3969664851705039,1.906586523295533e-09
-0.494375,0.3971255627529794,1.990880569450211e-09
-0.49434375,0.3970460239617417,2.07839084059119e-09
-0.4943125,0.3971255627529794,2.169220620856545e-09
-0.49428125,0.3972051015442171,2.263475885746335e-09
-0.49425,0.3972051015442171,2.361265355758599e-09
-0.49421875,0.3972051015442171,2.462700550754218e-09
-0.4941875,0.3971255627529794,2.567895845055442e-09
-0.49415625,0.3972051015442171,2.676968523282884e-09
-0.494125,0.3972051015442171,2.790038836935758e-09
-0.49409375,0.3972051015442171,2.907230061720122e-09
-0.4940625,0.3971255627529794,3.02866855562987e-09
-0.49403125,0.3972051015442171,3.154483817785191e-09
-0.494,0.3972051015442171,3.284808548033207e-09
-0.49396875,0.3972051015442171,3.419778707315465e-09
-0.4939375,0.3972051015442171,3.559533578806957e-09
-0.49390625,0.3972846403354549,3.704215829831301e-09
-0.493875,0.3972846403354549,3.853971574556723e-09
-0.49384375,0.3971255627529794,4.008950437477423e-09
-0.4938125,0.3972051015442171,4.16930561768494e-09
-0.49378125,0.3972051015442171,4.335193953934021e-09
-0.49375,0.3972051015442171,4.506775990507609e-09
-0.49371875,0.3972051015442171,4.684216043885406e-09
-0.4936875,0.3971255627529794,4.867682270220528e-09
-0.49365625,0.3972051015442171,5.057346733628744e-09
-0.493625,0.3971255627529794,5.253385475294719e-09
-0.49359375,0.3972846403354549,5.455978583399708e-09
-0.4935625,0.3972051015442171,5.665310263875112e-09
-0.49353125,0.3970460239617417,5.881568911986257e-09
-0.4935,0.3972846403354549,6.10494718475077e-09
-0.49346875,0.3972846403354549,6.335642074195879e-09
-0.4934375,0.3972051015442171,6.573854981458962e-09
-0.49340625,0.3972051015442171,6.819791791735604e-09
-0.493375,0.3972051015442171,7.073662950079453e-09
-0.49334375,0.3972051015442171,7.335683538058073e-09
-0.4933125,0.3971255627529794,7.60607335126907e-09
-0.49328125,0.3972051015442171,7.885056977720578e-09
-0.49325,0.3971255627529794,8.17286387708038e-09
-0.49321875,0.3970460239617417,8.469728460797684e-09
-0.4931875,0.3971255627529794,8.775890173101777e-09
-0.49315625,0.3971255627529794,9.091593572881521e-09
-0.493125,0.3972846403354549,9.417088416449837e-09
-0.49309375,0.3971255627529794,9.752629741197172e-09
-0.4930625,0.3970460239617417,1.009847795013792e-08
-0.49303125,0.3969664851705039,1.045489889735386e-08
-0.493,0.3971255627529794,1.082216397433839e-08
-0.49296875,0.3970460239617417,1.12005501972457e-08
-0.4929375,0.3970460239617417,1.15903402950486e-08
-0.49290625,0.3970460239617417,1.19918227986089e-08
-0.492875,0.3968869463792662,1.240529213066421e-08
-0.49284375,0.3971255627529794,1.283104869673501e-08
-0.4928125,0.3970460239617417,1.32693989769556e-08
-0.49278125,0.3969664851705039,1.372065561883286e-08
-0.49275,0.3970460239617417,1.418513753093644e-08
-0.49271875,0.3970460239617417,1.466316997752408e-08
-0.4926875,0.3969664851705039,1.515508467410577e-08
-0.49265625,0.3969664851705039,1.566121988395023e-08
-0.492625,0.3970460239617417,1.618192051553754e-08
-0.49259375,0.3968869463792662,1.671753822096129e-08
-0.4925625,0.3969664851705039,1.726843149528387e-08
-0.49253125,0.3968869463792662,1.783496577684841e-08
-0.4925,0.3968074075880285,1.841751354855078e-08
-0.49246875,0.3969664851705039,1.901645444007524e-08
-0.4924375,0.3968074075880285,1.963217533109698e-08
-0.49240625,0.3968869463792662,2.026507045545505e-08
-0.492375,0.3969664851705039,2.091554150629896e-08
-0.49234375,0.3968074075880285,2.158399774221234e-08
-0.4923125,0.3967278687967908,2.227085609431688e-08
-0.49228125,0.3967278687967908,2.297654127435982e-08
-0.49225,0.3968074075880285,2.370148588378829e-08
-0.49221875,0.3967278687967908,2.444613052381352e-08
-0.4921875,0.3968074075880285,2.521092390646826e-08
-0.49215625,0.3968074075880285,2.599632296666043e-08
-0.492125,0.3967278687967908,2.680279297522608e-08
-0.49209375,0.3969664851705039,2.763080765298482e-08
-0.4920625,0.3967278687967908,2.848084928580057e-08
-0.49203125,0.3967278687967908,2.935340884065085e-08
-0.492,0.3967278687967908,3.024898608270733e-08
-0.49196875,0.3967278687967908,3.116808969343072e-08
-0.4919375,0.3967278687967908,3.211123738968285e-08
-0.49190625,0.3966483300055531,3.307895604385881e-08
-0.491875,0.3967278687967908,3.407178180504185e-08
-0.49184375,0.3966483300055531,3.509026022118402e-08
-0.4918125,0.3965687912143153,3.613494636231514e-08
-0.49178125,0.3965687912143153,3.72064049447829e-08
-0.49175,0.3966483300055531,3.830521045652679e-08
-0.49171875,0.3965687912143153,3.943194728338837e-08
-0.4916875,0.3964892524230776,4.058720983646069e-08
-0.49165625,0.3965687912143153,4.177160268047925e-08
-0.491625,0.3965687912143153,4.298574066325709e-08
-0.49159375,0.3964892524230776,4.423024904616675e-08
-0.4915625,0.3964892524230776,4.550576363567107e-08
-0.49153125,0.3964097136318399,4.681293091590577e-08
-0.4915,0.3964892524230776,4.815240818231588e-08
-0.49146875,0.3964892524230776,4.952486367634858e-08
-0.4914375,0.3964892524230776,5.093097672120456e-08
-0.49140625,0.3965687912143153,5.237143785865045e-08
-0.491375,0.3963301748406021,5.384694898689434e-08
-0.49134375,0.3963301748406021,5.53582234995267e-08
-0.4913125,0.3964892524230776,5.690598642552892e-08
-0.49128125,0.3964097136318399,5.849097457035156e-08
-0.49125,0.3964097136318399,6.011393665806437e-08
-0.49121875,0.3964097136318399,6.177563347458013e-08
-0.4911875,0.3964097136318399,6.347683801195475e-08
-0.49115625,0.3963301748406021,6.521833561376465e-08
-0.491125,0.3964097136318399,6.700092412156469e-08
-0.49109375,0.3964097136318399,6.882541402242734e-08
-0.4910625,0.3963301748406021,7.069262859756585e-08
-0.49103125,0.3964097136318399,7.260340407204262e-08
-0.491,0.3962506360493644,7.455858976556515e-08
-0.49096875,0.3961710972581267,7.655904824437086e-08
-0.4909375,0.3961710972581267,7.860565547420277e-08
-0.49090625,0.3962506360493644,8.06993009743776e-08
-0.490875,0.3963301748406021,8.284088797294807e-08
-0.49084375,0.3963301748406021,8.503133356296092e-08
-0.4908125,0.3961710972581267,8.727156885981226e-08
-0.49078125,0.396091558466889,8.956253915970163e-08
-0.49075,0.3961710972581267,9.190520409918658e-08
-0.49071875,0.3959324808844135,9.430053781583898e-08
-0.4906875,0.3960120196756513,9.674952911000457e-08
-0.49065625,0.3960120196756513,9.925318160766691e-08
-0.490625,0.3958529420931758,1.018125139244177e-07
-0.49059375,0.3959324808844135,1.044285598305339e-07
-0.4905625,0.3959324808844135,1.071023684171636e-07
-0.49053125,0.3959324808844135,1.098350042636216e-07
-0.4905,0.3960120196756513,1.126275476057955e-07
-0.49046875,0.3959324808844135,1.154810945056649e-07
-0.4904375,0.3959324808844135,1.183967570219322e-07
-0.49040625,0.3958529420931758,1.213756633817691e-07
-0.490375,0.3957734033019381,1.244189581536774e-07
-0.49034375,0.3958529420931758,1.275278024214667e-07
-0.4903125,0.3958529420931758,1.307033739593481e-07
-0.49028125,0.3957734033019381,1.339468674081479e-07
-0.49025,0.3959324808844135,1.372594944526384e-07
-0.49021875,0.3957734033019381,1.406424839999897e-07
-0.4901875,0.3956938645107003,1.440970823593411e-07
-0.49015625,0.3956143257194626,1.476245534224949e-07
-0.490125,0.3956143257194626,1.512261788457311e-07
-0.49009375,0.3955347869282249,1.54903258232746e-07
-0.4900625,0.3956938645107003,1.586571093187128e-07
-0.49003125,0.3956143257194626,1.62489068155467e-07
-0.49,0.3955347869282249,1.664004892978159e-07
-0.48996875,0.3956143257194626,1.703927459909733e-07
-0.4899375,0.3956938645107003,1.744672303591193e-07
-0.48990625,0.3956938645107003,1.786253535950861e-07
-0.489875,0.3957734033019381,1.828685461511699e-07
-0.48984375,0.3957734033019381,1.871982579310696e-07
-0.4898125,0.3957734033019381,1.916159584829525e-07
-0.48978125,0.3956938645107003,1.961231371936459e-07
-0.48975,0.3956938645107003,2.007213034839583e-07
-0.48971875,0.3956938645107003,2.054119870051257e-07
-0.4896875,0.3956143257194626,2.101967378363876e-07
-0.48965625,0.3956938645107003,2.15077126683689e-07
-0.489625,0.3957734033019381,2.200547450795121e-07
-0.48959375,0.3956938645107003,2.251312055838338e-07
-0.4895625,0.3958529420931758,2.303081419862129e-07
-0.48953125,0.3957734033019381,2.355872095090039e-07
-0.4895,0.3957734033019381,2.409700850116988e-07
-0.48946875,0.3956938645107003,2.464584671963963e-07
-0.4894375,0.3956938645107003,2.520540768143988e-07
-0.48940625,0.3956143257194626,2.577586568739353e-07
-0.489375,0.3956143257194626,2.635739728490134e-07
-0.48934375,0.3956938645107003,2.695018128893946e-07
-0.4893125,0.3955347869282249,2.755439880316987e-07
-0.48928125,0.3956143257194626,2.817023324116324e-07
-0.48925,0.3956938645107003,2.879787034773436e-07
-0.48921875,0.3956938645107003,2.943749822039008e-07
-0.4891875,0.3956938645107003,3.008930733088964e-07
-0.48915625,0.3957734033019381,3.075349054691743e-07
-0.489125,0.3956938645107003,3.143024315386802e-07
-0.48909375,0.3958529420931758,3.211976287674349e-07
-0.4890625,0.3956938645107003,3.282224990216293e-07
-0.48903125,0.3959324808844135,3.353790690048403e-07
-0.489,0.3958529420931758,3.426693904803676e-07
-0.48896875,0.3959324808844135,3.500955404946897e-07
-0.4889375,0.3957734033019381,3.576596216020389e-07
-0.48890625,0.3958529420931758,3.653637620900939e-07
-0.488875,0.3958529420931758,3.732101162067897e-07
-0.48884375,0.3958529420931758,3.812008643882434e-07
-0.4888125,0.3957734033019381,3.893382134877945e-07
-0.48878125,0.3958529420931758,3.976243970061597e-07
-0.48875,0.3959324808844135,4.060616753227003e-07
-0.48871875,0.3960120196756513,4.146523359278015e-07
-0.4886875,0.3959324808844135,4.233986936563616e-07
-0.48865625,0.3960120196756513,4.323030909223913e-07
-0.488625,0.3959324808844135,4.413678979547208e-07
-0.48859375,0.3959324808844135,4.505955130338134e-07
-0.4885625,0.3958529420931758,4.599883627296845e-07
-0.48853125,0.3959324808844135,4.695489021409256e-07
-0.4885,0.3959324808844135,4.792796151348293e-07
-0.48846875,0.3960120196756513,4.891830145886172e-07
-0.4884375,0.3960120196756513,4.99261642631766e-07
-0.48840625,0.3959324808844135,5.09518070889433e-07
