Task6_Vertical_20Hz_200mV_10%.csv

#Digilent WaveForms Oscilloscope Acquisition
#Device Name: Discovery3
#Serial Number: SN:210415BD63A1
#Date Time: 2026-09-24 11:30:09.181.472.000
#Sample rate: 16000Hz
#Samples: 32000
#Trigger: Source: Channel 1 Type: Edge Condition: Rising Level: 0 V Hyst.: Auto HoldOff: 0 s
#Channel 1: Range: 50 mV/div Offset: 0 V Sample Mode: Average
#Math 1: Input: C1 Reference: Internal Frequency: 20 Hz Phase: 90 ° Filter: IIR Butterworth 8  Low-Pass CutOff: 2 Hz Output: Amplitude

#Wavegen Channel 1: Running
#Mode: Simple
#Type: Sine
#Frequency: 20 Hz
#Period: 50 ms
#Amplitude: 200 mV
#Offset: 0 V
#Symmetry: 50 %
#Phase: 0 °

Time (s),Channel 1 (V),Math 1 (V)
-1,0.03641714448989066,2.050979771126917e-29
-0.9999375,0.03641714448989066,3.485833970233558e-28
-0.999875,0.03649668328112839,2.972423362149183e-27
-0.9998125,0.03649668328112839,1.707109903091748e-26
-0.99975,0.03633760569865294,7.47574007079338e-26
-0.9996875,0.03633760569865294,2.677386759033266e-25
-0.999625,0.03633760569865294,8.205848806184609e-25
-0.9995625,0.03649668328112839,2.221464522487003e-24
-0.9995000000000001,0.03633760569865294,5.436384943851505e-24
-0.9994375,0.03625806690741521,1.223813219488298e-23
-0.999375,0.03625806690741521,2.568624521780354e-23
-0.9993125,0.03633760569865294,5.079947761287852e-23
-0.99925,0.03633760569865294,9.54672980955766e-23
-0.9991875,0.03633760569865294,1.716520586753994e-22
-0.999125,0.03633760569865294,2.969385177977632e-22
-0.9990625,0.03625806690741521,4.964924440828141e-22
-0.999,0.03633760569865294,8.054950453866589e-22
-0.9989375,0.03625806690741521,1.272124968709333e-21
-0.998875,0.03625806690741521,1.961164598690333e-21
-0.9988125,0.03617852811617748,2.958312343500688e-21
-0.99875,0.03617852811617748,4.375287534168045e-21
-0.9986875,0.03617852811617748,6.35581947670827e-21
-0.998625,0.03609898932493975,9.08261708766651e-21
-0.9985625,0.03609898932493975,1.278542041332438e-20
-0.9985000000000001,0.03617852811617748,1.775024017978716e-20
-0.9984375,0.03601945053370203,2.432989634514957e-20
-0.998375,0.03601945053370203,3.295597142767343e-20
-0.9983125,0.03601945053370203,4.415229916742548e-20
-0.99825,0.03601945053370203,5.855011384327885e-20
-0.9981875,0.03601945053370203,7.690499031061363e-20
-0.998125,0.03601945053370203,1.001157095450144e-19
-0.9980625,0.03586037295122658,1.292451891723426e-19
-0.998,0.0359399117424643,1.655436231354507e-19
-0.9979375,0.03586037295122658,2.104739792926944e-19
-0.997875,0.0356217565775134,2.657400083637681e-19
-0.9978125,0.03554221778627567,3.333169222353469e-19
-0.99775,0.03554221778627567,4.154849042136523e-19
-0.9976874999999999,0.0356217565775134,5.148656183627654e-19
-0.997625,0.03554221778627567,6.344618895937155e-19
-0.9975625,0.03554221778627567,7.77700730667635e-19
-0.9975000000000001,0.03554221778627567,9.484798967463121e-19
-0.9974375,0.03554221778627567,1.151218152567167e-18
-0.997375,0.03554221778627567,1.390909441739395e-18
-0.9973125,0.03546267899503795,1.673181152054587e-18
-0.99725,0.03554221778627567,2.004356675077523e-18
-0.9971875,0.03554221778627567,2.391522462629495e-18
-0.997125,0.03546267899503795,2.842599787096224e-18
-0.9970625,0.03546267899503795,3.366421416783917e-18
-0.997,0.03554221778627567,3.972813421809288e-18
-0.9969375,0.0356217565775134,4.672682330242043e-18
-0.996875,0.0356217565775134,5.478107858422084e-18
-0.9968125,0.0356217565775134,6.40244144354955e-18
-0.99675,0.03554221778627567,7.460410810795171e-18
-0.9966874999999999,0.0356217565775134,8.668230811302749e-18
-0.996625,0.0356217565775134,1.004372077155536e-17
-0.9965625,0.0356217565775134,1.160642859865147e-17
-0.9965000000000001,0.0356217565775134,1.337776189008533e-17
-0.9964375,0.0356217565775134,1.538112630064692e-17
-0.996375,0.03570129536875112,1.764207142304974e-17
-0.9963125,0.0356217565775134,2.018844444285936e-17
-0.99625,0.0356217565775134,2.305055183223079e-17
-0.9961875,0.0356217565775134,2.626132935086661e-17
-0.996125,0.03570129536875112,2.985652062648262e-17
-0.9960625,0.0356217565775134,3.387486459091466e-17
-0.996,0.0356217565775134,3.835829205182237e-17
-0.9959375,0.03570129536875112,4.335213168374065e-17
-0.995875,0.03570129536875112,4.890532572599704e-17
-0.9958125,0.03570129536875112,5.507065567875299e-17
-0.99575,0.03578083415998885,6.190497829213827e-17
-0.9956874999999999,0.03570129536875112,6.946947214713016e-17
-0.995625,0.03578083415998885,7.782989513048263e-17
-0.9955625,0.03586037295122658,8.705685310963339e-17
-0.9955000000000001,0.0359399117424643,9.722608011710977e-17
-0.9954375,0.03586037295122658,1.084187303575184e-16
-0.995375,0.03586037295122658,1.207216823537393e-16
-0.9953125,0.03586037295122658,1.342278555524544e-16
-0.99525,0.03586037295122658,1.490365397126148e-16
-0.9951875,0.03586037295122658,1.652537374039031e-16
-0.995125,0.0359399117424643,1.829925199456594e-16
-0.9950625,0.0359399117424643,2.023733971201263e-16
-0.995,0.0359399117424643,2.235247009972233e-16
-0.9949375,0.03601945053370203,2.465829842113833e-16
-0.994875,0.0359399117424643,2.716934330342831e-16
-0.9948125,0.03601945053370203,2.990102955905579e-16
-0.99475,0.03601945053370203,3.286973255668247e-16
-0.9946874999999999,0.03609898932493975,3.609282417675285e-16
-0.994625,0.03609898932493975,3.958872038742942e-16
-0.9945625,0.03609898932493975,4.337693047685922e-16
-0.9945000000000001,0.03609898932493975,4.747810797806357e-16
-0.9944375,0.03609898932493975,5.191410332304884e-16
-0.994375,0.03609898932493975,5.670801826304011e-16
-0.9943125,0.03609898932493975,6.188426209204029e-16
-0.99425,0.03617852811617748,6.746860971121363e-16
-0.9941875,0.03617852811617748,7.348826157188781e-16
-0.994125,0.03617852811617748,7.997190553525829e-16
-0.9940625,0.03617852811617748,8.694978068716729e-16
-0.994,0.03625806690741521,9.44537431466139e-16
-0.9939375,0.03633760569865294,1.025173339069331e-15
-0.993875,0.03625806690741521,1.111758487488604e-15
-0.9938125,0.03633760569865294,1.204664102649744e-15
-0.99375,0.03633760569865294,1.304280420352817e-15
-0.9936874999999999,0.03641714448989066,1.411017449939786e-15
-0.993625,0.03641714448989066,1.525305760276921e-15
-0.9935625,0.03641714448989066,1.647597288457648e-15
-0.9935,0.03649668328112839,1.778366171634117e-15
-0.9934375,0.03649668328112839,1.918109602388333e-15
-0.993375,0.03665576086360384,2.067348708056271e-15
-0.9933125,0.03657622207236611,2.226629454420904e-15
-0.99325,0.03649668328112839,2.396523574192601e-15
-0.9931875,0.03657622207236611,2.57762952069781e-15
-0.993125,0.03657622207236611,2.770573447199411e-15
-0.9930625,0.03657622207236611,2.976010212274523e-15
-0.993,0.03657622207236611,3.194624411677957e-15
-0.9929375,0.03665576086360384,3.427131437121871e-15
-0.992875,0.03673529965484157,3.674278562404502e-15
-0.9928125,0.03665576086360384,3.936846057323162e-15
-0.99275,0.03665576086360384,4.215648329808985e-15
-0.9926874999999999,0.03665576086360384,4.511535096723127e-15
-0.992625,0.03665576086360384,4.825392583756425e-15
-0.9925625,0.03665576086360384,5.158144754876635e-15
-0.9925,0.03665576086360384,5.51075457176962e-15
-0.9924375,0.03665576086360384,5.884225283722973e-15
-0.992375,0.03665576086360384,6.279601748402742e-15
-0.9923125,0.03657622207236611,6.697971783975937e-15
-0.99225,0.03665576086360384,7.140467553033657e-15
-0.9921875,0.03681483844607929,7.608266978771701e-15
-0.992125,0.03673529965484157,8.102595193887527e-15
-0.9920625,0.03673529965484157,8.624726022654443e-15
-0.992,0.03673529965484157,9.17598349663588e-15
-0.9919375,0.03673529965484157,9.75774340450453e-15
-0.991875,0.03673529965484157,1.037143487643305e-14
-0.9918125,0.03673529965484157,1.101854200352493e-14
-0.99175,0.03665576086360384,1.170060549275598e-14
-0.9916875000000001,0.03681483844607929,1.241922435789874e-14
-0.991625,0.03673529965484157,1.317605764690385e-14
-0.9915625,0.03681483844607929,1.397282620621427e-14
-0.9915,0.03681483844607929,1.48113144824901e-14
-0.9914375,0.03681483844607929,1.569337236222303e-14
-0.991375,0.03673529965484157,1.662091704972186e-14
-0.9913125,0.03673529965484157,1.759593498395144e-14
-0.99125,0.03673529965484157,1.862048379470956e-14
-0.9911875,0.03673529965484157,1.969669429862786e-14
-0.991125,0.03665576086360384,2.082677253548404e-14
-0.9910625,0.03665576086360384,2.201300184531479e-14
-0.991,0.03665576086360384,2.325774498681993e-14
-0.9909375,0.03673529965484157,2.456344629755002e-14
-0.990875,0.03665576086360384,2.593263389637101e-14
-0.9908125,0.03665576086360384,2.736792192870118e-14
-0.99075,0.03657622207236611,2.887201285501669e-14
-0.9906875000000001,0.03665576086360384,3.044769978312388e-14
-0.990625,0.03665576086360384,3.209786884469764e-14
-0.9905625,0.03657622207236611,3.382550161658619e-14
-0.9905,0.03649668328112839,3.563367758738466e-14
-0.9904375,0.03657622207236611,3.752557666978044e-14
-0.990375,0.03665576086360384,3.950448175917498e-14
-0.9903125,0.03665576086360384,4.157378133908773e-14
-0.99025,0.03657622207236611,4.373697213384924e-14
-0.9901875,0.03657622207236611,4.599766180909155e-14
-0.990125,0.03641714448989066,4.835957172054529e-14
-0.9900625,0.03649668328112839,5.082653971165386e-14
-0.99,0.03649668328112839,5.340252296051628e-14
-0.9899375,0.03641714448989066,5.60916008766714e-14
-0.9898749999999999,0.03649668328112839,5.889797804823713e-14
-0.9898125,0.03641714448989066,6.18259872399195e-14
-0.98975,0.03649668328112839,6.488009244240714e-14
-0.9896875000000001,0.03641714448989066,6.806489197366824e-14
-0.989625,0.03641714448989066,7.138512163266718e-14
-0.9895625,0.03641714448989066,7.484565790601984e-14
-0.9895,0.03641714448989066,7.845152122810694e-14
-0.9894375,0.03633760569865294,8.220787929516566e-14
-0.989375,0.03625806690741521,8.612005043388077e-14
-0.9893125,0.03617852811617748,9.019350702499779e-14
-0.98925,0.03625806690741521,9.443387898247986e-14
-0.9891875,0.03617852811617748,9.88469572887331e-14
-0.989125,0.03609898932493975,1.03438697586424e-13
-0.9890625,0.03617852811617748,1.08215223827414e-13
-0.989,0.03617852811617748,1.13182831979337e-13
-0.9889375,0.03617852811617748,1.183479937903466e-13
-0.9888749999999999,0.03601945053370203,1.237173606125581e-13
-0.9888125,0.0359399117424643,1.292977672847164e-13
-0.98875,0.03601945053370203,1.350962360746134e-13
-0.9886875000000001,0.03601945053370203,1.411199806817878e-13
-0.988625,0.03586037295122658,1.473764103010333e-13
-0.9885625,0.03586037295122658,1.53873133747247e-13
-0.9885,0.03570129536875112,1.606179636421464e-13
-0.9884375,0.03570129536875112,1.676189206633875e-13
-0.988375,0.03578083415998885,1.748842378566128e-13
-0.9883125,0.03570129536875112,1.824223650109626e-13
-0.98825,0.03570129536875112,1.902419730985799e-13
-0.9881875,0.0356217565775134,1.983519587786412e-13
-0.988125,0.0356217565775134,2.067614489664467e-13
-0.9880625,0.03554221778627567,2.154798054681004e-13
-0.988,0.03546267899503795,2.245166296813151e-13
-0.9879375,0.03554221778627567,2.338817673628742e-13
-0.9878749999999999,0.03538314020380022,2.435853134632834e-13
-0.9878125,0.03554221778627567,2.536376170291467e-13
-0.98775,0.03554221778627567,2.640492861737997e-13
-0.9876875000000001,0.03546267899503795,2.748311931167337e-13
-0.987625,0.03546267899503795,2.859944792923446e-13
-0.9875625,0.03538314020380022,2.975505605285409e-13
-0.9875,0.03538314020380022,3.095111322957435e-13
-0.9874375,0.03554221778627567,3.218881750268124e-13
-0.987375,0.03546267899503795,3.346939595084338e-13
-0.9873125,0.03546267899503795,3.479410523445004e-13
-0.98725,0.03546267899503795,3.616423214920199e-13
-0.9871875,0.03546267899503795,3.758109418700844e-13
-0.987125,0.0356217565775134,3.904604010424347e-13
-0.9870625,0.03546267899503795,4.056045049741526e-13
-0.987,0.03546267899503795,4.212573838630141e-13
-0.9869375,0.03546267899503795,4.374334980460363e-13
-0.9868749999999999,0.03546267899503795,4.541476439817508e-13
-0.9868125,0.03546267899503795,4.714149603087368e-13
-0.98675,0.03546267899503795,4.892509339809442e-13
-0.9866875000000001,0.03546267899503795,5.076714064803396e-13
-0.986625,0.03554221778627567,5.266925801074071e-13
-0.9865625,0.0356217565775134,5.463310243500329e-13
-0.9865,0.0356217565775134,5.66603682331307e-13
-0.9864375,0.03554221778627567,5.875278773367701e-13
-0.986375,0.03554221778627567,6.091213194216358e-13
-0.9863125,0.0356217565775134,6.314021120985181e-13
-0.98625,0.0356217565775134,6.543887591061932e-13
-0.9861875,0.0356217565775134,6.78100171259921e-13
-0.986125,0.03570129536875112,7.025556733838593e-13
-0.9860625,0.03570129536875112,7.277750113260905e-13
-0.986,0.03570129536875112,7.537783590567949e-13
-0.9859375,0.03570129536875112,7.805863258500903e-13
-0.9858749999999999,0.03578083415998885,8.08219963550067e-13
-0.9858125,0.03578083415998885,8.367007739215394e-13
-0.98575,0.03570129536875112,8.660507160860428e-13
-0.9856875,0.03578083415998885,8.962922140435908e-13
-0.985625,0.03578083415998885,9.274481642807232e-13
-0.9855625,0.03586037295122658,9.595419434653625e-13
-0.9855,0.03586037295122658,9.925974162289986e-13
-0.9854375,0.03586037295122658,1.026638943036722e-12
-0.985375,0.03586037295122658,1.061691388145628e-12
-0.9853125,0.03586037295122658,1.097780127652103e-12
-0.98525,0.0359399117424643,1.134931057628516e-12
-0.9851875,0.0359399117424643,1.173170602349832e-12
-0.985125,0.03578083415998885,1.212525722610653e-12
-0.9850625,0.03601945053370203,1.253023924133215e-12
-0.985,0.03601945053370203,1.294693266066842e-12
-0.9849375,0.03601945053370203,1.337562369579377e-12
-0.9848749999999999,0.03601945053370203,1.381660426541096e-12
-0.9848125,0.03609898932493975,1.42701720830162e-12
-0.98475,0.03601945053370203,1.473663074560327e-12
-0.9846875,0.03609898932493975,1.521628982330778e-12
-0.984625,0.03609898932493975,1.570946494999662e-12
-0.9845625,0.03625806690741521,1.621647791480767e-12
-0.9845,0.03617852811617748,1.673765675464471e-12
-0.9844375,0.03625806690741521,1.727333584763274e-12
-0.984375,0.03625806690741521,1.782385600753856e-12
-0.9843125,0.03617852811617748,1.838956457916172e-12
-0.98425,0.03609898932493975,1.897081553470079e-12
-0.9841875,0.03625806690741521,1.956796957109987e-12
-0.984125,0.03633760569865294,2.018139420838051e-12
-0.9840625,0.03633760569865294,2.081146388896369e-12
-0.984,0.03625806690741521,2.145856007798704e-12
-0.9839375,0.03641714448989066,2.212307136462221e-12
-0.9838750000000001,0.03641714448989066,2.280539356439703e-12
-0.9838125,0.03649668328112839,2.350592982252779e-12
-0.98375,0.03649668328112839,2.422509071826608e-12
-0.9836875,0.03649668328112839,2.496329437026544e-12
-0.983625,0.03657622207236611,2.572096654297238e-12
-0.9835625,0.03657622207236611,2.649854075404669e-12
-0.9835,0.03657622207236611,2.729645838281601e-12
-0.9834375,0.03665576086360384,2.811516877976919e-12
-0.983375,0.03665576086360384,2.895512937709351e-12
-0.9833125,0.03649668328112839,2.981680580026028e-12
-0.98325,0.03657622207236611,3.070067198066374e-12
-0.9831875,0.03657622207236611,3.160721026931798e-12
-0.983125,0.03665576086360384,3.253691155161645e-12
-0.9830625,0.03665576086360384,3.349027536315901e-12
-0.983,0.03665576086360384,3.446781000665101e-12
-0.9829375,0.03665576086360384,3.547003266987909e-12
-0.9828750000000001,0.03657622207236611,3.649746954476849e-12
-0.9828125,0.03673529965484157,3.755065594752629e-12
-0.98275,0.03673529965484157,3.863013643987544e-12
-0.9826875,0.03673529965484157,3.973646495138386e-12
-0.982625,0.03673529965484157,4.087020490289356e-12
-0.9825625,0.03673529965484157,4.203192933105399e-12
-0.9825,0.03673529965484157,4.322222101396446e-12
-0.9824375,0.03681483844607929,4.44416725979298e-12
-0.982375,0.03681483844607929,4.569088672533418e-12
-0.9823125,0.03673529965484157,4.697047616363721e-12
-0.98225,0.03673529965484157,4.828106393549697e-12
-0.9821875,0.03665576086360384,4.962328345002431e-12
-0.982125,0.03681483844607929,5.099777863517297e-12
-0.9820624999999999,0.03681483844607929,5.240520407126976e-12
-0.982,0.03681483844607929,5.384622512568932e-12
-0.9819375,0.03697391602855474,5.532151808867765e-12
-0.9818750000000001,0.03689437723731702,5.683177031032897e-12
-0.9818125,0.03689437723731702,5.837768033871992e-12
-0.98175,0.03689437723731702,5.99599580592058e-12
-0.9816875,0.03689437723731702,6.157932483488275e-12
-0.981625,0.03689437723731702,6.323651364822016e-12
-0.9815625,0.03697391602855474,6.493226924386787e-12
-0.9815,0.03689437723731702,6.666734827264195e-12
-0.9814375,0.03689437723731702,6.844251943669347e-12
-0.981375,0.03681483844607929,7.025856363586431e-12
-0.9813125,0.03681483844607929,7.211627411523428e-12
-0.98125,0.03689437723731702,7.401645661386353e-12
-0.9811875,0.03681483844607929,7.595992951473434e-12
-0.981125,0.03681483844607929,7.794752399589654e-12
-0.9810624999999999,0.03681483844607929,7.998008418282028e-12
-0.981,0.03681483844607929,8.205846730196046e-12
-0.9809375,0.03673529965484157,8.418354383553656e-12
-0.9808750000000001,0.03681483844607929,8.63561976775323e-12
-0.9808125,0.03673529965484157,8.857732629091829e-12
-0.98075,0.03689437723731702,9.084784086610233e-12
-0.9806875,0.03689437723731702,9.316866648061099e-12
-0.980625,0.03681483844607929,9.554074226000605e-12
-0.9805625,0.03665576086360384,9.796502154004022e-12
-0.9805,0.03673529965484157,1.004424720300554e-11
-0.9804375,0.03681483844607929,1.029740759776275e-11
-0.980375,0.03665576086360384,1.055608303344621e-11
-0.9803125,0.03665576086360384,1.082037469235432e-11
-0.98025,0.03665576086360384,1.109038526075405e-11
-0.9801875,0.03657622207236611,1.136621894584785e-11
-0.980125,0.03657622207236611,1.164798149286693e-11
-0.9800624999999999,0.03657622207236611,1.193578020229158e-11
-0.98,0.03657622207236611,1.222972394719861e-11
-0.9799375,0.03665576086360384,1.252992319073644e-11
-0.9798750000000001,0.03665576086360384,1.283649000372812e-11
-0.9798125,0.03657622207236611,1.314953808240267e-11
-0.97975,0.03649668328112839,1.346918276625505e-11
-0.9796875,0.03657622207236611,1.379554105603511e-11
-0.979625,0.03665576086360384,1.412873163186594e-11
-0.9795625,0.03649668328112839,1.446887487149187e-11
-0.9795,0.03649668328112839,1.481609286865646e-11
-0.9794375,0.03649668328112839,1.51705094516109e-11
-0.979375,0.03649668328112839,1.553225020175305e-11
-0.9793125,0.03633760569865294,1.590144247239755e-11
-0.97925,0.03625806690741521,1.627821540767724e-11
-0.9791875,0.03625806690741521,1.666269996157624e-11
-0.979125,0.03625806690741521,1.705502891709505e-11
-0.9790624999999999,0.03617852811617748,1.745533690554794e-11
-0.979,0.03609898932493975,1.786376042599295e-11
-0.9789375,0.03625806690741521,1.828043786479487e-11
-0.9788750000000001,0.03609898932493975,1.87055095153214e-11
-0.9788125,0.03609898932493975,1.913911759777292e-11
-0.97875,0.03609898932493975,1.958140627914605e-11
-0.9786875,0.03609898932493975,2.003252169333141e-11
-0.978625,0.0359399117424643,2.049261196134583e-11
-0.9785625,0.03601945053370203,2.096182721169925e-11
-0.9785,0.03601945053370203,2.144031960089671e-11
-0.9784375,0.03586037295122658,2.192824333407562e-11
-0.978375,0.03586037295122658,2.24257546857787e-11
-0.9783125,0.03578083415998885,2.293301202086265e-11
-0.97825,0.03578083415998885,2.345017581554323e-11
-0.9781875,0.03570129536875112,2.39774086785765e-11
-0.978125,0.03570129536875112,2.451487537257703e-11
-0.9780624999999999,0.03570129536875112,2.506274283547286e-11
-0.978,0.03570129536875112,2.562118020209791e-11
-0.9779375,0.0356217565775134,2.619035882592172e-11
-0.977875,0.0356217565775134,2.677045230091709e-11
-0.9778125,0.03554221778627567,2.736163648356564e-11
-0.97775,0.03554221778627567,2.796408951500174e-11
-0.9776875,0.0356217565775134,2.857799184329486e-11
-0.977625,0.03554221778627567,2.920352624587078e-11
-0.9775625,0.03554221778627567,2.984087785207176e-11
-0.9775,0.03554221778627567,3.049023416585594e-11
-0.9774375,0.03554221778627567,3.115178508863635e-11
-0.977375,0.03554221778627567,3.182572294225945e-11
-0.9773125,0.03546267899503795,3.25122424921238e-11
-0.97725,0.03554221778627567,3.321154097043877e-11
-0.9771875,0.0356217565775134,3.392381809962374e-11
