Task6_Vertical_20Hz_200mV_5%.csv

#Digilent WaveForms Oscilloscope Acquisition
#Device Name: Discovery3
#Serial Number: SN:210415BD63A1
#Date Time: 2026-09-24 11:50:02.300.003.730
#Sample rate: 16000Hz
#Samples: 32000
#Trigger: Source: Channel 1 Type: Edge Condition: Rising Level: 0 V Hyst.: Auto HoldOff: 0 s
#Channel 1: Range: 50 mV/div Offset: 0 V Sample Mode: Average
#Math 1: Input: C1 Reference: Internal Frequency: 20 Hz Phase: 90 ° Filter: IIR Butterworth 8  Low-Pass CutOff: 2 Hz Output: Amplitude

#Wavegen Channel 1: Running
#Mode: Simple
#Type: Sine
#Frequency: 20 Hz
#Period: 50 ms
#Amplitude: 200 mV
#Offset: 0 V
#Symmetry: 50 %
#Phase: 0 °

Time (s),Channel 1 (V),Math 1 (V)
-1,0.03180389459810254,1.727746131836126e-29
-0.9999375,0.03172435580686481,2.936018926354014e-28
-0.999875,0.03172435580686481,2.503252460788206e-27
-0.9998125,0.03164481701562708,1.437495706553457e-26
-0.99975,0.03156527822438936,6.29448095239646e-26
-0.9996875,0.03172435580686481,2.25416930827271e-25
-0.999625,0.03172435580686481,6.908382189476058e-25
-0.9995625,0.03156527822438936,1.870146379406148e-24
-0.9995000000000001,0.03164481701562708,4.576504009916403e-24
-0.9994375,0.03148573943315163,1.030216690825327e-23
-0.999375,0.03140620064191391,2.162245221188373e-23
-0.9993125,0.03156527822438936,4.276167384163132e-23
-0.99925,0.03148573943315163,8.036020138140473e-23
-0.9991875,0.03132666185067618,1.444860741922663e-22
-0.999125,0.03124712305943845,2.499388635584106e-22
-0.9990625,0.03100850668572527,4.178977203277627e-22
-0.999,0.03124712305943845,6.779697728986092e-22
-0.9989375,0.03124712305943845,1.070699249490274e-21
-0.998875,0.03116758426820072,1.650601888308971e-21
-0.9988125,0.031088045476963,2.489793369399501e-21
-0.99875,0.03100850668572527,3.682284653607764e-21
-0.9986875,0.03092896789448754,5.349021247935031e-21
-0.998625,0.03100850668572527,7.643747532869311e-21
-0.9985625,0.031088045476963,1.075978138625649e-20
-0.9985000000000001,0.03100850668572527,1.493778842019279e-20
-0.9984375,0.03092896789448754,2.047464921219276e-20
-0.998375,0.03076989031201209,2.773351695911413e-20
-0.9983125,0.03076989031201209,3.715516701195856e-20
-0.99825,0.03076989031201209,4.927074376246776e-20
-0.9981875,0.03069035152077437,6.47160143493253e-20
-0.998125,0.03069035152077437,8.424724263292802e-20
-0.9980625,0.03076989031201209,1.087588008526589e-19
-0.998,0.03053127393829892,1.393026403290138e-19
-0.9979375,0.03069035152077437,1.771097465044114e-19
-0.997875,0.03053127393829892,2.236137075300808e-19
-0.9978125,0.03053127393829892,2.804765295010189e-19
-0.99775,0.03053127393829892,3.496168353165678e-19
-0.9976874999999999,0.03061081272953664,4.332405880014959e-19
-0.997625,0.03053127393829892,5.338744831621347e-19
-0.9975625,0.03053127393829892,6.544021590737085e-19
-0.9975000000000001,0.03045173514706119,7.981033766980843e-19
-0.9974375,0.03069035152077437,9.6869632571601e-19
-0.997375,0.03053127393829892,1.170383216424774e-18
-0.9973125,0.03053127393829892,1.407899321100636e-18
-0.99725,0.03053127393829892,1.686565632154658e-18
-0.9971875,0.03061081272953664,2.012345308120443e-18
-0.997125,0.03069035152077437,2.391904082202972e-18
-0.9970625,0.03069035152077437,2.832674811789872e-18
-0.997,0.03069035152077437,3.34292635098093e-18
-0.9969375,0.03069035152077437,3.931836931828183e-18
-0.996875,0.03061081272953664,4.609572243595418e-18
-0.9968125,0.03061081272953664,5.38736840294045e-18
-0.99675,0.03069035152077437,6.277620011495197e-18
-0.9966874999999999,0.03069035152077437,7.293973500868089e-18
-0.996625,0.03069035152077437,8.451425968622963e-18
-0.9965625,0.03076989031201209,9.766429712300981e-18
-0.9965000000000001,0.03069035152077437,1.12570026720484e-17
-0.9964375,0.03076989031201209,1.294284499589322e-17
-0.996375,0.03069035152077437,1.484546194517605e-17
-0.9963125,0.03069035152077437,1.698829336108466e-17
-0.99625,0.03076989031201209,1.939684991666517e-17
-0.9961875,0.03076989031201209,2.209885638208641e-17
-0.996125,0.03084942910324982,2.512440213431537e-17
-0.9960625,0.03084942910324982,2.850609914572001e-17
-0.996,0.03092896789448754,3.227924768945151e-17
-0.9959375,0.03084942910324982,3.64820100027739e-17
-0.995875,0.03092896789448754,4.115559215280472e-17
-0.9958125,0.03084942910324982,4.634443435240988e-17
-0.99575,0.03092896789448754,5.209640997725454e-17
-0.9956874999999999,0.03092896789448754,5.846303353825044e-17
-0.995625,0.03092896789448754,6.54996778668572e-17
-0.9955625,0.03092896789448754,7.326580077389384e-17
-0.9955000000000001,0.03092896789448754,8.182518144569493e-17
-0.9954375,0.03100850668572527,9.124616684460543e-17
-0.995375,0.03100850668572527,1.01601928383943e-16
-0.9953125,0.03100850668572527,1.12970729150669e-16
-0.99525,0.03100850668572527,1.254362019520931e-16
-0.9951875,0.03100850668572527,1.390876384659974e-16
-0.995125,0.031088045476963,1.540202897765983e-16
-0.9950625,0.031088045476963,1.703356785817784e-16
-0.995,0.031088045476963,1.881419233600061e-16
-0.9949375,0.031088045476963,2.075540747883373e-16
-0.994875,0.031088045476963,2.28694464705836e-16
-0.9948125,0.031088045476963,2.516930679196815e-16
-0.99475,0.03116758426820072,2.766878771541315e-16
-0.9946874999999999,0.03116758426820072,3.03825291445398e-16
-0.994625,0.03132666185067618,3.332605182883435e-16
-0.9945625,0.03124712305943845,3.651579898437415e-16
-0.9945000000000001,0.031088045476963,3.996917935176508e-16
-0.9944375,0.03124712305943845,4.370461172272269e-16
-0.994375,0.03116758426820072,4.774157096700479e-16
-0.9943125,0.03140620064191391,5.210063559167634e-16
-0.99425,0.03132666185067618,5.68035368649572e-16
-0.9941875,0.03124712305943845,6.187320953717185e-16
-0.994125,0.03132666185067618,6.733384419158459e-16
-0.9940625,0.03124712305943845,7.321094125816755e-16
-0.994,0.03132666185067618,7.953136672360788e-16
-0.9939375,0.03140620064191391,8.632340957111955e-16
-0.993875,0.03140620064191391,9.361684098387902e-16
-0.9938125,0.03140620064191391,1.014429753461574e-15
-0.99375,0.03148573943315163,1.098347330764705e-15
-0.9936874999999999,0.03156527822438936,1.188267053273164e-15
-0.993625,0.03156527822438936,1.28455220586315e-15
-0.9935625,0.03156527822438936,1.387584132138052e-15
-0.9935,0.03156527822438936,1.497762939521973e-15
-0.9934375,0.03164481701562708,1.615508224426141e-15
-0.993375,0.03156527822438936,1.741259817845885e-15
-0.9933125,0.03164481701562708,1.875478551748198e-15
-0.99325,0.03156527822438936,2.018647046612171e-15
-0.9931875,0.03164481701562708,2.171270520486881e-15
-0.993125,0.03172435580686481,2.333877619933547e-15
-0.9930625,0.03164481701562708,2.507021273220984e-15
-0.993,0.03164481701562708,2.691279566145577e-15
-0.9929375,0.03180389459810254,2.887256640849175e-15
-0.992875,0.03180389459810254,3.09558361801041e-15
-0.9928125,0.03172435580686481,3.316919542787089e-15
-0.99275,0.03172435580686481,3.55195235488937e-15
-0.9926874999999999,0.03188343338934026,3.801399883165493e-15
-0.992625,0.03180389459810254,4.066010865083839e-15
-0.9925625,0.03180389459810254,4.346565991497127e-15
-0.9925,0.03188343338934026,4.643878977076464e-15
-0.9924375,0.03180389459810254,4.958797656804972e-15
-0.992375,0.03188343338934026,5.292205108922585e-15
-0.9923125,0.03188343338934026,5.645020804715502e-15
-0.99225,0.03188343338934026,6.018201785545644e-15
-0.9921875,0.03180389459810254,6.412743867517289e-15
-0.992125,0.03180389459810254,6.829682874179869e-15
-0.9920625,0.03180389459810254,7.270095897667653e-15
-0.992,0.03188343338934026,7.735102588678844e-15
-0.9919375,0.03196297218057799,8.225866475698303e-15
-0.991875,0.03188343338934026,8.743596313869827e-15
-0.9918125,0.03180389459810254,9.289547463925582e-15
-0.99175,0.03188343338934026,9.865023301581951e-15
-0.9916875000000001,0.03196297218057799,1.047137665781267e-14
-0.991625,0.03188343338934026,1.111001129041167e-14
-0.9915625,0.03188343338934026,1.178238338725972e-14
-0.9915,0.03196297218057799,1.249000310171039e-14
-0.9914375,0.03180389459810254,1.323443612051241e-14
-0.991375,0.03188343338934026,1.401730526468696e-14
-0.9913125,0.03188343338934026,1.484029212377996e-14
-0.99125,0.03188343338934026,1.570513872391067e-14
-0.9911875,0.03172435580686481,1.661364923003943e-14
-0.991125,0.03180389459810254,1.756769168287886e-14
-0.9910625,0.03172435580686481,1.856919977087379e-14
-0.991,0.03164481701562708,1.96201746376769e-14
-0.9909375,0.03180389459810254,2.072268672554811e-14
-0.990875,0.03164481701562708,2.187887765510707e-14
-0.9908125,0.03172435580686481,2.309096214186927e-14
-0.99075,0.03180389459810254,2.436122994999769e-14
-0.9906875000000001,0.03180389459810254,2.569204788370282e-14
-0.990625,0.03172435580686481,2.708586181672512e-14
-0.9905625,0.03180389459810254,2.854519876033533e-14
-0.9905,0.03172435580686481,3.007266897028882e-14
-0.9904375,0.03164481701562708,3.167096809317138e-14
-0.990375,0.03172435580686481,3.334287935257506e-14
-0.9903125,0.03172435580686481,3.509127577554327e-14
-0.99025,0.03172435580686481,3.6919122459726e-14
-0.9901875,0.03172435580686481,3.882947888168632e-14
-0.990125,0.03164481701562708,4.082550124680089e-14
-0.9900625,0.03156527822438936,4.291044488119741e-14
-0.99,0.03164481701562708,4.508766666617395e-14
-0.9899375,0.03156527822438936,4.736062751554476e-14
-0.9898749999999999,0.03156527822438936,4.97328948963589e-14
-0.9898125,0.03156527822438936,5.220814539343859e-14
-0.98975,0.03140620064191391,5.479016731818498e-14
-0.9896875000000001,0.03148573943315163,5.748286336209975e-14
-0.989625,0.03140620064191391,6.029025329547204e-14
-0.9895625,0.03140620064191391,6.321647671168073e-14
-0.9895,0.03124712305943845,6.626579581756257e-14
-0.9894375,0.03132666185067618,6.944259827029818e-14
-0.989375,0.03132666185067618,7.275140006126751e-14
-0.9893125,0.03124712305943845,7.6196848447328e-14
-0.98925,0.03132666185067618,7.978372492996885e-14
-0.9891875,0.03124712305943845,8.351694828279517e-14
-0.989125,0.03116758426820072,8.740157762779718e-14
-0.9890625,0.03116758426820072,9.144281556085914e-14
-0.989,0.031088045476963,9.564601132696425e-14
-0.9889375,0.031088045476963,1.000166640455515e-13
-0.9888749999999999,0.031088045476963,1.045604259864813e-13
-0.9888125,0.03092896789448754,1.092831058970673e-13
-0.98875,0.03100850668572527,1.14190672380632e-13
-0.9886875000000001,0.03084942910324982,1.19289257327044e-13
-0.988625,0.03092896789448754,1.245851593956959e-13
-0.9885625,0.03084942910324982,1.300848475513816e-13
-0.9885,0.03084942910324982,1.357949646535318e-13
-0.9884375,0.03076989031201209,1.417223310992681e-13
-0.988375,0.03076989031201209,1.478739485207353e-13
-0.9883125,0.03069035152077437,1.542570035371711e-13
-0.98825,0.03061081272953664,1.608788715621757e-13
-0.9881875,0.03069035152077437,1.677471206666398e-13
-0.988125,0.03061081272953664,1.748695154977938e-13
-0.9880625,0.03053127393829892,1.822540212548376e-13
-0.988,0.03045173514706119,1.899088077216141e-13
-0.9879375,0.03053127393829892,1.978422533567859e-13
-0.9878749999999999,0.03045173514706119,2.060629494419785e-13
-0.9878125,0.03037219635582346,2.145797042883507e-13
-0.98775,0.03045173514706119,2.234015475020535e-13
-0.9876875000000001,0.03037219635582346,2.325377343090414e-13
-0.987625,0.03045173514706119,2.419977499396946e-13
-0.9875625,0.03053127393829892,2.517913140737175e-13
-0.9875,0.03045173514706119,2.619283853457726e-13
-0.9874375,0.03053127393829892,2.724191659123131e-13
-0.987375,0.03045173514706119,2.832741060800755e-13
-0.9873125,0.03061081272953664,2.945039089966937e-13
-0.98725,0.03037219635582346,3.061195354038966e-13
-0.9871875,0.03037219635582346,3.181322084537506e-13
-0.987125,0.03045173514706119,3.305534185884075e-13
-0.9870625,0.03053127393829892,3.433949284838203e-13
-0.987,0.03053127393829892,3.566687780578874e-13
-0.9869375,0.03069035152077437,3.703872895434844e-13
-0.9868749999999999,0.03069035152077437,3.84563072626847e-13
-0.9868125,0.03053127393829892,3.992090296517623e-13
-0.98675,0.03069035152077437,4.143383608900301e-13
-0.9866875000000001,0.03061081272953664,4.299645698786545e-13
-0.986625,0.03061081272953664,4.461014688242229e-13
-0.9865625,0.03069035152077437,4.627631840749331e-13
-0.9865,0.03069035152077437,4.799641616607277e-13
-0.9864375,0.03061081272953664,4.977191729019909e-13
-0.986375,0.03069035152077437,5.160433200872707e-13
-0.9863125,0.03076989031201209,5.349520422204782e-13
-0.98625,0.03069035152077437,5.544611208380253e-13
-0.9861875,0.03069035152077437,5.745866858963551e-13
-0.986125,0.03076989031201209,5.953452217303214e-13
-0.9860625,0.03069035152077437,6.167535730828733e-13
-0.986,0.03084942910324982,6.388289512064986e-13
-0.9859375,0.03076989031201209,6.615889400368816e-13
-0.9858749999999999,0.03084942910324982,6.850515024392276e-13
-0.9858125,0.03084942910324982,7.092349865277103e-13
-0.98575,0.03076989031201209,7.341581320584884e-13
-0.9856875,0.03084942910324982,7.598400768967511e-13
-0.985625,0.03092896789448754,7.863003635582379e-13
-0.9855625,0.03092896789448754,8.13558945825685e-13
-0.9855,0.03092896789448754,8.416361954406473e-13
-0.9854375,0.03092896789448754,8.705529088711473e-13
-0.985375,0.03100850668572527,9.003303141555966e-13
-0.9853125,0.03100850668572527,9.309900778234373e-13
-0.98525,0.03092896789448754,9.625543118929529e-13
-0.9851875,0.03092896789448754,9.950455809466908e-13
-0.985125,0.03092896789448754,1.028486909284943e-12
-0.9850625,0.031088045476963,1.062901788157733e-12
-0.985,0.031088045476963,1.098314183075737e-12
-0.9849375,0.03100850668572527,1.134748541200612e-12
-0.9848749999999999,0.031088045476963,1.172229798815131e-12
-0.9848125,0.03124712305943845,1.210783388873605e-12
-0.98475,0.03116758426820072,1.250435248633001e-12
-0.9846875,0.031088045476963,1.29121182736522e-12
-0.984625,0.03124712305943845,1.333140094150947e-12
-0.9845625,0.03116758426820072,1.376247545755528e-12
-0.9845,0.03132666185067618,1.420562214587305e-12
-0.9844375,0.03132666185067618,1.466112676738834e-12
-0.984375,0.03132666185067618,1.512928060111438e-12
-0.9843125,0.03132666185067618,1.5610380526235e-12
-0.98425,0.03148573943315163,1.610472910502956e-12
-0.9841875,0.03148573943315163,1.661263466664395e-12
-0.984125,0.03140620064191391,1.713441139171208e-12
-0.9840625,0.03148573943315163,1.767037939783204e-12
-0.984,0.03148573943315163,1.822086482590129e-12
-0.9839375,0.03148573943315163,1.878619992731502e-12
-0.9838750000000001,0.03156527822438936,1.936672315203204e-12
-0.9838125,0.03156527822438936,1.996277923751221e-12
-0.98375,0.03156527822438936,2.057471929852997e-12
-0.9836875,0.03148573943315163,2.120290091786774e-12
-0.983625,0.03156527822438936,2.184768823789376e-12
-0.9835625,0.03156527822438936,2.250945205302826e-12
-0.9835,0.03164481701562708,2.31885699031023e-12
-0.9834375,0.03164481701562708,2.388542616761328e-12
-0.983375,0.03172435580686481,2.460041216088137e-12
-0.9833125,0.03180389459810254,2.53339262281109e-12
-0.98325,0.03180389459810254,2.608637384236079e-12
-0.9831875,0.03188343338934026,2.685816770242821e-12
-0.983125,0.03188343338934026,2.764972783164944e-12
-0.9830625,0.03180389459810254,2.846148167762196e-12
-0.983,0.03180389459810254,2.929386421285194e-12
-0.9829375,0.03188343338934026,3.014731803633105e-12
-0.9828750000000001,0.03188343338934026,3.102229347604662e-12
-0.9828125,0.03180389459810254,3.191924869242912e-12
-0.98275,0.03180389459810254,3.283864978274105e-12
-0.9826875,0.03180389459810254,3.378097088641097e-12
-0.982625,0.03180389459810254,3.474669429131691e-12
-0.9825625,0.03188343338934026,3.573631054102284e-12
-0.9825,0.03196297218057799,3.675031854297217e-12
-0.9824375,0.03204251097181571,3.778922567764237e-12
-0.982375,0.03204251097181571,3.88535479086642e-12
-0.9823125,0.03204251097181571,3.994380989390987e-12
-0.98225,0.03204251097181571,4.106054509755349e-12
-0.9821875,0.03204251097181571,4.220429590310813e-12
-0.982125,0.03204251097181571,4.337561372744286e-12
-0.9820624999999999,0.03204251097181571,4.457505913578384e-12
-0.982,0.03196297218057799,4.580320195770312e-12
-0.9819375,0.03196297218057799,4.706062140409892e-12
-0.9818750000000001,0.03196297218057799,4.834790618517116e-12
-0.9818125,0.03204251097181571,4.966565462939589e-12
-0.98175,0.03196297218057799,5.101447480350237e-12
-0.9816875,0.03196297218057799,5.239498463345642e-12
-0.981625,0.03204251097181571,5.380781202645393e-12
-0.9815625,0.03188343338934026,5.525359499392775e-12
-0.9815,0.03196297218057799,5.673298177557193e-12
-0.9814375,0.03196297218057799,5.824663096438687e-12
-0.981375,0.03196297218057799,5.979521163274882e-12
-0.9813125,0.03204251097181571,6.137940345950736e-12
-0.98125,0.03196297218057799,6.299989685811457e-12
-0.9811875,0.03204251097181571,6.465739310578906e-12
-0.981125,0.03204251097181571,6.635260447371873e-12
-0.9810624999999999,0.03196297218057799,6.808625435830559e-12
-0.981,0.03196297218057799,6.985907741345595e-12
-0.9809375,0.03204251097181571,7.167181968391983e-12
-0.9808750000000001,0.03196297218057799,7.352523873968244e-12
-0.9808125,0.03180389459810254,7.542010381141193e-12
-0.98075,0.03196297218057799,7.735719592696577e-12
-0.9806875,0.03188343338934026,7.933730804896018e-12
-0.980625,0.03180389459810254,8.136124521340509e-12
-0.9805625,0.03180389459810254,8.342982466940856e-12
-0.9805,0.03188343338934026,8.554387601995347e-12
-0.9804375,0.03188343338934026,8.770424136375027e-12
-0.980375,0.03180389459810254,8.991177543816858e-12
-0.9803125,0.03188343338934026,9.216734576325109e-12
-0.98025,0.03172435580686481,9.447183278681303e-12
-0.9801875,0.03180389459810254,9.682613003063026e-12
-0.980125,0.03164481701562708,9.923114423771925e-12
-0.9800624999999999,0.03180389459810254,1.016877955207119e-11
-0.98,0.03180389459810254,1.04197017511329e-11
-0.9799375,0.03164481701562708,1.067597575109538e-11
-0.9798750000000001,0.03172435580686481,1.093769766423113e-11
-0.9798125,0.03164481701562708,1.120496500022539e-11
-0.97975,0.03156527822438936,1.147787668156575e-11
-0.9796875,0.03172435580686481,1.175653305904315e-11
-0.979625,0.03164481701562708,1.204103592736447e-11
-0.9795625,0.03156527822438936,1.23314885408771e-11
-0.9795,0.03156527822438936,1.262799562940564e-11
-0.9794375,0.03156527822438936,1.293066341420128e-11
-0.979375,0.03140620064191391,1.323959962400379e-11
-0.9793125,0.03140620064191391,1.355491351121682e-11
-0.97925,0.03140620064191391,1.387671586819634e-11
-0.9791875,0.03148573943315163,1.420511904365301e-11
-0.979125,0.03140620064191391,1.454023695916819e-11
-0.9790624999999999,0.03132666185067618,1.488218512582446e-11
-0.979,0.03132666185067618,1.523108066095041e-11
-0.9789375,0.03124712305943845,1.558704230498029e-11
-0.9788750000000001,0.03132666185067618,1.595019043842869e-11
-0.9788125,0.03124712305943845,1.632064709898048e-11
-0.97875,0.03116758426820072,1.669853599869638e-11
-0.9786875,0.031088045476963,1.708398254133425e-11
-0.978625,0.03100850668572527,1.747711383978657e-11
-0.9785625,0.03092896789448754,1.787805873363419e-11
-0.9785,0.03100850668572527,1.828694780681673e-11
-0.9784375,0.03084942910324982,1.870391340541974e-11
-0.978375,0.03084942910324982,1.912908965557905e-11
-0.9783125,0.03092896789448754,1.956261248150242e-11
-0.97825,0.03076989031201209,2.000461962360872e-11
-0.9781875,0.03069035152077437,2.045525065678506e-11
-0.978125,0.03061081272953664,2.091464700876187e-11
-0.9780624999999999,0.03069035152077437,2.13829519786063e-11
-0.978,0.03061081272953664,2.186031075533417e-11
-0.9779375,0.03069035152077437,2.234687043664074e-11
-0.977875,0.03053127393829892,2.284278004775032e-11
-0.9778125,0.03061081272953664,2.334819056038526e-11
-0.97775,0.03069035152077437,2.386325491185423e-11
-0.9776875,0.03061081272953664,2.438812802426027e-11
-0.977625,0.03053127393829892,2.492296682382863e-11
-0.9775625,0.03061081272953664,2.546793026035473e-11
-0.9775,0.03053127393829892,2.602317932677241e-11
-0.9774375,0.03061081272953664,2.65888770788427e-11
-0.977375,0.03061081272953664,2.716518865496325e-11
-0.9773125,0.03069035152077437,2.775228129609873e-11
-0.97725,0.03061081272953664,2.835032436583229e-11
-0.9771875,0.03069035152077437,2.895948937053836e-11
