Task5_45+8.csv

#Digilent WaveForms Oscilloscope Acquisition
#Device Name: Discovery3
#Serial Number: SN:210415BD63A1
#Date Time: 2026-09-24 10:52:39.426.951.670
#Sample rate: 32000Hz
#Samples: 32000
#Trigger: Source: Channel 1 Type: Edge Condition: Rising Level: 0 V Hyst.: Auto HoldOff: 0 s
#Channel 1: Range: 500 mV/div Offset: 0 V Sample Mode: Average
#Math 1: Input: C1 Reference: Internal Frequency: 20 Hz Phase: 90 ° Filter: IIR Butterworth 8  Low-Pass CutOff: 10 Hz Output: Amplitude

#Wavegen Channel 1: Running
#Mode: Simple
#Type: Sine
#Frequency: 20 Hz
#Period: 50 ms
#Amplitude: 200 mV
#Offset: 0 V
#Symmetry: 50 %
#Phase: 0 °

Time (s),Channel 1 (V),Math 1 (V)
-0.5,0.3520270681211886,3.029500310225631e-25
-0.49996875,0.3520270681211886,5.147099274642882e-24
-0.4999375,0.3520270681211886,4.387291368573343e-23
-0.49990625,0.3521066069124263,2.518613006854124e-22
-0.499875,0.3522656844949018,1.102435629555288e-21
-0.49984375,0.352186145703664,3.94634556349332e-21
-0.4998125,0.352186145703664,1.208869233450222e-20
-0.49978125,0.352186145703664,3.270806965171069e-20
-0.49975,0.3521066069124263,7.999714121007473e-20
-0.49971875,0.3521066069124263,1.799775533157478e-19
-0.4996875,0.3520270681211886,3.775149916969844e-19
-0.49965625,0.352186145703664,7.461323374959516e-19
-0.499625,0.352186145703664,1.401290263841742e-18
-0.49959375,0.352186145703664,2.51787524732408e-18
-0.4995625,0.352186145703664,4.3527048522793e-18
-0.49953125,0.352186145703664,7.272929281887523e-18
-0.4995,0.352186145703664,1.179127658049209e-17
-0.49946875,0.3523452232861395,1.860915652167336e-17
-0.4994375,0.3522656844949018,2.866870513411661e-17
-0.49940625,0.3522656844949018,4.321491800519711e-17
-0.499375,0.352186145703664,6.3869085956903e-17
-0.49934375,0.352186145703664,9.271481140788308e-17
-0.4993125,0.3522656844949018,1.323979477241126e-16
-0.49928125,0.3523452232861395,1.862418671282535e-16
-0.49925,0.3524247620773772,2.583795252914103e-16
-0.49921875,0.3524247620773772,3.539038525731223e-16
-0.4991875,0.3524247620773772,4.790380630057164e-16
-0.49915625,0.3523452232861395,6.413275325379555e-16
-0.499125,0.3523452232861395,8.498549577640951e-16
-0.49909375,0.3524247620773772,1.11548056537438e-15
-0.4990625,0.3523452232861395,1.451109200877369e-15
-0.49903125,0.3523452232861395,1.871986182766332e-15
-0.499,0.352504300868615,2.396023865232639e-15
-0.49896875,0.3523452232861395,3.044160908769971e-15
-0.4989375,0.3524247620773772,3.840756313566099e-15
-0.49890625,0.3524247620773772,4.81402032544577e-15
-0.498875,0.3523452232861395,5.996484378311987e-15
-0.49884375,0.3522656844949018,7.425512290538323e-15
-0.4988125,0.3523452232861395,9.143854985597053e-15
-0.49878125,0.352504300868615,1.120025105937019e-14
-0.49875,0.3524247620773772,1.365007556808496e-14
-0.49871875,0.352504300868615,1.655603946164245e-14
-0.4986875,0.3523452232861395,1.998894213726926e-14
-0.49865625,0.3524247620773772,2.402847963791891e-14
-0.498625,0.3527429172423281,2.876411106868588e-14
-0.49859375,0.3525838396598527,3.429598585267424e-14
-0.4985625,0.352504300868615,4.073593449528957e-14
-0.49853125,0.3525838396598527,4.820852557280357e-14
-0.4985,0.3527429172423281,5.685219170728466e-14
-0.49846875,0.3526633784510904,6.68204273356001e-14
-0.4984375,0.352504300868615,7.828306112517787e-14
-0.49840625,0.3525838396598527,9.142760593356974e-14
-0.498375,0.3526633784510904,1.064606892525815e-13
-0.49834375,0.3526633784510904,1.236095671208318e-13
-0.4983125,0.3527429172423281,1.431237245310731e-13
-0.49828125,0.3526633784510904,1.65276565400458e-13
-0.49825,0.3526633784510904,1.903671952131657e-13
-0.49821875,0.3526633784510904,2.187222994854227e-13
-0.4981875,0.3526633784510904,2.50698121242961e-13
-0.49815625,0.3526633784510904,2.866825407403552e-13
-0.498125,0.3525838396598527,3.2709726069048e-13
-0.49809375,0.3527429172423281,3.724001003105167e-13
-0.4980625,0.3527429172423281,4.230874015285299e-13
-0.49803125,0.3528224560335659,4.796965507316228e-13
-0.498,0.3527429172423281,5.428086194730748e-13
-0.49796875,0.3529019948248036,6.130511275916557e-13
-0.4979375,0.3526633784510904,6.911009322315251e-13
-0.49790625,0.3528224560335659,7.776872462857414e-13
-0.497875,0.3528224560335659,8.73594789820437e-13
-0.49784375,0.3528224560335659,9.796670780701927e-13
-0.4978125,0.3529019948248036,1.096809849628006e-12
-0.49778125,0.3528224560335659,1.225994638485583e-12
-0.49775,0.3529019948248036,1.368262493611407e-12
-0.49771875,0.3529019948248036,1.524727849785219e-12
-0.4976875,0.3527429172423281,1.696582553438164e-12
-0.49765625,0.353061072407279,1.885100047277875e-12
-0.497625,0.3526633784510904,2.091639717507283e-12
-0.49759375,0.3526633784510904,2.317651407474851e-12
-0.4975625,0.3526633784510904,2.564680101622305e-12
-0.49753125,0.3529019948248036,2.834370783623783e-12
-0.4975,0.3528224560335659,3.128473472637564e-12
-0.49746875,0.3527429172423281,3.448848441618315e-12
-0.4974375,0.3527429172423281,3.797471621663954e-12
-0.49740625,0.3528224560335659,4.176440196396911e-12
-0.497375,0.3529019948248036,4.58797839040466e-12
-0.49734375,0.3529019948248036,5.034443455788953e-12
-0.4973125,0.3528224560335659,5.518331860897288e-12
-0.49728125,0.3528224560335659,6.042285685333541e-12
-0.49725,0.3529019948248036,6.609099225367787e-12
-0.49721875,0.3528224560335659,7.221725813887706e-12
-0.4971875,0.3528224560335659,7.88328485905598e-12
-0.49715625,0.3528224560335659,8.597069105859448e-12
-0.497125,0.3528224560335659,9.366552124756738e-12
-0.49709375,0.3528224560335659,1.019539603165147e-11
-0.4970625,0.3529019948248036,1.108745944343802e-11
-0.49703125,0.3529019948248036,1.20468056733862e-11
-0.497,0.3528224560335659,1.307771117065015e-11
-0.49696875,0.3527429172423281,1.418467420820497e-11
-0.4969375,0.3528224560335659,1.537242382353282e-11
-0.49690625,0.3529019948248036,1.664592901639723e-11
-0.496875,0.3527429172423281,1.80104082080616e-11
-0.49684375,0.3528224560335659,1.947133896632397e-11
-0.4968125,0.3528224560335659,2.103446800075645e-11
-0.49678125,0.3528224560335659,2.270582143255272e-11
-0.49675,0.3529019948248036,2.449171534340222e-11
-0.49671875,0.3527429172423281,2.639876660782414e-11
-0.4966875,0.3527429172423281,2.843390401340816e-11
-0.49665625,0.3528224560335659,3.060437967342264e-11
-0.496625,0.3528224560335659,3.291778073626387e-11
-0.49659375,0.3526633784510904,3.538204139623272e-11
-0.4965625,0.3527429172423281,3.800545521013705e-11
-0.49653125,0.3527429172423281,4.079668772422998e-11
-0.4965,0.3527429172423281,4.376478941600557e-11
-0.49646875,0.3527429172423281,4.691920895538371e-11
-0.4964375,0.3528224560335659,5.026980678982699e-11
-0.49640625,0.3525838396598527,5.382686905794144e-11
-0.496375,0.3527429172423281,5.760112183612328e-11
-0.49634375,0.3529019948248036,6.160374572282194e-11
-0.4963125,0.3528224560335659,6.584639076499874e-11
-0.49628125,0.3526633784510904,7.034119173136861e-11
-0.49625,0.3526633784510904,7.510078373701958e-11
-0.49621875,0.3526633784510904,8.013831822401238e-11
-0.4961875,0.3527429172423281,8.546747930256922e-11
-0.49615625,0.3527429172423281,9.110250045746686e-11
-0.496125,0.3527429172423281,9.70581816242554e-11
-0.49609375,0.3527429172423281,1.033499066399293e-10
-0.4960625,0.3525838396598527,1.099936610726828e-10
-0.49603125,0.3527429172423281,1.170060504353856e-10
-0.496,0.3526633784510904,1.244043187874204e-10
-0.49596875,0.3527429172423281,1.322063677295255e-10
-0.4959375,0.3527429172423281,1.404307757962921e-10
-0.49590625,0.3526633784510904,1.49096818250966e-10
-0.495875,0.3527429172423281,1.582244872872076e-10
-0.49584375,0.3526633784510904,1.678345126424664e-10
-0.4958125,0.3526633784510904,1.779483826276281e-10
-0.49578125,0.3525838396598527,1.885883655775906e-10
-0.49575,0.3526633784510904,1.99777531727434e-10
-0.49571875,0.3526633784510904,2.115397755188395e-10
-0.4956875,0.3525838396598527,2.238998383414224e-10
-0.49565625,0.3526633784510904,2.368833317136378e-10
-0.495625,0.3525838396598527,2.5051676090792e-10
-0.49559375,0.352504300868615,2.648275490247146e-10
-0.4955625,0.352504300868615,2.798440615200609e-10
-0.49553125,0.352504300868615,2.955956311913831e-10
-0.4955,0.3524247620773772,3.121125836261402e-10
-0.49546875,0.3523452232861395,3.29426263117993e-10
-0.4954375,0.352504300868615,3.475690590551303e-10
-0.49540625,0.3524247620773772,3.665744327854051e-10
-0.495375,0.3525838396598527,3.864769449629227e-10
-0.49534375,0.352504300868615,4.073122833807165e-10
-0.4953125,0.352504300868615,4.291172912941501e-10
-0.49528125,0.352504300868615,4.519299962396719e-10
-0.49525,0.352504300868615,4.757896393535491e-10
-0.49521875,0.3524247620773772,5.007367051952002e-10
-0.4951875,0.352504300868615,5.268129520797401e-10
-0.49515625,0.3524247620773772,5.540614429243445e-10
-0.495125,0.352504300868615,5.825265766130388e-10
-0.49509375,0.3524247620773772,6.122541198845005e-10
-0.4950625,0.352504300868615,6.432912397474699e-10
-0.49503125,0.3524247620773772,6.756865364283435e-10
-0.495,0.3524247620773772,7.094900768555272e-10
-0.49496875,0.3524247620773772,7.447534286851124e-10
-0.4949375,0.3523452232861395,7.815296948724321e-10
-0.49490625,0.3523452232861395,8.19873548794043e-10
-0.494875,0.3523452232861395,8.598412699246763e-10
-0.49484375,0.3522656844949018,9.014907800736819e-10
-0.4948125,0.3522656844949018,9.44881680185489e-10
-0.49478125,0.3523452232861395,9.900752877085948e-10
-0.49475,0.3522656844949018,1.037134674537572e-09
-0.49471875,0.3522656844949018,1.086124705532599e-09
-0.4946875,0.3522656844949018,1.137112077620972e-09
-0.49465625,0.3522656844949018,1.190165359485089e-09
-0.494625,0.3522656844949018,1.245355031841336e-09
-0.49459375,0.352186145703664,1.302753528314342e-09
-0.4945625,0.352186145703664,1.362435276911012e-09
-0.49453125,0.352186145703664,1.424476742098782e-09
-0.4945,0.3522656844949018,1.488956467492478e-09
-0.49446875,0.3520270681211886,1.555955119154195e-09
-0.4944375,0.352186145703664,1.625555529510548e-09
-0.49440625,0.352186145703664,1.697842741891694e-09
-0.494375,0.3521066069124263,1.772904055696457e-09
-0.49434375,0.352186145703664,1.850829072187891e-09
-0.4943125,0.3520270681211886,1.931709740923627e-09
-0.49428125,0.3520270681211886,2.015640406825284e-09
-0.49425,0.3519475293299509,2.102717857891265e-09
-0.49421875,0.3519475293299509,2.193041373557197e-09
-0.4941875,0.3519475293299509,2.286712773708293e-09
-0.49415625,0.3519475293299509,2.38383646834787e-09
-0.494125,0.3518679905387131,2.484519507926262e-09
-0.49409375,0.3519475293299509,2.588871634334349e-09
-0.4940625,0.3518679905387131,2.697005332565882e-09
-0.49403125,0.3517884517474754,2.809035883052804e-09
-0.494,0.3517884517474754,2.925081414677725e-09
-0.49396875,0.3518679905387131,3.045262958467685e-09
-0.4939375,0.3517884517474754,3.169704501973358e-09
-0.49390625,0.3517884517474754,3.298533044337786e-09
-0.493875,0.3518679905387131,3.431878652058752e-09
-0.49384375,0.3518679905387131,3.569874515448854e-09
-0.4938125,0.351629374165,3.712657005797343e-09
-0.49378125,0.3517089129562377,3.860365733237756e-09
-0.49375,0.3517089129562377,4.013143605325371e-09
-0.49371875,0.351629374165,4.17113688632847e-09
-0.4936875,0.351629374165,4.334495257237399e-09
-0.49365625,0.3517089129562377,4.503371876495369e-09
-0.493625,0.351629374165,4.677923441454958e-09
-0.49359375,0.351629374165,4.858310250564209e-09
-0.4935625,0.351629374165,5.044696266286236e-09
-0.49353125,0.351629374165,5.237249178756202e-09
-0.4935,0.3515498353737622,5.436140470179544e-09
-0.49346875,0.351629374165,5.641545479975254e-09
-0.4934375,0.3517089129562377,5.85364347066805e-09
-0.49340625,0.351629374165,6.072617694533207e-09
-0.493375,0.3513907577912868,6.298655460997827e-09
-0.49334375,0.3513907577912868,6.531948204802315e-09
-0.4933125,0.3514702965825245,6.772691554925727e-09
-0.49328125,0.3514702965825245,7.021085404278766e-09
-0.49325,0.3515498353737622,7.27733398016803e-09
-0.49321875,0.351629374165,7.541645915535235e-09
-0.4931875,0.3514702965825245,7.814234320974981e-09
-0.49315625,0.3514702965825245,8.09531685753473e-09
-0.493125,0.3515498353737622,8.385115810300532e-09
-0.49309375,0.3512316802088113,8.683858162772081e-09
-0.4930625,0.3512316802088113,8.991775672030638e-09
-0.49303125,0.3513112190000491,9.309104944703316e-09
-0.493,0.3512316802088113,9.636087513727267e-09
-0.49296875,0.3513907577912868,9.972969915917142e-09
-0.4929375,0.3513112190000491,1.032000377033936e-08
-0.49290625,0.3513112190000491,1.067744585749652e-08
-0.492875,0.3513112190000491,1.10455581993254e-08
-0.49284375,0.3513907577912868,1.142460814001185e-08
-0.4928125,0.3513907577912868,1.1814868427626e-08
-0.49278125,0.3512316802088113,1.2216617296581e-08
-0.49275,0.3512316802088113,1.26301385509186e-08
-0.49271875,0.3511521414175736,1.305572164842488e-08
-0.4926875,0.3511521414175736,1.349366178557936e-08
-0.49265625,0.3511521414175736,1.394425998334052e-08
-0.492625,0.3512316802088113,1.440782317377123e-08
-0.49259375,0.3512316802088113,1.488466428750692e-08
-0.4925625,0.3513112190000491,1.537510234206982e-08
-0.49253125,0.3513112190000491,1.587946253103231e-08
-0.4925,0.3513112190000491,1.639807631403234e-08
-0.49246875,0.3512316802088113,1.693128150764425e-08
-0.4924375,0.3512316802088113,1.74794223771076e-08
-0.49240625,0.3512316802088113,1.804284972891736e-08
-0.492375,0.3513112190000491,1.862192100427822e-08
-0.49234375,0.3513112190000491,1.921700037342597e-08
-0.4923125,0.3512316802088113,1.982845883081895e-08
-0.49228125,0.3513112190000491,2.045667429120228e-08
-0.49225,0.3513112190000491,2.110203168654789e-08
-0.49221875,0.3513112190000491,2.176492306387305e-08
-0.4921875,0.3512316802088113,2.244574768394014e-08
-0.49215625,0.3511521414175736,2.314491212084065e-08
-0.492125,0.3512316802088113,2.386283036246583e-08
-0.49209375,0.3511521414175736,2.45999239118669e-08
-0.4920625,0.3512316802088113,2.535662188950745e-08
-0.49203125,0.3513112190000491,2.613336113641056e-08
-0.492,0.3513112190000491,2.693058631820342e-08
-0.49196875,0.3512316802088113,2.77487500300619e-08
-0.4919375,0.3511521414175736,2.858831290255763e-08
-0.49190625,0.3511521414175736,2.944974370841016e-08
-0.491875,0.3513907577912868,3.03335194701467e-08
-0.49184375,0.3511521414175736,3.124012556867179e-08
-0.4918125,0.3512316802088113,3.21700558527494e-08
-0.49178125,0.3513907577912868,3.312381274939993e-08
-0.49175,0.3513112190000491,3.410190737521427e-08
-0.49171875,0.3513112190000491,3.510485964858749e-08
-0.4916875,0.3513112190000491,3.613319840287427e-08
-0.49165625,0.3513907577912868,3.718746150046846e-08
-0.491625,0.3514702965825245,3.826819594780891e-08
-0.49159375,0.3513907577912868,3.937595801131391e-08
-0.4915625,0.3513112190000491,4.05113133342463e-08
-0.49153125,0.3513112190000491,4.167483705451137e-08
-0.4915,0.3513907577912868,4.286711392338991e-08
-0.49146875,0.3514702965825245,4.408873842520806e-08
-0.4914375,0.3515498353737622,4.534031489794638e-08
-0.49140625,0.3514702965825245,4.662245765479007e-08
-0.491375,0.3515498353737622,4.793579110662221e-08
-0.49134375,0.3513907577912868,4.928094988546199e-08
-0.4913125,0.3513112190000491,5.065857896885001e-08
-0.49128125,0.3513112190000491,5.206933380518234e-08
-0.49125,0.3513907577912868,5.351388043999532e-08
-0.49121875,0.3513907577912868,5.499289564320286e-08
-0.4911875,0.3513907577912868,5.650706703728794e-08
-0.49115625,0.3514702965825245,5.805709322645039e-08
-0.491125,0.351629374165,5.964368392671215e-08
-0.49109375,0.3517089129562377,6.126756009698225e-08
-0.4910625,0.3515498353737622,6.292945407108277e-08
-0.49103125,0.3515498353737622,6.463010969073741e-08
-0.491,0.3514702965825245,6.637028243952474e-08
-0.49096875,0.3515498353737622,6.815073957779694e-08
-0.4909375,0.3514702965825245,6.99722602785661e-08
-0.49090625,0.3515498353737622,7.183563576435935e-08
-0.490875,0.3515498353737622,7.374166944504445e-08
-0.49084375,0.3515498353737622,7.569117705662686e-08
-0.4908125,0.3514702965825245,7.768498680102012e-08
-0.49078125,0.351629374165,7.97239394867908e-08
-0.49075,0.351629374165,8.180888867087887e-08
-0.49071875,0.351629374165,8.394070080129553e-08
-0.4906875,0.351629374165,8.612025536079913e-08
-0.49065625,0.3517089129562377,8.834844501155064e-08
-0.490625,0.3515498353737622,9.062617574074993e-08
-0.49059375,0.3517089129562377,9.295436700725383e-08
-0.4905625,0.3517089129562377,9.533395188917699e-08
-0.49053125,0.3517089129562377,9.776587723247704e-08
-0.4905,0.3517089129562377,1.002511038005247e-07
-0.49046875,0.3517089129562377,1.027906064246599e-07
-0.4904375,0.3518679905387131,1.053853741557348e-07
-0.49040625,0.3517089129562377,1.080364104166453e-07
-0.490375,0.351629374165,1.107447331558509e-07
-0.49034375,0.3517884517474754,1.135113750018842e-07
-0.4903125,0.351629374165,1.163373834188518e-07
-0.49028125,0.3517089129562377,1.192238208629254e-07
-0.49025,0.3518679905387131,1.221717649398262e-07
-0.49021875,0.3518679905387131,1.251823085633006e-07
-0.4901875,0.3518679905387131,1.282565601145915e-07
-0.49015625,0.3518679905387131,1.313956436029016e-07
-0.490125,0.3517089129562377,1.346006988268533e-07
-0.49009375,0.3517089129562377,1.378728815369424e-07
-0.4900625,0.3518679905387131,1.412133635989893e-07
-0.49003125,0.351629374165,1.446233331585851e-07
-0.49,0.3518679905387131,1.481039948065359e-07
-0.48996875,0.3517884517474754,1.516565697453034e-07
-0.4899375,0.3517884517474754,1.55282295956444e-07
-0.48990625,0.3518679905387131,1.589824283690457e-07
-0.489875,0.3518679905387131,1.627582390291631e-07
-0.48984375,0.3517884517474754,1.66611017270252e-07
-0.4898125,0.3517884517474754,1.705420698846021e-07
-0.48978125,0.3517884517474754,1.745527212957694e-07
-0.48975,0.3518679905387131,1.786443137320079e-07
-0.48971875,0.3518679905387131,1.82818207400701e-07
-0.4896875,0.3517884517474754,1.87075780663792e-07
-0.48965625,0.3518679905387131,1.914184302142156e-07
-0.489625,0.3518679905387131,1.958475712533275e-07
-0.48959375,0.3518679905387131,2.003646376693352e-07
-0.4895625,0.3518679905387131,2.049710822167281e-07
-0.48953125,0.3519475293299509,2.096683766967069e-07
-0.4895,0.3520270681211886,2.144580121386135e-07
-0.48946875,0.3518679905387131,2.193414989823593e-07
-0.4894375,0.3518679905387131,2.243203672618541e-07
-0.48940625,0.3519475293299509,2.293961667894327e-07
-0.489375,0.3519475293299509,2.345704673412814e-07
-0.48934375,0.3518679905387131,2.398448588438625e-07
-0.4893125,0.3519475293299509,2.452209515613374e-07
-0.48928125,0.3520270681211886,2.507003762839875e-07
-0.48925,0.3519475293299509,2.562847845176323e-07
-0.48921875,0.3519475293299509,2.619758486740447e-07
-0.4891875,0.3521066069124263,2.677752622623637e-07
-0.48915625,0.3520270681211886,2.736847400815021e-07
-0.489125,0.3520270681211886,2.7970601841355e-07
-0.48909375,0.3519475293299509,2.858408552181741e-07
-0.4890625,0.3521066069124263,2.920910303280106e-07
-0.48903125,0.3522656844949018,2.984583456450521e-07
-0.489,0.3521066069124263,3.049446253380272e-07
-0.48896875,0.3520270681211886,3.11551716040774e-07
-0.4889375,0.352186145703664,3.182814870516029e-07
-0.48890625,0.352186145703664,3.251358305336519e-07
-0.488875,0.3521066069124263,3.321166617162314e-07
-0.48884375,0.3521066069124263,3.392259190971583e-07
-0.4888125,0.3521066069124263,3.464655646460775e-07
-0.48878125,0.3521066069124263,3.538375840087717e-07
-0.48875,0.352186145703664,3.613439867124578e-07
-0.48871875,0.3522656844949018,3.689868063720671e-07
-0.4886875,0.3522656844949018,3.767681008975112e-07
-0.48865625,0.3521066069124263,3.846899527019302e-07
-0.488625,0.352186145703664,3.927544689109239e-07
-0.48859375,0.352186145703664,4.00963781572763e-07
-0.4885625,0.3522656844949018,4.093200478695806e-07
-0.48853125,0.3522656844949018,4.17825450329542e-07
-0.4885,0.352186145703664,4.26482197039992e-07
-0.48846875,0.3523452232861395,4.352925218615777e-07
-0.4884375,0.3522656844949018,4.442586846433466e-07
-0.48840625,0.352186145703664,4.53382971438817e-07
-0.488375,0.3522656844949018,4.626676947230216e-07
-0.48834375,0.352186145703664,4.721151936105199e-07
-0.4883125,0.352186145703664,4.817278340743811e-07
