Task6_Horizontal_20Hz_200mV_10%.csv

#Digilent WaveForms Oscilloscope Acquisition
#Device Name: Discovery3
#Serial Number: SN:210415BD63A1
#Date Time: 2026-09-24 11:27:48.787.649.050
#Sample rate: 16000Hz
#Samples: 32000
#Trigger: Source: Channel 1 Type: Edge Condition: Rising Level: 0 V Hyst.: Auto HoldOff: 0 s
#Channel 1: Range: 50 mV/div Offset: 0 V Sample Mode: Average
#Math 1: Input: C1 Reference: Internal Frequency: 20 Hz Phase: 90 ° Filter: IIR Butterworth 8  Low-Pass CutOff: 2 Hz Output: Amplitude

#Wavegen Channel 1: Running
#Mode: Simple
#Type: Sine
#Frequency: 20 Hz
#Period: 50 ms
#Amplitude: 200 mV
#Offset: 0 V
#Symmetry: 50 %
#Phase: 0 °

Time (s),Channel 1 (V),Math 1 (V)
-1,0.0356217565775134,2.015064922316828e-29
-0.9999375,0.03570129536875112,3.424793290173987e-28
-0.999875,0.0356217565775134,2.920417939492379e-27
-0.9998125,0.0356217565775134,1.677288387769657e-26
-0.99975,0.03570129536875112,7.345401737384673e-26
-0.9996875,0.03570129536875112,2.630803948592946e-25
-0.999625,0.03578083415998885,8.063354459410666e-25
-0.9995625,0.03570129536875112,2.182950153912911e-24
-0.9995000000000001,0.03570129536875112,5.342238739232321e-24
-0.9994375,0.0356217565775134,1.2026328609306e-23
-0.999375,0.0356217565775134,2.524176556899138e-23
-0.9993125,0.03570129536875112,4.992019792676209e-23
-0.99925,0.03570129536875112,9.381384704242098e-23
-0.9991875,0.03570129536875112,1.686764575180881e-22
-0.999125,0.03570129536875112,2.917853875249089e-22
-0.9990625,0.0356217565775134,4.878654482150521e-22
-0.999,0.03578083415998885,7.914800303260019e-22
-0.9989375,0.03570129536875112,1.249959965032267e-21
-0.998875,0.03570129536875112,1.926945453128973e-21
-0.9988125,0.03570129536875112,2.906621260484811e-21
-0.99875,0.03570129536875112,4.298730219534367e-21
-0.9986875,0.03570129536875112,6.244454899906728e-21
-0.998625,0.03586037295122658,8.92326211938687e-21
-0.9985625,0.03578083415998885,1.256080975942745e-20
-0.9985000000000001,0.03578083415998885,1.743802012400352e-20
-0.9984375,0.03586037295122658,2.390142883292918e-20
-0.998375,0.03578083415998885,3.237492296997761e-20
-0.9983125,0.0359399117424643,4.337298691377034e-20
-0.99825,0.0359399117424643,5.751557896565145e-20
-0.9981875,0.03586037295122658,7.554476655137792e-20
-0.998125,0.0359399117424643,9.834325241110806e-20
-0.9980625,0.03586037295122658,1.269549288071926e-19
-0.998,0.03586037295122658,1.626076013750184e-19
-0.9979375,0.0359399117424643,2.067380288187487e-19
-0.997875,0.03586037295122658,2.610194292083796e-19
-0.9978125,0.0359399117424643,3.273916081650036e-19
-0.99775,0.0359399117424643,4.080938687284217e-19
-0.9976874999999999,0.03609898932493975,5.057008671878452e-19
-0.997625,0.0359399117424643,6.231615836245505e-19
-0.9975625,0.03609898932493975,7.638415803655937e-19
-0.9975000000000001,0.03609898932493975,9.315687259787569e-19
-0.9974375,0.0359399117424643,1.130682566848571e-18
-0.997375,0.03609898932493975,1.366087532759974e-18
-0.9973125,0.03609898932493975,1.643310167279882e-18
-0.99725,0.03609898932493975,1.968560578068601e-18
-0.9971875,0.03617852811617748,2.348798306574081e-18
-0.997125,0.03625806690741521,2.791802820862603e-18
-0.9970625,0.03617852811617748,3.306248839618364e-18
-0.997,0.03625806690741521,3.901786699599014e-18
-0.9969375,0.03625806690741521,4.589127983062392e-18
-0.996875,0.03625806690741521,5.380136625880604e-18
-0.9968125,0.03625806690741521,6.287925731233501e-18
-0.99675,0.03625806690741521,7.326960317928866e-18
-0.9966874999999999,0.03625806690741521,8.513166236533989e-18
-0.996625,0.03633760569865294,9.864045490622223e-18
-0.9965625,0.03625806690741521,1.139879820453537e-17
-0.9965000000000001,0.03625806690741521,1.313845148313624e-17
-0.9964375,0.03641714448989066,1.510599541307448e-17
-0.996375,0.03641714448989066,1.732652645911342e-17
-0.9963125,0.03641714448989066,1.982739851306598e-17
-0.99625,0.03641714448989066,2.263838185686528e-17
-0.9961875,0.03649668328112839,2.579183030525121e-17
-0.996125,0.03657622207236611,2.932285679748839e-17
-0.9960625,0.03641714448989066,3.326951771144359e-17
-0.996,0.03657622207236611,3.767300617723773e-17
-0.9959375,0.03657622207236611,4.257785467154813e-17
-0.995875,0.03657622207236611,4.803214717746994e-17
-0.9958125,0.03649668328112839,5.408774119865464e-17
-0.99575,0.03665576086360384,6.080049992022638e-17
-0.9956874999999999,0.03657622207236611,6.823053481273462e-17
-0.995625,0.03657622207236611,7.644245897912952e-17
-0.9955625,0.03657622207236611,8.550565154844555e-17
-0.9955000000000001,0.03657622207236611,9.549453342355032e-17
-0.9954375,0.03665576086360384,1.064888546939632e-16
-0.995375,0.03665576086360384,1.1857399402837e-16
-0.9953125,0.03665576086360384,1.318412703650533e-16
-0.99525,0.03673529965484157,1.463882672220249e-16
-0.9951875,0.03657622207236611,1.623191699521824e-16
-0.995125,0.03665576086360384,1.797451162723223e-16
-0.9950625,0.03665576086360384,1.987845603983261e-16
-0.995,0.03665576086360384,2.195636511222917e-16
-0.9949375,0.03665576086360384,2.42216624170814e-16
-0.994875,0.03665576086360384,2.668862091870236e-16
-0.9948125,0.03673529965484157,2.937240516823703e-16
-0.99475,0.03665576086360384,3.228911503074915e-16
-0.9946874999999999,0.03673529965484157,3.545583097948329e-16
-0.994625,0.03673529965484157,3.88906609928983e-16
-0.9945625,0.03673529965484157,4.261278909039551e-16
-0.9945000000000001,0.03673529965484157,4.664252554298842e-16
-0.9944375,0.03665576086360384,5.100135879548199e-16
-0.994375,0.03681483844607929,5.571200913704745e-16
-0.9943125,0.03673529965484157,6.079848415739426e-16
-0.99425,0.03673529965484157,6.628613602605341e-16
-0.9941875,0.03673529965484157,7.22017206325971e-16
-0.994125,0.03657622207236611,7.857345862592662e-16
-0.9940625,0.03665576086360384,8.543109839106494e-16
-0.994,0.03665576086360384,9.28059810021923e-16
-0.9939375,0.03665576086360384,1.007311071909611e-15
-0.993875,0.03657622207236611,1.092412063694228e-15
-0.9938125,0.03657622207236611,1.183728077471913e-15
-0.99375,0.03665576086360384,1.281643135827554e-15
-0.9936874999999999,0.03657622207236611,1.38656074609141e-15
-0.993625,0.03641714448989066,1.498904676744053e-15
-0.9935625,0.03657622207236611,1.619119756377254e-15
-0.9935,0.03657622207236611,1.747672695621216e-15
-0.9934375,0.03649668328112839,1.885052932451307e-15
-0.993375,0.03649668328112839,2.031773501290111e-15
-0.9933125,0.03649668328112839,2.188371926323372e-15
-0.99325,0.03649668328112839,2.355411139450971e-15
-0.9931875,0.03641714448989066,2.53348042329675e-15
-0.993125,0.03633760569865294,2.723196379703564e-15
-0.9930625,0.03641714448989066,2.925203924142489e-15
-0.993,0.03633760569865294,3.140177306467644e-15
-0.9929375,0.03625806690741521,3.368821158450584e-15
-0.992875,0.03633760569865294,3.611871568530686e-15
-0.9928125,0.03625806690741521,3.870097184220341e-15
-0.99275,0.03641714448989066,4.144300342606247e-15
-0.9926874999999999,0.03633760569865294,4.435318229390352e-15
-0.992625,0.03617852811617748,4.744024066916431e-15
-0.9925625,0.03617852811617748,5.071328331630531e-15
-0.9925,0.03617852811617748,5.418180001425789e-15
-0.9924375,0.03617852811617748,5.785567833324418e-15
-0.992375,0.03625806690741521,6.174521671951831e-15
-0.9923125,0.03617852811617748,6.586113789260065e-15
-0.99225,0.03601945053370203,7.021460255959835e-15
-0.9921875,0.03617852811617748,7.481722345122657e-15
-0.992125,0.03617852811617748,7.968107968416589e-15
-0.9920625,0.03617852811617748,8.481873145441169e-15
-0.992,0.03609898932493975,9.024323506629191e-15
-0.9919375,0.03601945053370203,9.596815830184853e-15
-0.991875,0.03601945053370203,1.020075961352992e-14
-0.9918125,0.03586037295122658,1.083761867973131e-14
-0.99175,0.0359399117424643,1.15089128193855e-14
-0.9916875000000001,0.03570129536875112,1.221621946843696e-14
-0.991625,0.03578083415998885,1.296117542240972e-14
-0.9915625,0.03570129536875112,1.374547858753286e-14
-0.9915,0.0356217565775134,1.457088976924259e-14
-0.9914375,0.03570129536875112,1.543923449854522e-14
-0.991375,0.03570129536875112,1.63524048967271e-14
-0.9913125,0.0356217565775134,1.731236157889931e-14
-0.99125,0.0356217565775134,1.832113559686628e-14
-0.9911875,0.03554221778627567,1.938083042180954e-14
-0.991125,0.03538314020380022,2.049362396727888e-14
-0.9910625,0.03546267899503795,2.166177065298522e-14
-0.991,0.03538314020380022,2.288760350989065e-14
-0.9909375,0.03538314020380022,2.41735363270928e-14
-0.990875,0.03538314020380022,2.552206584100206e-14
-0.9908125,0.03538314020380022,2.693577396731165e-14
-0.99075,0.03538314020380022,2.841733007626193e-14
-0.9906875000000001,0.03538314020380022,2.996949331170174e-14
-0.990625,0.0353036014125625,3.159511495445077e-14
-0.9905625,0.0353036014125625,3.32971408304686e-14
-0.9905,0.0353036014125625,3.50786137643369e-14
-0.9904375,0.03538314020380022,3.694267607856306e-14
-0.990375,0.03538314020380022,3.889257213921412e-14
-0.9903125,0.03554221778627567,4.093165094839181e-14
-0.99025,0.03554221778627567,4.306336878406016e-14
-0.9901875,0.03546267899503795,4.529129188773836e-14
-0.990125,0.03546267899503795,4.761909920057299e-14
-0.9900625,0.03538314020380022,5.005058514830451e-14
-0.99,0.03546267899503795,5.258966247564416e-14
-0.9899375,0.03546267899503795,5.524036513057817e-14
-0.9898749999999999,0.03546267899503795,5.800685119911785e-14
-0.9898125,0.03546267899503795,6.089340589101425e-14
-0.98975,0.03554221778627567,6.390444457695771e-14
-0.9896875000000001,0.03554221778627567,6.704451587778326e-14
-0.989625,0.03554221778627567,7.031830480620378e-14
-0.9895625,0.03546267899503795,7.37306359615936e-14
-0.9895,0.03554221778627567,7.72864767783465e-14
-0.9894375,0.0356217565775134,8.099094082833207e-14
-0.989375,0.0356217565775134,8.484929117797622e-14
-0.9893125,0.0356217565775134,8.886694380049142e-14
-0.98925,0.0356217565775134,9.304947104378368e-14
-0.9891875,0.0356217565775134,9.740260515456374e-14
-0.989125,0.0356217565775134,1.019322418591904e-13
-0.9890625,0.0356217565775134,1.066444440017755e-13
-0.989,0.03570129536875112,1.115454452400784e-13
-0.9889375,0.03570129536875112,1.166416537997228e-13
-0.9888749999999999,0.03578083415998885,1.219396562872632e-13
-0.9888125,0.03578083415998885,1.274462215626354e-13
-0.98875,0.03586037295122658,1.331683046715199e-13
-0.9886875000000001,0.03578083415998885,1.391130508381532e-13
-0.988625,0.03578083415998885,1.452877995191171e-13
-0.9885625,0.03578083415998885,1.517000885186408e-13
-0.9885,0.03586037295122658,1.583576581659495e-13
-0.9884375,0.03578083415998885,1.65268455555192e-13
-0.988375,0.03586037295122658,1.724406388484826e-13
-0.9883125,0.03586037295122658,1.798825816425921e-13
-0.98825,0.03601945053370203,1.876028773998224e-13
-0.9881875,0.0359399117424643,1.956103439436003e-13
-0.988125,0.0359399117424643,2.039140280193251e-13
-0.9880625,0.0359399117424643,2.125232099210069e-13
-0.988,0.03601945053370203,2.214474081842309e-13
-0.9879375,0.03601945053370203,2.306963843459842e-13
-0.9878749999999999,0.03601945053370203,2.402801477718799e-13
-0.9878125,0.03609898932493975,2.502089605513175e-13
-0.98775,0.03609898932493975,2.604933424611135e-13
-0.9876875000000001,0.03617852811617748,2.711440759981404e-13
-0.987625,0.03609898932493975,2.821722114815096e-13
-0.9875625,0.03609898932493975,2.935890722248362e-13
-0.9875,0.03617852811617748,3.054062597791203e-13
-0.9874375,0.03617852811617748,3.176356592467837e-13
-0.987375,0.03625806690741521,3.302894446673966e-13
-0.9873125,0.03625806690741521,3.433800844756318e-13
-0.98725,0.03625806690741521,3.569203470319817e-13
-0.9871875,0.03617852811617748,3.709233062267766e-13
-0.987125,0.03633760569865294,3.85402347158037e-13
-0.9870625,0.03633760569865294,4.003711718836981e-13
-0.987,0.03641714448989066,4.158438052487417e-13
-0.9869375,0.03641714448989066,4.318346007877705e-13
-0.9868749999999999,0.03641714448989066,4.483582467035594e-13
-0.9868125,0.03649668328112839,4.654297719221196e-13
-0.98675,0.03633760569865294,4.830645522248104e-13
-0.9866875000000001,0.03641714448989066,5.012783164580298e-13
-0.986625,0.03649668328112839,5.200871528210229e-13
-0.9865625,0.03657622207236611,5.395075152323345e-13
-0.9865,0.03657622207236611,5.595562297754478e-13
-0.9864375,0.03649668328112839,5.802505012241307e-13
-0.986375,0.03665576086360384,6.01607919648033e-13
-0.9863125,0.03657622207236611,6.236464670990561e-13
-0.98625,0.03657622207236611,6.463845243790341e-13
-0.9861875,0.03665576086360384,6.698408778892513e-13
-0.986125,0.03673529965484157,6.940347265623278e-13
-0.9860625,0.03673529965484157,7.189856888770034e-13
-0.986,0.03665576086360384,7.447138099563473e-13
-0.9859375,0.03673529965484157,7.712395687499196e-13
-0.9858749999999999,0.03681483844607929,7.985838853004176e-13
-0.9858125,0.03681483844607929,8.26768128095326e-13
-0.98575,0.03681483844607929,8.558141215041025e-13
-0.9856875,0.03673529965484157,8.857441533014212e-13
-0.985625,0.03673529965484157,9.165809822769985e-13
-0.9855625,0.03673529965484157,9.483478459325252e-13
-0.9855,0.03681483844607929,9.810684682662271e-13
-0.9854375,0.03673529965484157,1.014767067645575e-12
-0.985375,0.03681483844607929,1.049468364768669e-12
-0.9853125,0.03681483844607929,1.085197590714808e-12
-0.98525,0.03673529965484157,1.121980495084777e-12
-0.9851875,0.03681483844607929,1.159843354231352e-12
-0.985125,0.03681483844607929,1.198812979580564e-12
-0.9850625,0.03681483844607929,1.238916726044208e-12
-0.985,0.03689437723731702,1.28018250052414e-12
-0.9849375,0.03689437723731702,1.322638770508862e-12
-0.9848749999999999,0.03697391602855474,1.366314572762902e-12
-0.9848125,0.03689437723731702,1.411239522109519e-12
-0.98475,0.03689437723731702,1.457443820307225e-12
-0.9846875,0.03681483844607929,1.504958265020646e-12
-0.984625,0.03689437723731702,1.553814258886224e-12
-0.9845625,0.03681483844607929,1.604043818673267e-12
-0.9845,0.03681483844607929,1.655679584540858e-12
-0.9844375,0.03681483844607929,1.708754829391122e-12
-0.984375,0.03689437723731702,1.763303468319358e-12
-0.9843125,0.03689437723731702,1.819360068161532e-12
-0.98425,0.03681483844607929,1.876959857139639e-12
-0.9841875,0.03681483844607929,1.936138734605433e-12
-0.984125,0.03681483844607929,1.996933280883014e-12
-0.9840625,0.03681483844607929,2.05938076721078e-12
-0.984,0.03681483844607929,2.123519165783229e-12
-0.9839375,0.03681483844607929,2.189387159893112e-12
-0.9838750000000001,0.03673529965484157,2.257024154174427e-12
-0.9838125,0.03681483844607929,2.326470284946743e-12
-0.98375,0.03673529965484157,2.397766430661345e-12
-0.9836875,0.03681483844607929,2.470954222449688e-12
-0.983625,0.03681483844607929,2.546076054774637e-12
-0.9835625,0.03673529965484157,2.623175096185004e-12
-0.9835,0.03673529965484157,2.702295300173823e-12
-0.9834375,0.03673529965484157,2.783481416140889e-12
-0.983375,0.03681483844607929,2.866779000460006e-12
-0.9833125,0.03673529965484157,2.952234427651441e-12
-0.98325,0.03665576086360384,3.039894901660052e-12
-0.9831875,0.03673529965484157,3.129808467239573e-12
-0.983125,0.03673529965484157,3.222024021443514e-12
-0.9830625,0.03657622207236611,3.316591325223169e-12
-0.983,0.03657622207236611,3.413561015133175e-12
-0.9829375,0.03657622207236611,3.512984615145111e-12
-0.9828750000000001,0.03665576086360384,3.614914548569599e-12
-0.9828125,0.03649668328112839,3.719404150087357e-12
-0.98275,0.03657622207236611,3.826507677889679e-12
-0.9826875,0.03649668328112839,3.93628032592881e-12
-0.982625,0.03641714448989066,4.048778236278645e-12
-0.9825625,0.03641714448989066,4.164058511606242e-12
-0.9825,0.03633760569865294,4.282179227754582e-12
-0.9824375,0.03633760569865294,4.403199446437034e-12
-0.982375,0.03633760569865294,4.527179228043981e-12
-0.9823125,0.03641714448989066,4.654179644562047e-12
-0.98225,0.03641714448989066,4.784262792606378e-12
-0.9821875,0.03617852811617748,4.917491806566416e-12
-0.982125,0.03617852811617748,5.053930871865615e-12
-0.9820624999999999,0.03609898932493975,5.193645238335535e-12
-0.982,0.03617852811617748,5.336701233704754e-12
-0.9819375,0.03609898932493975,5.483166277203031e-12
-0.9818750000000001,0.03617852811617748,5.633108893281159e-12
-0.9818125,0.03609898932493975,5.786598725446939e-12
-0.98175,0.03601945053370203,5.943706550217701e-12
-0.9816875,0.03601945053370203,6.104504291189808e-12
-0.981625,0.0359399117424643,6.269065033225548e-12
-0.9815625,0.0359399117424643,6.437463036757875e-12
-0.9815,0.03586037295122658,6.60977375221338e-12
-0.9814375,0.0359399117424643,6.78607383455393e-12
-0.981375,0.03578083415998885,6.966441157937398e-12
-0.9813125,0.03586037295122658,7.150954830497884e-12
-0.98125,0.03570129536875112,7.339695209245843e-12
-0.9811875,0.03570129536875112,7.532743915088541e-12
-0.981125,0.0356217565775134,7.73018384797122e-12
-0.9810624999999999,0.0356217565775134,7.932099202139419e-12
-0.981,0.0356217565775134,8.138575481522799e-12
-0.9809375,0.0356217565775134,8.349699515240937e-12
-0.9808750000000001,0.0356217565775134,8.565559473231413e-12
-0.9808125,0.0356217565775134,8.786244882000661e-12
-0.98075,0.03554221778627567,9.011846640497911e-12
-0.9806875,0.03554221778627567,9.242457036112665e-12
-0.980625,0.03546267899503795,9.478169760796058e-12
-0.9805625,0.03554221778627567,9.719079927306523e-12
-0.9805,0.03554221778627567,9.965284085580084e-12
-0.9804375,0.03554221778627567,1.021688023922575e-11
-0.980375,0.03554221778627567,1.047396786214631e-11
-0.9803125,0.03554221778627567,1.073664791528493e-11
-0.98025,0.03554221778627567,1.10050228634979e-11
-0.9801875,0.03554221778627567,1.127919669255401e-11
-0.980125,0.03546267899503795,1.155927492626077e-11
-0.9800624999999999,0.03554221778627567,1.184536464371789e-11
-0.98,0.0356217565775134,1.213757449669849e-11
-0.9799375,0.03554221778627567,1.243601472715824e-11
-0.9798750000000001,0.0356217565775134,1.274079718487289e-11
-0.9798125,0.03554221778627567,1.305203534520451e-11
-0.97975,0.03554221778627567,1.336984432699676e-11
-0.9796875,0.0356217565775134,1.369434091059967e-11
-0.979625,0.0356217565775134,1.402564355602407e-11
-0.9795625,0.0356217565775134,1.436387242122619e-11
-0.9795,0.03570129536875112,1.470914938052271e-11
-0.9794375,0.0356217565775134,1.506159804313657e-11
-0.979375,0.03570129536875112,1.54213437718739e-11
-0.9793125,0.03570129536875112,1.578851370193242e-11
-0.97925,0.03586037295122658,1.616323675984161e-11
-0.9791875,0.03578083415998885,1.654564368253501e-11
-0.979125,0.03578083415998885,1.693586703655493e-11
-0.9790624999999999,0.03578083415998885,1.733404123738988e-11
-0.979,0.03578083415998885,1.774030256894519e-11
-0.9789375,0.03586037295122658,1.815478920314686e-11
-0.9788750000000001,0.03586037295122658,1.857764121967924e-11
-0.9788125,0.03586037295122658,1.900900062585669e-11
-0.97875,0.03586037295122658,1.944901137662946e-11
-0.9786875,0.03586037295122658,1.989781939472432e-11
-0.978625,0.0359399117424643,2.035557259092007e-11
-0.9785625,0.03586037295122658,2.082242088445819e-11
-0.9785,0.03586037295122658,2.129851622358911e-11
-0.9784375,0.03586037295122658,2.178401260625423e-11
-0.978375,0.03586037295122658,2.227906610090401e-11
-0.9783125,0.03586037295122658,2.278383486745249e-11
-0.97825,0.0359399117424643,2.329847917836843e-11
-0.9781875,0.03601945053370203,2.382316143990341e-11
-0.978125,0.03601945053370203,2.435804621345711e-11
-0.9780624999999999,0.03601945053370203,2.49033002370801e-11
-0.978,0.03609898932493975,2.545909244711443e-11
-0.9779375,0.03609898932493975,2.602559399997211e-11
-0.977875,0.03609898932493975,2.660297829405208e-11
-0.9778125,0.03609898932493975,2.71914209917955e-11
-0.97775,0.03609898932493975,2.779110004188003e-11
-0.9776875,0.03601945053370203,2.840219570155305e-11
-0.977625,0.03601945053370203,2.902489055910425e-11
-0.9775625,0.03601945053370203,2.965936955647772e-11
-0.9775,0.03617852811617748,3.030582001202394e-11
-0.9774375,0.03609898932493975,3.096443164339167e-11
-0.977375,0.03625806690741521,3.163539659056025e-11
-0.9773125,0.03625806690741521,3.231890943901231e-11
-0.97725,0.03625806690741521,3.301516724304733e-11
-0.9771875,0.03617852811617748,3.3724369549236e-11
