Task5_10Hz_500mV_45-5.csv

#Digilent WaveForms Oscilloscope Acquisition
#Device Name: Discovery3
#Serial Number: SN:210415BD63A1
#Date Time: 2026-09-24 11:25:41.228.109.430
#Sample rate: 16000Hz
#Samples: 32000
#Trigger: Source: Channel 1 Type: Edge Condition: Rising Level: 0 V Hyst.: Auto HoldOff: 0 s
#Channel 1: Range: 500 mV/div Offset: 0 V Sample Mode: Average
#Math 1: Input: C1 Reference: Internal Frequency: 10 Hz Phase: 90 ° Filter: IIR Butterworth 8  Low-Pass CutOff: 2 Hz Output: Amplitude

#Wavegen Channel 1: Running
#Mode: Simple
#Type: Sine
#Frequency: 10 Hz
#Period: 100 ms
#Amplitude: 500 mV
#Offset: 0 V
#Symmetry: 50 %
#Phase: 0 °

Time (s),Channel 1 (V),Math 1 (V)
-1,0.4564615010163232,2.55258228246206e-28
-0.9999375,0.4564615010163232,4.338405297833704e-27
-0.999875,0.4564615010163232,3.699472088530499e-26
-0.9998125,0.4564615010163232,2.124695774260977e-25
-0.99975,0.4566205785987987,9.30455781412076e-25
-0.9996875,0.4565410398075609,3.332408988904107e-24
-0.999625,0.4566205785987987,1.021350548681737e-23
-0.9995625,0.4566205785987987,2.764983161464776e-23
-0.9995000000000001,0.4567001173900364,6.766470155234266e-23
-0.9994375,0.4566205785987987,1.523220451761905e-22
-0.999375,0.4567001173900364,3.196985926498246e-22
-0.9993125,0.4567796561812741,6.322501090193659e-22
-0.99925,0.4567001173900364,1.188150200526426e-21
-0.9991875,0.4567001173900364,2.136243224577016e-21
-0.999125,0.4567796561812741,3.695315588233963e-21
-0.9990625,0.4566205785987987,6.178452215986506e-21
-0.999,0.4566205785987987,1.002330720363994e-20
-0.9989375,0.4567001173900364,1.582917964764257e-20
-0.998875,0.4567796561812741,2.440184734700612e-20
-0.9988125,0.4567001173900364,3.680717251990069e-20
-0.99875,0.4567796561812741,5.443455486046325e-20
-0.9986875,0.4568591949725119,7.907136818300093e-20
-0.998625,0.4569387337637495,1.129895775586356e-19
-0.9985625,0.4567796561812741,1.590457942404127e-19
-0.9985000000000001,0.4568591949725119,2.207960857945098e-19
-0.9984375,0.4569387337637495,3.026269187084586e-19
-0.998375,0.4569387337637495,4.099036703367656e-19
-0.9983125,0.4568591949725119,5.491382063740736e-19
-0.99825,0.4569387337637495,7.281770791167378e-19
-0.9981875,0.4569387337637495,9.56411960583721e-19
-0.998125,0.4570182725549873,1.24501398311569e-18
-0.9980625,0.4569387337637495,1.607193718357586e-18
-0.998,0.4473940788152224,2.058488583556309e-18
-0.9979375,0.4473940788152224,2.617079521872755e-18
-0.997875,0.4474736176064602,3.304138860916217e-18
-0.9978125,0.4474736176064602,4.144211310957205e-18
-0.99775,0.4474736176064602,5.165630121260236e-18
-0.9976874999999999,0.4474736176064602,6.400970469700354e-18
-0.997625,0.4475531563976979,7.887542217286905e-18
-0.9975625,0.4474736176064602,9.667924215415597e-18
-0.9975000000000001,0.4476326951889356,1.179054240960417e-17
-0.9974375,0.4475531563976979,1.431029403913769e-17
-0.997375,0.4474736176064602,1.728922028745674e-17
-0.9973125,0.4474736176064602,2.079722979326625e-17
-0.99725,0.4474736176064602,2.491287548722218e-17
-0.9971875,0.4474736176064602,2.972418727366933e-17
-0.997125,0.4475531563976979,3.532956313125801e-17
-0.9970625,0.4476326951889356,4.183872126036396e-17
-0.997,0.4477122339801733,4.937371595907307e-17
-0.9969375,0.4476326951889356,5.80700199630687e-17
-0.996875,0.4477122339801733,6.807767603807374e-17
-0.9968125,0.4476326951889356,7.956252066655328e-17
-0.99675,0.4477122339801733,9.270748272317991e-17
-0.9966874999999999,0.4477122339801733,1.077139600861003e-16
-0.996625,0.4477122339801733,1.248032771833192e-16
-0.9965625,0.4476326951889356,1.442182265255303e-16
-0.9965000000000001,0.4477917727714111,1.662246973284715e-16
-0.9964375,0.4477917727714111,1.911133943793721e-16
-0.996375,0.4477917727714111,2.192016503532803e-16
-0.9963125,0.4478713115626488,2.508353348360275e-16
-0.99625,0.4478713115626488,2.863908633612842e-16
-0.9961875,0.4478713115626488,3.262773098196014e-16
-0.996125,0.4479508503538865,3.709386256475071e-16
-0.9960625,0.4478713115626488,4.208559692546449e-16
-0.996,0.4479508503538865,4.765501491965923e-16
-0.9959375,0.4479508503538865,5.38584184650391e-16
-0.995875,0.4480303891451242,6.075659867989581e-16
-0.9958125,0.4479508503538865,6.841511647794182e-16
-0.99575,0.4480303891451242,7.690459598990033e-16
-0.9956874999999999,0.448109927936362,8.630103118705148e-16
-0.995625,0.448109927936362,9.668610608674185e-16
-0.9955625,0.4480303891451242,1.08147528924647e-15
-0.9955000000000001,0.4479508503538865,1.207793806833325e-15
-0.9954375,0.4480303891451242,1.346824783713912e-15
-0.995375,0.4480303891451242,1.499647534521369e-15
-0.9953125,0.448109927936362,1.667416458255163e-15
-0.99525,0.4480303891451242,1.851365137715511e-15
-0.9951875,0.448109927936362,2.05281060268253e-15
-0.995125,0.448109927936362,2.273157761015514e-15
-0.9950625,0.4480303891451242,2.513904001893558e-15
-0.995,0.4480303891451242,2.776643975464176e-15
-0.9949375,0.448109927936362,3.063074553211865e-15
-0.994875,0.4480303891451242,3.374999973403505e-15
-0.9948125,0.4478713115626488,3.714337176012225e-15
-0.99475,0.4479508503538865,4.08312133156586e-15
-0.9946874999999999,0.4479508503538865,4.483511568410313e-15
-0.994625,0.4480303891451242,4.917796902922164e-15
-0.9945625,0.4479508503538865,5.388402377248558e-15
-0.9945000000000001,0.4478713115626488,5.897895409195887e-15
-0.9944375,0.4479508503538865,6.448992358931997e-15
-0.994375,0.4479508503538865,7.04456531720965e-15
-0.9943125,0.4478713115626488,7.687649119861634e-15
-0.99425,0.4478713115626488,8.381448593360485e-15
-0.9941875,0.4478713115626488,9.129346036277909e-15
-0.994125,0.4478713115626488,9.934908941521047e-15
-0.9940625,0.4477122339801733,1.080189796426446e-14
-0.994,0.4478713115626488,1.173427514053805e-14
-0.9939375,0.4477917727714111,1.273621236147264e-14
-0.993875,0.4477917727714111,1.381210010824561e-14
-0.9938125,0.4477917727714111,1.496655645280996e-14
-0.99375,0.4477122339801733,1.620443632953053e-14
-0.9936874999999999,0.4477122339801733,1.753084108289146e-14
-0.993625,0.4477122339801733,1.895112829647871e-14
-0.9935625,0.4477917727714111,2.047092190848166e-14
-0.9935,0.4477122339801733,2.209612261899674e-14
-0.9934375,0.4477917727714111,2.383291859445579e-14
-0.993375,0.4477917727714111,2.568779647454051e-14
-0.9933125,0.4477917727714111,2.766755268698331e-14
-0.99325,0.4477122339801733,2.977930507569325e-14
-0.9931875,0.4476326951889356,3.203050484768418e-14
-0.993125,0.4476326951889356,3.442894884432003e-14
-0.9930625,0.4476326951889356,3.698279214243022e-14
-0.993,0.4476326951889356,3.970056099088535e-14
-0.9929375,0.4475531563976979,4.259116608826109e-14
-0.992875,0.4473940788152224,4.566391620725484e-14
-0.9928125,0.4473940788152224,4.892853217155663e-14
-0.99275,0.4473940788152224,5.239516119091265e-14
-0.9926874999999999,0.4473940788152224,5.607439156015535e-14
-0.992625,0.447235001232747,5.997726772801091e-14
-0.9925625,0.4473145400239847,6.411530574153022e-14
-0.9925,0.4473145400239847,6.850050907202521e-14
-0.9924375,0.447235001232747,7.314538482842764e-14
-0.992375,0.4471554624415092,7.806296036402285e-14
-0.9923125,0.447235001232747,8.326680028254546e-14
-0.99225,0.4471554624415092,8.877102384965871e-14
-0.9921875,0.4470759236502715,9.459032281587388e-14
-0.992125,0.4470759236502715,1.007399796569994e-13
-0.9920625,0.4469963848590338,1.072358862382446e-13
-0.992,0.4469963848590338,1.140945629081351e-13
-0.9919375,0.4469168460677961,1.213331780284317e-13
-0.991875,0.4470759236502715,1.289695679462764e-13
-0.9918125,0.4469963848590338,1.370222574148234e-13
-0.99175,0.4468373072765583,1.455104804686441e-13
-0.9916875000000001,0.4467577684853206,1.5445420176023e-13
-0.991625,0.4466782296940829,1.638741383639459e-13
-0.9915625,0.4466782296940829,1.737917820538221e-13
-0.9915,0.4467577684853206,1.842294220616014e-13
-0.9914375,0.4465986909028452,1.95210168321494e-13
-0.991375,0.4466782296940829,2.067579752081164e-13
-0.9913125,0.4465191521116074,2.188976657741319e-13
-0.99125,0.4465191521116074,2.316549564941304e-13
-0.9911875,0.4464396133203697,2.450564825213237e-13
-0.991125,0.4464396133203697,2.591298234636599e-13
-0.9910625,0.4464396133203697,2.739035296859878e-13
-0.991,0.4465191521116074,2.894071491449386e-13
-0.9909375,0.4465986909028452,3.056712547632155e-13
-0.990875,0.4465986909028452,3.227274723500127e-13
-0.9908125,0.4465986909028452,3.406085090743194e-13
-0.99075,0.4465191521116074,3.593481824978847e-13
-0.9906875000000001,0.4465986909028452,3.789814501746543e-13
-0.990625,0.4465986909028452,3.995444398235167e-13
-0.9905625,0.4466782296940829,4.210744800812244e-13
-0.9905,0.4465986909028452,4.436101318423824e-13
-0.9904375,0.4465986909028452,4.671912201934257e-13
-0.990375,0.4465191521116074,4.918588669475357e-13
-0.9903125,0.4465191521116074,5.176555237874694e-13
-0.99025,0.4465191521116074,5.446250060233042e-13
-0.9901875,0.4465986909028452,5.728125269721306e-13
-0.990125,0.4466782296940829,6.022647329667452e-13
-0.9900625,0.4466782296940829,6.330297390004289e-13
-0.99,0.4465986909028452,6.651571650149177e-13
-0.9899375,0.4466782296940829,6.986981728387004e-13
-0.9898749999999999,0.4466782296940829,7.337055037828042e-13
-0.9898125,0.4466782296940829,7.70233516901251e-13
-0.98975,0.4466782296940829,8.083382279233969e-13
-0.9896875000000001,0.4466782296940829,8.480773488653903e-13
-0.989625,0.4467577684853206,8.895103283280053e-13
-0.9895625,0.4469963848590338,9.326983924881389e-13
-0.9895,0.4468373072765583,9.777045867912781e-13
-0.9894375,0.4467577684853206,1.024593818352267e-12
-0.989375,0.4469168460677961,1.073432899071738e-12
-0.9893125,0.4468373072765583,1.124290589475575e-12
-0.98925,0.4468373072765583,1.177237643284823e-12
-0.9891875,0.4469168460677961,1.232346852723461e-12
-0.989125,0.4468373072765583,1.289693094571492e-12
-0.9890625,0.4468373072765583,1.349353376970819e-12
-0.989,0.4469168460677961,1.4114068869914e-12
-0.9889375,0.4469168460677961,1.475935038965208e-12
-0.9888749999999999,0.4468373072765583,1.543021523595506e-12
-0.9888125,0.4470759236502715,1.612752357849033e-12
-0.98875,0.4468373072765583,1.685215935638653e-12
-0.9886875000000001,0.4469963848590338,1.760503079304081e-12
-0.988625,0.4469168460677961,1.838707091898307e-12
-0.9885625,0.4469168460677961,1.919923810287363e-12
-0.9885,0.4469963848590338,2.004251659071087e-12
-0.9884375,0.4468373072765583,2.091791705332587e-12
-0.988375,0.4468373072765583,2.182647714224088e-12
-0.9883125,0.4469963848590338,2.276926205396901e-12
-0.98825,0.4471554624415092,2.374736510283257e-12
-0.9881875,0.4470759236502715,2.47619083023775e-12
-0.988125,0.4469963848590338,2.581404295546203e-12
-0.9880625,0.4470759236502715,2.690495025309725e-12
-0.988,0.4471554624415092,2.803584188211807e-12
-0.9879375,0.4471554624415092,2.920796064176272e-12
-0.9878749999999999,0.4471554624415092,3.042258106923944e-12
-0.9878125,0.4471554624415092,3.168101007435922e-12
-0.98775,0.4470759236502715,3.298458758331325e-12
-0.9876875000000001,0.4471554624415092,3.433468719167445e-12
-0.987625,0.447235001232747,3.573271682670209e-12
-0.9875625,0.4471554624415092,3.718011941902916e-12
-0.9875,0.4471554624415092,3.867837358381196e-12
-0.9874375,0.4473940788152224,4.022899431142168e-12
-0.987375,0.4473145400239847,4.1833533667758e-12
-0.9873125,0.4474736176064602,4.349358150426472e-12
-0.98725,0.4473940788152224,4.521076617772769e-12
-0.9871875,0.4473940788152224,4.698675527993542e-12
-0.987125,0.4473940788152224,4.882325637728306e-12
-0.9870625,0.4473145400239847,5.072201776040038e-12
-0.987,0.4473940788152224,5.268482920388452e-12
-0.9869375,0.4474736176064602,5.471352273621873e-12
-0.9868749999999999,0.4474736176064602,5.680997341995817e-12
-0.9868125,0.4474736176064602,5.897610014226398e-12
-0.98675,0.4473940788152224,6.121386641586726e-12
-0.9866875000000001,0.4474736176064602,6.352528119054433e-12
-0.986625,0.4474736176064602,6.591239967518525e-12
-0.9865625,0.4474736176064602,6.837732417053717e-12
-0.9865,0.4474736176064602,7.092220491270469e-12
-0.9864375,0.4475531563976979,7.354924092748941e-12
-0.986375,0.4474736176064602,7.626068089565059e-12
-0.9863125,0.4474736176064602,7.905882402916973e-12
-0.98625,0.4475531563976979,8.194602095860126e-12
-0.9861875,0.4475531563976979,8.492467463159195e-12
-0.986125,0.4474736176064602,8.799724122265211e-12
-0.9860625,0.4475531563976979,9.116623105426094e-12
-0.986,0.4475531563976979,9.443420952938946e-12
-0.9859375,0.4475531563976979,9.780379807552374e-12
-0.9858749999999999,0.4477122339801733,1.01277675100272e-11
-0.9858125,0.4476326951889356,1.048585769586382e-11
-0.98575,0.4475531563976979,1.085492989320467e-11
-0.9856875,0.4476326951889356,1.123526962191999e-11
-0.985625,0.4477122339801733,1.162716849388543e-11
-0.9855625,0.4476326951889356,1.203092431445967e-11
-0.9855,0.4476326951889356,1.244684118517065e-11
-0.9854375,0.4478713115626488,1.287522960761857e-11
-0.985375,0.4477917727714111,1.331640658860428e-11
-0.9853125,0.4477122339801733,1.377069574649133e-11
-0.98525,0.4477917727714111,1.42384274188101e-11
-0.9851875,0.4477122339801733,1.471993877111246e-11
-0.985125,0.4477122339801733,1.521557390708555e-11
-0.9850625,0.4476326951889356,1.572568397993274e-11
-0.985,0.4477122339801733,1.625062730503063e-11
-0.9849375,0.4476326951889356,1.679076947387036e-11
-0.9848749999999999,0.4476326951889356,1.734648346929158e-11
-0.9848125,0.4477122339801733,1.791814978201788e-11
-0.98475,0.4476326951889356,1.850615652850177e-11
-0.9846875,0.4476326951889356,1.911089957008803e-11
-0.984625,0.4476326951889356,1.97327826335037e-11
-0.9845625,0.4476326951889356,2.037221743268332e-11
-0.9845,0.4476326951889356,2.102962379193797e-11
-0.9844375,0.4477122339801733,2.170542977047638e-11
-0.984375,0.4476326951889356,2.240007178828698e-11
-0.9843125,0.4476326951889356,2.311399475338917e-11
-0.98425,0.4476326951889356,2.384765219046236e-11
-0.9841875,0.4474736176064602,2.460150637086142e-11
-0.984125,0.4475531563976979,2.5376028444027e-11
-0.9840625,0.4474736176064602,2.617169857029928e-11
-0.984,0.4475531563976979,2.698900605514371e-11
-0.9839375,0.4474736176064602,2.78284494847973e-11
-0.9838750000000001,0.4476326951889356,2.869053686334398e-11
-0.9838125,0.4475531563976979,2.957578575122762e-11
-0.98375,0.4475531563976979,3.048472340521131e-11
-0.9836875,0.4476326951889356,3.141788691979141e-11
-0.983625,0.4474736176064602,3.237582337007493e-11
-0.9835625,0.4474736176064602,3.335908995612893e-11
-0.9835,0.4474736176064602,3.436825414881039e-11
-0.9834375,0.4473940788152224,3.54038938370852e-11
-0.983375,0.4474736176064602,3.646659747684479e-11
-0.9833125,0.4473940788152224,3.755696424122913e-11
-0.98325,0.447235001232747,3.867560417246455e-11
-0.9831875,0.447235001232747,3.982313833522497e-11
-0.983125,0.447235001232747,4.100019897152524e-11
-0.9830625,0.447235001232747,4.22074296571551e-11
-0.983,0.447235001232747,4.344548545966241e-11
-0.9829375,0.4470759236502715,4.471503309789414e-11
-0.9828750000000001,0.4470759236502715,4.601675110310393e-11
-0.9828125,0.4470759236502715,4.735132998163449e-11
-0.98275,0.4469963848590338,4.871947237918384e-11
-0.9826875,0.447235001232747,5.012189324666374e-11
-0.982625,0.4470759236502715,5.155932000765875e-11
-0.9825625,0.4471554624415092,5.303249272749502e-11
-0.9825,0.4470759236502715,5.454216428392697e-11
-0.9824375,0.4469168460677961,5.608910053945054e-11
-0.982375,0.4469168460677961,5.767408051525188e-11
-0.9823125,0.4468373072765583,5.92978965667997e-11
-0.98225,0.4469168460677961,6.096135456109009e-11
-0.9821875,0.4469168460677961,6.266527405555248e-11
-0.982125,0.4468373072765583,6.4410488478625e-11
-0.9820624999999999,0.4468373072765583,6.619784531200838e-11
-0.982,0.4467577684853206,6.802820627460634e-11
-0.9819375,0.4466782296940829,6.990244750816162e-11
-0.9818750000000001,0.4466782296940829,7.182145976459587e-11
-0.9818125,0.4465191521116074,7.378614859506221e-11
-0.98175,0.4464396133203697,7.579743454071887e-11
-0.9816875,0.446360074529132,7.785625332523262e-11
-0.981625,0.4464396133203697,7.996355604902048e-11
-0.9815625,0.4462805357378943,8.212030938523847e-11
-0.9815,0.4462009969466565,8.432749577752561e-11
-0.9814375,0.4462009969466565,8.658611363951217e-11
-0.981375,0.4462009969466565,8.889717755610033e-11
-0.9813125,0.4460419193641811,9.126171848652616e-11
-0.98125,0.4462009969466565,9.36807839692113e-11
-0.9811875,0.4461214581554188,9.615543832841279e-11
-0.981125,0.4462009969466565,9.868676288267997e-11
-0.9810624999999999,0.4462009969466565,1.012758561551265e-10
-0.981,0.4461214581554188,1.039238340855262e-10
-0.9809375,0.4462009969466565,1.066318302442421e-10
-0.9808750000000001,0.4462805357378943,1.094009960479953e-10
-0.9808125,0.4462009969466565,1.122325009774842e-10
-0.98075,0.4461214581554188,1.151275327968614e-10
-0.9806875,0.4462009969466565,1.180872977750774e-10
-0.980625,0.4462009969466565,1.211130209090987e-10
-0.9805625,0.4460419193641811,1.242059461490105e-10
-0.9805,0.4462009969466565,1.273673366250105e-10
-0.9804375,0.4462009969466565,1.305984748763034e-10
-0.980375,0.4461214581554188,1.339006630819048e-10
-0.9803125,0.4461214581554188,1.372752232933627e-10
-0.98025,0.4461214581554188,1.407234976694037e-10
-0.9801875,0.4461214581554188,1.442468487125156e-10
-0.980125,0.4460419193641811,1.47846659507471e-10
-0.9800624999999999,0.4461214581554188,1.515243339618037e-10
-0.98,0.4461214581554188,1.552812970482434e-10
-0.9799375,0.4461214581554188,1.591189950491203e-10
-0.9798750000000001,0.4461214581554188,1.630388958027449e-10
-0.9798125,0.4462009969466565,1.670424889517733e-10
-0.97975,0.4462805357378943,1.711312861935662e-10
-0.9796875,0.4462009969466565,1.753068215325496e-10
-0.979625,0.4462805357378943,1.795706515345856e-10
-0.9795625,0.446360074529132,1.839243555833616e-10
-0.9795,0.446360074529132,1.883695361388074e-10
-0.9794375,0.4462009969466565,1.929078189975462e-10
-0.979375,0.446360074529132,1.975408535553912e-10
-0.9793125,0.446360074529132,2.022703130718923e-10
-0.97925,0.4462805357378943,2.070978949369441e-10
-0.9791875,0.446360074529132,2.120253209394634e-10
-0.979125,0.4465191521116074,2.17054337538142e-10
-0.9790624999999999,0.4464396133203697,2.221867161342862e-10
-0.979,0.446360074529132,2.274242533467492e-10
-0.9789375,0.446360074529132,2.327687712889661e-10
-0.9788750000000001,0.4465191521116074,2.382221178480983e-10
-0.9788125,0.4464396133203697,2.437861669662967e-10
-0.97875,0.4464396133203697,2.494628189240917e-10
-0.9786875,0.4465191521116074,2.55254000625918e-10
-0.978625,0.4465191521116074,2.611616658877825e-10
-0.9785625,0.4465191521116074,2.671877957270837e-10
-0.9785,0.4464396133203697,2.733343986545909e-10
-0.9784375,0.4464396133203697,2.796035109685903e-10
-0.978375,0.4464396133203697,2.859971970512082e-10
-0.9783125,0.4464396133203697,2.925175496669176e-10
-0.97825,0.4464396133203697,2.991666902632373e-10
-0.9781875,0.4465191521116074,3.059467692736314e-10
-0.978125,0.4465191521116074,3.128599664226172e-10
-0.9780624999999999,0.4465986909028452,3.199084910330901e-10
-0.978,0.4465986909028452,3.270945823358729e-10
-0.9779375,0.4465191521116074,3.344205097814983e-10
-0.977875,0.446360074529132,3.418885733542324e-10
-0.9778125,0.446360074529132,3.495011038883459e-10
-0.97775,0.4464396133203697,3.572604633866452e-10
-0.9776875,0.4464396133203697,3.651690453412651e-10
-0.977625,0.4465986909028452,3.732292750567374e-10
-0.9775625,0.4465986909028452,3.814436099753396e-10
-0.9775,0.4465986909028452,3.898145400047317e-10
-0.9774375,0.4466782296940829,3.983445878478922e-10
-0.977375,0.4465191521116074,4.070363093353573e-10
-0.9773125,0.4466782296940829,4.158922937597737e-10
-0.97725,0.4466782296940829,4.249151642127733e-10
-0.9771875,0.4465986909028452,4.341075779241751e-10
-0.977125,0.4465986909028452,4.434722266035247e-10
-0.9770624999999999,0.4466782296940829,4.53011836783979e-10
-0.977,0.4467577684853206,4.627291701685418e-10
-0.9769375,0.4465986909028452,4.726270239786618e-10
-0.976875,0.4466782296940829,4.827082313051972e-10
-0.9768125,0.4467577684853206,4.92975661461757e-10
-0.97675,0.4468373072765583,5.034322203404256e-10
