Task5_45+6.csv

#Digilent WaveForms Oscilloscope Acquisition
#Device Name: Discovery3
#Serial Number: SN:210415BD63A1
#Date Time: 2026-09-24 10:51:59.307.181.250
#Sample rate: 32000Hz
#Samples: 32000
#Trigger: Source: Channel 1 Type: Edge Condition: Rising Level: 0 V Hyst.: Auto HoldOff: 0 s
#Channel 1: Range: 500 mV/div Offset: 0 V Sample Mode: Average
#Math 1: Input: C1 Reference: Internal Frequency: 20 Hz Phase: 90 ° Filter: IIR Butterworth 8  Low-Pass CutOff: 10 Hz Output: Amplitude

#Wavegen Channel 1: Running
#Mode: Simple
#Type: Sine
#Frequency: 20 Hz
#Period: 50 ms
#Amplitude: 200 mV
#Offset: 0 V
#Symmetry: 50 %
#Phase: 0 °

Time (s),Channel 1 (V),Math 1 (V)
-0.5,0.3688892918635865,3.16062817755076e-25
-0.49996875,0.3687302142811111,5.369952875001226e-24
-0.4999375,0.3687302142811111,4.577298313314969e-23
-0.49990625,0.3686506754898734,2.627714659061518e-22
-0.499875,0.3686506754898734,1.150199640718344e-21
-0.49984375,0.3686506754898734,4.117347994753291e-21
-0.4998125,0.3686506754898734,1.261257035949448e-20
-0.49978125,0.3686506754898734,3.41256118023672e-20
-0.49975,0.3685711366986357,8.346430758971419e-20
-0.49971875,0.3688097530723489,1.877781667910023e-19
-0.4996875,0.3688097530723489,3.938774134603098e-19
-0.49965625,0.3687302142811111,7.784713135265108e-19
-0.499625,0.3687302142811111,1.462024070090014e-18
-0.49959375,0.3686506754898734,2.627000232415756e-18
-0.4995625,0.3685711366986357,4.54134444558165e-18
-0.49953125,0.3685711366986357,7.588112478023645e-18
-0.4995,0.3683325203249225,1.230224180800658e-17
-0.49946875,0.3684120591161602,1.941552062743838e-17
-0.4994375,0.3684120591161602,2.991088393064339e-17
-0.49940625,0.3684120591161602,4.508723439613517e-17
-0.499375,0.3682529815336847,6.663605404352669e-17
-0.49934375,0.3682529815336847,9.673114016162375e-17
-0.4993125,0.3682529815336847,1.381328657656056e-16
-0.49928125,0.3682529815336847,1.943084308572601e-16
-0.49925,0.3683325203249225,2.69569636034423e-16
-0.49921875,0.3683325203249225,3.692297745236871e-16
-0.4991875,0.3683325203249225,4.997813024951671e-16
-0.49915625,0.368173442742447,6.690960105631604e-16
-0.499125,0.3682529815336847,8.866494816864991e-16
-0.49909375,0.3682529815336847,1.163771682261422e-15
-0.4990625,0.3683325203249225,1.513925594050526e-15
-0.49903125,0.3683325203249225,1.953015854714364e-15
-0.499,0.3680939039512093,2.49972943410845e-15
-0.49896875,0.368173442742447,3.175910432182063e-15
-0.4989375,0.368173442742447,4.006971142272148e-15
-0.49890625,0.368173442742447,5.022341580829289e-15
-0.498875,0.3680939039512093,6.255959741144536e-15
-0.49884375,0.3680939039512093,7.746804884470499e-15
-0.4988125,0.3680939039512093,9.539476237056519e-15
-0.49878125,0.3680939039512093,1.168481951605276e-14
-0.49875,0.3680143651599716,1.424060376098181e-14
-0.49871875,0.3680143651599716,1.727225100052757e-14
-0.4986875,0.3679348263687339,2.085362133675169e-14
-0.49865625,0.3680939039512093,2.506785608052285e-14
-0.498625,0.3680143651599716,3.000828162293442e-14
-0.49859375,0.3680939039512093,3.577937677779087e-14
-0.4985625,0.3680939039512093,4.249780637986667e-14
-0.49853125,0.3680939039512093,5.02935239725876e-14
-0.4985,0.368173442742447,5.931094646706048e-14
-0.49846875,0.3680939039512093,6.971020370198846e-14
-0.4984375,0.3680143651599716,8.166846588096196e-14
-0.49840625,0.3680143651599716,9.538135190991254e-14
-0.498375,0.3680939039512093,1.110644217031597e-13
-0.49834375,0.3682529815336847,1.289547555714617e-13
-0.4983125,0.3680939039512093,1.493126238498051e-13
-0.49828125,0.368173442742447,1.724232499663347e-13
-0.49825,0.3682529815336847,1.98598670196851e-13
-0.49821875,0.3624466497733307,2.28179693391685e-13
-0.4981875,0.3622875721908553,2.615379640035122e-13
-0.49815625,0.3625261885645685,2.990781317857891e-13
-0.498125,0.3624466497733307,3.412401315719751e-13
-0.49809375,0.3624466497733307,3.885015765855657e-13
-0.4980625,0.3624466497733307,4.41380268770178e-13
-0.49803125,0.3625261885645685,5.004368296675371e-13
-0.498,0.3625261885645685,5.662774554091859e-13
-0.49796875,0.3625261885645685,6.395567994250984e-13
-0.4979375,0.3625261885645685,7.209809865091239e-13
-0.49790625,0.3625261885645685,8.113107619173098e-13
-0.497875,0.3624466497733307,9.113647792106668e-13
-0.49784375,0.3624466497733307,1.022023030588862e-12
-0.4978125,0.3624466497733307,1.144230423495642e-12
-0.49778125,0.362367110982093,1.27900050731051e-12
-0.49775,0.3624466497733307,1.427419353974333e-12
-0.49771875,0.3624466497733307,1.590649596429051e-12
-0.4976875,0.3626057273558062,1.769934628783641e-12
-0.49765625,0.3626057273558062,1.966602972149819e-12
-0.497625,0.3625261885645685,2.182072810121749e-12
-0.49759375,0.3625261885645685,2.417856697904222e-12
-0.4975625,0.3626057273558062,2.675566449123447e-12
-0.49753125,0.3625261885645685,2.956918204383618e-12
-0.4975,0.3624466497733307,3.26373768566096e-12
-0.49746875,0.3624466497733307,3.597965640654894e-12
-0.4974375,0.3626057273558062,3.961663481243287e-12
-0.49740625,0.3626057273558062,4.357019120215578e-12
-0.497375,0.3626057273558062,4.786353010483808e-12
-0.49734375,0.3626057273558062,5.252124390997237e-12
-0.4973125,0.3626057273558062,5.75693774361144e-12
-0.49728125,0.3625261885645685,6.303549465187293e-12
-0.49725,0.3625261885645685,6.894874759219396e-12
-0.49721875,0.3625261885645685,7.533994751316895e-12
-0.4971875,0.3626852661470439,8.22416383288267e-12
-0.49715625,0.3627648049382817,8.96881723735916e-12
-0.497125,0.3626852661470439,9.77157885343107e-12
-0.49709375,0.3626852661470439,1.063626927959643e-11
-0.4970625,0.3626852661470439,1.156691412453832e-11
-0.49703125,0.3626057273558062,1.256775255774978e-11
-0.497,0.3626852661470439,1.364324611488434e-11
-0.49696875,0.3626852661470439,1.479808776232349e-11
-0.4969375,0.3626852661470439,1.603721122547148e-11
-0.49690625,0.3626852661470439,1.736580058530574e-11
-0.496875,0.3626852661470439,1.878930014772908e-11
-0.49684375,0.3628443437295193,2.031342459028691e-11
-0.4968125,0.3628443437295193,2.194416939082933e-11
-0.49678125,0.3627648049382817,2.368782154271432e-11
-0.49675,0.3628443437295193,2.555097056116361e-11
-0.49671875,0.3627648049382817,2.754051978539826e-11
-0.4966875,0.3627648049382817,2.966369798119527e-11
-0.49665625,0.3626852661470439,3.192807124852122e-11
-0.496625,0.3627648049382817,3.4341555238912e-11
-0.49659375,0.3627648049382817,3.691242768728153e-11
-0.4965625,0.3626057273558062,3.964934126285433e-11
-0.49653125,0.3628443437295193,4.256133674392975e-11
-0.4965,0.3628443437295193,4.565785652119692e-11
-0.49646875,0.3628443437295193,4.894875843433077e-11
-0.4964375,0.3630034213119948,5.244432994661038e-11
-0.49640625,0.3629238825207571,5.615530266231122e-11
-0.496375,0.3628443437295193,6.009286719163224e-11
-0.49634375,0.3626852661470439,6.426868836792904e-11
-0.4963125,0.3627648049382817,6.869492082203195e-11
-0.49628125,0.3627648049382817,7.338422491843759e-11
-0.49625,0.3629238825207571,7.834978305816957e-11
-0.49621875,0.3628443437295193,8.360531635311183e-11
-0.4961875,0.3627648049382817,8.916510167662516e-11
-0.49615625,0.3627648049382817,9.504398909526415e-11
-0.496125,0.3628443437295193,1.012574196864177e-10
-0.49609375,0.3629238825207571,1.078214437467025e-10
-0.4960625,0.3629238825207571,1.147527393959433e-10
-0.49603125,0.3627648049382817,1.220686315815799e-10
-0.496,0.3627648049382817,1.297871114883439e-10
-0.49596875,0.3630034213119948,1.379268563580529e-10
-0.4959375,0.3630034213119948,1.465072497243737e-10
-0.49590625,0.3629238825207571,1.555484020674087e-10
-0.495875,0.3630034213119948,1.650711718929625e-10
-0.49584375,0.3630034213119948,1.750971872413477e-10
-0.4958125,0.3629238825207571,1.856488676305925e-10
-0.49578125,0.3628443437295193,1.96749446438911e-10
-0.49575,0.3630034213119948,2.084229937313021e-10
-0.49571875,0.3630034213119948,2.206944395351399e-10
-0.4956875,0.3630034213119948,2.335895975696216e-10
-0.49565625,0.3630829601032325,2.471351894339361e-10
-0.495625,0.3630829601032325,2.613588692590193e-10
-0.49559375,0.3630034213119948,2.762892488277579e-10
-0.4955625,0.3629238825207571,2.919559231685036e-10
-0.49553125,0.3630829601032325,3.083894966267591e-10
-0.4955,0.3631624988944703,3.256216094198917e-10
-0.49546875,0.3630829601032325,3.436849646797321e-10
-0.4954375,0.3630829601032325,3.626133559879104e-10
-0.49540625,0.3630829601032325,3.824416954087771e-10
-0.495375,0.3631624988944703,4.032060420247573e-10
-0.49534375,0.3631624988944703,4.249436309789785e-10
-0.4953125,0.3631624988944703,4.476929030300082e-10
-0.49528125,0.363242037685708,4.714935346235369e-10
-0.49525,0.3631624988944703,4.963864684858298e-10
-0.49521875,0.3631624988944703,5.22413944743773e-10
-0.4951875,0.3630829601032325,5.496195325763277e-10
-0.49515625,0.3630829601032325,5.780481624022044e-10
-0.495125,0.3631624988944703,6.077461586085577e-10
-0.49509375,0.3631624988944703,6.387612728255005e-10
-0.4950625,0.3631624988944703,6.711427177512255e-10
-0.49503125,0.363242037685708,7.049412015325152e-10
-0.495,0.3634011152681835,7.402089627054156e-10
-0.49496875,0.3633215764769457,7.769998057008357e-10
-0.4949375,0.363242037685708,8.153691369198319e-10
-0.49490625,0.3633215764769457,8.553740013833244e-10
-0.494875,0.3633215764769457,8.970731199609804e-10
-0.49484375,0.3634806540594212,9.405269271839999e-10
-0.4948125,0.3635601928506589,9.857976096465116e-10
-0.49478125,0.3634806540594212,1.032949145000298e-09
-0.49475,0.3634806540594212,1.082047341547541e-09
-0.49471875,0.3635601928506589,1.133159878436268e-09
-0.4946875,0.3635601928506589,1.186356346463197e-09
-0.49465625,0.3635601928506589,1.241708289488609e-09
-0.494625,0.3634806540594212,1.299289246467928e-09
-0.49459375,0.3634806540594212,1.359174794104634e-09
-0.4945625,0.3635601928506589,1.421442590129145e-09
-0.49453125,0.3635601928506589,1.486172417208262e-09
-0.4945,0.3634806540594212,1.553446227489802e-09
-0.49446875,0.3634806540594212,1.623348187786986e-09
-0.4944375,0.3635601928506589,1.695964725407168e-09
-0.49440625,0.3636397316418966,1.771384574629452e-09
-0.494375,0.3635601928506589,1.849698823835753e-09
-0.49434375,0.3637192704331343,1.93100096329982e-09
-0.4943125,0.3636397316418966,2.015386933638741e-09
-0.49428125,0.3634806540594212,2.102955174931433e-09
-0.49425,0.3636397316418966,2.19380667650859e-09
-0.49421875,0.3636397316418966,2.288045027418558e-09
-0.4941875,0.3637192704331343,2.385776467573605e-09
-0.49415625,0.3637192704331343,2.487109939580992e-09
-0.494125,0.3637988092243721,2.592157141263285e-09
-0.49409375,0.3637192704331343,2.701032578872299e-09
-0.4940625,0.3637988092243721,2.813853621001058e-09
-0.49403125,0.3637988092243721,2.93074055319814e-09
-0.494,0.3637192704331343,3.051816633288748e-09
-0.49396875,0.3637988092243721,3.177208147406843e-09
-0.4939375,0.3638783480156098,3.307044466742647e-09
-0.49390625,0.3637988092243721,3.441458105009802e-09
-0.493875,0.3637192704331343,3.580584776636475e-09
-0.49384375,0.3637988092243721,3.724563455684645e-09
-0.4938125,0.3638783480156098,3.873536435501809e-09
-0.49378125,0.3638783480156098,4.027649389109341e-09
-0.49375,0.3637988092243721,4.187051430331662e-09
-0.49371875,0.3638783480156098,4.351895175670437e-09
-0.4936875,0.3639578868068475,4.522336806927922e-09
-0.49365625,0.3638783480156098,4.698536134583598e-09
-0.493625,0.3639578868068475,4.880656661928232e-09
-0.49359375,0.3638783480156098,5.068865649959399e-09
-0.4935625,0.3638783480156098,5.263334183042609e-09
-0.49353125,0.3639578868068475,5.464237235342006e-09
-0.4935,0.3638783480156098,5.671753738024739e-09
-0.49346875,0.3637988092243721,5.886066647242939e-09
-0.4934375,0.3637988092243721,6.107363012897348e-09
-0.49340625,0.3637988092243721,6.335834048186501e-09
-0.493375,0.3639578868068475,6.571675199945436e-09
-0.49334375,0.3639578868068475,6.815086219777814e-09
-0.4933125,0.3639578868068475,7.066271235985367e-09
-0.49328125,0.3639578868068475,7.325438826298506e-09
-0.49325,0.3637988092243721,7.59280209141196e-09
-0.49321875,0.3637988092243721,7.868578729329236e-09
-0.4931875,0.3638783480156098,8.152991110519712e-09
-0.49315625,0.3638783480156098,8.446266353892119e-09
-0.493125,0.3639578868068475,8.748636403588153e-09
-0.49309375,0.3640374255980853,9.060338106599963e-09
-0.4930625,0.3640374255980853,9.381613291215148e-09
-0.49303125,0.3640374255980853,9.712708846293003e-09
-0.493,0.364116964389323,1.00538768013756e-08
-0.49296875,0.3640374255980853,1.040537440763732e-08
-0.4929375,0.3639578868068475,1.076746421967652e-08
-0.49290625,0.3640374255980853,1.114041417815271e-08
-0.492875,0.3640374255980853,1.152449769327302e-08
-0.49284375,0.3640374255980853,1.191999372913121e-08
-0.4928125,0.3639578868068475,1.232718688890294e-08
-0.49278125,0.3640374255980853,1.274636750090058e-08
-0.49275,0.364116964389323,1.317783170549113e-08
-0.49271875,0.3641965031805607,1.362188154288053e-08
-0.4926875,0.3640374255980853,1.407882504176778e-08
-0.49265625,0.3640374255980853,1.454897630887231e-08
-0.492625,0.364116964389323,1.503265561933773e-08
-0.49259375,0.3641965031805607,1.553018950801542e-08
-0.4925625,0.3640374255980853,1.604191086163115e-08
-0.49253125,0.364116964389323,1.656815901183797e-08
-0.4925,0.364116964389323,1.710927982915859e-08
-0.49246875,0.3641965031805607,1.766562581782034e-08
-0.4924375,0.364116964389323,1.823755621148612e-08
-0.49240625,0.3639578868068475,1.8825437069884e-08
-0.492375,0.364116964389323,1.942964137633912e-08
-0.49234375,0.364116964389323,2.005054913621045e-08
-0.4923125,0.3640374255980853,2.068854747623574e-08
-0.49228125,0.364116964389323,2.134403074478754e-08
-0.49225,0.364116964389323,2.201740061304342e-08
-0.49221875,0.3641965031805607,2.270906617707294e-08
-0.4921875,0.364116964389323,2.341944406084482e-08
-0.49215625,0.364116964389323,2.414895852015677e-08
-0.492125,0.3640374255980853,2.489804154749095e-08
-0.49209375,0.3639578868068475,2.566713297779804e-08
-0.4920625,0.3641965031805607,2.645668059521237e-08
-0.49203125,0.364116964389323,2.726714024070127e-08
-0.492,0.364116964389323,2.809897592065103e-08
-0.49196875,0.3641965031805607,2.895265991639227e-08
-0.4919375,0.3641965031805607,2.982867289466757e-08
-0.49190625,0.3641965031805607,3.072750401904362e-08
-0.491875,0.364116964389323,3.164965106227083e-08
-0.49184375,0.364116964389323,3.259562051959285e-08
-0.4918125,0.364116964389323,3.356592772300837e-08
-0.49178125,0.364116964389323,3.456109695648799e-08
-0.49175,0.3641965031805607,3.558166157214847e-08
-0.49171875,0.364116964389323,3.662816410738677e-08
-0.4916875,0.364116964389323,3.770115640297633e-08
-0.49165625,0.3640374255980853,3.880119972212801e-08
-0.491625,0.3640374255980853,3.9928864870518e-08
-0.49159375,0.3640374255980853,4.108473231728496e-08
-0.4915625,0.364116964389323,4.226939231699863e-08
-0.49153125,0.364116964389323,4.348344503260237e-08
-0.4915,0.364116964389323,4.472750065933153e-08
-0.49146875,0.364116964389323,4.600217954961011e-08
-0.4914375,0.3641965031805607,4.730811233892767e-08
-0.49140625,0.3641965031805607,4.864594007269852e-08
-0.491375,0.364116964389323,5.001631433410562e-08
-0.49134375,0.3640374255980853,5.141989737293087e-08
-0.4913125,0.3639578868068475,5.285736223537382e-08
-0.49128125,0.3639578868068475,5.432939289486111e-08
-0.49125,0.3639578868068475,5.583668438384812e-08
-0.49121875,0.3638783480156098,5.737994292661508e-08
-0.4911875,0.3639578868068475,5.895988607305935e-08
-0.49115625,0.3639578868068475,6.057724283348569e-08
-0.491125,0.3639578868068475,6.223275381439643e-08
-0.49109375,0.3638783480156098,6.39271713552831e-08
-0.4910625,0.3638783480156098,6.566125966642167e-08
-0.49103125,0.3639578868068475,6.743579496767235e-08
-0.491,0.3638783480156098,6.92515656282866e-08
-0.49096875,0.3637988092243721,7.110937230772197e-08
-0.4909375,0.3639578868068475,7.301002809746718e-08
-0.49090625,0.3637192704331343,7.495435866387832e-08
-0.490875,0.3637192704331343,7.694320239202844e-08
-0.49084375,0.3638783480156098,7.897741053057105e-08
-0.4908125,0.3638783480156098,8.105784733761999e-08
-0.49078125,0.3637192704331343,8.318539022764628e-08
-0.49075,0.3638783480156098,8.536092991939389e-08
-0.49071875,0.3637988092243721,8.758537058481531e-08
-0.4906875,0.3637192704331343,8.985962999902854e-08
-0.49065625,0.3638783480156098,9.218463969129674e-08
-0.490625,0.3637192704331343,9.456134509703161e-08
-0.49059375,0.3637192704331343,9.699070571082179e-08
-0.4905625,0.3637192704331343,9.947369524048745e-08
-0.49053125,0.3637988092243721,1.020113017621623e-07
-0.4905,0.3637192704331343,1.046045278764037e-07
-0.49046875,0.3636397316418966,1.072543908653328e-07
-0.4904375,0.3635601928506589,1.099619228508041e-07
-0.49040625,0.3635601928506589,1.127281709536077e-07
-0.490375,0.3637192704331343,1.155541974537031e-07
-0.49034375,0.3635601928506589,1.184410799514863e-07
-0.4903125,0.3636397316418966,1.213899115300916e-07
-0.49028125,0.3635601928506589,1.244018009187279e-07
-0.49025,0.3634806540594212,1.274778726570507e-07
-0.49021875,0.3634011152681835,1.306192672605713e-07
-0.4901875,0.3634806540594212,1.338271413871023e-07
-0.49015625,0.3633215764769457,1.371026680042422e-07
-0.490125,0.3634806540594212,1.404470365578972e-07
-0.49009375,0.3634011152681835,1.438614531418438e-07
-0.4900625,0.3633215764769457,1.473471406683294e-07
-0.49003125,0.3633215764769457,1.509053390397151e-07
-0.49,0.3633215764769457,1.545373053211577e-07
-0.48996875,0.3633215764769457,1.582443139143338e-07
-0.4899375,0.3633215764769457,1.620276567322056e-07
-0.48990625,0.3634011152681835,1.658886433748286e-07
-0.489875,0.363242037685708,1.698286013062013e-07
-0.48984375,0.3634011152681835,1.738488760321591e-07
-0.4898125,0.3633215764769457,1.779508312793091e-07
-0.48978125,0.363242037685708,1.821358491750102e-07
-0.48975,0.3631624988944703,1.864053304283951e-07
-0.48971875,0.3631624988944703,1.907606945124372e-07
-0.4896875,0.3631624988944703,1.952033798470602e-07
-0.48965625,0.3631624988944703,1.997348439832922e-07
-0.489625,0.363242037685708,2.043565637884634e-07
-0.48959375,0.3630034213119948,2.090700356324479e-07
-0.4895625,0.3630829601032325,2.138767755749491e-07
-0.48953125,0.3630034213119948,2.187783195538293e-07
-0.4895,0.3630034213119948,2.237762235744824e-07
-0.48946875,0.3630829601032325,2.288720639002512e-07
-0.4894375,0.3631624988944703,2.340674372438868e-07
-0.48940625,0.3630829601032325,2.393639609600525e-07
-0.489375,0.3630829601032325,2.447632732388693e-07
-0.48934375,0.3629238825207571,2.502670333005053e-07
-0.4893125,0.3630829601032325,2.558769215908069e-07
-0.48928125,0.3630034213119948,2.615946399779717e-07
-0.48925,0.3630034213119948,2.674219119502631e-07
-0.48921875,0.3630034213119948,2.73360482814766e-07
-0.4891875,0.3628443437295193,2.794121198971838e-07
-0.48915625,0.3629238825207571,2.855786127426746e-07
-0.489125,0.3628443437295193,2.91861773317727e-07
-0.48909375,0.3629238825207571,2.982634362130758e-07
-0.4890625,0.3627648049382817,3.047854588476552e-07
-0.48903125,0.3627648049382817,3.114297216735895e-07
-0.489,0.3627648049382817,3.181981283822217e-07
-0.48896875,0.3626852661470439,3.250926061111778e-07
-0.4889375,0.3626057273558062,3.32115105652466e-07
-0.48890625,0.3625261885645685,3.392676016616115e-07
-0.488875,0.3626057273558062,3.465520928678246e-07
-0.48884375,0.3626057273558062,3.539706022852016e-07
-0.4888125,0.3626852661470439,3.615251774249578e-07
-0.48878125,0.3626057273558062,3.692178905086916e-07
-0.48875,0.3626852661470439,3.770508386826779e-07
-0.48871875,0.3626852661470439,3.850261442331913e-07
-0.4886875,0.3626852661470439,3.931459548028565e-07
-0.48865625,0.3625261885645685,4.014124436080257e-07
-0.488625,0.3626057273558062,4.098278096571815e-07
-0.48859375,0.3626057273558062,4.183942779703642e-07
-0.4885625,0.3626057273558062,4.271140997996219e-07
-0.48853125,0.3626057273558062,4.359895528504827e-07
-0.4885,0.3625261885645685,4.450229415044475e-07
-0.48846875,0.3624466497733307,4.542165970425017e-07
-0.4884375,0.3625261885645685,4.635728778696453e-07
-0.48840625,0.3625261885645685,4.730941697404379e-07
-0.488375,0.3625261885645685,4.82782885985561e-07
