Task5_10Hz.csv

#Digilent WaveForms Oscilloscope Acquisition
#Device Name: Discovery3
#Serial Number: SN:210415BD63A1
#Date Time: 2026-09-24 11:10:17.003.815.440
#Sample rate: 16000Hz
#Samples: 32000
#Trigger: Source: Channel 1 Type: Edge Condition: Rising Level: 0 V Hyst.: Auto HoldOff: 0 s
#Channel 1: Range: 500 mV/div Offset: 0 V Sample Mode: Average
#Math 1: Input: C1 Reference: Internal Frequency: 10 Hz Phase: 90 ° Filter: IIR Butterworth 8  Low-Pass CutOff: 2 Hz Output: Amplitude

#Wavegen Channel 1: Running
#Mode: Simple
#Type: Sine
#Frequency: 10 Hz
#Period: 100 ms
#Amplitude: 50 mV
#Offset: 0 V
#Symmetry: 50 %
#Phase: 0 °

Time (s),Channel 1 (V),Math 1 (V)
-1,0.4378494238666953,2.474916421910246e-28
-0.9999375,0.437928962657933,4.20635976486611e-27
-0.999875,0.4378494238666953,3.586823203017548e-26
-0.9998125,0.437928962657933,2.059963214358151e-25
-0.99975,0.4381675790316462,9.02089954034784e-25
-0.9996875,0.4380880402404084,3.230748356199678e-24
-0.999625,0.4380085014491707,9.901708994681947e-24
-0.9995625,0.4381675790316462,2.680516391598736e-23
-0.9995000000000001,0.4381675790316462,6.559628046357674e-23
-0.9994375,0.4381675790316462,1.47662923217395e-22
-0.999375,0.4381675790316462,3.099143897413707e-22
-0.9993125,0.4382471178228839,6.128905304601122e-22
-0.99925,0.4382471178228839,1.151751922007903e-21
-0.9991875,0.4380880402404084,2.070772805735483e-21
-0.999125,0.4382471178228839,3.582019289405413e-21
-0.9990625,0.4382471178228839,5.988955837367758e-21
-0.999,0.4382471178228839,9.715783338713258e-21
-0.9989375,0.4383266566141216,1.534337204278931e-20
-0.998875,0.4382471178228839,2.365271238833682e-20
-0.9988125,0.4383266566141216,3.567686622788639e-20
-0.99875,0.4384857341965971,5.276246016320391e-20
-0.9986875,0.4385652729878348,7.664182166004421e-20
-0.998625,0.4386448117790726,1.095169173019719e-19
-0.9985625,0.4386448117790726,1.54156310976178e-19
-0.9985000000000001,0.4387243505703102,2.140064179617825e-19
-0.9984375,0.438803889361548,2.933183888138928e-19
-0.998375,0.4387243505703102,3.972920146038587e-19
-0.9983125,0.438803889361548,5.322381024859184e-19
-0.99825,0.4386448117790726,7.057608277104279e-19
-0.9981875,0.438803889361548,9.269616250934421e-19
-0.998125,0.4387243505703102,1.206666239584295e-18
-0.9980625,0.4384061954053594,1.557676611950999e-18
-0.998,0.4384857341965971,1.995049331730109e-18
-0.9979375,0.4385652729878348,2.536402445464293e-18
-0.997875,0.4385652729878348,3.202252463877662e-18
-0.9978125,0.4386448117790726,4.016383467015569e-18
-0.99775,0.4386448117790726,5.006250261500534e-18
-0.9976874999999999,0.4385652729878348,6.203417598928054e-18
-0.997625,0.4386448117790726,7.644037519045922e-18
-0.9975625,0.4386448117790726,9.369366935729403e-18
-0.9975000000000001,0.4386448117790726,1.142632763788346e-17
-0.9974375,0.4386448117790726,1.386811093127242e-17
-0.997375,0.4388834281527857,1.675482920089733e-17
-0.9973125,0.4388834281527857,2.015421672691127e-17
-0.99725,0.438803889361548,2.414238214018412e-17
-0.9971875,0.4388834281527857,2.880461495650049e-17
-0.997125,0.438803889361548,3.423624868100229e-17
-0.9970625,0.4388834281527857,4.054358302687091e-17
-0.997,0.4388834281527857,4.784486784438551e-17
-0.9969375,0.4390425057352612,5.627135140839116e-17
-0.996875,0.4389629669440234,6.596839576386288e-17
-0.9968125,0.4391220445264989,7.709666188065692e-17
-0.99675,0.4389629669440234,8.983336741969651e-17
-0.9966874999999999,0.4388834281527857,1.043736199637459e-16
-0.996625,0.4388834281527857,1.209318286165838e-16
-0.9965625,0.438803889361548,1.397431969247971e-16
-0.9965000000000001,0.4389629669440234,1.61065300126578e-16
-0.9964375,0.4388834281527857,1.851797497818206e-16
-0.996375,0.4388834281527857,2.123939488874842e-16
-0.9963125,0.4389629669440234,2.430429406316113e-16
-0.99625,0.4390425057352612,2.774913539885682e-16
-0.9961875,0.4390425057352612,3.161354494070019e-16
-0.996125,0.4390425057352612,3.594052678906867e-16
-0.9960625,0.4390425057352612,4.077668868208656e-16
-0.996,0.4390425057352612,4.617247859168784e-16
-0.9959375,0.4391220445264989,5.218243267798112e-16
-0.995875,0.4390425057352612,5.886543495115921e-16
-0.9958125,0.4391220445264989,6.628498899494119e-16
-0.99575,0.4390425057352612,7.450950211025477e-16
-0.9956874999999999,0.4390425057352612,8.361258224256319e-16
-0.995625,0.4390425057352612,9.367334806091141e-16
-0.9955625,0.4389629669440234,1.047767525614136e-15
-0.9955000000000001,0.4389629669440234,1.170139205725262e-15
-0.9954375,0.4390425057352612,1.304825005440486e-15
-0.995375,0.4391220445264989,1.452870310063685e-15
-0.9953125,0.4390425057352612,1.615393220910184e-15
-0.99525,0.4390425057352612,1.793588525081346e-15
-0.9951875,0.4391220445264989,1.988731823809117e-15
-0.995125,0.4389629669440234,2.202183823416237e-15
-0.9950625,0.4390425057352612,2.435394792982331e-15
-0.995,0.4389629669440234,2.689909192850398e-15
-0.9949375,0.4390425057352612,2.96737047815226e-15
-0.994875,0.4391220445264989,3.269526081575309e-15
-0.9948125,0.4389629669440234,3.598232579636458e-15
-0.99475,0.4391220445264989,3.95546104677251e-15
-0.9946874999999999,0.4390425057352612,4.343302601599191e-15
-0.994625,0.4390425057352612,4.763974149733946e-15
-0.9945625,0.4390425057352612,5.219824327620111e-15
-0.9945000000000001,0.4388834281527857,5.713339651832451e-15
-0.9944375,0.4388834281527857,6.247150878386095e-15
-0.994375,0.4390425057352612,6.824039576612755e-15
-0.9943125,0.4389629669440234,7.446944922209721e-15
-0.99425,0.4388834281527857,8.118970714108462e-15
-0.9941875,0.438803889361548,8.843392619850785e-15
-0.994125,0.438803889361548,9.62366565420134e-15
-0.9940625,0.4388834281527857,1.046343189576598e-14
-0.994,0.4387243505703102,1.136652844642574e-14
-0.9939375,0.4386448117790726,1.233699563843644e-14
-0.993875,0.438803889361548,1.337908549408387e-14
-0.9938125,0.4387243505703102,1.449727044282405e-14
-0.99375,0.438803889361548,1.569625230087756e-14
-0.9936874999999999,0.4387243505703102,1.698097151828621e-14
-0.993625,0.4387243505703102,1.835661669847916e-14
-0.9935625,0.4386448117790726,1.982863439543425e-14
-0.9935,0.4387243505703102,2.140273919355901e-14
-0.9934375,0.4386448117790726,2.308492407545383e-14
-0.993375,0.438803889361548,2.48814710827579e-14
-0.9933125,0.4387243505703102,2.679896227531607e-14
-0.99325,0.4385652729878348,2.884429099394264e-14
-0.9931875,0.4386448117790726,3.102467343209503e-14
-0.993125,0.4385652729878348,3.334766052180727e-14
-0.9930625,0.4385652729878348,3.582115013927062e-14
-0.993,0.4384857341965971,3.845339963548407e-14
-0.9929375,0.4384061954053594,4.125303869743501e-14
-0.992875,0.4384061954053594,4.422908254530563e-14
-0.9928125,0.4385652729878348,4.739094547123664e-14
-0.99275,0.4384857341965971,5.074845472521554e-14
-0.9926874999999999,0.4384857341965971,5.431186475369223e-14
-0.992625,0.4383266566141216,5.809187179655921e-14
-0.9925625,0.4383266566141216,6.209962884816936e-14
-0.9925,0.4384857341965971,6.634676098809831e-14
-0.9924375,0.4382471178228839,7.084538108739285e-14
-0.992375,0.4382471178228839,7.560810589608158e-14
-0.9923125,0.4381675790316462,8.06480725177571e-14
-0.99225,0.4382471178228839,8.597895527707347e-14
-0.9921875,0.4382471178228839,9.161498298603575e-14
-0.992125,0.4382471178228839,9.757095661499169e-14
-0.9920625,0.4382471178228839,1.038622673742689e-13
-0.992,0.4380880402404084,1.105049152124332e-13
-0.9919375,0.4381675790316462,1.17515527737176e-13
-0.991875,0.4380880402404084,1.249113795648731e-13
-0.9918125,0.4380085014491707,1.327104121048849e-13
-0.99175,0.437928962657933,1.409312537847049e-13
-0.9916875000000001,0.437928962657933,1.495932407220911e-13
-0.991625,0.437928962657933,1.587164378503482e-13
-0.9915625,0.4378494238666953,1.683216605029586e-13
-0.9915,0.4378494238666953,1.78430496463792e-13
-0.9914375,0.4376903462842198,1.890653284891526e-13
-0.991375,0.4376108074929821,2.002493573079554e-13
-0.9913125,0.4376108074929821,2.120066251063503e-13
-0.99125,0.4376903462842198,2.243620395031454e-13
-0.9911875,0.4376903462842198,2.373413980224096e-13
-0.991125,0.4376903462842198,2.509714130696624e-13
-0.9910625,0.4376903462842198,2.652797374180907e-13
-0.991,0.4376108074929821,2.802949902112608e-13
-0.9909375,0.4376903462842198,2.960467834888194e-13
-0.990875,0.4377698850754576,3.125657492417113e-13
-0.9908125,0.4377698850754576,3.298835670034646e-13
-0.99075,0.4377698850754576,3.48032991984126e-13
-0.9906875000000001,0.4378494238666953,3.670478837534539e-13
-0.990625,0.4377698850754576,3.86963235480007e-13
-0.9905625,0.4376108074929821,4.078152037327916e-13
-0.9905,0.4378494238666953,4.296411388521585e-13
-0.9904375,0.4377698850754576,4.524796158966665e-13
-0.990375,0.4377698850754576,4.763704661726599e-13
-0.9903125,0.4377698850754576,5.013548093533257e-13
-0.99025,0.4377698850754576,5.274750861940341e-13
-0.9901875,0.4378494238666953,5.547750918507785e-13
-0.990125,0.4380085014491707,5.833000098085687e-13
-0.9900625,0.437928962657933,6.13096446426649e-13
-0.99,0.437928962657933,6.442124661074406e-13
-0.9899375,0.4380085014491707,6.766976270961334e-13
-0.9898749999999999,0.4380880402404084,7.106030179178761e-13
-0.9898125,0.4380085014491707,7.459812944595374e-13
-0.98975,0.437928962657933,7.828867177030367e-13
-0.9896875000000001,0.4380880402404084,8.213751921172673e-13
-0.989625,0.4380880402404084,8.61504304715657e-13
-0.9895625,0.4380085014491707,9.033333647864345e-13
-0.9895,0.4381675790316462,9.469234443026969e-13
-0.9894375,0.4381675790316462,9.923374190193922e-13
-0.989375,0.4381675790316462,1.039640010264358e-12
-0.9893125,0.4380880402404084,1.088897827430574e-12
-0.98925,0.4381675790316462,1.140179411176819e-12
-0.9891875,0.4382471178228839,1.193555277343934e-12
-0.989125,0.4382471178228839,1.249097961593915e-12
-0.9890625,0.4381675790316462,1.306882064779097e-12
-0.989,0.4381675790316462,1.3669842990487e-12
-0.9889375,0.4382471178228839,1.42948353470001e-12
-0.9888749999999999,0.4382471178228839,1.494460847781537e-12
-0.9888125,0.4381675790316462,1.561999568455473e-12
-0.98875,0.4380880402404084,1.63218533012679e-12
-0.9886875000000001,0.4381675790316462,1.705106119346389e-12
-0.988625,0.4382471178228839,1.780852326495656e-12
-0.9885625,0.4381675790316462,1.859516797259882e-12
-0.9885,0.4382471178228839,1.941194884897938e-12
-0.9884375,0.4382471178228839,2.025984503315707e-12
-0.988375,0.4382471178228839,2.113986180950711e-12
-0.9883125,0.4383266566141216,2.205303115475441e-12
-0.98825,0.4384061954053594,2.300041229326913e-12
-0.9881875,0.4384061954053594,2.398309226069953e-12
-0.988125,0.4384857341965971,2.500218647601792e-12
-0.9880625,0.4384061954053594,2.60588393220552e-12
-0.988,0.4384061954053594,2.715422473459986e-12
-0.9879375,0.4383266566141216,2.828954680013748e-12
-0.9878749999999999,0.4385652729878348,2.946604036230707e-12
-0.9878125,0.4384061954053594,3.068497163715038e-12
-0.98775,0.4385652729878348,3.194763883723097e-12
-0.9876875000000001,0.4385652729878348,3.325537280469958e-12
-0.987625,0.4384061954053594,3.46095376533829e-12
-0.9875625,0.4383266566141216,3.601153141997247e-12
-0.9875,0.4384857341965971,3.746278672439125e-12
-0.9874375,0.4385652729878348,3.896477143941504e-12
-0.987375,0.4385652729878348,4.051898936962636e-12
-0.9873125,0.4384857341965971,4.212698093977833e-12
-0.98725,0.4384857341965971,4.37903238926467e-12
-0.9871875,0.4385652729878348,4.551063399644763e-12
-0.987125,0.4385652729878348,4.728956576189969e-12
-0.9870625,0.4385652729878348,4.91288131690081e-12
-0.987,0.4386448117790726,5.103011040364989e-12
-0.9869375,0.438803889361548,5.299523260403837e-12
-0.9868749999999999,0.4387243505703102,5.502599661714561e-12
-0.9868125,0.438803889361548,5.712426176516198e-12
-0.98675,0.4388834281527857,5.929193062207151e-12
-0.9866875000000001,0.438803889361548,6.153094980042232e-12
-0.986625,0.4388834281527857,6.384331074837138e-12
-0.9865625,0.438803889361548,6.623105055708278e-12
-0.9865,0.4388834281527857,6.869625277855952e-12
-0.9864375,0.4388834281527857,7.124104825398764e-12
-0.986375,0.4388834281527857,7.386761595267337e-12
-0.9863125,0.4389629669440234,7.657818382165243e-12
-0.98625,0.4389629669440234,7.9375029646052e-12
-0.9861875,0.4389629669440234,8.226048192028503e-12
-0.986125,0.4388834281527857,8.523692073015752e-12
-0.9860625,0.4390425057352612,8.830677864596896e-12
-0.986,0.4391220445264989,9.147254162668615e-12
-0.9859375,0.4390425057352612,9.47367499352714e-12
-0.9858749999999999,0.4389629669440234,9.810199906524544e-12
-0.9858125,0.4388834281527857,1.01570940678566e-11
-0.98575,0.4389629669440234,1.051462835549027e-11
-0.9856875,0.4389629669440234,1.088307945523897e-11
-0.985625,0.4388834281527857,1.126272995799363e-11
-0.9855625,0.4389629669440234,1.165386845811781e-11
-0.9855,0.4389629669440234,1.205678965301483e-11
-0.9854375,0.4388834281527857,1.247179444387516e-11
-0.985375,0.4389629669440234,1.28991900376122e-11
-0.9853125,0.4390425057352612,1.333929004999456e-11
-0.98525,0.4390425057352612,1.379241460998306e-11
-0.9851875,0.4390425057352612,1.42588904652806e-11
-0.985125,0.4389629669440234,1.473905108910297e-11
-0.9850625,0.4390425057352612,1.523323678817907e-11
-0.985,0.4389629669440234,1.574179481198836e-11
-0.9849375,0.4390425057352612,1.626507946324403e-11
-0.9848749999999999,0.4390425057352612,1.680345220963004e-11
-0.9848125,0.4391220445264989,1.735728179680006e-11
-0.98475,0.4392015833177366,1.792694436264688e-11
-0.9846875,0.4391220445264989,1.85128235528501e-11
-0.984625,0.4392015833177366,1.911531063771078e-11
-0.9845625,0.4392015833177366,1.973480463028089e-11
-0.9845,0.4392015833177366,2.037171240579606e-11
-0.9844375,0.4391220445264989,2.102644882241984e-11
-0.984375,0.4389629669440234,2.16994368433077e-11
-0.9843125,0.4390425057352612,2.239110765999895e-11
-0.98425,0.4389629669440234,2.310190081714504e-11
-0.9841875,0.4390425057352612,2.383226433858242e-11
-0.984125,0.4390425057352612,2.458265485475817e-11
-0.9840625,0.4390425057352612,2.535353773151681e-11
-0.984,0.4389629669440234,2.614538720025652e-11
-0.9839375,0.4390425057352612,2.695868648946307e-11
-0.9838750000000001,0.4389629669440234,2.779392795762974e-11
-0.9838125,0.438803889361548,2.86516132275716e-11
-0.98375,0.438803889361548,2.95322533221424e-11
-0.9836875,0.4388834281527857,3.043636880136235e-11
-0.983625,0.4389629669440234,3.136448990096521e-11
-0.9835625,0.4388834281527857,3.231715667237292e-11
-0.9835,0.4388834281527857,3.329491912410614e-11
-0.9834375,0.4389629669440234,3.429833736463892e-11
-0.983375,0.4388834281527857,3.532798174670599e-11
-0.9833125,0.438803889361548,3.638443301307095e-11
-0.98325,0.4387243505703102,3.746828244376349e-11
-0.9831875,0.438803889361548,3.858013200479428e-11
-0.983125,0.4386448117790726,3.972059449835572e-11
-0.9830625,0.4386448117790726,4.089029371451678e-11
-0.983,0.438803889361548,4.208986458442049e-11
-0.9829375,0.4387243505703102,4.331995333499224e-11
-0.9828750000000001,0.438803889361548,4.458121764516733e-11
-0.9828125,0.4386448117790726,4.587432680364595e-11
-0.98275,0.4386448117790726,4.719996186818431e-11
-0.9826875,0.4385652729878348,4.855881582642973e-11
-0.982625,0.4384857341965971,4.99515937583085e-11
-0.9825625,0.4384857341965971,5.137901299997453e-11
-0.9825,0.4383266566141216,5.284180330932738e-11
-0.9824375,0.4383266566141216,5.43407070331078e-11
-0.982375,0.4384061954053594,5.587647927557932e-11
-0.9823125,0.4383266566141216,5.744988806880393e-11
-0.98225,0.4382471178228839,5.906171454452061e-11
-0.9821875,0.4382471178228839,6.071275310763477e-11
-0.982125,0.4381675790316462,6.240381161132678e-11
-0.9820624999999999,0.4380085014491707,6.413571153378853e-11
-0.982,0.4381675790316462,6.590928815659559e-11
-0.9819375,0.4380880402404084,6.772539074472386e-11
-0.9818750000000001,0.4377698850754576,6.958488272821885e-11
-0.9818125,0.437928962657933,7.14886418855259e-11
-0.98175,0.4380880402404084,7.343756052848968e-11
-0.9816875,0.4378494238666953,7.543254568903132e-11
-0.981625,0.4377698850754576,7.747451930751147e-11
-0.9815625,0.4377698850754576,7.956441842278757e-11
-0.9815,0.4377698850754576,8.17031953639739e-11
-0.9814375,0.4376903462842198,8.38918179439121e-11
-0.981375,0.4376903462842198,8.613126965436137e-11
-0.9813125,0.4377698850754576,8.842254986291578e-11
-0.98125,0.4378494238666953,9.076667401165751e-11
-0.9811875,0.4376903462842198,9.316467381755433e-11
-0.981125,0.4377698850754576,9.561759747460915e-11
-0.9810624999999999,0.4377698850754576,9.812650985777047e-11
-0.981,0.4377698850754576,1.006924927286117e-10
-0.9809375,0.4378494238666953,1.033166449427881e-10
-0.9808750000000001,0.437928962657933,1.060000826592781e-10
-0.9808125,0.4378494238666953,1.087439395514201e-10
-0.98075,0.4378494238666953,1.115493670197496e-10
-0.9806875,0.4377698850754576,1.14417534406648e-10
-0.980625,0.4377698850754576,1.173496292128089e-10
-0.9805625,0.4376903462842198,1.203468573155322e-10
-0.9805,0.4378494238666953,1.234104431888521e-10
-0.9804375,0.437928962657933,1.265416301255096e-10
-0.980375,0.437928962657933,1.297416804607752e-10
-0.9803125,0.4377698850754576,1.330118757981328e-10
-0.98025,0.4377698850754576,1.363535172368301e-10
-0.9801875,0.4378494238666953,1.397679256013061e-10
-0.980125,0.437928962657933,1.432564416725027e-10
-0.9800624999999999,0.4380085014491707,1.468204264210686e-10
-0.98,0.4380085014491707,1.504612612424641e-10
-0.9799375,0.437928962657933,1.541803481939752e-10
-0.9798750000000001,0.437928962657933,1.579791102336439e-10
-0.9798125,0.4378494238666953,1.618589914611244e-10
-0.97975,0.4378494238666953,1.658214573604729e-10
-0.9796875,0.437928962657933,1.698679950448781e-10
-0.979625,0.4380085014491707,1.74000113503342e-10
-0.9795625,0.4380085014491707,1.782193438493184e-10
-0.9795,0.437928962657933,1.825272395713173e-10
-0.9794375,0.437928962657933,1.869253767854834e-10
-0.979375,0.4380880402404084,1.914153544901566e-10
-0.9793125,0.4380880402404084,1.959987948224226e-10
-0.97925,0.4380880402404084,2.006773433166622e-10
-0.9791875,0.4382471178228839,2.054526691651073e-10
-0.979125,0.4381675790316462,2.1032646548041e-10
-0.9790624999999999,0.4381675790316462,2.153004495602356e-10
-0.979,0.4381675790316462,2.203763631538855e-10
-0.9789375,0.4380085014491707,2.25555972730959e-10
-0.9788750000000001,0.4381675790316462,2.308410697520613e-10
-0.9788125,0.4381675790316462,2.362334709415663e-10
-0.97875,0.4381675790316462,2.417350185624424e-10
-0.9786875,0.4382471178228839,2.473475806931484e-10
-0.978625,0.4382471178228839,2.530730515066079e-10
-0.9785625,0.4382471178228839,2.58913351551271e-10
-0.9785,0.4383266566141216,2.648704280342699e-10
-0.9784375,0.4382471178228839,2.709462551066768e-10
-0.978375,0.4384857341965971,2.771428341508728e-10
-0.9783125,0.4384061954053594,2.834621940700348e-10
-0.97825,0.4384857341965971,2.899063915797484e-10
-0.9781875,0.4385652729878348,2.964775115017553e-10
-0.978125,0.4384857341965971,3.031776670598424e-10
-0.9780624999999999,0.4385652729878348,3.10009000177881e-10
-0.978,0.4385652729878348,3.169736817800236e-10
-0.9779375,0.4386448117790726,3.240739120930658e-10
-0.977875,0.4386448117790726,3.313119209509833e-10
-0.9778125,0.4386448117790726,3.386899681016472e-10
-0.97775,0.4387243505703102,3.462103435157314e-10
-0.9776875,0.438803889361548,3.538753676978148e-10
-0.977625,0.438803889361548,3.616873919996886e-10
-0.9775625,0.438803889361548,3.696487989358766e-10
-0.9775,0.4387243505703102,3.777620025013745e-10
-0.9774375,0.4388834281527857,3.860294484916177e-10
-0.977375,0.4388834281527857,3.944536148246847e-10
-0.9773125,0.4389629669440234,4.030370118657438e-10
-0.97725,0.4388834281527857,4.117821827537498e-10
-0.9771875,0.4388834281527857,4.206917037304009e-10
-0.977125,0.4388834281527857,4.297681844713605e-10
-0.9770624999999999,0.4390425057352612,4.390142684197539e-10
-0.977,0.4389629669440234,4.484326331219456e-10
-0.9769375,0.4389629669440234,4.580259905656069e-10
-0.976875,0.4391220445264989,4.677970875200793e-10
-0.9768125,0.4391220445264989,4.777487058790429e-10
-0.97675,0.4390425057352612,4.878836630054963e-10
