Task5_10Hz_500mV_45+10.csv

#Digilent WaveForms Oscilloscope Acquisition
#Device Name: Discovery3
#Serial Number: SN:210415BD63A1
#Date Time: 2026-09-24 11:25:12.397.495.820
#Sample rate: 16000Hz
#Samples: 28243
#Trigger: Source: Channel 1 Type: Edge Condition: Rising Level: 0 V Hyst.: Auto HoldOff: 0 s
#Channel 1: Range: 500 mV/div Offset: 0 V Sample Mode: Average
#Math 1: Input: C1 Reference: Internal Frequency: 10 Hz Phase: 90 ° Filter: IIR Butterworth 8  Low-Pass CutOff: 2 Hz Output: Amplitude

#Wavegen Channel 1: Running
#Mode: Simple
#Type: Sine
#Frequency: 10 Hz
#Period: 100 ms
#Amplitude: 500 mV
#Offset: 0 V
#Symmetry: 50 %
#Phase: 0 °

Time (s),Channel 1 (V),Math 1 (V)
-1,0.2754312121592582,1.554598421151744e-28
-0.9999375,0.331585598773093,2.673884974904634e-27
-0.999875,0.3316651375643306,2.306911776122207e-26
-0.9998125,0.3316651375643306,1.339900422655149e-25
-0.99975,0.331585598773093,5.930358144714207e-25
-0.9996875,0.331585598773093,2.144977614597252e-24
-0.999625,0.3315060599818552,6.633786344098317e-24
-0.9995625,0.3315060599818552,1.810679314283033e-23
-0.9995000000000001,0.3316651375643306,4.464045174204749e-23
-0.9994375,0.331585598773093,1.011641486564569e-22
-0.999375,0.331585598773093,2.136052891067461e-22
-0.9993125,0.331585598773093,4.247254765241287e-22
-0.99925,0.3315060599818552,8.020640031094702e-22
-0.9991875,0.3314265211906175,1.448451076957836e-21
-0.999125,0.3315060599818552,2.515599225041373e-21
-0.9990625,0.3314265211906175,4.221327128567028e-21
-0.999,0.3314265211906175,6.871015766944865e-21
-0.9989375,0.3313469823993798,1.088394216944699e-20
-0.998875,0.3313469823993798,1.682518130068328e-20
-0.9988125,0.3313469823993798,2.54438116373558e-20
-0.99875,0.3313469823993798,3.771820482879423e-20
-0.9986875,0.331267443608142,5.490922447265593e-20
-0.998625,0.3313469823993798,7.862220348097417e-20
-0.9985625,0.3313469823993798,1.108786137614862e-19
-0.9985000000000001,0.3311879048169043,1.541983859954485e-19
-0.9984375,0.3311083660256666,2.116938811563039e-19
-0.998375,0.3311083660256666,2.871765590828798e-19
-0.9983125,0.331267443608142,3.852774328936828e-19
-0.99825,0.3311083660256666,5.115824413030732e-19
-0.9981875,0.3311083660256666,6.727839139769803e-19
-0.998125,0.3311083660256666,8.768493479490367e-19
-0.9980625,0.3311879048169043,1.13320875580945e-18
-0.998,0.3311083660256666,1.452961888877966e-18
-0.9979375,0.3309492884431911,1.849106680878649e-18
-0.997875,0.3309492884431911,2.33679029974846e-18
-0.9978125,0.3307902108607157,2.933584237132599e-18
-0.99775,0.3309492884431911,3.65978490684349e-18
-0.9976874999999999,0.3309492884431911,4.538741265084479e-18
-0.997625,0.330710672069478,5.597211006564523e-18
-0.9975625,0.330710672069478,6.86574693175995e-18
-0.9975000000000001,0.330710672069478,8.379115121515788e-18
-0.9974375,0.3306311332782402,1.017674659592028e-17
-0.997375,0.3306311332782402,1.230322417492966e-17
-0.9973125,0.3305515944870025,1.48088062985654e-17
-0.99725,0.3306311332782402,1.774998960465558e-17
-0.9971875,0.3304720556957648,2.119011210204622e-17
-0.997125,0.3304720556957648,2.519999881696907e-17
-0.9970625,0.3306311332782402,2.985865182981883e-17
-0.997,0.3304720556957648,3.525398665896662e-17
-0.9969375,0.3305515944870025,4.148361698741728e-17
-0.996875,0.3305515944870025,4.865568976710918e-17
-0.9968125,0.3304720556957648,5.688977277445753e-17
-0.99675,0.330392516904527,6.631779672935537e-17
-0.9966874999999999,0.3304720556957648,7.708505412827092e-17
-0.996625,0.3304720556957648,8.935125698031214e-17
-0.9965625,0.3304720556957648,1.032916556731697e-16
-0.9965000000000001,0.3305515944870025,1.190982212336995e-16
-0.9964375,0.330392516904527,1.369808932855656e-16
-0.996375,0.3305515944870025,1.571688960438396e-16
-0.9963125,0.3305515944870025,1.799121247237386e-16
-0.99625,0.3305515944870025,2.054826047777859e-16
-0.9961875,0.330710672069478,2.341760264125931e-16
-0.996125,0.3306311332782402,2.66313356873187e-16
-0.9960625,0.3306311332782402,3.022425330193602e-16
-0.996,0.3306311332782402,3.423402367548793e-16
-0.9959375,0.3306311332782402,3.870137559065734e-16
-0.995875,0.330710672069478,4.367029331863176e-16
-0.9958125,0.3307902108607157,4.918822059047377e-16
-0.99575,0.330710672069478,5.530627391410835e-16
-0.9956874999999999,0.3307902108607157,6.207946551091607e-16
-0.995625,0.3307902108607157,6.956693614944616e-16
-0.9955625,0.3308697496519534,7.783219815727196e-16
-0.9955000000000001,0.330710672069478,8.694338889549905e-16
-0.9954375,0.3307902108607157,9.697353498390847e-16
-0.995375,0.3307902108607157,1.080008275681682e-15
-0.9953125,0.3307902108607157,1.201089089239814e-15
-0.99525,0.3308697496519534,1.333871706964529e-15
-0.9951875,0.3308697496519534,1.479310640763536e-15
-0.995125,0.3307902108607157,1.63842422218339e-15
-0.9950625,0.3307902108607157,1.812297952095386e-15
-0.995,0.3309492884431911,2.002087979002717e-15
-0.9949375,0.3309492884431911,2.209024709119727e-15
-0.994875,0.3308697496519534,2.434416551407064e-15
-0.9948125,0.3309492884431911,2.679653800779467e-15
-0.99475,0.3309492884431911,2.946212662735534e-15
-0.9946874999999999,0.3309492884431911,3.23565942269137e-15
-0.994625,0.3308697496519534,3.549654763332272e-15
-0.9945625,0.3309492884431911,3.889958233328794e-15
-0.9945000000000001,0.3310288272344288,4.258432870795424e-15
-0.9944375,0.3308697496519534,4.657049984901892e-15
-0.994375,0.3309492884431911,5.087894099078715e-15
-0.9943125,0.3310288272344288,5.553168059289946e-15
-0.99425,0.3309492884431911,6.055198310877298e-15
-0.9941875,0.3310288272344288,6.596440347510909e-15
-0.994125,0.3310288272344288,7.179484335812741e-15
-0.9940625,0.3310288272344288,7.807060919249373e-15
-0.994,0.3310288272344288,8.482047204921337e-15
-0.9939375,0.3311879048169043,9.207472936906551e-15
-0.993875,0.3311879048169043,9.98652685984537e-15
-0.9938125,0.3313469823993798,1.082256327648485e-14
-0.99375,0.3311879048169043,1.171910880292956e-14
-0.9936874999999999,0.331267443608142,1.267986932537564e-14
-0.993625,0.331267443608142,1.370873716213473e-14
-0.9935625,0.331267443608142,1.480979843478284e-14
-0.9935,0.3314265211906175,1.598734065229917e-14
-0.9934375,0.331267443608142,1.724586051208796e-14
-0.993375,0.3313469823993798,1.859007192180573e-14
-0.9933125,0.3313469823993798,2.002491424594435e-14
-0.99325,0.3314265211906175,2.155556078114903e-14
-0.9931875,0.3313469823993798,2.318742746427824e-14
-0.993125,0.3315060599818552,2.492618181724069e-14
-0.9930625,0.3314265211906175,2.677775213267215e-14
-0.993,0.331585598773093,2.874833690454265e-14
-0.9929375,0.3314265211906175,3.084441450781191e-14
-0.992875,0.3315060599818552,3.30727531312781e-14
-0.9928125,0.331585598773093,3.544042096779227e-14
-0.99275,0.331585598773093,3.795479666603748e-14
-0.9926874999999999,0.3317446763555684,4.062358004809852e-14
-0.992625,0.3317446763555684,4.345480309707453e-14
-0.9925625,0.331585598773093,4.645684121901336e-14
-0.9925,0.3316651375643306,4.963842478347257e-14
-0.9924375,0.3317446763555684,5.300865094703798e-14
-0.992375,0.3316651375643306,5.657699576415664e-14
-0.9923125,0.3317446763555684,6.035332658966668e-14
-0.99225,0.3316651375643306,6.434791477743187e-14
-0.9921875,0.331585598773093,6.85714486795143e-14
-0.992125,0.3315060599818552,7.303504695034329e-14
-0.9920625,0.3317446763555684,7.77502721603641e-14
-0.992,0.3318242151468061,8.272914472367438e-14
-0.9919375,0.3317446763555684,8.798415714418091e-14
-0.991875,0.3318242151468061,9.352828858483377e-14
-0.9918125,0.3317446763555684,9.937501976451918e-14
-0.99175,0.3318242151468061,1.055383481872163e-13
-0.9916875000000001,0.3318242151468061,1.120328037080473e-13
-0.991625,0.3318242151468061,1.188734644408731e-13
-0.9915625,0.3317446763555684,1.260759730121125e-13
-0.9915,0.3318242151468061,1.336565531654824e-13
-0.9914375,0.3319037539380438,1.416320267223839e-13
-0.991375,0.3319037539380438,1.500198309026797e-13
-0.9913125,0.3319832927292816,1.588380360106309e-13
-0.99125,0.3319037539380438,1.681053634907856e-13
-0.9911875,0.3319832927292816,1.778412043586321e-13
-0.991125,0.3319832927292816,1.88065638010854e-13
-0.9910625,0.3319037539380438,1.987994514200448e-13
-0.991,0.3320628315205193,2.10064158718762e-13
-0.9909375,0.3320628315205193,2.218820211778237e-13
-0.990875,0.3319832927292816,2.342760675837708e-13
-0.9908125,0.3319832927292816,2.472701150204389e-13
-0.99075,0.3319832927292816,2.608887900596079e-13
-0.9906875000000001,0.3319037539380438,2.751575503657159e-13
-0.990625,0.3319037539380438,2.901027067196454e-13
-0.9905625,0.3319832927292816,3.05751445466611e-13
-0.9905,0.3319832927292816,3.221318513931986e-13
-0.9904375,0.3319832927292816,3.39272931038625e-13
-0.990375,0.3320628315205193,3.572046364453101e-13
-0.9903125,0.3319832927292816,3.759578893538681e-13
-0.99025,0.3318242151468061,3.955646058476528e-13
-0.9901875,0.3319037539380438,4.160577214520014e-13
-0.990125,0.3318242151468061,4.374712166933497e-13
-0.9900625,0.3319037539380438,4.598401431234062e-13
-0.99,0.3319832927292816,4.832006498135918e-13
-0.9899375,0.3319037539380438,5.075900103249727e-13
-0.9898749999999999,0.3317446763555684,5.330466501589311e-13
-0.9898125,0.3319037539380438,5.596101746938393e-13
-0.98975,0.3319037539380438,5.873213976130176e-13
-0.9896875000000001,0.3318242151468061,6.162223698292784e-13
-0.989625,0.3318242151468061,6.463564089113737e-13
-0.9895625,0.3318242151468061,6.777681290176858e-13
-0.9895,0.3317446763555684,7.105034713425116e-13
-0.9894375,0.3318242151468061,7.446097350803165e-13
-0.989375,0.3317446763555684,7.801356089133443e-13
-0.9893125,0.3318242151468061,8.17131203027992e-13
-0.98925,0.3318242151468061,8.556480816653739e-13
-0.9891875,0.3316651375643306,8.957392962115121e-13
-0.989125,0.3316651375643306,9.374594188326145e-13
-0.9890625,0.3318242151468061,9.808645766609134e-13
-0.989,0.3317446763555684,1.026012486536555e-12
-0.9889375,0.3317446763555684,1.072962490311044e-12
-0.9888749999999999,0.331585598773093,1.121775590717771e-12
-0.9888125,0.331585598773093,1.172514487815158e-12
-0.98875,0.3315060599818552,1.225243616007971e-12
-0.9886875000000001,0.3316651375643306,1.280029181652384e-12
-0.988625,0.331585598773093,1.336939201250364e-12
-0.9885625,0.3315060599818552,1.396043540238983e-12
-0.9885,0.3315060599818552,1.457413952380278e-12
-0.9884375,0.3314265211906175,1.521124119757281e-12
-0.988375,0.3313469823993798,1.587249693381862e-12
-0.9883125,0.331267443608142,1.655868334420056e-12
-0.98825,0.331267443608142,1.72705975604054e-12
-0.9881875,0.3311879048169043,1.80090576589194e-12
-0.988125,0.3310288272344288,1.877490309214687e-12
-0.9880625,0.3311083660256666,1.956899512593122e-12
-0.988,0.3311083660256666,2.039221728353587e-12
-0.9879375,0.3311879048169043,2.124547579614247e-12
-0.9878749999999999,0.3311083660256666,2.212970005992386e-12
-0.9878125,0.3309492884431911,2.304584309974957e-12
-0.98775,0.3310288272344288,2.399488203958176e-12
-0.9876875000000001,0.3309492884431911,2.497781857961925e-12
-0.987625,0.3307902108607157,2.599567948024806e-12
-0.9875625,0.330710672069478,2.704951705285639e-12
-0.9875,0.3307902108607157,2.814040965757254e-12
-0.9874375,0.330710672069478,2.926946220798415e-12
-0.987375,0.3305515944870025,3.043780668289715e-12
-0.9873125,0.3306311332782402,3.164660264519348e-12
-0.98725,0.330710672069478,3.289703776784603e-12
-0.9871875,0.3305515944870025,3.419032836714972e-12
-0.987125,0.3305515944870025,3.552771994322808e-12
-0.9870625,0.3303129781132893,3.691048772787403e-12
-0.987,0.3303129781132893,3.83399372397844e-12
-0.9869375,0.330392516904527,3.981740484724737e-12
-0.9868749999999999,0.330392516904527,4.134425833834233e-12
-0.9868125,0.330392516904527,4.292189749871182e-12
-0.98675,0.3303129781132893,4.455175469696502e-12
-0.9866875000000001,0.3301539005308138,4.623529547777276e-12
-0.986625,0.3302334393220516,4.797401916271368e-12
-0.9865625,0.3304720556957648,4.976945945893167e-12
-0.9865,0.3303129781132893,5.162318507566464e-12
-0.9864375,0.330392516904527,5.353680034870462e-12
-0.986375,0.3304720556957648,5.551194587284959e-12
-0.9863125,0.330392516904527,5.755029914240728e-12
-0.98625,0.330392516904527,5.965357519981146e-12
-0.9861875,0.330392516904527,6.182352729241107e-12
-0.986125,0.330392516904527,6.40619475374929e-12
-0.9860625,0.3304720556957648,6.637066759559848e-12
-0.986,0.3304720556957648,6.875155935219597e-12
-0.9859375,0.3304720556957648,7.120653560776778e-12
-0.9858749999999999,0.3304720556957648,7.373755077637502e-12
-0.9858125,0.330392516904527,7.634660159275964e-12
-0.98575,0.3304720556957648,7.903572782804536e-12
-0.9856875,0.3305515944870025,8.18070130140987e-12
-0.985625,0.3304720556957648,8.466258517661097e-12
-0.9855625,0.3305515944870025,8.760461757696325e-12
-0.9855,0.3304720556957648,9.063532946293453e-12
-0.9854375,0.3305515944870025,9.375698682831596e-12
-0.985375,0.3305515944870025,9.697190318149126e-12
-0.9853125,0.3305515944870025,1.002824403230461e-11
-0.98525,0.3306311332782402,1.03691009132467e-11
-0.9851875,0.3304720556957648,1.072000703639926e-11
-0.985125,0.3306311332782402,1.108121354516776e-11
-0.9850625,0.3306311332782402,1.145297673237332e-11
-0.985,0.330710672069478,1.183555812262036e-11
-0.9849375,0.330710672069478,1.222922455560422e-11
-0.9848749999999999,0.3307902108607157,1.263424827036494e-11
-0.9848125,0.3307902108607157,1.305090699049327e-11
-0.98475,0.3308697496519534,1.347948401029526e-11
-0.9846875,0.3308697496519534,1.392026828192162e-11
-0.984625,0.3309492884431911,1.437355450346802e-11
-0.9845625,0.3310288272344288,1.483964320805253e-11
-0.9845,0.3310288272344288,1.531884085387659e-11
-0.9844375,0.3311083660256666,1.581145991527555e-11
-0.984375,0.3310288272344288,1.631781897476513e-11
-0.9843125,0.3310288272344288,1.683824281609003e-11
-0.98425,0.3309492884431911,1.737306251828089e-11
-0.9841875,0.3310288272344288,1.792261555072594e-11
-0.984125,0.3311083660256666,1.848724586926345e-11
-0.9840625,0.3309492884431911,1.906730401330139e-11
-0.984,0.3311083660256666,1.966314720397051e-11
-0.9839375,0.3311083660256666,2.027513944331701e-11
-0.9838750000000001,0.3311879048169043,2.090365161454128e-11
-0.9838125,0.3311083660256666,2.154906158328866e-11
-0.98375,0.331267443608142,2.221175429999889e-11
-0.9836875,0.331267443608142,2.289212190332018e-11
-0.983625,0.3313469823993798,2.359056382459435e-11
-0.9835625,0.3313469823993798,2.430748689341931e-11
-0.9835,0.3313469823993798,2.504330544429514e-11
-0.9834375,0.3313469823993798,2.579844142436004e-11
-0.983375,0.3313469823993798,2.657332450222243e-11
-0.9833125,0.3314265211906175,2.736839217789562e-11
-0.98325,0.3315060599818552,2.81840898938411e-11
-0.9831875,0.3314265211906175,2.902087114712698e-11
-0.983125,0.3315060599818552,2.987919760270767e-11
-0.9830625,0.331585598773093,3.075953920783133e-11
-0.983,0.3315060599818552,3.166237430758119e-11
-0.9829375,0.331585598773093,3.2588189761557e-11
-0.9828750000000001,0.3315060599818552,3.353748106170322e-11
-0.9828125,0.3316651375643306,3.451075245128981e-11
-0.98275,0.331585598773093,3.550851704505235e-11
-0.9826875,0.331585598773093,3.653129695049742e-11
-0.982625,0.3316651375643306,3.757962339037982e-11
-0.9825625,0.3317446763555684,3.865403682635776e-11
-0.9825,0.331585598773093,3.975508708383233e-11
-0.9824375,0.3316651375643306,4.08833334779778e-11
-0.982375,0.3316651375643306,4.20393449409685e-11
-0.9823125,0.3317446763555684,4.32237001504093e-11
-0.98225,0.3317446763555684,4.443698765897532e-11
-0.9821875,0.3318242151468061,4.567980602526761e-11
-0.982125,0.3317446763555684,4.695276394589091e-11
-0.9820624999999999,0.3319037539380438,4.825648038875975e-11
-0.982,0.3319832927292816,4.959158472763942e-11
-0.9819375,0.3319037539380438,5.095871687792777e-11
-0.9818750000000001,0.3319037539380438,5.235852743368438e-11
-0.9818125,0.3318242151468061,5.379167780591333e-11
-0.98175,0.3319832927292816,5.525884036210574e-11
-0.9816875,0.3318242151468061,5.676069856704858e-11
-0.981625,0.3319037539380438,5.829794712490585e-11
-0.9815625,0.3319037539380438,5.98712921225785e-11
-0.9815,0.3319037539380438,6.148145117434932e-11
-0.9814375,0.3319832927292816,6.312915356781915e-11
-0.981375,0.3319037539380438,6.481514041114068e-11
-0.9813125,0.3319037539380438,6.654016478155586e-11
-0.98125,0.3319037539380438,6.83049918752438e-11
-0.9811875,0.3319832927292816,7.011039915848452e-11
-0.981125,0.3319037539380438,7.195717652014584e-11
-0.9810624999999999,0.3319832927292816,7.384612642549874e-11
-0.981,0.3319832927292816,7.577806407136811e-11
-0.9809375,0.332142370311757,7.775381754262473e-11
-0.9808750000000001,0.332142370311757,7.977422797002507e-11
-0.9808125,0.3320628315205193,8.18401496894048e-11
-0.98075,0.3320628315205193,8.395245040223248e-11
-0.9806875,0.332142370311757,8.611201133752972e-11
-0.980625,0.3320628315205193,8.831972741516379e-11
-0.9805625,0.3320628315205193,9.057650741051916e-11
-0.9805,0.3320628315205193,9.288327412055395e-11
-0.9804375,0.3319832927292816,9.524096453124788e-11
-0.980375,0.3320628315205193,9.765052998644754e-11
-0.9803125,0.3319037539380438,1.001129363581153e-10
-0.98025,0.3320628315205193,1.026291642179886e-10
-0.9801875,0.3319832927292816,1.052002090106541e-10
-0.980125,0.3319037539380438,1.07827081228046e-10
-0.9800624999999999,0.3318242151468061,1.105108065853712e-10
-0.98,0.3318242151468061,1.132524261984698e-10
-0.9799375,0.3318242151468061,1.160529967626167e-10
-0.9798750000000001,0.3319037539380438,1.189135907327697e-10
-0.9798125,0.3319832927292816,1.218352965052707e-10
-0.97975,0.3319832927292816,1.248192186010073e-10
-0.9796875,0.3320628315205193,1.278664778500385e-10
-0.979625,0.3319037539380438,1.309782115776929e-10
-0.9795625,0.3318242151468061,1.341555737921444e-10
-0.9795,0.3319037539380438,1.373997353734722e-10
-0.9794375,0.3318242151468061,1.407118842642101e-10
-0.979375,0.3317446763555684,1.440932256613926e-10
-0.9793125,0.3317446763555684,1.475449822101032e-10
-0.97925,0.3317446763555684,1.510683941985308e-10
-0.9791875,0.3316651375643306,1.546647197545409e-10
-0.979125,0.3317446763555684,1.583352350437674e-10
-0.9790624999999999,0.3316651375643306,1.620812344692305e-10
-0.979,0.3316651375643306,1.659040308724879e-10
-0.9789375,0.3316651375643306,1.698049557363251e-10
-0.9788750000000001,0.331585598773093,1.737853593889895e-10
-0.9788125,0.3315060599818552,1.778466112099765e-10
-0.97875,0.3314265211906175,1.819900998373719e-10
-0.9786875,0.331585598773093,1.862172333767577e-10
-0.978625,0.3314265211906175,1.905294396116868e-10
-0.9785625,0.3313469823993798,1.949281662157324e-10
-0.9785,0.3314265211906175,1.994148809661193e-10
-0.9784375,0.3313469823993798,2.039910719589414e-10
-0.978375,0.3314265211906175,2.086582478259727e-10
-0.9783125,0.3314265211906175,2.134179379530771e-10
-0.97825,0.3314265211906175,2.18271692700224e-10
-0.9781875,0.3313469823993798,2.232210836231135e-10
-0.978125,0.3313469823993798,2.282677036964197e-10
-0.9780624999999999,0.3311879048169043,2.334131675386568e-10
-0.978,0.3311083660256666,2.386591116386728e-10
-0.9779375,0.3311083660256666,2.440071945837801e-10
-0.977875,0.3310288272344288,2.494590972895244e-10
-0.9778125,0.3309492884431911,2.550165232311022e-10
-0.97775,0.3309492884431911,2.606811986764293e-10
-0.9776875,0.3309492884431911,2.664548729208687e-10
-0.977625,0.3308697496519534,2.723393185236221e-10
-0.9775625,0.3307902108607157,2.783363315457917e-10
-0.9775,0.3307902108607157,2.84447731790118e-10
-0.9774375,0.3307902108607157,2.906753630423991e-10
-0.977375,0.3306311332782402,2.970210933145987e-10
-0.9773125,0.3306311332782402,3.034868150896457e-10
-0.97725,0.3306311332782402,3.100744455679352e-10
-0.9771875,0.330710672069478,3.167859269155326e-10
-0.977125,0.3305515944870025,3.236232265140901e-10
-0.9770624999999999,0.3305515944870025,3.305883372124787e-10
-0.977,0.3305515944870025,3.376832775801438e-10
-0.9769375,0.3305515944870025,3.449100921621876e-10
-0.976875,0.3306311332782402,3.522708517361865e-10
-0.9768125,0.3306311332782402,3.597676535707475e-10
-0.97675,0.3306311332782402,3.674026216858103e-10
