Task5_45-2.csv

#Digilent WaveForms Oscilloscope Acquisition
#Device Name: Discovery3
#Serial Number: SN:210415BD63A1
#Date Time: 2026-09-24 10:54:21.064.290.780
#Sample rate: 32000Hz
#Samples: 32000
#Trigger: Source: Channel 1 Type: Edge Condition: Rising Level: 0 V Hyst.: Auto HoldOff: 0 s
#Channel 1: Range: 500 mV/div Offset: 0 V Sample Mode: Average
#Math 1: Input: C1 Reference: Internal Frequency: 20 Hz Phase: 90 ° Filter: IIR Butterworth 8  Low-Pass CutOff: 10 Hz Output: Amplitude

#Wavegen Channel 1: Running
#Mode: Simple
#Type: Sine
#Frequency: 20 Hz
#Period: 50 ms
#Amplitude: 200 mV
#Offset: 0 V
#Symmetry: 50 %
#Phase: 0 °

Time (s),Channel 1 (V),Math 1 (V)
-0.5,0.4732441859674835,4.063498180695654e-25
-0.49996875,0.4732441859674835,6.903922527553527e-24
-0.4999375,0.4733237247587212,5.884830212869895e-23
-0.49990625,0.4733237247587212,3.378337539370218e-22
-0.499875,0.4733237247587212,1.478765220741419e-21
-0.49984375,0.4733237247587212,5.293536004796884e-21
-0.4998125,0.4733237247587212,1.621568407644594e-20
-0.49978125,0.4732441859674835,4.387492937981855e-20
-0.49975,0.4733237247587212,1.073104076843507e-19
-0.49971875,0.4732441859674835,2.414303084104284e-19
-0.4996875,0.4731646471762457,5.064234994919268e-19
-0.49965625,0.4733237247587212,1.000925583556913e-18
-0.499625,0.4731646471762457,1.879837677058506e-18
-0.49959375,0.473085108385008,3.377791039823949e-18
-0.4995625,0.4731646471762457,5.839344510883157e-18
-0.49953125,0.4731646471762457,9.757094532478116e-18
-0.4995,0.4731646471762457,1.58189693740751e-17
-0.49946875,0.4730055695937703,2.49660700072547e-17
-0.4994375,0.4729260308025325,3.846250993243104e-17
-0.49940625,0.473085108385008,5.797879512040298e-17
-0.499375,0.473085108385008,8.569037310947011e-17
-0.49934375,0.4731646471762457,1.243930671976643e-16
-0.4993125,0.4730055695937703,1.77637197593921e-16
-0.49928125,0.473085108385008,2.4988227634562e-16
-0.49925,0.473085108385008,3.466742468481737e-16
-0.49921875,0.4730055695937703,4.748473217711944e-16
-0.4991875,0.4730055695937703,6.42752555309276e-16
-0.49915625,0.4730055695937703,8.60515366786443e-16
-0.499125,0.4730055695937703,1.140324312818065e-15
-0.49909375,0.4728464920112949,1.496753484472574e-15
-0.4990625,0.4727669532200571,1.947120984185659e-15
-0.49903125,0.4728464920112949,2.511886014563488e-15
-0.499,0.4727669532200571,3.21508718766671e-15
-0.49896875,0.4727669532200571,4.084824738892817e-15
-0.4989375,0.4726078756375817,5.153789404175127e-15
-0.49890625,0.4727669532200571,6.459840792899663e-15
-0.498875,0.4726874144288194,8.046638161713735e-15
-0.49884375,0.4725283368463439,9.964326566266219e-15
-0.4988125,0.4725283368463439,1.227028143888185e-14
-0.49878125,0.4725283368463439,1.502991471023358e-14
-0.49875,0.4726078756375817,1.831754566224326e-14
-0.49871875,0.4724487980551062,2.22173397677159e-14
-0.4986875,0.4724487980551062,2.682431883960204e-14
-0.49865625,0.4724487980551062,3.224544587928743e-14
-0.498625,0.4724487980551062,3.860078807893365e-14
-0.49859375,0.4723692592638685,4.602476149763943e-14
-0.4985625,0.4721306428901553,5.46674609950675e-14
-0.49853125,0.4722897204726307,6.469607906919288e-14
-0.4985,0.4722897204726307,7.629641730698149e-14
-0.49846875,0.472210181681393,8.967449421811201e-14
-0.4984375,0.4722897204726307,1.050582532823146e-13
-0.49840625,0.4722897204726307,1.22699375100524e-13
-0.498375,0.4722897204726307,1.428751975988291e-13
-0.49834375,0.4722897204726307,1.658907482921466e-13
-0.4983125,0.472210181681393,1.920808926716488e-13
-0.49828125,0.472210181681393,2.218126028362409e-13
-0.49825,0.4722897204726307,2.554873505438169e-13
-0.49821875,0.4722897204726307,2.93543628912628e-13
-0.4981875,0.4722897204726307,3.364596070568809e-13
-0.49815625,0.472210181681393,3.847559219936543e-13
-0.498125,0.4722897204726307,4.389986122103744e-13
-0.49809375,0.4723692592638685,4.998021973334446e-13
-0.4980625,0.472210181681393,5.678329083891673e-13
-0.49803125,0.4723692592638685,6.438120731978543e-13
-0.498,0.4722897204726307,7.285196614909802e-13
-0.49796875,0.4724487980551062,8.227979943894121e-13
-0.4979375,0.4723692592638685,9.275556229281206e-13
-0.49790625,0.4724487980551062,1.043771380359365e-12
-0.497875,0.4723692592638685,1.172498613012148e-12
-0.49784375,0.4724487980551062,1.31486959453075e-12
-0.4978125,0.4723692592638685,1.472100128359414e-12
-0.49778125,0.4723692592638685,1.645494343383731e-12
-0.49775,0.4723692592638685,1.836449687682e-12
-0.49771875,0.4725283368463439,2.046462125381783e-12
-0.4976875,0.4724487980551062,2.277131541658092e-12
-0.49765625,0.4724487980551062,2.53016736095008e-12
-0.497625,0.4725283368463439,2.807394383512804e-12
-0.49759375,0.4725283368463439,3.110758845459616e-12
-0.4975625,0.4725283368463439,3.442334707488896e-12
-0.49753125,0.4725283368463439,3.804330177526402e-12
-0.4975,0.4723692592638685,4.199094472551222e-12
-0.49746875,0.4725283368463439,4.629124824909359e-12
-0.4974375,0.4726078756375817,5.097073738454314e-12
-0.49740625,0.4725283368463439,5.605756499888541e-12
-0.497375,0.4724487980551062,6.158158950713599e-12
-0.49734375,0.4724487980551062,6.75744552522986e-12
-0.4973125,0.4726078756375817,7.406967560059096e-12
-0.49728125,0.4725283368463439,8.110271880694967e-12
-0.49725,0.4724487980551062,8.871109670617377e-12
-0.49721875,0.4724487980551062,9.693445628537021e-12
-0.4971875,0.4723692592638685,1.058146741936598e-11
-0.49715625,0.4726078756375817,1.153959542453915e-11
-0.497125,0.4724487980551062,1.257249279733954e-11
-0.49709375,0.4725283368463439,1.368507582890803e-11
-0.4970625,0.4725283368463439,1.488252463064494e-11
-0.49703125,0.4724487980551062,1.617029413873712e-11
-0.497,0.4725283368463439,1.755412544656965e-11
-0.49696875,0.4726078756375817,1.904005747080618e-11
-0.4969375,0.4726874144288194,2.063443895694596e-11
-0.49690625,0.4726874144288194,2.234394083018944e-11
-0.496875,0.4726078756375817,2.417556889746683e-11
-0.49684375,0.4726078756375817,2.613667690650645e-11
-0.4968125,0.4725283368463439,2.823497996784119e-11
-0.49678125,0.4725283368463439,3.047856834567238e-11
-0.49675,0.4727669532200571,3.287592162353054e-11
-0.49671875,0.4726874144288194,3.543592325069214e-11
-0.4966875,0.4726874144288194,3.816787547533051e-11
-0.49665625,0.4726874144288194,4.108151467039735e-11
-0.496625,0.4726874144288194,4.418702705824915e-11
-0.49659375,0.4726078756375817,4.749506484004969e-11
-0.4965625,0.4725283368463439,5.101676273599661e-11
-0.49653125,0.4725283368463439,5.476375494243563e-11
-0.4965,0.4726874144288194,5.87481925119412e-11
-0.49646875,0.4726874144288194,6.29827611624573e-11
-0.4964375,0.4726078756375817,6.748069952160573e-11
-0.49640625,0.4724487980551062,7.225581781228288e-11
-0.496375,0.4726078756375817,7.732251698567861e-11
-0.49634375,0.4726078756375817,8.26958083078632e-11
-0.4963125,0.4725283368463439,8.839133340609995e-11
-0.49628125,0.4726874144288194,9.442538478105165e-11
-0.49625,0.4728464920112949,1.008149267910603e-10
-0.49621875,0.4727669532200571,1.075776171146889e-10
-0.4961875,0.4726874144288194,1.147318286977225e-10
-0.49615625,0.4728464920112949,1.22296672190837e-10
-0.496125,0.4728464920112949,1.30292018884149e-10
-0.49609375,0.4727669532200571,1.387385241448702e-10
-0.4960625,0.4728464920112949,1.476576513642951e-10
-0.49603125,0.4726078756375817,1.570716964203583e-10
-0.496,0.4728464920112949,1.670038126620038e-10
-0.49596875,0.4726874144288194,1.774780364216111e-10
-0.4959375,0.4727669532200571,1.88519313061733e-10
-0.49590625,0.4726874144288194,2.001535235623985e-10
-0.495875,0.4727669532200571,2.124075116552419e-10
-0.49584375,0.4727669532200571,2.253091115107202e-10
-0.4958125,0.4728464920112949,2.388871759846848e-10
-0.49578125,0.4727669532200571,2.531716054305746e-10
-0.49575,0.4728464920112949,2.68193377083499e-10
-0.49571875,0.4730055695937703,2.839845750224823e-10
-0.4956875,0.4730055695937703,3.005784207171374e-10
-0.49565625,0.473085108385008,3.180093041650426e-10
-0.495625,0.4728464920112949,3.363128156260877e-10
-0.49559375,0.4730055695937703,3.555257779600611e-10
-0.4955625,0.4728464920112949,3.75686279573743e-10
-0.49553125,0.4728464920112949,3.968337079837706e-10
-0.4955,0.4729260308025325,4.190087840015378e-10
-0.49546875,0.4730055695937703,4.422535965463879e-10
-0.4954375,0.4730055695937703,4.666116380933547e-10
-0.49540625,0.4730055695937703,4.921278407617049e-10
-0.495375,0.4730055695937703,5.188486130505261e-10
-0.49534375,0.4729260308025325,5.468218772276053e-10
-0.4953125,0.4729260308025325,5.760971073778287e-10
-0.49528125,0.4728464920112949,6.067253681173408e-10
-0.49525,0.4729260308025325,6.387593539796762e-10
-0.49521875,0.4730055695937703,6.722534294800898e-10
-0.4951875,0.473085108385008,7.072636698642867e-10
-0.49515625,0.4729260308025325,7.438479025477565e-10
-0.495125,0.4730055695937703,7.820657492519045e-10
-0.49509375,0.473085108385008,8.219786688431594e-10
-0.4950625,0.4729260308025325,8.636500008812356e-10
-0.49503125,0.4730055695937703,9.071450098827114e-10
-0.495,0.4730055695937703,9.525309303060765e-10
-0.49496875,0.473085108385008,9.998770122643943e-10
-0.4949375,0.473085108385008,1.049254567971709e-09
-0.49490625,0.4730055695937703,1.100737018929314e-09
-0.494875,0.4729260308025325,1.154399943857997e-09
-0.49484375,0.4728464920112949,1.210321127382351e-09
-0.4948125,0.4729260308025325,1.268580609473233e-09
-0.49478125,0.4730055695937703,1.329260735654448e-09
-0.49475,0.4732441859674835,1.392446207979698e-09
-0.49471875,0.4731646471762457,1.458224136785854e-09
-0.4946875,0.4732441859674835,1.526684093228563e-09
-0.49465625,0.473085108385008,1.597918162606207e-09
-0.494625,0.4731646471762457,1.672020998478214e-09
-0.49459375,0.473085108385008,1.749089877583685e-09
-0.4945625,0.4731646471762457,1.829224755566323e-09
-0.49453125,0.473085108385008,1.912528323511582e-09
-0.4945,0.473085108385008,1.999106065301996e-09
-0.49446875,0.473085108385008,2.089066315796572e-09
-0.4944375,0.4731646471762457,2.182520319840154e-09
-0.49440625,0.473085108385008,2.279582292108638e-09
-0.494375,0.473085108385008,2.380369477795882e-09
-0.49434375,0.4732441859674835,2.485002214148152e-09
-0.4943125,0.473085108385008,2.593603992851928e-09
-0.49428125,0.4733237247587212,2.706301523280863e-09
-0.49425,0.4732441859674835,2.823224796607668e-09
-0.49421875,0.4733237247587212,2.944507150786691e-09
-0.4941875,0.4733237247587212,3.070285336412914e-09
-0.49415625,0.4732441859674835,3.200699583463093e-09
-0.494125,0.4733237247587212,3.335893668924718e-09
-0.49409375,0.4731646471762457,3.476014985318491e-09
-0.4940625,0.4731646471762457,3.621214610119938e-09
-0.49403125,0.4733237247587212,3.7716473760858e-09
-0.494,0.4733237247587212,3.927471942490803e-09
-0.49396875,0.4732441859674835,4.088850867280377e-09
-0.4939375,0.4733237247587212,4.255950680144889e-09
-0.49390625,0.4734032635499589,4.42894195652091e-09
-0.493875,0.4733237247587212,4.607999392525038e-09
-0.49384375,0.4734032635499589,4.793301880825723e-09
-0.4938125,0.4733237247587212,4.985032587458606e-09
-0.49378125,0.4732441859674835,5.18337902959074e-09
-0.49375,0.4732441859674835,5.388533154239146e-09
-0.49371875,0.4732441859674835,5.60069141794905e-09
-0.4936875,0.4732441859674835,5.82005486743716e-09
-0.49365625,0.4733237247587212,6.046829221205332e-09
-0.493625,0.4732441859674835,6.281224952129876e-09
-0.49359375,0.4732441859674835,6.523457371031811e-09
-0.4935625,0.4732441859674835,6.773746711233291e-09
-0.49353125,0.4732441859674835,7.032318214105416e-09
-0.4935,0.4732441859674835,7.299402215612626e-09
-0.49346875,0.4734032635499589,7.575234233858815e-09
-0.4934375,0.4734032635499589,7.860055057640306e-09
-0.49340625,0.4734032635499589,8.154110836010777e-09
-0.493375,0.4735623411324344,8.457653168863212e-09
-0.49334375,0.4736418799236721,8.770939198533917e-09
-0.4933125,0.4734828023411967,9.09423170243357e-09
-0.49328125,0.4734828023411967,9.42779918671037e-09
-0.49325,0.4736418799236721,9.771915980950134e-09
-0.49321875,0.4735623411324344,1.01268623339183e-08
-0.4931875,0.4734032635499589,1.049292451034875e-08
-0.49315625,0.4734828023411967,1.087039488878421e-08
-0.493125,0.4734032635499589,1.125957206047321e-08
-0.49309375,0.4735623411324344,1.166076092932817e-08
-0.4930625,0.4735623411324344,1.207427281294959e-08
-0.49303125,0.4734828023411967,1.250042554472089e-08
-0.493,0.4734828023411967,1.293954357697872e-08
-0.49296875,0.4735623411324344,1.33919580852633e-08
-0.4929375,0.4734828023411967,1.385800707365347e-08
-0.49290625,0.4734828023411967,1.433803548119097e-08
-0.492875,0.4734828023411967,1.483239528939866e-08
-0.49284375,0.4737214187149098,1.5341445630897e-08
-0.4928125,0.4734828023411967,1.586555289912334e-08
-0.49278125,0.4734828023411967,1.640509085915863e-08
-0.49275,0.4734032635499589,1.696044075966566e-08
-0.49271875,0.4734032635499589,1.753199144594358e-08
-0.4926875,0.4735623411324344,1.812013947410263e-08
-0.49265625,0.4735623411324344,1.872528922636376e-08
-0.492625,0.4736418799236721,1.934785302748721e-08
-0.49259375,0.4736418799236721,1.998825126233431e-08
-0.4925625,0.4736418799236721,2.064691249456674e-08
-0.49253125,0.4737214187149098,2.132427358648738e-08
-0.4925,0.4737214187149098,2.202077982002688e-08
-0.49246875,0.4736418799236721,2.273688501888011e-08
-0.4924375,0.4736418799236721,2.347305167179638e-08
-0.49240625,0.4737214187149098,2.422975105702758e-08
-0.492375,0.4735623411324344,2.500746336793822e-08
-0.49234375,0.4734828023411967,2.580667783978116e-08
-0.4923125,0.4736418799236721,2.662789287764315e-08
-0.49228125,0.4735623411324344,2.747161618556381e-08
-0.49225,0.4734032635499589,2.833836489683203e-08
-0.49221875,0.4736418799236721,2.922866570546355e-08
-0.4921875,0.4735623411324344,3.014305499886336e-08
-0.49215625,0.4736418799236721,3.108207899167678e-08
-0.492125,0.4735623411324344,3.204629386083274e-08
-0.49209375,0.4734828023411967,3.303626588178299e-08
-0.4920625,0.4735623411324344,3.405257156594074e-08
-0.49203125,0.4735623411324344,3.509579779932235e-08
-0.492,0.4735623411324344,3.61665419823956e-08
-0.49196875,0.4735623411324344,3.726541217113775e-08
-0.4919375,0.4735623411324344,3.839302721930722e-08
-0.49190625,0.4736418799236721,3.955001692193194e-08
-0.491875,0.4736418799236721,4.073702216001788e-08
-0.49184375,0.4735623411324344,4.195469504648095e-08
-0.4918125,0.4735623411324344,4.320369907330563e-08
-0.49178125,0.4735623411324344,4.448470925993356e-08
-0.49175,0.4735623411324344,4.5798412302885e-08
-0.49171875,0.4736418799236721,4.714550672661682e-08
-0.4916875,0.4734828023411967,4.852670303561947e-08
-0.49165625,0.4736418799236721,4.994272386775653e-08
-0.491625,0.4734828023411967,5.139430414884951e-08
-0.49159375,0.4735623411324344,5.288219124851098e-08
-0.4915625,0.4736418799236721,5.440714513722897e-08
-0.49153125,0.4735623411324344,5.596993854470543e-08
-0.4915,0.4735623411324344,5.757135711945173e-08
-0.49146875,0.4736418799236721,5.921219958964386e-08
-0.4914375,0.4735623411324344,6.08932779252401e-08
-0.49140625,0.4737214187149098,6.261541750136392e-08
-0.491375,0.4738009575061475,6.437945726295471e-08
-0.49134375,0.4737214187149098,6.618624989068909e-08
-0.4913125,0.4736418799236721,6.80366619681751e-08
-0.49128125,0.4734828023411967,6.993157415042205e-08
-0.49125,0.4735623411324344,7.187188133358858e-08
-0.49121875,0.4735623411324344,7.385849282601098e-08
-0.4911875,0.4734828023411967,7.589233252051459e-08
-0.49115625,0.4735623411324344,7.797433906801035e-08
-0.491125,0.4734828023411967,8.010546605237899e-08
-0.49109375,0.4734032635499589,8.228668216664505e-08
-0.4910625,0.4735623411324344,8.451897139044287e-08
-0.49103125,0.4734828023411967,8.680333316877685e-08
-0.491,0.4735623411324344,8.914078259207812e-08
-0.49096875,0.4734828023411967,9.153235057755941e-08
-0.4909375,0.4734032635499589,9.397908405187068e-08
-0.49090625,0.4734828023411967,9.648204613505702e-08
-0.490875,0.4734032635499589,9.904231632582095e-08
-0.49084375,0.4734032635499589,1.016609906880912e-07
-0.4908125,0.4733237247587212,1.043391820388992e-07
-0.49078125,0.4734032635499589,1.070780201375663e-07
-0.49075,0.4734032635499589,1.098786518762017e-07
-0.49071875,0.4734032635499589,1.127422414715151e-07
-0.4906875,0.4734032635499589,1.156699706579429e-07
-0.49065625,0.4734828023411967,1.186630388820926e-07
-0.490625,0.4734828023411967,1.217226634985045e-07
-0.49059375,0.4734032635499589,1.248500799667339e-07
-0.4905625,0.4734032635499589,1.280465420497541e-07
-0.49053125,0.4734032635499589,1.313133220136825e-07
-0.4905,0.4735623411324344,1.346517108288309e-07
-0.49046875,0.4736418799236721,1.380630183720806e-07
-0.4904375,0.4734828023411967,1.415485736305855e-07
-0.49040625,0.4735623411324344,1.451097249068022e-07
-0.490375,0.4734828023411967,1.487478400248498e-07
-0.49034375,0.4734032635499589,1.524643065381998e-07
-0.4903125,0.4734032635499589,1.562605319386981e-07
-0.49028125,0.4734828023411967,1.601379438669187e-07
-0.49025,0.4733237247587212,1.640979903238519e-07
-0.49021875,0.4732441859674835,1.681421398839263e-07
-0.4901875,0.4734032635499589,1.722718819093664e-07
-0.49015625,0.4734032635499589,1.764887267658871e-07
-0.490125,0.4734032635499589,1.807942060397245e-07
-0.49009375,0.4733237247587212,1.851898727560053e-07
-0.4900625,0.4732441859674835,1.896773015984544e-07
-0.49003125,0.4731646471762457,1.942580891304423e-07
-0.49,0.4732441859674835,1.989338540173718e-07
-0.48996875,0.4732441859674835,2.037062372504061e-07
-0.4899375,0.4732441859674835,2.085769023715369e-07
-0.48990625,0.4731646471762457,2.135475356999954e-07
-0.489875,0.4732441859674835,2.18619846560004e-07
-0.48984375,0.4732441859674835,2.237955675098711e-07
-0.4898125,0.4731646471762457,2.290764545724288e-07
-0.48978125,0.4733237247587212,2.34464287466813e-07
-0.48975,0.4731646471762457,2.399608698415873e-07
-0.48971875,0.4731646471762457,2.4556802950921e-07
-0.4896875,0.4732441859674835,2.512876186818454e-07
-0.48965625,0.4732441859674835,2.571215142085179e-07
-0.489625,0.4730055695937703,2.630716178136101e-07
-0.48959375,0.4729260308025325,2.691398563367059e-07
-0.4895625,0.4730055695937703,2.753281819737749e-07
-0.48953125,0.4730055695937703,2.816385725197034e-07
-0.4895,0.473085108385008,2.880730316121658e-07
-0.48946875,0.4730055695937703,2.946335889768425e-07
-0.4894375,0.473085108385008,3.013223006739777e-07
-0.48940625,0.4729260308025325,3.081412493462832e-07
-0.489375,0.4728464920112949,3.150925444681813e-07
-0.48934375,0.4730055695937703,3.221783225963923e-07
-0.4893125,0.4730055695937703,3.29400747621863e-07
-0.48928125,0.4728464920112949,3.367620110230355e-07
-0.48925,0.4730055695937703,3.442643321204573e-07
-0.48921875,0.4727669532200571,3.519099583327318e-07
-0.4891875,0.4729260308025325,3.597011654338072e-07
-0.48915625,0.4728464920112949,3.67640257811605e-07
-0.489125,0.4729260308025325,3.757295687279856e-07
-0.48909375,0.4727669532200571,3.839714605800526e-07
-0.4890625,0.4728464920112949,3.92368325162792e-07
-0.48903125,0.4727669532200571,4.009225839330472e-07
-0.489,0.4727669532200571,4.096366882748292e-07
-0.48896875,0.4726874144288194,4.185131197659606e-07
-0.4889375,0.4726874144288194,4.275543904460508e-07
-0.48890625,0.4726078756375817,4.367630430858042e-07
-0.488875,0.4724487980551062,4.461416514576582e-07
-0.48884375,0.4725283368463439,4.556928206077506e-07
-0.4888125,0.4725283368463439,4.654191871292148e-07
-0.48878125,0.4725283368463439,4.753234194368023e-07
-0.48875,0.4724487980551062,4.854082180428299e-07
-0.48871875,0.4724487980551062,4.956763158344517e-07
-0.4886875,0.4723692592638685,5.061304783522536e-07
-0.48865625,0.4723692592638685,5.167735040701686e-07
-0.488625,0.4722897204726307,5.276082246767132e-07
-0.48859375,0.472210181681393,5.386375053575393e-07
-0.4885625,0.472210181681393,5.498642450793057e-07
-0.48853125,0.472210181681393,5.612913768748629e-07
-0.4885,0.472210181681393,5.729218681297511e-07
-0.48846875,0.472210181681393,5.847587208700103e-07
-0.4884375,0.4722897204726307,5.968049720512992e-07
-0.48840625,0.4722897204726307,6.090636938493229e-07
-0.488375,0.4721306428901553,6.21537993951566e-07
