Task5_40Hz_500mV_45+5.csv

#Digilent WaveForms Oscilloscope Acquisition
#Device Name: Discovery3
#Serial Number: SN:210415BD63A1
#Date Time: 2026-09-24 11:22:19.357.655.810
#Sample rate: 32000Hz
#Samples: 32000
#Trigger: Source: Channel 1 Type: Edge Condition: Rising Level: 0 V Hyst.: Auto HoldOff: 0 s
#Channel 1: Range: 500 mV/div Offset: 0 V Sample Mode: Average
#Math 1: Input: C1 Reference: Internal Frequency: 40 Hz Phase: 90 ° Filter: IIR Butterworth 8  Low-Pass CutOff: 5 Hz Output: Amplitude

#Wavegen Channel 1: Running
#Mode: Simple
#Type: Sine
#Frequency: 40 Hz
#Period: 25 ms
#Amplitude: 500 mV
#Offset: 0 V
#Symmetry: 50 %
#Phase: 0 °

Time (s),Channel 1 (V),Math 1 (V)
-0.5,0.3770817873610724,1.240670352798458e-27
-0.49996875,0.3770817873610724,2.108484914776321e-26
-0.4999375,0.3769227097785969,1.797796110099482e-25
-0.49990625,0.3770022485698347,1.032415540036933e-24
-0.499875,0.3770022485698347,4.520721853274164e-24
-0.49984375,0.3769227097785969,1.618908394983485e-23
-0.4998125,0.3769227097785969,4.961224861242974e-23
-0.49978125,0.3769227097785969,1.342936057653433e-22
-0.49975,0.3767636321961215,3.28603976423489e-22
-0.49971875,0.3766840934048837,7.396402484581447e-22
-0.4996875,0.3767636321961215,1.552190978727157e-21
-0.49965625,0.3767636321961215,3.069302215423505e-21
-0.499625,0.3766840934048837,5.767241284363665e-21
-0.49959375,0.3767636321961215,1.036795912091758e-20
-0.4995625,0.3767636321961215,1.793245290337566e-20
-0.49953125,0.376604554613646,2.997873024076943e-20
-0.4995,0.3766840934048837,4.862837398067915e-20
-0.49946875,0.376604554613646,7.678600283032985e-20
-0.4994375,0.3765250158224083,1.183562174336618e-19
-0.49940625,0.376604554613646,1.785029143246831e-19
-0.499375,0.376604554613646,2.63956141279785e-19
-0.49934375,0.3764454770311705,3.833719570002382e-19
-0.4993125,0.3765250158224083,5.477510457483241e-19
-0.49928125,0.376604554613646,7.709221235268949e-19
-0.49925,0.376604554613646,1.070096456635571e-18
-0.49921875,0.3765250158224083,1.466500095960516e-18
-0.4991875,0.3764454770311705,1.986090711161738e-18
-0.49915625,0.3764454770311705,2.660366188022235e-18
-0.499125,0.3763659382399329,3.527272429629416e-18
-0.49909375,0.3763659382399329,4.632218077772991e-18
-0.4990625,0.3762068606574574,6.029204144952237e-18
-0.49903125,0.3761273218662197,7.782076819671158e-18
-0.499,0.3762863994486951,9.965911978251734e-18
-0.49896875,0.3763659382399329,1.266854020521178e-17
-0.4989375,0.3762068606574574,1.599222139133525e-17
-0.49890625,0.3760477830749819,2.005547824390889e-17
-0.498875,0.3761273218662197,2.499509830721168e-17
-0.49884375,0.3760477830749819,3.096831435322596e-17
-0.4988125,0.3760477830749819,3.815517326268756e-17
-0.49878125,0.3761273218662197,4.676110377500168e-17
-0.49875,0.3760477830749819,5.70196937422221e-17
-0.49871875,0.3759682442837442,6.919568777722704e-17
-0.4986875,0.3759682442837442,8.358821643942443e-17
-0.49865625,0.3758091667012687,1.005342683527693e-16
-0.498625,0.375729627910031,1.204124169005743e-16
-0.49859375,0.3758887054925065,1.436468133895406e-16
-0.4985625,0.375729627910031,1.707114588216336e-16
-0.49853125,0.3758091667012687,2.021347666568558e-16
-0.4985,0.375729627910031,2.385044291926298e-16
-0.49846875,0.3758887054925065,2.804726004263696e-16
-0.4984375,0.3758887054925065,3.287614085069229e-16
-0.49840625,0.3758091667012687,3.841688111178835e-16
-0.498375,0.3758091667012687,4.475748073713355e-16
-0.49834375,0.3758091667012687,5.199480200243595e-16
-0.4983125,0.3758091667012687,6.023526620626304e-16
-0.49828125,0.375729627910031,6.959559019256299e-16
-0.49825,0.375729627910031,8.020356418763958e-16
-0.49821875,0.3758091667012687,9.219887242453309e-16
-0.4981875,0.3680143651599716,1.057339580502383e-15
-0.49815625,0.3680143651599716,1.209749338334878e-15
-0.498125,0.3679348263687339,1.381025402129484e-15
-0.49809375,0.3682529815336847,1.573131522476086e-15
-0.4980625,0.3680939039512093,1.788198370528955e-15
-0.49803125,0.3680143651599716,2.028534633276263e-15
-0.498,0.3680143651599716,2.296638645982929e-15
-0.49796875,0.3680143651599716,2.595210578283939e-15
-0.4979375,0.3680143651599716,2.927165190615539e-15
-0.49790625,0.3680143651599716,3.295645177880266e-15
-0.497875,0.3680143651599716,3.704035117448456e-15
-0.49784375,0.3680939039512093,4.155976038803749e-15
-0.4978125,0.368173442742447,4.655380632343214e-15
-0.49778125,0.3682529815336847,5.206449115043945e-15
-0.49775,0.3680939039512093,5.813685770907469e-15
-0.49771875,0.3680939039512093,6.481916184290902e-15
-0.4976875,0.3680939039512093,7.216305184429652e-15
-0.49765625,0.3680939039512093,8.022375519650404e-15
-0.497625,0.3680143651599716,8.90602727996519e-15
-0.49759375,0.3680939039512093,9.873558086927808e-15
-0.4975625,0.3680939039512093,1.093168406982205e-14
-0.49753125,0.368173442742447,1.20875616474381e-14
-0.4975,0.368173442742447,1.334881013487796e-14
-0.49746875,0.3680939039512093,1.472353519501417e-14
-0.4974375,0.3680143651599716,1.622035315440656e-14
-0.49740625,0.3680939039512093,1.784841620366194e-14
-0.497375,0.3680939039512093,1.96174385023981e-14
-0.49734375,0.3679348263687339,2.153772320915014e-14
-0.4973125,0.3680143651599716,2.362019045673009e-14
-0.49728125,0.3680143651599716,2.587640629372339e-14
-0.49725,0.3680939039512093,2.831861261297558e-14
-0.49721875,0.3682529815336847,3.095975808809127e-14
-0.4971875,0.3682529815336847,3.381353013913352e-14
-0.49715625,0.368173442742447,3.689438794887677e-14
-0.497125,0.368173442742447,4.021759655112899e-14
-0.49709375,0.3682529815336847,4.379926201279964e-14
-0.4970625,0.3680939039512093,4.76563677315493e-14
-0.49703125,0.368173442742447,5.18068118710136e-14
-0.497,0.368173442742447,5.626944595575022e-14
-0.49696875,0.368173442742447,6.106411464821064e-14
-0.4969375,0.3680939039512093,6.621169673018995e-14
-0.49690625,0.3682529815336847,7.17341473113588e-14
-0.496875,0.368173442742447,7.765454128762818e-14
-0.49684375,0.3682529815336847,8.399711807224509e-14
-0.4968125,0.368173442742447,9.078732762266088e-14
-0.49678125,0.3682529815336847,9.805187778635656e-14
-0.49675,0.3680939039512093,1.058187829889504e-13
-0.49671875,0.368173442742447,1.141174142880511e-13
-0.4966875,0.3683325203249225,1.229785508164581e-13
-0.49665625,0.3682529815336847,1.324344326384442e-13
-0.496625,0.3682529815336847,1.425188150429898e-13
-0.49659375,0.368173442742447,1.532670242979688e-13
-0.4965625,0.3680939039512093,1.647160148894171e-13
-0.49653125,0.368173442742447,1.769044282701405e-13
-0.4965,0.368173442742447,1.898726531420451e-13
-0.49646875,0.368173442742447,2.03662887296699e-13
-0.4964375,0.368173442742447,2.183192010387542e-13
-0.49640625,0.3680939039512093,2.338876022169776e-13
-0.496375,0.368173442742447,2.504161028877622e-13
-0.49634375,0.3680939039512093,2.679547876361002e-13
-0.4963125,0.3682529815336847,2.86555883579121e-13
-0.49628125,0.3684120591161602,3.062738320774043e-13
-0.49625,0.3683325203249225,3.271653621793939e-13
-0.49621875,0.3684120591161602,3.49289565824345e-13
-0.4961875,0.3683325203249225,3.72707974829345e-13
-0.49615625,0.368173442742447,3.974846396860545e-13
-0.496125,0.3683325203249225,4.236862101929199e-13
-0.49609375,0.3684120591161602,4.513820179487063e-13
-0.4960625,0.3683325203249225,4.806441607333057e-13
-0.49603125,0.3684915979073979,5.115475888018697e-13
-0.496,0.3682529815336847,5.441701931184116e-13
-0.49596875,0.3684120591161602,5.78592895555123e-13
-0.4959375,0.3684120591161602,6.148997410837341e-13
-0.49590625,0.3684915979073979,6.531779919853466e-13
-0.495875,0.3684120591161602,6.935182241052492e-13
-0.49584375,0.3684915979073979,7.36014425179321e-13
-0.4958125,0.3684915979073979,7.807640952587042e-13
-0.49578125,0.3684120591161602,8.278683492595229e-13
-0.49575,0.3684120591161602,8.77432021664492e-13
-0.49571875,0.3683325203249225,9.295637734033551e-13
-0.4956875,0.3684120591161602,9.843762009391573e-13
-0.49565625,0.3683325203249225,1.041985947587441e-12
-0.495625,0.3684120591161602,1.102513817095527e-12
-0.49559375,0.3684915979073979,1.166084889509105e-12
-0.4955625,0.3683325203249225,1.23282863935346e-12
-0.49553125,0.3684120591161602,1.302879056156677e-12
-0.4955,0.3685711366986357,1.376374767342295e-12
-0.49546875,0.3684915979073979,1.453459163518893e-12
-0.4954375,0.3684915979073979,1.534280526194192e-12
-0.49540625,0.3684120591161602,1.618992157941301e-12
-0.495375,0.3685711366986357,1.707752515044794e-12
-0.49534375,0.3685711366986357,1.800725342654374e-12
-0.4953125,0.3684120591161602,1.898079812473923e-12
-0.49528125,0.3683325203249225,1.999990663013814e-12
-0.49525,0.3684915979073979,2.106638342434377e-12
-0.49521875,0.3684915979073979,2.2182091540085e-12
-0.4951875,0.3685711366986357,2.334895404231384e-12
-0.49515625,0.3686506754898734,2.456895553605482e-12
-0.495125,0.3686506754898734,2.584414370128779e-12
-0.49509375,0.3687302142811111,2.717663085514516e-12
-0.4950625,0.3686506754898734,2.856859554170581e-12
-0.49503125,0.3687302142811111,3.002228414966793e-12
-0.495,0.3688097530723489,3.154001255818355e-12
-0.49496875,0.3684915979073979,3.312416781113766e-12
-0.4949375,0.3687302142811111,3.477720982015567e-12
-0.49490625,0.3686506754898734,3.650167309662277e-12
-0.494875,0.3686506754898734,3.83001685129994e-12
-0.49484375,0.3686506754898734,4.017538509371701e-12
-0.4948125,0.3686506754898734,4.213009183593919e-12
-0.49478125,0.3685711366986357,4.416713956047261e-12
-0.49475,0.3687302142811111,4.628946279311333e-12
-0.49471875,0.3688097530723489,4.850008167671372e-12
-0.4946875,0.3688097530723489,5.080210391425567e-12
-0.49465625,0.3688097530723489,5.319872674321578e-12
-0.494625,0.3688097530723489,5.569323894150867e-12
-0.49459375,0.3688097530723489,5.828902286529447e-12
-0.4945625,0.3687302142811111,6.098955651893694e-12
-0.49453125,0.3688097530723489,6.379841565739806e-12
-0.4945,0.3688097530723489,6.671927592135662e-12
-0.49446875,0.3688097530723489,6.975591500533629e-12
-0.4944375,0.3688892918635865,7.291221485913078e-12
-0.49440625,0.3688892918635865,7.619216392281206e-12
-0.494375,0.3689688306548243,7.95998593956091e-12
-0.49434375,0.3688892918635865,8.313950953894342e-12
-0.4943125,0.3687302142811111,8.681543601390827e-12
-0.49428125,0.3688097530723489,9.063207625347871e-12
-0.49425,0.3688097530723489,9.459398586973869e-12
-0.49421875,0.3689688306548243,9.870584109641221e-12
-0.4941875,0.369048369446062,1.029724412669852e-11
-0.49415625,0.3688892918635865,1.073987113287046e-11
-0.494125,0.3688097530723489,1.119897043927408e-11
-0.49409375,0.3689688306548243,1.167506043208005e-11
-0.4940625,0.3689688306548243,1.216867283484756e-11
-0.49403125,0.3689688306548243,1.268035297456144e-11
-0.494,0.3689688306548243,1.321066005140006e-11
-0.49396875,0.3689688306548243,1.376016741226269e-11
-0.4939375,0.3689688306548243,1.432946282808477e-11
-0.49390625,0.3689688306548243,1.491914877496963e-11
-0.493875,0.3689688306548243,1.55298427191652e-11
-0.49384375,0.3689688306548243,1.61621774059142e-11
-0.4938125,0.369048369446062,1.681680115220627e-11
-0.49378125,0.369048369446062,1.749437814346039e-11
-0.49375,0.369048369446062,1.819558873416606e-11
-0.49371875,0.3691279082372997,1.892112975251167e-11
-0.4936875,0.369048369446062,1.967171480902819e-11
-0.49365625,0.369048369446062,2.044807460927676e-11
-0.493625,0.3691279082372997,2.125095727060814e-11
-0.49359375,0.3689688306548243,2.208112864302252e-11
-0.4935625,0.369048369446062,2.293937263415771e-11
-0.49353125,0.3691279082372997,2.382649153843388e-11
-0.4935,0.3689688306548243,2.474330637038304e-11
-0.49346875,0.3689688306548243,2.569065720219117e-11
-0.4934375,0.369048369446062,2.66694035054812e-11
-0.49340625,0.369048369446062,2.768042449736463e-11
-0.493375,0.369048369446062,2.872461949078978e-11
-0.49334375,0.3692074470285375,2.980290824921464e-11
-0.4933125,0.3692074470285375,3.091623134563192e-11
-0.49328125,0.369048369446062,3.206555052597421e-11
-0.49325,0.3692074470285375,3.325184907692701e-11
-0.49321875,0.369048369446062,3.447613219817707e-11
-0.4931875,0.3692074470285375,3.573942737912385e-11
-0.49315625,0.369048369446062,3.704278478008146e-11
-0.493125,0.3691279082372997,3.838727761799873e-11
-0.49309375,0.3691279082372997,3.977400255672462e-11
-0.4930625,0.3692074470285375,4.120408010184649e-11
-0.49303125,0.3692074470285375,4.26786550001284e-11
-0.493,0.3692074470285375,4.419889664357663e-11
-0.49296875,0.3691279082372997,4.576599947815978e-11
-0.4929375,0.3691279082372997,4.738118341721006e-11
-0.49290625,0.3692074470285375,4.904569425953344e-11
-0.492875,0.3693665246110129,5.076080411225489e-11
-0.49284375,0.3692869858197752,5.252781181842612e-11
-0.4928125,0.3692869858197752,5.434804338942212e-11
-0.49278125,0.3691279082372997,5.622285244215371e-11
-0.49275,0.3692074470285375,5.815362064112225e-11
-0.49271875,0.3691279082372997,6.014175814534328e-11
-0.4926875,0.369048369446062,6.218870406016564e-11
-0.49265625,0.3692869858197752,6.429592689401209e-11
-0.492625,0.3692074470285375,6.646492502006818e-11
-0.49259375,0.3691279082372997,6.86972271429452e-11
-0.4925625,0.3692869858197752,7.09943927703434e-11
-0.49253125,0.3691279082372997,7.335801268974173e-11
-0.4925,0.3692074470285375,7.578970945013981e-11
-0.49246875,0.3691279082372997,7.829113784887783e-11
-0.4924375,0.369048369446062,8.086398542356071e-11
-0.49240625,0.3691279082372997,8.350997294911147e-11
-0.492375,0.3692869858197752,8.623085493997968e-11
-0.49234375,0.3692869858197752,8.902842015753076e-11
-0.4923125,0.3692869858197752,9.190449212264092e-11
-0.49228125,0.3692074470285375,9.486092963352333e-11
-0.49225,0.3693665246110129,9.789962728881058e-11
-0.49221875,0.3692869858197752,1.010225160159186e-10
-0.4921875,0.3692869858197752,1.04231563604717e-10
-0.49215625,0.3692074470285375,1.075287752465302e-10
-0.492125,0.3693665246110129,1.109161940784951e-10
-0.49209375,0.3692074470285375,1.143959017332984e-10
-0.4920625,0.3691279082372997,1.179700188943202e-10
-0.49203125,0.3692074470285375,1.216407058562059e-10
-0.492,0.369048369446062,1.254101630908924e-10
-0.49196875,0.3689688306548243,1.292806318191126e-10
-0.4919375,0.3691279082372997,1.332543945874008e-10
-0.49190625,0.3691279082372997,1.373337758506258e-10
-0.491875,0.3692074470285375,1.41521142560072e-10
-0.49184375,0.369048369446062,1.45818904757095e-10
-0.4918125,0.3691279082372997,1.502295161723746e-10
-0.49178125,0.3691279082372997,1.547554748307872e-10
-0.49175,0.3692074470285375,1.593993236619237e-10
-0.49171875,0.3692074470285375,1.641636511162732e-10
-0.4916875,0.3692074470285375,1.690510917870976e-10
-0.49165625,0.3692869858197752,1.740643270380196e-10
-0.491625,0.3692869858197752,1.792060856363465e-10
-0.49159375,0.3692074470285375,1.844791443921527e-10
-0.4915625,0.3692074470285375,1.898863288031438e-10
-0.49153125,0.3691279082372997,1.954305137053252e-10
-0.4915,0.369048369446062,2.011146239294952e-10
-0.49146875,0.3691279082372997,2.069416349635884e-10
-0.4914375,0.3691279082372997,2.129145736208884e-10
-0.49140625,0.3691279082372997,2.19036518714133e-10
-0.491375,0.3689688306548243,2.25310601735534e-10
-0.49134375,0.369048369446062,2.317400075427323e-10
-0.4913125,0.3688892918635865,2.383279750507105e-10
-0.49128125,0.3689688306548243,2.450777979296844e-10
-0.49125,0.3691279082372997,2.519928253089941e-10
-0.49121875,0.3691279082372997,2.59076462487016e-10
-0.4911875,0.3692074470285375,2.663321716471172e-10
-0.49115625,0.3691279082372997,2.737634725796719e-10
-0.491125,0.3691279082372997,2.813739434101623e-10
-0.49109375,0.369048369446062,2.891672213333815e-10
-0.4910625,0.369048369446062,2.971470033537633e-10
-0.49103125,0.3689688306548243,3.053170470318536e-10
-0.491,0.369048369446062,3.136811712369482e-10
-0.49096875,0.3691279082372997,3.222432569059142e-10
-0.4909375,0.369048369446062,3.310072478082158e-10
-0.49090625,0.3688892918635865,3.399771513171638e-10
-0.490875,0.3689688306548243,3.491570391874079e-10
-0.49084375,0.369048369446062,3.58551048338692e-10
-0.4908125,0.369048369446062,3.681633816458906e-10
-0.49078125,0.3689688306548243,3.779983087353462e-10
-0.49075,0.369048369446062,3.880601667875257e-10
-0.49071875,0.3689688306548243,3.983533613460152e-10
-0.4906875,0.3688892918635865,4.08882367132871e-10
-0.49065625,0.3688892918635865,4.196517288703449e-10
-0.490625,0.3688097530723489,4.306660621090041e-10
-0.49059375,0.3688097530723489,4.419300540622609e-10
-0.4905625,0.369048369446062,4.534484644473308e-10
-0.49053125,0.3688097530723489,4.65226126332639e-10
-0.4905,0.3687302142811111,4.772679469916887e-10
-0.49046875,0.3687302142811111,4.895789087634126e-10
-0.4904375,0.3688097530723489,5.021640699190217e-10
-0.49040625,0.3688892918635865,5.15028565535371e-10
-0.490375,0.3687302142811111,5.281776083748556e-10
-0.49034375,0.3688097530723489,5.416164897718578e-10
-0.4903125,0.3688097530723489,5.553505805257587e-10
-0.49028125,0.3687302142811111,5.693853318005324e-10
-0.49025,0.3687302142811111,5.837262760309374e-10
-0.49021875,0.3686506754898734,5.983790278353217e-10
-0.4901875,0.3687302142811111,6.133492849350595e-10
-0.49015625,0.3687302142811111,6.286428290806311e-10
-0.490125,0.3688097530723489,6.442655269843659e-10
-0.49009375,0.3686506754898734,6.602233312598583e-10
-0.4900625,0.3685711366986357,6.765222813680785e-10
-0.49003125,0.3686506754898734,6.931685045701869e-10
-0.49,0.3684915979073979,7.101682168870695e-10
-0.48996875,0.3685711366986357,7.275277240656103e-10
-0.4899375,0.3685711366986357,7.452534225517117e-10
-0.48990625,0.3685711366986357,7.633518004700793e-10
-0.489875,0.3685711366986357,7.818294386107852e-10
-0.48984375,0.3684915979073979,8.006930114226213e-10
-0.4898125,0.3684120591161602,8.199492880132614e-10
-0.48978125,0.3684120591161602,8.396051331562376e-10
-0.48975,0.3684120591161602,8.596675083047523e-10
-0.48971875,0.3684120591161602,8.801434726123343e-10
-0.4896875,0.3684915979073979,9.010401839603509e-10
-0.48965625,0.3684915979073979,9.22364899992395e-10
-0.489625,0.3683325203249225,9.441249791555506e-10
-0.48959375,0.368173442742447,9.663278817485568e-10
-0.4895625,0.3683325203249225,9.889811709768787e-10
-0.48953125,0.368173442742447,1.012092514014698e-09
-0.4895,0.368173442742447,1.035669683073834e-09
-0.48946875,0.3680939039512093,1.059720556479609e-09
-0.4894375,0.3680939039512093,1.084253119753666e-09
-0.48940625,0.3680939039512093,1.109275466703755e-09
-0.489375,0.3680939039512093,1.134795800520489e-09
-0.48934375,0.3680939039512093,1.160822434881099e-09
-0.4893125,0.368173442742447,1.187363795060171e-09
-0.48928125,0.3680939039512093,1.214428419047404e-09
-0.48925,0.3680143651599716,1.242024958672381e-09
-0.48921875,0.3678552875774961,1.270162180736371e-09
-0.4891875,0.3678552875774961,1.298848968151161e-09
-0.48915625,0.3678552875774961,1.328094321084946e-09
-0.489125,0.3677757487862584,1.357907358115271e-09
-0.48909375,0.3676962099950207,1.388297317389038e-09
-0.4890625,0.3676166712037829,1.419273557789593e-09
-0.48903125,0.3677757487862584,1.450845560110889e-09
-0.489,0.3676962099950207,1.483022928238751e-09
-0.48896875,0.3676166712037829,1.515815390339235e-09
-0.4889375,0.3676166712037829,1.549232800054099e-09
-0.48890625,0.3675371324125452,1.583285137703391e-09
-0.488875,0.3675371324125452,1.617982511495163e-09
-0.48884375,0.3676166712037829,1.65333515874231e-09
-0.4888125,0.3676166712037829,1.689353447086565e-09
-0.48878125,0.3676962099950207,1.72604787572962e-09
-0.48875,0.3676166712037829,1.76342907667142e-09
-0.48871875,0.3676166712037829,1.801507815955608e-09
-0.4886875,0.3676962099950207,1.840294994922134e-09
-0.48865625,0.3675371324125452,1.87980165146705e-09
-0.488625,0.3675371324125452,1.92003896130947e-09
-0.48859375,0.3673780548300697,1.961018239265732e-09
-0.4885625,0.3674575936213075,2.002750940530734e-09
-0.48853125,0.3675371324125452,2.045248661966478e-09
-0.4885,0.3675371324125452,2.088523143397817e-09
-0.48846875,0.3674575936213075,2.132586268915403e-09
-0.4884375,0.3674575936213075,2.177450068185851e-09
-0.48840625,0.3672985160388321,2.223126717769119e-09
-0.488375,0.3674575936213075,2.269628542443109e-09
