Task5_40Hz_200mV_45-5.csv

#Digilent WaveForms Oscilloscope Acquisition
#Device Name: Discovery3
#Serial Number: SN:210415BD63A1
#Date Time: 2026-09-24 11:23:14.130.088.650
#Sample rate: 32000Hz
#Samples: 32000
#Trigger: Source: Channel 1 Type: Edge Condition: Rising Level: 0 V Hyst.: Auto HoldOff: 0 s
#Channel 1: Range: 500 mV/div Offset: 0 V Sample Mode: Average
#Math 1: Input: C1 Reference: Internal Frequency: 40 Hz Phase: 90 ° Filter: IIR Butterworth 8  Low-Pass CutOff: 5 Hz Output: Amplitude

#Wavegen Channel 1: Running
#Mode: Simple
#Type: Sine
#Frequency: 40 Hz
#Period: 25 ms
#Amplitude: 200 mV
#Offset: 0 V
#Symmetry: 50 %
#Phase: 0 °

Time (s),Channel 1 (V),Math 1 (V)
-0.5,0.4731646471762457,1.590497457094254e-27
-0.49996875,0.4734032635499589,2.7030406785379e-26
-0.4999375,0.4733237247587212,2.304774789102069e-25
-0.49990625,0.4732441859674835,1.323576396624238e-24
-0.499875,0.4732441859674835,5.795742239375442e-24
-0.49984375,0.4731646471762457,2.075537537296849e-23
-0.4998125,0.4733237247587212,6.360692021773999e-23
-0.49978125,0.4732441859674835,1.72178090441562e-22
-0.49975,0.4731646471762457,4.21310524156958e-22
-0.49971875,0.4731646471762457,9.483240040332877e-22
-0.4996875,0.4731646471762457,1.990159161569454e-21
-0.49965625,0.473085108385008,3.935396248089818e-21
-0.499625,0.4732441859674835,7.39473807817058e-21
-0.49959375,0.4734032635499589,1.329393365172184e-20
-0.4995625,0.4732441859674835,2.29935052683558e-20
-0.49953125,0.4731646471762457,3.844002616680951e-20
-0.4995,0.4732441859674835,6.235407783281633e-20
-0.49946875,0.4733237247587212,9.84603961013298e-20
-0.4994375,0.4734032635499589,1.517660930280458e-19
-0.49940625,0.4733237247587212,2.288932172186673e-19
-0.499375,0.4733237247587212,3.384722888677937e-19
-0.49934375,0.4734828023411967,4.916038171497546e-19
-0.4993125,0.4734828023411967,7.023951768105534e-19
-0.49928125,0.4734828023411967,9.885805878466868e-19
-0.49925,0.4734828023411967,1.372232307046365e-18
-0.49921875,0.4734828023411967,1.880571502915327e-18
-0.4991875,0.4735623411324344,2.546887646081352e-18
-0.49915625,0.4736418799236721,3.411575605620023e-18
-0.499125,0.4735623411324344,4.523299997839664e-18
-0.49909375,0.4735623411324344,5.94029668791176e-18
-0.4990625,0.4736418799236721,7.731821696359214e-18
-0.49903125,0.4734828023411967,9.979758111833854e-18
-0.499,0.4734032635499589,1.27803919588255e-17
-0.49896875,0.4734032635499589,1.624636831394263e-17
-0.4989375,0.4734032635499589,2.050883930718802e-17
-0.49890625,0.4735623411324344,2.571981598522292e-17
-0.498875,0.4735623411324344,3.205473635196373e-17
-0.49884375,0.4735623411324344,3.971526223797093e-17
-0.4988125,0.4735623411324344,4.89323179839528e-17
-0.49878125,0.4734828023411967,5.996938425530224e-17
-0.49875,0.4734032635499589,7.312606063391265e-17
-0.49871875,0.4734828023411967,8.874191096057898e-17
-0.4986875,0.4733237247587212,1.072006057260932e-16
-0.49865625,0.4734828023411967,1.289343761316831e-16
-0.498625,0.4733237247587212,1.544287947597082e-16
-0.49859375,0.4732441859674835,1.842278981135061e-16
-0.4985625,0.4734032635499589,2.189396666009859e-16
-0.49853125,0.4734828023411967,2.592418778500221e-16
-0.4985,0.4734828023411967,3.058883495549142e-16
-0.49846875,0.4734032635499589,3.597155883621504e-16
-0.4984375,0.4734032635499589,4.216498616104152e-16
-0.49840625,0.4733237247587212,4.927147090441861e-16
-0.498375,0.4734828023411967,5.740389119223588e-16
-0.49834375,0.4736418799236721,6.668649372431146e-16
-0.4983125,0.4734828023411967,7.725578751037091e-16
-0.49828125,0.4736418799236721,8.926148875090453e-16
-0.49825,0.4733237247587212,1.028675187235793e-15
-0.49821875,0.4734828023411967,1.182530565649427e-15
-0.4981875,0.4734828023411967,1.356136488659886e-15
-0.49815625,0.4734828023411967,1.55162378028755e-15
-0.498125,0.4734828023411967,1.771310913594959e-15
-0.49809375,0.4734828023411967,2.01771692902105e-15
-0.4980625,0.4735623411324344,2.293575000433729e-15
-0.49803125,0.4735623411324344,2.601846669493264e-15
-0.498,0.4734828023411967,2.945736769193316e-15
-0.49796875,0.4734032635499589,3.328709057718352e-15
-0.4979375,0.4735623411324344,3.75450258402583e-15
-0.49790625,0.4734828023411967,4.227148806828809e-15
-0.497875,0.4734828023411967,4.750989488919588e-15
-0.49784375,0.4734828023411967,5.330695389037672e-15
-0.4978125,0.4734828023411967,5.971285773745642e-15
-0.49778125,0.4735623411324344,6.678148772034467e-15
-0.49775,0.4736418799236721,7.457062595635423e-15
-0.49771875,0.4735623411324344,8.314217648268975e-15
-0.4976875,0.4735623411324344,9.256239547311961e-15
-0.49765625,0.4734828023411967,1.029021308161289e-14
-0.497625,0.4733237247587212,1.142370712943152e-14
-0.49759375,0.4734828023411967,1.266480056072244e-14
-0.4975625,0.4734032635499589,1.402210914822424e-14
-0.49753125,0.4734032635499589,1.550481351205437e-14
-0.4975,0.4734032635499589,1.712268812274701e-14
-0.49746875,0.4735623411324344,1.888613138790532e-14
-0.4974375,0.4734828023411967,2.080619684787134e-14
-0.49740625,0.4734828023411967,2.28946255060469e-14
-0.497375,0.4734032635499589,2.516387931972548e-14
-0.49734375,0.4735623411324344,2.76271758775205e-14
-0.4973125,0.4734828023411967,3.029852428969782e-14
-0.49728125,0.4734828023411967,3.319276231794057e-14
-0.49725,0.4734828023411967,3.632559477129198e-14
-0.49721875,0.4734828023411967,3.971363319523793e-14
-0.4971875,0.4734032635499589,4.337443688110358e-14
-0.49715625,0.4733237247587212,4.732655522314916e-14
-0.497125,0.4733237247587212,5.158957145095885e-14
-0.49709375,0.4733237247587212,5.618414776492178e-14
-0.4970625,0.4732441859674835,6.113207190280867e-14
-0.49703125,0.4732441859674835,6.645630516564834e-14
-0.497,0.4732441859674835,7.218103193130708e-14
-0.49696875,0.4732441859674835,7.833171068437105e-14
-0.4969375,0.4734032635499589,8.493512659112523e-14
-0.49690625,0.4733237247587212,9.201944564861463e-14
-0.496875,0.4732441859674835,9.961427043696324e-14
-0.49684375,0.4732441859674835,1.077506975043122e-13
-0.4968125,0.4732441859674835,1.164613764139244e-13
-0.49678125,0.4732441859674835,1.257805704831847e-13
-0.49675,0.4733237247587212,1.357442192444042e-13
-0.49671875,0.4731646471762457,1.463900026575164e-13
-0.4966875,0.4731646471762457,1.577574071049257e-13
-0.49665625,0.4731646471762457,1.698877931989451e-13
-0.496625,0.4731646471762457,1.828244654324265e-13
-0.49659375,0.4731646471762457,1.966127437033582e-13
-0.4965625,0.473085108385008,2.113000367443695e-13
-0.49653125,0.473085108385008,2.269359174882436e-13
-0.4965,0.473085108385008,2.435722004007042e-13
-0.49646875,0.473085108385008,2.612630208118971e-13
-0.4964375,0.473085108385008,2.800649162781475e-13
-0.49640625,0.473085108385008,3.00036910005722e-13
-0.496375,0.473085108385008,3.212405963684854e-13
-0.49634375,0.4730055695937703,3.437402285514788e-13
-0.4963125,0.4730055695937703,3.676028083526069e-13
-0.49628125,0.473085108385008,3.928981781747536e-13
-0.49625,0.4729260308025325,4.19699115240795e-13
-0.49621875,0.4729260308025325,4.480814280641188e-13
-0.4961875,0.4729260308025325,4.781240552073908e-13
-0.49615625,0.4728464920112949,5.099091663624496e-13
-0.496125,0.4728464920112949,5.435222657843422e-13
-0.49609375,0.4728464920112949,5.790522981126421e-13
-0.4960625,0.4729260308025325,6.165917566133202e-13
-0.49603125,0.4728464920112949,6.562367938745646e-13
-0.496,0.4727669532200571,6.980873349900703e-13
-0.49596875,0.4727669532200571,7.422471932634381e-13
-0.4959375,0.4726874144288194,7.888241884674408e-13
-0.49590625,0.4726078756375817,8.379302676920357e-13
-0.495875,0.4726874144288194,8.896816288151077e-13
-0.49584375,0.4727669532200571,9.441988466300469e-13
-0.4958125,0.4728464920112949,1.001607001664372e-12
-0.49578125,0.4727669532200571,1.06203581172371e-12
-0.49575,0.4727669532200571,1.125619766195566e-12
-0.49571875,0.4728464920112949,1.192498263147386e-12
-0.4956875,0.4727669532200571,1.262815749253563e-12
-0.49565625,0.4727669532200571,1.336721862586079e-12
-0.495625,0.4728464920112949,1.414371578303625e-12
-0.49559375,0.4725283368463439,1.495925357274085e-12
-0.4955625,0.4723692592638685,1.581549297665403e-12
-0.49553125,0.472210181681393,1.671415289539909e-12
-0.4955,0.4724487980551062,1.765701172487275e-12
-0.49546875,0.4724487980551062,1.864590896331377e-12
-0.4954375,0.4724487980551062,1.968274684946379e-12
-0.49540625,0.4724487980551062,2.076949203217464e-12
-0.495375,0.4725283368463439,2.190817727181722e-12
-0.49534375,0.4725283368463439,2.310090317384729e-12
-0.4953125,0.4723692592638685,2.434983995488507e-12
-0.49528125,0.4724487980551062,2.565722924166513e-12
-0.49525,0.4725283368463439,2.702538590321501e-12
-0.49521875,0.4722897204726307,2.84566999166205e-12
-0.4951875,0.4724487980551062,2.995363826673686e-12
-0.49515625,0.4723692592638685,3.151874688020562e-12
-0.495125,0.4723692592638685,3.315465259413722e-12
-0.49509375,0.4724487980551062,3.486406515982022e-12
-0.4950625,0.4723692592638685,3.664977928181855e-12
-0.49503125,0.472210181681393,3.85146766928185e-12
-0.495,0.472210181681393,4.046172826458804e-12
-0.49496875,0.4723692592638685,4.249399615541096e-12
-0.4949375,0.472210181681393,4.461463599435938e-12
-0.49490625,0.4720511040989176,4.682689910276836e-12
-0.494875,0.472210181681393,4.913413475327632e-12
-0.49484375,0.4722897204726307,5.153979246679615e-12
-0.4948125,0.472210181681393,5.404742434778173e-12
-0.49478125,0.472210181681393,5.666068745815478e-12
-0.49475,0.4722897204726307,5.9383346230258e-12
-0.49471875,0.472210181681393,6.221927491919971e-12
-0.4946875,0.472210181681393,6.517246009495646e-12
-0.49465625,0.4720511040989176,6.824700317459962e-12
-0.494625,0.4721306428901553,7.144712299501258e-12
-0.49459375,0.472210181681393,7.477715842646527e-12
-0.4945625,0.4722897204726307,7.824157102741274e-12
-0.49453125,0.472210181681393,8.184494774088489e-12
-0.4945,0.472210181681393,8.559200363283467e-12
-0.49446875,0.4722897204726307,8.948758467281177e-12
-0.4944375,0.4722897204726307,9.353667055732933e-12
-0.49440625,0.4723692592638685,9.774437757629103e-12
-0.494375,0.4722897204726307,1.021159615228461e-11
-0.49434375,0.4722897204726307,1.066568206470398e-11
-0.4943125,0.472210181681393,1.113724986536264e-11
-0.49428125,0.4722897204726307,1.16268687744413e-11
-0.49425,0.4722897204726307,1.213512317055011e-11
-0.49421875,0.4724487980551062,1.266261290397927e-11
-0.4941875,0.4724487980551062,1.320995361451299e-11
-0.49415625,0.4723692592638685,1.377777705384334e-11
-0.494125,0.4724487980551062,1.436673141262077e-11
-0.49409375,0.4722897204726307,1.497748165217807e-11
-0.4940625,0.4724487980551062,1.561070984096423e-11
-0.49403125,0.4724487980551062,1.626711549572516e-11
-0.494,0.4723692592638685,1.694741592746754e-11
-0.49396875,0.472210181681393,1.765234659224276e-11
-0.4939375,0.4723692592638685,1.838266144678732e-11
-0.49390625,0.4722897204726307,1.913913330905622e-11
-0.493875,0.4723692592638685,1.992255422368612e-11
-0.49384375,0.4723692592638685,2.073373583242437e-11
-0.4938125,0.4724487980551062,2.157350974956082e-11
-0.49378125,0.4724487980551062,2.24427279423984e-11
-0.49375,0.4723692592638685,2.334226311679919e-11
-0.49371875,0.4722897204726307,2.427300910784213e-11
-0.4936875,0.4724487980551062,2.52358812756288e-11
-0.49365625,0.4724487980551062,2.623181690627337e-11
-0.493625,0.4724487980551062,2.726177561811311e-11
-0.49359375,0.4725283368463439,2.832673977317547e-11
-0.4935625,0.4723692592638685,2.9427714893938e-11
-0.49353125,0.4724487980551062,3.056573008541702e-11
-0.4935,0.4725283368463439,3.174183846262111e-11
-0.49346875,0.4725283368463439,3.295711758340535e-11
-0.4934375,0.4724487980551062,3.421266988676226e-11
-0.49340625,0.4725283368463439,3.55096231365852e-11
-0.493375,0.4725283368463439,3.684913087094005e-11
-0.49334375,0.4726078756375817,3.823237285688073e-11
-0.4933125,0.4725283368463439,3.966055555084448e-11
-0.49328125,0.4725283368463439,4.113491256466214e-11
-0.49325,0.4725283368463439,4.265670513721907e-11
-0.49321875,0.4726078756375817,4.422722261180233e-11
-0.4931875,0.4724487980551062,4.584778291916901e-11
-0.49315625,0.4725283368463439,4.751973306637141e-11
-0.493125,0.4725283368463439,4.924444963137408e-11
-0.49309375,0.4723692592638685,5.102333926349772e-11
-0.4930625,0.4724487980551062,5.28578391897253e-11
-0.49303125,0.4724487980551062,5.474941772690496e-11
-0.493,0.4724487980551062,5.669957479988475e-11
-0.49296875,0.4723692592638685,5.870984246561406e-11
-0.4929375,0.4725283368463439,6.078178544324615e-11
-0.49290625,0.4726078756375817,6.291700165027672e-11
-0.492875,0.4725283368463439,6.51171227447526e-11
-0.49284375,0.4725283368463439,6.738381467358534e-11
-0.4928125,0.4724487980551062,6.971877822700377e-11
-0.49278125,0.4726078756375817,7.212374959917978e-11
-0.49275,0.4726078756375817,7.46005009550614e-11
-0.49271875,0.4725283368463439,7.715084100344731e-11
-0.4926875,0.4725283368463439,7.977661557633648e-11
-0.49265625,0.4725283368463439,8.247970821458669e-11
-0.492625,0.4726874144288194,8.526204075991594e-11
-0.49259375,0.4726874144288194,8.812557395328001e-11
-0.4925625,0.4727669532200571,9.107230803965945e-11
-0.49253125,0.4727669532200571,9.410428337928984e-11
-0.4925,0.4727669532200571,9.722358106536828e-11
-0.49246875,0.4726874144288194,1.004323235482689e-10
-0.4924375,0.4726874144288194,1.03732675266301e-10
-0.49240625,0.4726078756375817,1.071268432830421e-10
-0.492375,0.4726874144288194,1.106170779312791e-10
-0.49234375,0.4727669532200571,1.142056734635897e-10
-0.4923125,0.4727669532200571,1.178949687095968e-10
-0.49228125,0.4728464920112949,1.216873477399283e-10
-0.49225,0.4727669532200571,1.25585240536915e-10
-0.49221875,0.4728464920112949,1.295911236720567e-10
-0.4921875,0.4726874144288194,1.337075209902912e-10
-0.49215625,0.4726874144288194,1.379370043010966e-10
-0.492125,0.4726078756375817,1.422821940764578e-10
-0.49209375,0.4727669532200571,1.467457601557306e-10
-0.4920625,0.4728464920112949,1.513304224574329e-10
-0.49203125,0.4728464920112949,1.560389516979967e-10
-0.492,0.4727669532200571,1.608741701175086e-10
-0.49196875,0.4728464920112949,1.658389522124728e-10
-0.4919375,0.4728464920112949,1.709362254756266e-10
-0.49190625,0.4729260308025325,1.761689711428376e-10
-0.491875,0.4728464920112949,1.815402249471153e-10
-0.49184375,0.4729260308025325,1.870530778797663e-10
-0.4918125,0.4728464920112949,1.927106769587229e-10
-0.49178125,0.4729260308025325,1.985162260040765e-10
-0.49175,0.4731646471762457,2.04472986420844e-10
-0.49171875,0.473085108385008,2.105842779889992e-10
-0.4916875,0.4730055695937703,2.168534796607963e-10
-0.49165625,0.473085108385008,2.232840303654163e-10
-0.491625,0.4729260308025325,2.298794298209659e-10
-0.49159375,0.4729260308025325,2.366432393538569e-10
-0.4915625,0.4729260308025325,2.435790827255956e-10
-0.49153125,0.4728464920112949,2.506906469670112e-10
-0.4915,0.4728464920112949,2.57981683219951e-10
-0.49146875,0.4728464920112949,2.654560075864721e-10
-0.4914375,0.4728464920112949,2.731175019855562e-10
-0.49140625,0.4729260308025325,2.809701150173771e-10
-0.491375,0.4729260308025325,2.890178628351472e-10
-0.49134375,0.4729260308025325,2.972648300245732e-10
-0.4913125,0.4731646471762457,3.057151704909452e-10
-0.49128125,0.4731646471762457,3.143731083538896e-10
-0.49125,0.473085108385008,3.232429388498111e-10
-0.49121875,0.473085108385008,3.323290292420511e-10
-0.4911875,0.4731646471762457,3.416358197387911e-10
-0.49115625,0.473085108385008,3.51167824418724e-10
-0.491125,0.473085108385008,3.609296321645236e-10
-0.49109375,0.473085108385008,3.709259076041367e-10
-0.4910625,0.4731646471762457,3.811613920599229e-10
-0.49103125,0.4731646471762457,3.916409045056707e-10
-0.491,0.4731646471762457,4.023693425315128e-10
-0.49096875,0.4731646471762457,4.13351683316768e-10
-0.4909375,0.4732441859674835,4.245929846107334e-10
-0.49090625,0.473085108385008,4.360983857214539e-10
-0.490875,0.473085108385008,4.478731085124919e-10
-0.49084375,0.473085108385008,4.59922458407723e-10
-0.4908125,0.4731646471762457,4.722518254041827e-10
-0.49078125,0.4732441859674835,4.848666850929862e-10
-0.49075,0.4734032635499589,4.977725996883483e-10
-0.49071875,0.4734032635499589,5.109752190647249e-10
-0.4906875,0.4734032635499589,5.244802818021009e-10
-0.49065625,0.4734828023411967,5.38293616239448e-10
-0.490625,0.4734032635499589,5.524211415363749e-10
-0.49059375,0.4734032635499589,5.668688687429939e-10
-0.4905625,0.4733237247587212,5.816429018780257e-10
-0.49053125,0.4734032635499589,5.967494390151659e-10
-0.4905,0.4734828023411967,6.121947733777359e-10
-0.49046875,0.4733237247587212,6.279852944416381e-10
-0.4904375,0.4733237247587212,6.441274890466412e-10
-0.49040625,0.4734032635499589,6.606279425160132e-10
-0.490375,0.4734032635499589,6.774933397845265e-10
-0.49034375,0.4734032635499589,6.947304665348561e-10
-0.4903125,0.4734032635499589,7.123462103423906e-10
-0.49028125,0.4733237247587212,7.303475618284779e-10
-0.49025,0.4732441859674835,7.487416158221261e-10
-0.49021875,0.4734032635499589,7.675355725301807e-10
-0.4901875,0.4732441859674835,7.867367387159957e-10
-0.49015625,0.4733237247587212,8.06352528886624e-10
-0.490125,0.4734828023411967,8.26390466488539e-10
-0.49009375,0.4734032635499589,8.468581851119144e-10
-0.4900625,0.4734828023411967,8.677634297034779e-10
-0.49003125,0.4734032635499589,8.891140577879566e-10
-0.49,0.4734828023411967,9.109180406981372e-10
-0.48996875,0.4734032635499589,9.331834648135546e-10
-0.4899375,0.4733237247587212,9.559185328078317e-10
-0.48990625,0.4734032635499589,9.791315649046862e-10
-0.489875,0.4733237247587212,1.002831000142621e-09
-0.48984375,0.4732441859674835,1.027025397648319e-09
-0.4898125,0.4733237247587212,1.051723437918759e-09
-0.48978125,0.4733237247587212,1.076933924112068e-09
-0.48975,0.4733237247587212,1.102665783347127e-09
-0.48971875,0.4733237247587212,1.12892806801195e-09
-0.4896875,0.4734032635499589,1.155729957080852e-09
-0.48965625,0.4734828023411967,1.183080757440412e-09
-0.489625,0.4735623411324344,1.210989905224271e-09
-0.48959375,0.4734032635499589,1.23946696715675e-09
-0.4895625,0.4734032635499589,1.268521641905333e-09
-0.48953125,0.4733237247587212,1.298163761442003e-09
-0.4895,0.4734828023411967,1.32840329241347e-09
-0.48946875,0.4734032635499589,1.35925033752029e-09
-0.4894375,0.4734828023411967,1.390715136904897e-09
-0.48940625,0.4734828023411967,1.422808069548556e-09
-0.489375,0.4734032635499589,1.455539654677259e-09
-0.48934375,0.4734032635499589,1.488920553176573e-09
-0.4893125,0.4734828023411967,1.522961569015451e-09
-0.48928125,0.4734828023411967,1.557673650679025e-09
-0.48925,0.4734828023411967,1.593067892610395e-09
-0.48921875,0.4734032635499589,1.629155536661411e-09
-0.4891875,0.4734032635499589,1.665947973552491e-09
-0.48915625,0.4735623411324344,1.70345674434145e-09
-0.489125,0.4736418799236721,1.741693541901385e-09
-0.48909375,0.4734828023411967,1.780670212407604e-09
-0.4890625,0.4735623411324344,1.82039875683363e-09
-0.48903125,0.4734828023411967,1.860891332456271e-09
-0.489,0.4734828023411967,1.902160254369781e-09
-0.48896875,0.4734828023411967,1.944217997009126e-09
-0.4889375,0.4735623411324344,1.987077195682344e-09
-0.48890625,0.4734032635499589,2.030750648112038e-09
-0.488875,0.4734828023411967,2.075251315985989e-09
-0.48884375,0.4734828023411967,2.120592326516909e-09
-0.4888125,0.4734032635499589,2.166786974011342e-09
-0.48878125,0.4734032635499589,2.213848721447722e-09
-0.48875,0.4734828023411967,2.261791202063598e-09
-0.48871875,0.4734032635499589,2.310628220952026e-09
-0.4886875,0.4735623411324344,2.360373756667155e-09
-0.48865625,0.4734032635499589,2.411041962838992e-09
-0.488625,0.4734032635499589,2.462647169797374e-09
-0.48859375,0.4734032635499589,2.515203886205141e-09
-0.4885625,0.4732441859674835,2.568726800700525e-09
-0.48853125,0.4734032635499589,2.623230783548756e-09
-0.4885,0.4734032635499589,2.678730888302899e-09
-0.48846875,0.4734828023411967,2.735242353473921e-09
-0.4884375,0.4734032635499589,2.792780604209999e-09
-0.48840625,0.4734032635499589,2.851361253985073e-09
-0.488375,0.4734032635499589,2.911000106296655e-09
