Task5_100Hz.csv

#Digilent WaveForms Oscilloscope Acquisition
#Device Name: Discovery3
#Serial Number: SN:210415BD63A1
#Date Time: 2026-09-24 11:14:39.789.945.670
#Sample rate: 63979.5Hz
#Samples: 32768
#Trigger: Source: Channel 1 Type: Edge Condition: Rising Level: 0 V Hyst.: Auto HoldOff: 0 s
#Channel 1: Range: 500 mV/div Offset: 0 V Sample Mode: Average
#Math 1: Input: C1 Reference: Internal Frequency: 100 Hz Phase: 90 ° Filter: IIR Butterworth 8  Low-Pass CutOff: 20 Hz Output: Amplitude

#Wavegen Channel 1: Running
#Mode: Simple
#Type: Sine
#Frequency: 100 Hz
#Period: 10 ms
#Amplitude: 50 mV
#Offset: 0 V
#Symmetry: 50 %
#Phase: 0 °

Time (s),Channel 1 (V),Math 1 (V)
-0.25608192,0.4363381868331785,3.756201852199495e-25
-0.25606629,0.436099570459465,6.381539042414754e-24
-0.25605066,0.4359404928769898,5.439292778676106e-23
-0.25603503,0.436179109250703,3.122406396256377e-22
-0.2560194,0.4360995704594655,1.366668145938012e-21
-0.25600377,0.4361791092507029,4.892009997351562e-21
-0.25598814,0.436179109250703,1.498493942094279e-20
-0.25597251,0.436179109250703,4.054294863976198e-20
-0.25595688,0.4360995704594653,9.9156456683551e-20
-0.25594125,0.4362586480419405,2.230757072435977e-19
-0.25592562,0.4363381868331783,4.67903922049798e-19
-0.25590999,0.4362586480419406,9.247575135686239e-19
-0.25589436,0.436179109250703,1.736722538125023e-18
-0.25587873,0.4362586480419408,3.120523990286815e-18
-0.2558631,0.4360995704594656,5.394411000466434e-18
-0.25584747,0.4360200316682277,9.013346495352039e-18
-0.25583184,0.4360995704594653,1.461267441022629e-17
-0.25581621,0.4360995704594653,2.306152110249722e-17
-0.25580058,0.436179109250703,3.552727020585216e-17
-0.25578495,0.4362586480419406,5.355253179022113e-17
-0.25576932,0.4362586480419409,7.914610736232871e-17
-0.25575369,0.4363381868331782,1.148895319595291e-16
-0.25573806,0.436179109250703,1.640608533683233e-16
-0.25572243,0.4362586480419408,2.307773863273265e-16
-0.2557068,0.4364177256244159,3.201592564618347e-16
-0.25569117,0.4362586480419408,4.385156246380672e-16
-0.25567554,0.4362586480419408,5.935555574048579e-16
-0.25565991,0.4362586480419408,7.946255832535578e-16
-0.25564428,0.4363381868331785,1.052976047498708e-15
-0.25562865,0.4362586480419409,1.382058450763986e-15
-0.25561302,0.4363381868331785,1.79785602725093e-15
-0.25559739,0.4363381868331785,2.319249889217631e-15
-0.25558176,0.4364177256244162,2.968423133477983e-15
-0.25556613,0.4363381868331785,3.771305374026653e-15
-0.2555505,0.4362586480419409,4.758060232448346e-15
-0.25553487,0.4362586480419409,5.963618384239734e-15
-0.25551924,0.4363381868331785,7.428258824720387e-15
-0.25550361,0.4362586480419408,9.198241083027373e-15
-0.25548798,0.4364177256244162,1.13264911761292e-14
-0.25547235,0.4363381868331787,1.387334415786008e-14
-0.25545672,0.4364972644156539,1.690734617967643e-14
-0.25544109,0.4364972644156539,2.050611904067984e-14
-0.25542546,0.4366563419981294,2.475729026488857e-14
-0.25540983,0.4364177256244162,2.975949180215603e-14
-0.2553942,0.4363381868331787,3.562343050803632e-14
-0.25537857,0.4364972644156537,4.24730336147827e-14
-0.25536294,0.4364177256244162,5.044667246183667e-14
-0.25534731,0.4364177256244162,5.969846781055604e-14
-0.25533168,0.4363381868331785,7.039968012090245e-14
-0.25531605,0.4363381868331785,8.274018822300946e-14
-0.25530042,0.4364177256244162,9.693005986834794e-14
-0.25528479,0.4364177256244162,1.132012176966193e-13
-0.25526916,0.4364177256244162,1.318092042073442e-13
-0.25525353,0.4363381868331785,1.530350493718735e-13
-0.2552379,0.4362586480419409,1.771872445739103e-13
-0.25522227,0.4362586480419412,2.046038266129268e-13
-0.25520664,0.4364972644156539,2.356545755514683e-13
-0.25519101,0.4364177256244162,2.707433302374882e-13
-0.25517538,0.4364177256244162,3.103104253720645e-13
-0.25515975,0.4364972644156537,3.548352540443449e-13
-0.25514412,0.4365768032068912,4.048389596936269e-13
-0.25512849,0.4363381868331785,4.608872615041915e-13
-0.25511286,0.4365768032068916,5.235934172823245e-13
-0.25509723,0.4364972644156541,5.936213278986178e-13
-0.2550816,0.4362586480419412,6.716887874293787e-13
-0.25506597,0.4364177256244162,7.585708831606502e-13
-0.25505034,0.4364177256244162,8.551035496619643e-13
-0.25503471,0.4363381868331785,9.621872811775926e-13
-0.25501908,0.4365768032068912,1.080791006606987e-12
-0.25500345,0.4364972644156541,1.211956131400614e-12
-0.25498782,0.4365768032068915,1.356800750711679e-12
-0.25497219,0.4364972644156539,1.516524038201446e-12
-0.25495656,0.4365768032068916,1.692410814905807e-12
-0.25494093,0.4364177256244165,1.885836302617282e-12
-0.2549253,0.4364177256244165,2.098271066270927e-12
-0.25490967,0.4365768032068916,2.33128614983346e-12
-0.25489404,0.4365768032068916,2.58655841025833e-12
-0.25487841,0.4366563419981294,2.865876054061154e-12
-0.25486278,0.4365768032068918,3.171144381121127e-12
-0.25484715,0.4365768032068918,3.504391740345412e-12
-0.25483152,0.4366563419981292,3.867775701828551e-12
-0.25481589,0.4365768032068916,4.26358945021773e-12
-0.25480026,0.4366563419981294,4.694268403960545e-12
-0.25478463,0.4365768032068918,5.162397065172588e-12
-0.254769,0.4364972644156541,5.670716104890992e-12
-0.25475337,0.4365768032068916,6.222129688453234e-12
-0.25473774,0.4364177256244162,6.81971304585208e-12
-0.25472211,0.4366563419981294,7.466720291817424e-12
-0.25470648,0.4364972644156542,8.166592500513017e-12
-0.25469085,0.4367358807893666,8.922966039686828e-12
-0.25467522,0.4364972644156539,9.739681169119369e-12
-0.25465959,0.4366563419981294,1.062079090833592e-11
-0.25464396,0.4366563419981294,1.157057017839383e-11
-0.25462833,0.4365768032068918,1.259352522274549e-11
-0.2546127,0.4366563419981292,1.369440331209078e-11
-0.25459707,0.4365768032068916,1.487820273812955e-11
-0.25458144,0.4365768032068916,1.615018310128964e-11
-0.25456581,0.4366563419981294,1.751587589726913e-11
-0.25455018,0.4368154195806045,1.898109540749586e-11
-0.25453455,0.4367358807893669,2.055194989847015e-11
-0.25451892,0.4366563419981294,2.223485313494279e-11
-0.25450329,0.4366563419981294,2.403653621210638e-11
-0.25448766,0.4367358807893671,2.596405971163059e-11
-0.25447203,0.4366563419981295,2.802482618674005e-11
-0.2544564,0.4367358807893671,3.022659298132921e-11
-0.25444077,0.4367358807893671,3.257748538808254e-11
-0.25442514,0.4368154195806048,3.508601015087727e-11
-0.25440951,0.4368154195806048,3.776106931625152e-11
-0.25439388,0.43697449716308,4.061197443922971e-11
-0.25437825,0.4369744971630798,4.364846114850287e-11
-0.25436262,0.4367358807893671,4.688070407592262e-11
-0.25434699,0.4367358807893671,5.031933215568586e-11
-0.25433136,0.4366563419981294,5.397544429790148e-11
-0.25431573,0.4367358807893669,5.786062544192518e-11
-0.2543001,0.4368949583718424,6.198696299443883e-11
-0.25428447,0.4368154195806048,6.636706365719447e-11
-0.25426884,0.4368949583718426,7.101407064990768e-11
-0.25425321,0.436815419580605,7.594168133283965e-11
-0.25423758,0.4368154195806048,8.116416523461864e-11
-0.25422195,0.4368154195806048,8.669638249004132e-11
-0.25420632,0.4368154195806048,9.255380269301819e-11
-0.25419069,0.4367358807893671,9.875252416995642e-11
-0.25417506,0.4368154195806047,1.053092936781021e-10
-0.25415943,0.4368949583718424,1.122415265344687e-10
-0.2541438,0.4368949583718424,1.195673271799599e-10
-0.25412817,0.4368154195806048,1.273055101838556e-10
-0.25411254,0.4368154195806048,1.354756216939925e-10
-0.25409691,0.4370540359543176,1.440979613369503e-10
-0.25408128,0.4369744971630801,1.53193604574051e-10
-0.25406565,0.4368949583718426,1.627844255173542e-10
-0.25405002,0.4368949583718426,1.728931202115301e-10
-0.25403439,0.4371335747455558,1.835432303857904e-10
-0.25401876,0.4369744971630806,1.947591676811086e-10
-0.25400313,0.4369744971630801,2.065662383580072e-10
-0.2539875,0.4368949583718424,2.189906684890281e-10
-0.25397187,0.4368154195806048,2.320596296419358e-10
-0.25395624,0.4369744971630803,2.458012650575273e-10
-0.25394061,0.4368154195806051,2.602447163272947e-10
-0.25392498,0.4369744971630801,2.754201505762337e-10
-0.25390935,0.4368949583718427,2.913587881546047e-10
-0.25389372,0.4369744971630803,3.080929308449375e-10
-0.25387809,0.4369744971630803,3.256559905877733e-10
-0.25386246,0.4368949583718427,3.440825187314092e-10
-0.25384683,0.4368949583718427,3.634082358109624e-10
-0.2538312,0.4369744971630803,3.836700618601386e-10
-0.25381557,0.4369744971630803,4.0490614726257e-10
-0.25379994,0.4368949583718426,4.271559041449425e-10
-0.25378431,0.4370540359543177,4.504600383185541e-10
-0.25376868,0.4371335747455556,4.74860581773308e-10
-0.25375305,0.437054035954318,5.004009257278612e-10
-0.25373742,0.4369744971630803,5.271258542429735e-10
-0.25372179,0.4369744971630803,5.550815783995421e-10
-0.25370616,0.4369744971630803,5.84315771048361e-10
-0.25369053,0.4369744971630801,6.148776021353036e-10
-0.2536749,0.4368949583718426,6.468177746053009e-10
-0.25365927,0.4369744971630803,6.80188560892637e-10
-0.25364364,0.4369744971630803,7.150438399981379e-10
-0.25362801,0.4370540359543179,7.514391351607771e-10
-0.25361238,0.4370540359543177,7.894316521270477e-10
-0.25359675,0.4368949583718426,8.290803180210521e-10
-0.25358112,0.4369744971630803,8.704458208234326e-10
-0.25356549,0.4369744971630803,9.135906494586248e-10
-0.25354986,0.4368949583718427,9.585791344985579e-10
-0.25353423,0.437054035954318,1.005477489485748e-09
-0.2535186,0.437054035954318,1.05435385287824e-09
-0.25350297,0.4369744971630803,1.105278330625263e-09
-0.25348734,0.437054035954318,1.158323039371776e-09
-0.25347171,0.4372131135367932,1.213562150300776e-09
-0.25345608,0.4371335747455556,1.271071933615834e-09
-0.25344045,0.437054035954318,1.330930803665754e-09
-0.25342482,0.4372131135367934,1.393219364721102e-09
-0.25340919,0.4371335747455558,1.458020457399273e-09
-0.25339356,0.4371335747455558,1.52541920574784e-09
-0.25337793,0.4371335747455558,1.595503064988132e-09
-0.2533623,0.4371335747455558,1.668361869920263e-09
-0.25334667,0.4372131135367934,1.744087884000446e-09
-0.25333104,0.4370540359543183,1.822775849085315e-09
-0.25331541,0.4372131135367932,1.904523035855107e-09
-0.25329978,0.437054035954318,1.989429294913992e-09
-0.25328415,0.437054035954318,2.077597108573048e-09
-0.25326852,0.4372131135367934,2.169131643322992e-09
-0.25325289,0.4372131135367934,2.264140802992283e-09
-0.25323726,0.4372131135367934,2.362735282602933e-09
-0.25322163,0.4372131135367933,2.465028622921143e-09
-0.253206,0.4371335747455558,2.571137265708426e-09
-0.25319037,0.4372926523280312,2.681180609680827e-09
-0.25317474,0.4373721911192687,2.795281067170015e-09
-0.25315911,0.4372131135367936,2.913564121500613e-09
-0.25314348,0.4372926523280312,3.036158385076275e-09
-0.25312785,0.4372926523280312,3.163195658189646e-09
-0.25311222,0.4372926523280312,3.294810988549037e-09
-0.25309659,0.4372926523280312,3.431142731528844e-09
-0.25308096,0.437292652328031,3.5723326111508e-09
-0.25306533,0.4372131135367939,3.718525781789315e-09
-0.2530497,0.4374517299105066,3.869870890617674e-09
-0.25303407,0.4372131135367934,4.026520140785686e-09
-0.25301844,0.4373721911192686,4.188629355336323e-09
-0.25300281,0.4372131135367933,4.356358041869002e-09
-0.25298718,0.4371335747455559,4.52986945794059e-09
-0.25297155,0.4372131135367934,4.709330677223334e-09
-0.25295592,0.4372131135367934,4.894912656407686e-09
-0.25294029,0.4372131135367934,5.086790302858221e-09
-0.25292466,0.4372926523280309,5.285142543030899e-09
-0.25290903,0.4371335747455558,5.490152391640019e-09
-0.2528934,0.4372926523280312,5.702007021599443e-09
-0.25287777,0.4372131135367934,5.920897834715076e-09
-0.25286214,0.4372131135367934,6.147020533151036e-09
-0.25284651,0.4372131135367934,6.380575191665018e-09
-0.25283088,0.4372131135367934,6.621766330606464e-09
-0.25281525,0.4372926523280312,6.870802989703152e-09
-0.25279962,0.4372926523280312,7.127898802608734e-09
-0.25278399,0.4372131135367936,7.39327207223695e-09
-0.25276836,0.4372131135367932,7.667145846876532e-09
-0.25275273,0.437054035954318,7.949747997078665e-09
-0.2527371,0.4372926523280312,8.24131129334637e-09
-0.25272147,0.4372131135367934,8.542073484592901e-09
-0.25270584,0.437292652328031,8.852277377398757e-09
-0.25269021,0.4371335747455562,9.172170916059593e-09
-0.25267458,0.4373721911192689,9.502007263414904e-09
-0.25265895,0.4372131135367934,9.842044882491196e-09
-0.25264332,0.4372926523280312,1.019254761892059e-08
-0.25262769,0.4372926523280312,1.055378478416888e-08
-0.25261206,0.4371335747455558,1.092603123956328e-08
-0.25259643,0.4371335747455558,1.130956748110775e-08
-0.2525808,0.4372926523280312,1.170467972512429e-08
-0.25256517,0.4372131135367934,1.211165999467452e-08
-0.25254954,0.4373721911192686,1.253080620680017e-08
-0.25253391,0.437292652328031,1.296242226057102e-08
-0.25251828,0.4372131135367934,1.340681812592527e-08
-0.25250265,0.4372926523280312,1.38643099333468e-08
-0.25248702,0.4372131135367934,1.433522006432532e-08
-0.25247139,0.4374517299105062,1.481987724264423e-08
-0.25245576,0.4372926523280316,1.531861662648189e-08
-0.25244013,0.4375312687017444,1.583177990130884e-08
-0.2524245,0.4373721911192689,1.635971537363164e-08
-0.25240887,0.4373721911192689,1.690277806551959e-08
-0.25239324,0.4373721911192689,1.746132980997251e-08
-0.25237761,0.4372926523280313,1.803573934709184e-08
-0.25236198,0.4373721911192689,1.862638242106924e-08
-0.25234635,0.4374517299105066,1.923364187801566e-08
-0.25233072,0.4374517299105066,1.985790776457835e-08
-0.25231509,0.4372926523280314,2.049957742740488e-08
-0.25229946,0.4373721911192691,2.115905561341182e-08
-0.25228383,0.4374517299105066,2.183675457087352e-08
-0.2522682,0.4373721911192689,2.253309415135749e-08
-0.25225257,0.4372926523280313,2.324850191244505e-08
-0.25223694,0.4373721911192687,2.398341322130813e-08
-0.25222131,0.4372926523280316,2.473827135907353e-08
-0.25220568,0.4375312687017444,2.551352762604948e-08
-0.25219005,0.4372926523280312,2.630964144774935e-08
-0.25217442,0.4373721911192687,2.712708048173692e-08
-0.25215879,0.4374517299105066,2.796632072531687e-08
-0.25214316,0.4374517299105068,2.882784662401092e-08
-0.25212753,0.4375312687017444,2.971215118090191e-08
-0.2521119,0.4374517299105066,3.061973606677087e-08
-0.25209627,0.4374517299105066,3.155111173105523e-08
-0.25208064,0.4373721911192691,3.25067975136542e-08
-0.25206501,0.4374517299105063,3.348732175751366e-08
-0.25204938,0.4372926523280312,3.449322192208368e-08
-0.25203375,0.4374517299105066,3.552504469756319e-08
-0.25201812,0.4374517299105066,3.658334611996354e-08
-0.25200249,0.4374517299105066,3.766869168702039e-08
-0.25198686,0.4374517299105066,3.878165647487452e-08
-0.25197123,0.4375312687017444,3.992282525564167e-08
-0.2519556,0.4374517299105066,4.109279261573089e-08
-0.25193997,0.4376108074929818,4.229216307501907e-08
-0.25192434,0.4374517299105068,4.352155120684305e-08
-0.25190871,0.4375312687017444,4.478158175876194e-08
-0.25189308,0.4375312687017444,4.607288977421166e-08
-0.25187745,0.4375312687017444,4.739612071489359e-08
-0.25186182,0.4372926523280316,4.875193058402007e-08
-0.25184619,0.4374517299105066,5.014098605037188e-08
-0.25183056,0.4374517299105066,5.156396457311475e-08
-0.25181493,0.4374517299105066,5.302155452751207e-08
-0.2517993,0.4374517299105066,5.451445533135538e-08
-0.25178367,0.4374517299105066,5.604337757225083e-08
-0.25176804,0.4376108074929818,5.760904313571108e-08
-0.25175241,0.4374517299105066,5.921218533399255e-08
-0.25173678,0.4374517299105066,6.085354903583251e-08
-0.25172115,0.4375312687017444,6.253389079688511e-08
-0.25170552,0.4374517299105068,6.425397899101171e-08
-0.25168989,0.4375312687017441,6.601459394236811e-08
-0.25167426,0.4373721911192689,6.781652805822193e-08
-0.25165863,0.4376108074929821,6.96605859626728e-08
-0.251643,0.4376108074929821,7.154758463104991e-08
-0.25162737,0.4374517299105069,7.347835352516132e-08
-0.25161174,0.4373721911192689,7.545373472933065e-08
-0.25159611,0.4373721911192689,7.747458308714575e-08
-0.25158048,0.4373721911192689,7.954176633911329e-08
-0.25156485,0.4375312687017444,8.165616526096655e-08
-0.25154922,0.4374517299105068,8.381867380282128e-08
-0.25153359,0.4373721911192689,8.603019922910816e-08
-0.25151796,0.4373721911192689,8.829166225919654e-08
-0.25150233,0.4372926523280312,9.060399720892779e-08
-0.2514867,0.4372926523280312,9.296815213276929e-08
-0.25147107,0.4373721911192687,9.538508896683913e-08
-0.25145544,0.4373721911192689,9.78557836726299e-08
-0.25143981,0.4373721911192689,1.003812263814872e-07
-0.25142418,0.4373721911192689,1.02962421539936e-07
-0.25140855,0.4372926523280313,1.056003880556236e-07
-0.25139292,0.4373721911192687,1.082961594441261e-07
-0.25137729,0.4373721911192686,1.110507839764329e-07
-0.25136166,0.4372131135367934,1.138653248271717e-07
-0.25134603,0.4372926523280312,1.167408602236756e-07
-0.2513304,0.4372131135367936,1.196784835956366e-07
-0.25131477,0.4372926523280312,1.226793037256317e-07
-0.25129914,0.437292652328031,1.257444449002361e-07
-0.25128351,0.4372131135367934,1.288750470620268e-07
-0.25126788,0.4372926523280312,1.320722659622021e-07
-0.25125225,0.4372131135367936,1.353372733139198e-07
-0.25123662,0.4372926523280312,1.386712569464396e-07
-0.25122099,0.437292652328031,1.420754209598319e-07
-0.25120536,0.4372131135367934,1.455509858805747e-07
-0.25118973,0.4372926523280312,1.4909918881774e-07
-0.2511741,0.4372926523280312,1.527212836198778e-07
-0.25115847,0.4372131135367936,1.564185410326973e-07
-0.25114284,0.4372926523280312,1.601922488572777e-07
-0.25112721,0.4372926523280312,1.640437121091702e-07
-0.25111158,0.4373721911192689,1.679742531780549e-07
-0.25109595,0.4374517299105065,1.71985211988077e-07
-0.25108032,0.4372926523280312,1.7607794615897e-07
-0.25106469,0.4372926523280312,1.802538311676637e-07
-0.25104906,0.4373721911192689,1.845142605108299e-07
-0.25103343,0.4373721911192689,1.888606458678335e-07
-0.2510178,0.4373721911192689,1.932944172644948e-07
-0.25100217,0.4374517299105068,1.978170232375138e-07
-0.25098654,0.4375312687017444,2.024299309993846e-07
-0.25097091,0.4374517299105066,2.071346266042454e-07
-0.25095528,0.4372926523280312,2.119326151140843e-07
-0.25093965,0.4372131135367936,2.168254207657503e-07
-0.25092402,0.4372926523280314,2.218145871386042e-07
-0.25090839,0.4374517299105066,2.26901677322619e-07
-0.25089276,0.4374517299105066,2.32088274087423e-07
-0.25087713,0.4374517299105066,2.373759800516457e-07
-0.2508615,0.4374517299105066,2.427664178530624e-07
-0.25084587,0.4375312687017441,2.48261230319354e-07
-0.25083024,0.4373721911192689,2.538620806392757e-07
-0.25081461,0.4373721911192689,2.595706525347745e-07
-0.25079898,0.4374517299105066,2.653886504333534e-07
-0.25078335,0.4372926523280314,2.713177996412279e-07
-0.25076772,0.4373721911192689,2.77359846517072e-07
-0.25075209,0.4373721911192689,2.835165586461288e-07
-0.25073646,0.4372926523280312,2.897897250152792e-07
-0.25072083,0.4372131135367934,2.961811561882949e-07
-0.2507052,0.437292652328031,3.026926844818785e-07
-0.25068957,0.4371335747455559,3.093261641422683e-07
-0.25067394,0.4372131135367934,3.160834715221567e-07
-0.25065831,0.4372131135367934,3.229665052585794e-07
-0.25064268,0.4374517299105066,3.299771864509239e-07
-0.25062705,0.4373721911192691,3.371174588397185e-07
-0.25061142,0.4372926523280313,3.44389288985959e-07
-0.25059579,0.4373721911192689,3.517946664506986e-07
-0.25058016,0.4372131135367934,3.593356039756192e-07
-0.25056453,0.4373721911192686,3.670141376636417e-07
-0.2505489,0.4372131135367937,3.748323271603925e-07
-0.25053327,0.4373721911192689,3.827922558359716e-07
-0.25051764,0.4373721911192689,3.908960309672083e-07
-0.25050201,0.4374517299105066,3.991457839207044e-07
-0.25048638,0.4373721911192691,4.075436703359229e-07
-0.25047075,0.4373721911192689,4.160918703091254e-07
-0.25045512,0.4373721911192691,4.247925885775594e-07
-0.25043949,0.4374517299105066,4.336480547041029e-07
-0.25042386,0.4373721911192689,4.426605232626947e-07
-0.25040823,0.4373721911192689,4.518322740237371e-07
-0.2503926,0.4372926523280313,4.611656121403855e-07
-0.25037697,0.4373721911192691,4.706628683348309e-07
