Task5_10Hz_200mV_45-10.csv

#Digilent WaveForms Oscilloscope Acquisition
#Device Name: Discovery3
#Serial Number: SN:210415BD63A1
#Date Time: 2026-09-24 11:24:05.561.154.580
#Sample rate: 16000Hz
#Samples: 32000
#Trigger: Source: Channel 1 Type: Edge Condition: Rising Level: 0 V Hyst.: Auto HoldOff: 0 s
#Channel 1: Range: 500 mV/div Offset: 0 V Sample Mode: Average
#Math 1: Input: C1 Reference: Internal Frequency: 10 Hz Phase: 90 ° Filter: IIR Butterworth 8  Low-Pass CutOff: 2 Hz Output: Amplitude

#Wavegen Channel 1: Running
#Mode: Simple
#Type: Sine
#Frequency: 10 Hz
#Period: 100 ms
#Amplitude: 200 mV
#Offset: 0 V
#Symmetry: 50 %
#Phase: 0 °

Time (s),Channel 1 (V),Math 1 (V)
-1,0.5073663274084681,2.85875636856806e-28
-0.9999375,0.5073663274084681,4.858777761905396e-27
-0.999875,0.5072867886172303,4.143193272203886e-26
-0.9998125,0.5072867886172303,2.379521813411483e-25
-0.99975,0.5072867886172303,1.042041996459469e-24
-0.9996875,0.5072867886172303,3.73201629428425e-24
-0.999625,0.5072072498259926,1.143813472718738e-23
-0.9995625,0.5072867886172303,3.096475228956953e-23
-0.9995000000000001,0.5072072498259926,7.577601906591405e-23
-0.9994375,0.5072867886172303,1.705794679278724e-22
-0.999375,0.5072867886172303,3.580132163479801e-22
-0.9993125,0.5072867886172303,7.080135941544615e-22
-0.99925,0.5072072498259926,1.330510794481473e-21
-0.9991875,0.5072867886172303,2.392170634537322e-21
-0.999125,0.5072072498259926,4.137970710090436e-21
-0.9990625,0.5071277110347548,6.918469133530422e-21
-0.999,0.5071277110347548,1.122369365682173e-20
-0.9989375,0.5071277110347548,1.772464829330051e-20
-0.998875,0.5072072498259926,2.732350356440661e-20
-0.9988125,0.5072867886172303,4.121360521066592e-20
-0.99875,0.5072072498259926,6.095050462363545e-20
-0.9986875,0.5072867886172303,8.85352823810728e-20
-0.998625,0.5072072498259926,1.265115041052988e-19
-0.9985625,0.5070481722435172,1.780772154160274e-19
-0.9985000000000001,0.5071277110347548,2.472134500119157e-19
-0.9984375,0.5071277110347548,3.388307918871018e-19
-0.998375,0.5070481722435172,4.589355993688262e-19
-0.9983125,0.5068890946610417,6.148175650498469e-19
-0.99825,0.5069686334522794,8.152603517856015e-19
-0.9981875,0.5068890946610417,1.070777110731868e-18
-0.998125,0.5068890946610417,1.393872752913604e-18
-0.9980625,0.5068095558698039,1.799334911038792e-18
-0.998,0.5066504782873286,2.304555593203933e-18
-0.9979375,0.5065709394960908,2.929885594784084e-18
-0.997875,0.5065709394960908,3.699023799162968e-18
-0.9978125,0.5065709394960908,4.639443562037068e-18
-0.99775,0.5064914007048531,5.782858437818803e-18
-0.9976874999999999,0.5063323231223776,7.165729570164764e-18
-0.997625,0.5064118619136153,8.829817131863137e-18
-0.9975625,0.5063323231223776,1.082277826222729e-17
-0.9975000000000001,0.5064118619136153,1.319881401275884e-17
-0.9974375,0.5063323231223776,1.601936787416638e-17
-0.997375,0.5064118619136153,1.935387851986069e-17
-0.9973125,0.5063323231223776,2.32805894627972e-17
-0.99725,0.5060937067486644,2.788741838400453e-17
-0.9971875,0.5060937067486644,3.327288895232215e-17
-0.997125,0.5061732455399022,3.954712801576908e-17
-0.9970625,0.5060937067486644,4.683293110557669e-17
-0.997,0.5060141679574267,5.526689925424512e-17
-0.9969375,0.5060937067486644,6.500065018902288e-17
-0.996875,0.5060937067486644,7.620210702196697e-17
-0.9968125,0.5060937067486644,8.90568676172132e-17
-0.99675,0.5060141679574267,1.037696578752763e-16
-0.9966874999999999,0.5060141679574267,1.20565872233097e-16
-0.996625,0.5060937067486644,1.396932047371671e-16
-0.9965625,0.5059346291661889,1.614233741053796e-16
-0.9965000000000001,0.5060141679574267,1.860539462512916e-16
-0.9964375,0.5058550903749512,2.139102578022332e-16
-0.996375,0.5059346291661889,2.45347444200166e-16
-0.9963125,0.5058550903749512,2.807525760313699e-16
-0.99625,0.5059346291661889,3.205469072879238e-16
-0.9961875,0.5057755515837136,3.651882393205472e-16
-0.996125,0.5058550903749512,4.151734042986825e-16
-0.9960625,0.5058550903749512,4.710408720497293e-16
-0.996,0.5058550903749512,5.333734842050917e-16
-0.9959375,0.5058550903749512,6.028013196361633e-16
-0.995875,0.5060141679574267,6.800046952185597e-16
-0.9958125,0.5060141679574267,7.657173060178009e-16
-0.99575,0.5060141679574267,8.607295090442543e-16
-0.9956874999999999,0.5059346291661889,9.658917547794762e-16
-0.995625,0.5060141679574267,1.08211817073013e-15
-0.9955625,0.5060141679574267,1.210390301319418e-15
-0.9955000000000001,0.5060141679574267,1.351761008479444e-15
-0.9954375,0.5060937067486644,1.507358537361105e-15
-0.995375,0.5059346291661889,1.67839075163102e-15
-0.9953125,0.5059346291661889,1.866149542877632e-15
-0.99525,0.5060141679574267,2.072015418700944e-15
-0.9951875,0.5060937067486644,2.297462274112425e-15
-0.995125,0.5060937067486644,2.544062350923408e-15
-0.9950625,0.5060937067486644,2.813491389851769e-15
-0.995,0.5061732455399022,3.107533980127918e-15
-0.9949375,0.5060937067486644,3.42808911143206e-15
-0.994875,0.5061732455399022,3.777175933045314e-15
-0.9948125,0.5060937067486644,4.156939725147691e-15
-0.99475,0.5061732455399022,4.569658087245937e-15
-0.9946874999999999,0.5060937067486644,5.017747348764134e-15
-0.994625,0.5060937067486644,5.50376920687938e-15
-0.9945625,0.5062527843311398,6.030437596734175e-15
-0.9945000000000001,0.5064118619136153,6.600625799206048e-15
-0.9944375,0.5064118619136153,7.217373791463649e-15
-0.994375,0.5064914007048531,7.883895845586906e-15
-0.9943125,0.5065709394960908,8.603588380576994e-15
-0.99425,0.5065709394960908,9.380038073129565e-15
-0.9941875,0.5065709394960908,1.021703023259244e-14
-0.994125,0.5066504782873286,1.111855744557604e-14
-0.9940625,0.5066504782873286,1.208882849573192e-14
-0.994,0.5065709394960908,1.313227756426155e-14
-0.9939375,0.5067300170785662,1.425357371676374e-14
-0.993875,0.5068890946610417,1.545763068207552e-14
-0.9938125,0.5068890946610417,1.674961692880683e-14
-0.99375,0.5070481722435172,1.813496604531529e-14
-0.9936874999999999,0.5068890946610417,1.96193874289124e-14
-0.993625,0.5069686334522794,2.120887729013765e-14
-0.9935625,0.5069686334522794,2.290972997798179e-14
-0.9935,0.5070481722435172,2.472854963198501e-14
-0.9934375,0.5070481722435172,2.667226216717978e-14
-0.993375,0.5070481722435172,2.874812759789233e-14
-0.9933125,0.5072072498259926,3.096375270646016e-14
-0.99325,0.5072072498259926,3.332710406296621e-14
-0.9931875,0.5072867886172303,3.5846521402134e-14
-0.993125,0.5073663274084681,3.853073136356989e-14
-0.9930625,0.5073663274084681,4.138886160158204e-14
-0.993,0.5074458661997058,4.443045527084751e-14
-0.9929375,0.5074458661997058,4.766548589424053e-14
-0.992875,0.5075254049909435,5.110437261917768e-14
-0.9928125,0.5074458661997058,5.475799586887579e-14
-0.99275,0.5074458661997058,5.863771339496077e-14
-0.9926874999999999,0.5075254049909435,6.275537673790553e-14
-0.992625,0.5076844825734189,6.712334810181609e-14
-0.9925625,0.5075254049909435,7.175451765012546e-14
-0.9925,0.5075254049909435,7.666232122879432e-14
-0.9924375,0.5075254049909435,8.186075852365799e-14
-0.992375,0.5076049437821812,8.736441165859811e-14
-0.9923125,0.5076844825734189,9.318846424125668e-14
-0.99225,0.5076844825734189,9.934872086304971e-14
-0.9921875,0.5077640213646567,1.058616270602752e-13
-0.992125,0.5077640213646567,1.127442897431494e-13
-0.9920625,0.5077640213646567,1.200144980996435e-13
-0.992,0.5078435601558944,1.276907449810295e-13
-0.9919375,0.5079230989471322,1.357922487760835e-13
-0.991875,0.5079230989471322,1.443389757809299e-13
-0.9918125,0.5078435601558944,1.533516630715485e-13
-0.99175,0.5080026377383698,1.628518418860026e-13
-0.9916875000000001,0.5080821765296076,1.728618615234821e-13
-0.991625,0.5079230989471322,1.83404913767293e-13
-0.9915625,0.5080026377383698,1.945050578389601e-13
-0.9915,0.5080026377383698,2.061872458906441e-13
-0.9914375,0.5080821765296076,2.184773490431119e-13
-0.991375,0.5080821765296076,2.314021839765316e-13
-0.9913125,0.5080026377383698,2.449895400814009e-13
-0.99125,0.5080026377383698,2.592682071769494e-13
-0.9911875,0.5079230989471322,2.742680038043934e-13
-0.991125,0.5080026377383698,2.900198061024498e-13
-0.9910625,0.5080821765296076,3.06555577272557e-13
-0.991,0.5079230989471322,3.239083976412772e-13
-0.9909375,0.5079230989471322,3.421124953273923e-13
-0.990875,0.5079230989471322,3.612032775212365e-13
-0.9908125,0.5078435601558944,3.812173623838413e-13
-0.99075,0.5077640213646567,4.021926115735007e-13
-0.9906875000000001,0.5078435601558944,4.241681634073999e-13
-0.990625,0.5080026377383698,4.47184466665975e-13
-0.9905625,0.5080026377383698,4.712833150477139e-13
-0.9905,0.5078435601558944,4.965078822821269e-13
-0.9904375,0.5078435601558944,5.22902757908657e-13
-0.990375,0.5078435601558944,5.505139837293273e-13
-0.9903125,0.5078435601558944,5.793890909429501e-13
-0.99025,0.5079230989471322,6.095771379687558e-13
-0.9901875,0.5078435601558944,6.411287489673319e-13
-0.990125,0.5077640213646567,6.740961530667841e-13
-0.9900625,0.5076844825734189,7.085332243020713e-13
-0.99,0.5077640213646567,7.444955222754854e-13
-0.9899375,0.5076844825734189,7.820403335462839e-13
-0.9898749999999999,0.5077640213646567,8.212267137575054e-13
-0.9898125,0.5078435601558944,8.621155305080314e-13
-0.98975,0.5077640213646567,9.047695069779829e-13
-0.9896875000000001,0.5078435601558944,9.49253266315569e-13
-0.989625,0.5076844825734189,9.956333767935311e-13
-0.9895625,0.5076844825734189,1.043978397743357e-12
-0.9895,0.5076844825734189,1.094358926275459e-12
-0.9894375,0.5076049437821812,1.146847644793552e-12
-0.989375,0.5074458661997058,1.20151936931146e-12
-0.9893125,0.5074458661997058,1.25845109858067e-12
-0.98925,0.5073663274084681,1.317722064036884e-12
-0.9891875,0.5073663274084681,1.37941378057395e-12
-0.989125,0.5073663274084681,1.44361009815349e-12
-0.9890625,0.5073663274084681,1.510397254258625e-12
-0.989,0.5074458661997058,1.579863927200196e-12
-0.9889375,0.5072867886172303,1.652101290283907e-12
-0.9888749999999999,0.5073663274084681,1.727203066846851e-12
-0.9888125,0.5073663274084681,1.805265586171892e-12
-0.98875,0.5073663274084681,1.886387840288402e-12
-0.9886875000000001,0.5072867886172303,1.970671541667894e-12
-0.988625,0.5071277110347548,2.058221181823071e-12
-0.9885625,0.5070481722435172,2.149144090818894e-12
-0.9885,0.5069686334522794,2.243550497704243e-12
-0.9884375,0.5069686334522794,2.34155359187279e-12
-0.988375,0.5070481722435172,2.443269585361739e-12
-0.9883125,0.5070481722435172,2.548817776097068e-12
-0.98825,0.5069686334522794,2.658320612093979e-12
-0.9881875,0.5068095558698039,2.77190375662125e-12
-0.988125,0.5068890946610417,2.889696154338219e-12
-0.9880625,0.5067300170785662,3.011830098413135e-12
-0.988,0.5068095558698039,3.138441298631666e-12
-0.9879375,0.5067300170785662,3.269668950504331e-12
-0.9878749999999999,0.5068095558698039,3.405655805381669e-12
-0.9878125,0.5066504782873286,3.546548241585984e-12
-0.98775,0.5067300170785662,3.6924963365685e-12
-0.9876875000000001,0.5065709394960908,3.843653940100804e-12
-0.987625,0.5064118619136153,4.000178748509449e-12
-0.9875625,0.5064118619136153,4.162232379962653e-12
-0.9875,0.5064914007048531,4.329980450817968e-12
-0.9874375,0.5064914007048531,4.503592653039923e-12
-0.987375,0.5064118619136153,4.683242832696545e-12
-0.9873125,0.5064118619136153,4.86910906954378e-12
-0.98725,0.5064118619136153,5.061373757706782e-12
-0.9871875,0.5063323231223776,5.2602236874671e-12
-0.987125,0.5062527843311398,5.465850128164787e-12
-0.9870625,0.5062527843311398,5.678448912224486e-12
-0.987,0.5064118619136153,5.898220520314555e-12
-0.9869375,0.5063323231223776,6.1253701676483e-12
-0.9868749999999999,0.5064914007048531,6.360107891436448e-12
-0.9868125,0.5064118619136153,6.602648639499921e-12
-0.98675,0.5064118619136153,6.853212360052102e-12
-0.9866875000000001,0.5064914007048531,7.112024092659684e-12
-0.986625,0.5064914007048531,7.379314060391293e-12
-0.9865625,0.5063323231223776,7.655317763163062e-12
-0.9865,0.5064118619136153,7.940276072290311e-12
-0.9864375,0.5064118619136153,8.234435326254598e-12
-0.986375,0.5066504782873286,8.538047427695305e-12
-0.9863125,0.5066504782873286,8.851369941635003e-12
-0.98625,0.5068095558698039,9.17466619494787e-12
-0.9861875,0.5065709394960908,9.508205377080408e-12
-0.986125,0.5067300170785662,9.852262642033706e-12
-0.9860625,0.5068095558698039,1.020711921161658e-11
-0.986,0.5066504782873286,1.057306247997885e-11
-0.9859375,0.5068095558698039,1.095038611943411e-11
-0.9858749999999999,0.5067300170785662,1.133939018758127e-11
-0.9858125,0.5068095558698039,1.174038123573421e-11
-0.98575,0.5069686334522794,1.215367241866895e-11
-0.9856875,0.5068890946610417,1.257958360569766e-11
-0.985625,0.5069686334522794,1.301844149307879e-11
-0.9855625,0.5068890946610417,1.34705797177729e-11
-0.9855,0.5069686334522794,1.393633897255345e-11
-0.9854375,0.5070481722435172,1.441606712248189e-11
-0.985375,0.5071277110347548,1.491011932275665e-11
-0.9853125,0.5072072498259926,1.541885813794537e-11
-0.98525,0.5071277110347548,1.594265366260964e-11
-0.9851875,0.5071277110347548,1.648188364333203e-11
-0.985125,0.5071277110347548,1.70369336021546e-11
-0.9850625,0.5071277110347548,1.760819696143837e-11
-0.985,0.5072072498259926,1.819607517015339e-11
-0.9849375,0.5071277110347548,1.880097783160874e-11
-0.9848749999999999,0.5072867886172303,1.942332283263196e-11
-0.9848125,0.5072867886172303,2.006353647420752e-11
-0.98475,0.5072867886172303,2.072205360358366e-11
-0.9846875,0.5073663274084681,2.139931774785729e-11
-0.984625,0.5072867886172303,2.209578124904638e-11
-0.9845625,0.5073663274084681,2.281190540065934e-11
-0.9845,0.5073663274084681,2.354816058577102e-11
-0.9844375,0.5075254049909435,2.430502641661476e-11
-0.984375,0.5073663274084681,2.508299187570015e-11
-0.9843125,0.5074458661997058,2.588255545846598e-11
-0.98425,0.5075254049909435,2.6704225317478e-11
-0.9841875,0.5075254049909435,2.754851940818098e-11
-0.984125,0.5076049437821812,2.841596563621467e-11
-0.9840625,0.5076049437821812,2.930710200630336e-11
-0.984,0.5076049437821812,3.022247677272841e-11
-0.9839375,0.5076844825734189,3.116264859139353e-11
-0.9838750000000001,0.5076844825734189,3.212818667349229e-11
-0.9838125,0.5076844825734189,3.311967094078749e-11
-0.98375,0.5078435601558944,3.413769218251201e-11
-0.9836875,0.5077640213646567,3.51828522139008e-11
-0.983625,0.5077640213646567,3.625576403636343e-11
-0.9835625,0.5078435601558944,3.735705199930706e-11
-0.9835,0.5076844825734189,3.848735196361929e-11
-0.9834375,0.5077640213646567,3.964731146682053e-11
-0.983375,0.5078435601558944,4.083758988989561e-11
-0.9833125,0.5079230989471322,4.20588586258141e-11
-0.98325,0.5078435601558944,4.33118012497492e-11
-0.9831875,0.5077640213646567,4.459711369100449e-11
-0.983125,0.5078435601558944,4.591550440665858e-11
-0.9830625,0.5078435601558944,4.726769455693695e-11
-0.983,0.5077640213646567,4.865441818232089e-11
-0.9829375,0.5078435601558944,5.007642238240292e-11
-0.9828750000000001,0.5077640213646567,5.153446749649852e-11
-0.9828125,0.5079230989471322,5.302932728602387e-11
-0.98275,0.5078435601558944,5.45617891186489e-11
-0.9826875,0.5079230989471322,5.613265415423581e-11
-0.982625,0.5079230989471322,5.774273753257212e-11
-0.9825625,0.5078435601558944,5.939286856290838e-11
-0.9825,0.5079230989471322,6.108389091531006e-11
-0.9824375,0.5080026377383698,6.281666281383291e-11
-0.982375,0.5080026377383698,6.45920572315321e-11
-0.9823125,0.5079230989471322,6.641096208731412e-11
-0.98225,0.5080026377383698,6.827428044464145e-11
-0.9821875,0.5078435601558944,7.018293071209961e-11
-0.982125,0.5079230989471322,7.213784684583617e-11
-0.9820624999999999,0.5079230989471322,7.413997855388129e-11
-0.982,0.5079230989471322,7.61902915023596e-11
-0.9819375,0.5080026377383698,7.82897675236028e-11
-0.9818750000000001,0.5081617153208453,8.0439404826173e-11
-0.9818125,0.5078435601558944,8.264021820680604e-11
-0.98175,0.5079230989471322,8.489323926428446e-11
-0.9816875,0.5079230989471322,8.719951661525014e-11
-0.981625,0.5080821765296076,8.956011611196566e-11
-0.9815625,0.5080026377383698,9.197612106203456e-11
-0.9815,0.5080026377383698,9.444863245008948e-11
-0.9814375,0.5079230989471322,9.697876916145846e-11
-0.981375,0.5080026377383698,9.956766820781855e-11
-0.9813125,0.5080821765296076,1.022164849548463e-10
-0.98125,0.5080026377383698,1.049263933518755e-10
-0.9811875,0.5080026377383698,1.076985861635701e-10
-0.981125,0.5080821765296076,1.10534275203624e-10
-0.9810624999999999,0.5080026377383698,1.134346915704959e-10
-0.981,0.5079230989471322,1.164010858851884e-10
-0.9809375,0.5080026377383698,1.194347285310832e-10
-0.9808750000000001,0.5080821765296076,1.225369098958387e-10
-0.9808125,0.5080821765296076,1.257089406153626e-10
-0.98075,0.5081617153208453,1.28952151819867e-10
-0.9806875,0.5079230989471322,1.322678953820162e-10
-0.980625,0.5079230989471322,1.356575441671777e-10
-0.9805625,0.5080026377383698,1.391224922857839e-10
-0.9805,0.5080026377383698,1.426641553478161e-10
-0.9804375,0.5080026377383698,1.462839707194187e-10
-0.980375,0.5079230989471322,1.499833977816542e-10
-0.9803125,0.5079230989471322,1.537639181914081e-10
-0.98025,0.5079230989471322,1.576270361444531e-10
-0.9801875,0.5080821765296076,1.61574278640682e-10
-0.980125,0.5078435601558944,1.656071957515197e-10
-0.9800624999999999,0.5080026377383698,1.697273608895219e-10
-0.98,0.5079230989471322,1.739363710801724e-10
-0.9799375,0.5078435601558944,1.782358472358858e-10
-0.9798750000000001,0.5078435601558944,1.826274344322278e-10
-0.9798125,0.5078435601558944,1.871128021863601e-10
-0.97975,0.5078435601558944,1.916936447377208e-10
-0.9796875,0.5078435601558944,1.963716813309494e-10
-0.979625,0.5079230989471322,2.011486565010652e-10
-0.9795625,0.5079230989471322,2.060263403609097e-10
-0.9795,0.5079230989471322,2.11006528890861e-10
-0.9794375,0.5079230989471322,2.160910442308308e-10
-0.979375,0.5078435601558944,2.212817349745524e-10
-0.9793125,0.5078435601558944,2.265804764661698e-10
-0.97925,0.5079230989471322,2.319891710991369e-10
-0.9791875,0.5078435601558944,2.375097486174359e-10
-0.979125,0.5078435601558944,2.431441664191242e-10
-0.9790624999999999,0.5079230989471322,2.48894409862221e-10
-0.979,0.5079230989471322,2.547624925729387e-10
-0.9789375,0.5079230989471322,2.607504567562737e-10
-0.9788750000000001,0.5079230989471322,2.668603735089604e-10
-0.9788125,0.5078435601558944,2.730943431348034e-10
-0.97875,0.5078435601558944,2.794544954623913e-10
-0.9786875,0.5078435601558944,2.859429901652061e-10
-0.978625,0.5076844825734189,2.925620170841347e-10
-0.9785625,0.5076844825734189,2.993137965523925e-10
-0.9785,0.5076844825734189,3.062005797228694e-10
-0.9784375,0.5076844825734189,3.132246488979043e-10
-0.978375,0.5076844825734189,3.20388317861501e-10
-0.9783125,0.5076049437821812,3.276939322139924e-10
-0.97825,0.5076844825734189,3.351438697091624e-10
-0.9781875,0.5076844825734189,3.427405405938346e-10
-0.978125,0.5076844825734189,3.504863879499391e-10
-0.9780624999999999,0.5076844825734189,3.583838880390616e-10
-0.978,0.5076844825734189,3.664355506494896e-10
-0.9779375,0.5076049437821812,3.746439194457601e-10
-0.977875,0.5075254049909435,3.830115723207215e-10
-0.9778125,0.5074458661997058,3.915411217501154e-10
-0.97775,0.5074458661997058,4.002352151496902e-10
-0.9776875,0.5075254049909435,4.090965352348538e-10
-0.977625,0.5073663274084681,4.181278003828745e-10
-0.9775625,0.5073663274084681,4.273317649976401e-10
-0.9775,0.5073663274084681,4.367112198769833e-10
-0.9774375,0.5072867886172303,4.462689925825821e-10
-0.977375,0.5074458661997058,4.56007947812445e-10
-0.9773125,0.5071277110347548,4.659309877759892e-10
-0.97725,0.5071277110347548,4.760410525717214e-10
-0.9771875,0.5072867886172303,4.863411205675291e-10
-0.977125,0.5071277110347548,4.968342087835914e-10
-0.9770624999999999,0.5071277110347548,5.0752337327792e-10
-0.977,0.5071277110347548,5.184117095345365e-10
-0.9769375,0.5072867886172303,5.295023528542959e-10
-0.976875,0.5072072498259926,5.407984787483663e-10
-0.9768125,0.5072867886172303,5.52303303334371e-10
-0.97675,0.5071277110347548,5.64020083735205e-10
