Task5_20Hz_500mV_45-5.csv

#Digilent WaveForms Oscilloscope Acquisition
#Device Name: Discovery3
#Serial Number: SN:210415BD63A1
#Date Time: 2026-09-24 11:19:58.233.389.610
#Sample rate: 32000Hz
#Samples: 32000
#Trigger: Source: Channel 1 Type: Edge Condition: Rising Level: 0 V Hyst.: Auto HoldOff: 0 s
#Channel 1: Range: 500 mV/div Offset: 0 V Sample Mode: Average
#Math 1: Input: C1 Reference: Internal Frequency: 20 Hz Phase: 90 ° Filter: IIR Butterworth 8  Low-Pass CutOff: 5 Hz Output: Amplitude

#Wavegen Channel 1: Running
#Mode: Simple
#Type: Sine
#Frequency: 20 Hz
#Period: 50 ms
#Amplitude: 500 mV
#Offset: 0 V
#Symmetry: 50 %
#Phase: 0 °

Time (s),Channel 1 (V),Math 1 (V)
-0.5,0.4700626343179744,1.568566400097117e-27
-0.49996875,0.4699830955267367,2.665825886500466e-26
-0.4999375,0.4699035567354989,2.273086740660307e-25
-0.49990625,0.4699830955267367,1.305400478415641e-24
-0.499875,0.4699830955267367,5.716233222112328e-24
-0.49984375,0.4699830955267367,2.047087999746489e-23
-0.4998125,0.4700626343179744,6.273564226182376e-23
-0.49978125,0.4700626343179744,1.698208787884059e-22
-0.49975,0.4699830955267367,4.155449745200146e-22
-0.49971875,0.4699830955267367,9.353506906378656e-22
-0.4996875,0.4699830955267367,1.96294060468835e-21
-0.49965625,0.4699035567354989,3.881585797858917e-21
-0.499625,0.4701421731092121,7.293647364790765e-21
-0.49959375,0.4700626343179744,1.311223371563921e-20
-0.4995625,0.4700626343179744,2.267929802523285e-20
-0.49953125,0.4701421731092121,3.791485957300078e-20
-0.4995,0.4701421731092121,6.150241012023939e-20
-0.49946875,0.4701421731092121,9.711594189597487e-20
-0.4994375,0.4700626343179744,1.496944072117466e-19
-0.49940625,0.4701421731092121,2.257697911960843e-19
-0.499375,0.4700626343179744,3.338553486264412e-19
-0.49934375,0.4700626343179744,4.849009233417473e-19
-0.4993125,0.4702217119004499,6.928226342524551e-19
-0.49928125,0.4701421731092121,9.751145755339039e-19
-0.49925,0.4701421731092121,1.353550540192181e-18
-0.49921875,0.4703012506916876,1.854984135828625e-18
-0.4991875,0.4702217119004499,2.512256019102359e-18
-0.49915625,0.4703012506916876,3.365217331099505e-18
-0.499125,0.4703012506916876,4.461878769555149e-18
-0.49909375,0.4703807894829253,5.859695085628729e-18
-0.4990625,0.4703807894829253,7.626995142702439e-18
-0.49903125,0.4704603282741631,9.844568022463888e-18
-0.499,0.4703807894829253,1.260741600936011e-17
-0.49896875,0.4704603282741631,1.602668562837789e-17
-0.4989375,0.4705398670654008,2.023178825301727e-17
-0.49890625,0.4706194058566385,2.537272214028055e-17
-0.498875,0.4706194058566385,3.162260808749707e-17
-0.49884375,0.4704603282741631,3.918045124185807e-17
-0.4988125,0.4704603282741631,4.827414192766756e-17
-0.49878125,0.4704603282741631,5.91637086885322e-17
-0.49875,0.4706194058566385,7.214483707200536e-17
-0.49871875,0.4703807894829253,8.755266801255645e-17
-0.4986875,0.4704603282741631,1.057658899951577e-16
-0.49865625,0.467278776624654,1.272111395062716e-16
-0.498625,0.467278776624654,1.523677246015755e-16
-0.49859375,0.4671992378334163,1.817726867403829e-16
-0.4985625,0.467278776624654,2.16026216355426e-16
-0.49853125,0.467278776624654,2.557974379434696e-16
-0.4985,0.4674378542071295,3.018305807771428e-16
-0.49846875,0.467278776624654,3.549515516514026e-16
-0.4984375,0.4673583154158917,4.160749263891822e-16
-0.49840625,0.4673583154158917,4.862113771400122e-16
-0.498375,0.4674378542071295,5.664755528127367e-16
-0.49834375,0.4673583154158917,6.580944302888459e-16
-0.4983125,0.4675173929983672,7.624161543664359e-16
-0.49828125,0.4675969317896049,8.809193846863553e-16
-0.49825,0.4675173929983672,1.015223168191745e-15
-0.49821875,0.4675173929983672,1.16709735596992e-15
-0.4981875,0.4675969317896049,1.338473583621429e-15
-0.49815625,0.4676764705808426,1.531456834595142e-15
-0.498125,0.4676764705808426,1.74833760622035e-15
-0.49809375,0.4675969317896049,1.991604698457099e-15
-0.4980625,0.4675173929983672,2.263958645674322e-15
-0.49803125,0.4674378542071295,2.568325812051814e-15
-0.498,0.4675969317896049,2.907873171486703e-15
-0.49796875,0.4675173929983672,3.286023793167843e-15
-0.4979375,0.4676764705808426,3.706473054262551e-15
-0.49790625,0.4677560093720803,4.173205601439121e-15
-0.497875,0.4675969317896049,4.690513083225929e-15
-0.49784375,0.4675173929983672,5.263012675483326e-15
-0.4978125,0.4675173929983672,5.895666422538218e-15
-0.49778125,0.4674378542071295,6.593801416803019e-15
-0.49775,0.4675969317896049,7.363130839970639e-15
-0.49771875,0.4675173929983672,8.209775889145348e-15
-0.4976875,0.4675969317896049,9.140288611535524e-15
-0.49765625,0.4677560093720803,1.01616756715989e-14
-0.497625,0.4675173929983672,1.128142307479338e-14
-0.49759375,0.4674378542071295,1.250752187234737e-14
-0.4975625,0.4675173929983672,1.384849487172255e-14
-0.49753125,0.4675969317896049,1.531342437769905e-14
-0.4975,0.4675173929983672,1.691198098926854e-14
-0.49746875,0.4675969317896049,1.865445347777382e-14
-0.4974375,0.4675173929983672,2.055177977198565e-14
-0.49740625,0.4675969317896049,2.2615579076057e-14
-0.497375,0.4676764705808426,2.485818514654311e-14
-0.49734375,0.4677560093720803,2.729268075492193e-14
-0.4973125,0.4676764705808426,2.993293336229373e-14
-0.49728125,0.4676764705808426,3.27936320331815e-14
-0.49725,0.4676764705808426,3.589032561559424e-14
-0.49721875,0.4675969317896049,3.923946221475429e-14
-0.4971875,0.4675969317896049,4.285842998812716e-14
-0.49715625,0.4675173929983672,4.67655992896272e-14
-0.497125,0.4674378542071295,5.098036619110671e-14
-0.49709375,0.4675173929983672,5.552319740946701e-14
-0.4970625,0.4675969317896049,6.041567666796106e-14
-0.49703125,0.4674378542071295,6.568055252048457e-14
-0.497,0.4675173929983672,7.134178766787994e-14
-0.49696875,0.4676764705808426,7.742460979550107e-14
-0.4969375,0.4675969317896049,8.395556396151141e-14
-0.49690625,0.4675173929983672,9.096256656560709e-14
-0.496875,0.4675173929983672,9.847496092807766e-14
-0.49684375,0.4676764705808426,1.06523574509334e-13
-0.4968125,0.4676764705808426,1.151407778002483e-13
-0.49678125,0.4677560093720803,1.243605449138666e-13
-0.49675,0.4676764705808426,1.34218515909264e-13
-0.49671875,0.4677560093720803,1.447520608785274e-13
-0.4966875,0.4677560093720803,1.560003458280548e-13
-0.49665625,0.4677560093720803,1.6800440038557e-13
-0.496625,0.4677560093720803,1.808071873644577e-13
-0.49659375,0.4676764705808426,1.944536742172238e-13
-0.4965625,0.4676764705808426,2.089909064100906e-13
-0.49653125,0.4678355481633181,2.244680827509366e-13
-0.4965,0.4677560093720803,2.409366327029862e-13
-0.49646875,0.4678355481633181,2.584502957168543e-13
-0.4964375,0.4676764705808426,2.770652026137433e-13
-0.49640625,0.4677560093720803,2.968399590527859e-13
-0.496375,0.4677560093720803,3.178357311157146e-13
-0.49634375,0.4676764705808426,3.401163330422331e-13
-0.4963125,0.4675173929983672,3.637483171496492e-13
-0.49628125,0.4677560093720803,3.888010659705177e-13
-0.49625,0.4677560093720803,4.153468866422243e-13
-0.49621875,0.4677560093720803,4.43461107582627e-13
-0.4961875,0.4676764705808426,4.732221774860494e-13
-0.49615625,0.4676764705808426,5.047117666741042e-13
-0.496125,0.4676764705808426,5.380148708359969e-13
-0.49609375,0.4675969317896049,5.732199171931436e-13
-0.4960625,0.4676764705808426,6.104188731231046e-13
-0.49603125,0.4675969317896049,6.497073572780098e-13
-0.496,0.4675173929983672,6.91184753232828e-13
-0.49596875,0.4675969317896049,7.34954325698992e-13
-0.4959375,0.4675969317896049,7.811233393390682e-13
-0.49590625,0.4675969317896049,8.298031802183202e-13
-0.495875,0.4677560093720803,8.811094799291824e-13
-0.49584375,0.4676764705808426,9.35162242424822e-13
-0.4958125,0.4675969317896049,9.920859735981251e-13
-0.49578125,0.4675969317896049,1.05200981364261e-12
-0.49575,0.4676764705808426,1.115067672231918e-12
-0.49571875,0.4675173929983672,1.181398366554701e-12
-0.4956875,0.4676764705808426,1.251145762241862e-12
-0.49565625,0.4675969317896049,1.324458917223273e-12
-0.495625,0.4675173929983672,1.401492228551243e-12
-0.49559375,0.4675969317896049,1.482405582228145e-12
-0.4955625,0.4675969317896049,1.567364506075778e-12
-0.49553125,0.4675173929983672,1.656540325684169e-12
-0.4955,0.4675969317896049,1.75011032347768e-12
-0.49546875,0.4677560093720803,1.848257900936411e-12
-0.4954375,0.4675969317896049,1.951172744011043e-12
-0.49540625,0.4674378542071295,2.059050991769407e-12
-0.495375,0.4674378542071295,2.172095408313188e-12
-0.49534375,0.4675173929983672,2.290515558003318e-12
-0.4953125,0.4675173929983672,2.414527984032765e-12
-0.49528125,0.4675969317896049,2.54435639038551e-12
-0.49525,0.4675969317896049,2.680231827220693e-12
-0.49521875,0.4676764705808426,2.822392879720995e-12
-0.4951875,0.4675969317896049,2.971085860444472e-12
-0.49515625,0.4675969317896049,3.12656500521917e-12
-0.495125,0.4675969317896049,3.289092672620012e-12
-0.49509375,0.4675969317896049,3.458939547067497e-12
-0.4950625,0.4675173929983672,3.636384845587958e-12
-0.49503125,0.4674378542071295,3.821716528275189e-12
-0.495,0.4675173929983672,4.015231512493383e-12
-0.49496875,0.4674378542071295,4.217235890861456e-12
-0.4949375,0.4675173929983672,4.428045153058931e-12
-0.49490625,0.4675173929983672,4.64798441149367e-12
-0.494875,0.4674378542071295,4.877388630871858e-12
-0.49484375,0.467278776624654,5.116602861710765e-12
-0.4948125,0.467278776624654,5.36598247783489e-12
-0.49478125,0.4674378542071295,5.625893417896249e-12
-0.49475,0.467278776624654,5.896712430959604e-12
-0.49471875,0.4673583154158917,6.17882732619361e-12
-0.4946875,0.4673583154158917,6.472637226708908e-12
-0.49465625,0.4673583154158917,6.778552827584307e-12
-0.494625,0.4675173929983672,7.096996658122311e-12
-0.49459375,0.4675173929983672,7.428403348375323e-12
-0.4945625,0.4675173929983672,7.773219899983978e-12
-0.49453125,0.4674378542071295,8.131905961369134e-12
-0.4945,0.4673583154158917,8.504934107319123e-12
-0.49446875,0.4673583154158917,8.892790123014053e-12
-0.4944375,0.4673583154158917,9.295973292528887e-12
-0.49440625,0.4675173929983672,9.714996691857252e-12
-0.494375,0.4674378542071295,1.015038748649795e-11
-0.49434375,0.4674378542071295,1.060268723364625e-11
-0.4943125,0.467278776624654,1.107245218903209e-11
-0.49428125,0.4673583154158917,1.156025361844748e-11
-0.49425,0.4671992378334163,1.206667811400538e-11
-0.49421875,0.467278776624654,1.259232791517245e-11
-0.4941875,0.4674378542071295,1.313782123461823e-11
-0.49415625,0.4674378542071295,1.370379258892318e-11
-0.494125,0.4673583154158917,1.429089313418832e-11
-0.49409375,0.4671992378334163,1.489979100658913e-11
-0.4940625,0.4671992378334163,1.553117166791644e-11
-0.49403125,0.4671992378334163,1.618573825614729e-11
-0.494,0.467278776624654,1.686421194108852e-11
-0.49396875,0.467278776624654,1.756733228513616e-11
-0.4939375,0.4671196990421785,1.82958576091937e-11
-0.49390625,0.4671992378334163,1.905056536379227e-11
-0.493875,0.4673583154158917,1.983225250545596e-11
-0.49384375,0.467278776624654,2.06417358783555e-11
-0.4938125,0.4673583154158917,2.147985260129364e-11
-0.49378125,0.4671992378334163,2.234746046006558e-11
-0.49375,0.467278776624654,2.324543830523773e-11
-0.49371875,0.467278776624654,2.417468645538857e-11
-0.4936875,0.4673583154158917,2.513612710585484e-11
-0.49365625,0.4671992378334163,2.613070474302675e-11
-0.493625,0.4671196990421785,2.715938656423596e-11
-0.49359375,0.4671992378334163,2.822316290327978e-11
-0.4935625,0.4671196990421785,2.932304766162553e-11
-0.49353125,0.4671196990421785,3.046007874533871e-11
-0.4935,0.4671196990421785,3.163531850777883e-11
-0.49346875,0.4669606214597031,3.284985419810689e-11
-0.4934375,0.4669606214597031,3.410479841564815e-11
-0.49340625,0.4670401602509408,3.540128957015443e-11
-0.493375,0.4669606214597031,3.674049234800979e-11
-0.49334375,0.4669606214597031,3.812359818442354e-11
-0.4933125,0.4669606214597031,3.955182574165487e-11
-0.49328125,0.4669606214597031,4.102642139331305e-11
-0.49325,0.4668015438772277,4.254865971477725e-11
-0.49321875,0.4669606214597031,4.411984397978048e-11
-0.4931875,0.4668810826684653,4.57413066632014e-11
-0.49315625,0.4670401602509408,4.741440995010863e-11
-0.493125,0.4668015438772277,4.914054625110164e-11
-0.49309375,0.4668810826684653,5.09211387239924e-11
-0.4930625,0.4668015438772277,5.275764180187245e-11
-0.49303125,0.4668810826684653,5.465154172760926e-11
-0.493,0.4668810826684653,5.660435709481673e-11
-0.49296875,0.4668015438772277,5.861763939534376e-11
-0.4929375,0.4668015438772277,6.069297357332568e-11
-0.49290625,0.4667220050859899,6.283197858584264e-11
-0.492875,0.4668015438772277,6.503630797022975e-11
-0.49284375,0.4664833887122767,6.730765041808288e-11
-0.4928125,0.4666424662947522,6.964773035600541e-11
-0.49278125,0.4664833887122767,7.20583085331395e-11
-0.49275,0.4664833887122767,7.454118261552708e-11
-0.49271875,0.4664833887122767,7.709818778734468e-11
-0.4926875,0.4666424662947522,7.973119735905684e-11
-0.49265625,0.4667220050859899,8.244212338253243e-11
-0.492625,0.4666424662947522,8.52329172731686e-11
-0.49259375,0.4666424662947522,8.81055704390666e-11
-0.4925625,0.4664833887122767,9.106211491730471e-11
-0.49253125,0.4665629275035145,9.410462401735158e-11
-0.4925,0.4664833887122767,9.723521297166605e-11
-0.49246875,0.466403849921039,1.004560395935266e-10
-0.4924375,0.4664833887122767,1.037693049421361e-10
-0.49240625,0.4665629275035145,1.071772539950454e-10
-0.492375,0.4664833887122767,1.106821763279411e-10
-0.49234375,0.4664833887122767,1.142864068018419e-10
-0.4923125,0.4664833887122767,1.179923262577475e-10
-0.49228125,0.4665629275035145,1.218023622187852e-10
-0.49225,0.4665629275035145,1.257189895998979e-10
-0.49221875,0.466403849921039,1.297447314251199e-10
-0.4921875,0.4664833887122767,1.338821595524821e-10
-0.49215625,0.4664833887122767,1.381338954065934e-10
-0.492125,0.4664833887122767,1.425026107189423e-10
-0.49209375,0.466403849921039,1.469910282759618e-10
-0.4920625,0.4665629275035145,1.51601922674904e-10
-0.49203125,0.4666424662947522,1.563381210875676e-10
-0.492,0.4665629275035145,1.612025040319227e-10
-0.49196875,0.4665629275035145,1.661980061516776e-10
-0.4919375,0.4665629275035145,1.713276170038322e-10
-0.49190625,0.4665629275035145,1.765943818542615e-10
-0.491875,0.4666424662947522,1.820014024813746e-10
-0.49184375,0.4667220050859899,1.875518379878919e-10
-0.4918125,0.4665629275035145,1.93248905620787e-10
-0.49178125,0.4665629275035145,1.990958815994347e-10
-0.49175,0.4665629275035145,2.050961019520126e-10
-0.49171875,0.4666424662947522,2.11252963360197e-10
-0.4916875,0.4666424662947522,2.175699240121999e-10
-0.49165625,0.4667220050859899,2.240505044641898e-10
-0.491625,0.4666424662947522,2.306982885101412e-10
-0.49159375,0.4666424662947522,2.375169240601555e-10
-0.4915625,0.4667220050859899,2.445101240272993e-10
-0.49153125,0.4666424662947522,2.516816672230017e-10
-0.4915,0.4665629275035145,2.590353992610568e-10
-0.49146875,0.4665629275035145,2.665752334702734e-10
-0.4914375,0.4667220050859899,2.743051518158173e-10
-0.49140625,0.4667220050859899,2.822292058292881e-10
-0.491375,0.4667220050859899,2.90351517547576e-10
-0.49134375,0.4667220050859899,2.986762804605424e-10
-0.4913125,0.4666424662947522,3.072077604675654e-10
-0.49128125,0.4667220050859899,3.159502968429966e-10
-0.49125,0.4668810826684653,3.249083032105721e-10
-0.49121875,0.4666424662947522,3.340862685268204e-10
-0.4911875,0.4666424662947522,3.434887580735102e-10
-0.49115625,0.4667220050859899,3.531204144591842e-10
-0.491125,0.4666424662947522,3.629859586298187e-10
-0.49109375,0.4666424662947522,3.730901908886547e-10
-0.4910625,0.4665629275035145,3.834379919252437e-10
-0.49103125,0.4665629275035145,3.940343238537491e-10
-0.491,0.4665629275035145,4.048842312605493e-10
-0.49096875,0.4665629275035145,4.159928422611837e-10
-0.4909375,0.4666424662947522,4.273653695666849e-10
-0.49090625,0.4666424662947522,4.390071115593403e-10
-0.490875,0.4668015438772277,4.509234533779264e-10
-0.49084375,0.4665629275035145,4.631198680124566e-10
-0.4908125,0.4665629275035145,4.756019174084889e-10
-0.49078125,0.4667220050859899,4.883752535810319e-10
-0.49075,0.4667220050859899,5.014456197380949e-10
-0.49071875,0.4667220050859899,5.14818851413923e-10
-0.4906875,0.4667220050859899,5.285008776119618e-10
-0.49065625,0.4667220050859899,5.42497721957589e-10
-0.490625,0.4667220050859899,5.568155038606634e-10
-0.49059375,0.4665629275035145,5.71460439687924e-10
-0.4905625,0.4666424662947522,5.864388439452903e-10
-0.49053125,0.4666424662947522,6.017571304700995e-10
-0.4905,0.4666424662947522,6.174218136333256e-10
-0.49046875,0.4666424662947522,6.334395095518222e-10
-0.4904375,0.4664833887122767,6.498169373106294e-10
-0.49040625,0.4666424662947522,6.665609201953886e-10
-0.490375,0.4666424662947522,6.836783869349052e-10
-0.49034375,0.4666424662947522,7.011763729539015e-10
-0.4903125,0.4667220050859899,7.190620216360016e-10
-0.49028125,0.4666424662947522,7.373425855969905e-10
-0.49025,0.4666424662947522,7.560254279683854e-10
-0.49021875,0.4666424662947522,7.751180236913648e-10
-0.4901875,0.4667220050859899,7.94627960821094e-10
-0.49015625,0.4667220050859899,8.145629418414894e-10
-0.490125,0.4667220050859899,8.349307849904613e-10
-0.49009375,0.4667220050859899,8.557394255956762e-10
-0.4900625,0.4667220050859899,8.769969174208826e-10
-0.49003125,0.4668810826684653,8.987114340228357e-10
-0.49,0.4668810826684653,9.208912701188653e-10
-0.48996875,0.4668810826684653,9.435448429651285e-10
-0.4899375,0.4668015438772277,9.666806937455826e-10
-0.48990625,0.4668810826684653,9.903074889717254e-10
-0.489875,0.4668015438772277,1.014434021893135e-09
-0.48984375,0.4667220050859899,1.039069213918861e-09
-0.4898125,0.4669606214597031,1.064222116049688e-09
-0.48978125,0.4670401602509408,1.089901910321339e-09
-0.48975,0.4669606214597031,1.11611791125863e-09
-0.48971875,0.4668810826684653,1.142879567340634e-09
-0.4896875,0.4669606214597031,1.170196462476888e-09
-0.48965625,0.4669606214597031,1.198078317494684e-09
-0.489625,0.4668810826684653,1.226534991637478e-09
-0.48959375,0.4669606214597031,1.255576484074471e-09
-0.4895625,0.4668015438772277,1.285212935421377e-09
-0.48953125,0.4668810826684653,1.315454629272446e-09
-0.4895,0.4668810826684653,1.346311993743752e-09
-0.48946875,0.4668810826684653,1.377795603027813e-09
-0.4894375,0.4668015438772277,1.409916178959558e-09
-0.48940625,0.4668810826684653,1.442684592593693e-09
-0.489375,0.4668810826684653,1.476111865793502e-09
-0.48934375,0.4667220050859899,1.510209172831124e-09
-0.4893125,0.4667220050859899,1.544987841999329e-09
-0.48928125,0.4668015438772277,1.580459357234859e-09
-0.48925,0.4669606214597031,1.616635359753348e-09
-0.48921875,0.4670401602509408,1.653527649695863e-09
-0.4891875,0.4671196990421785,1.691148187787121e-09
-0.48915625,0.4671196990421785,1.729509097005396e-09
-0.489125,0.4669606214597031,1.768622664264167e-09
-0.48909375,0.4669606214597031,1.80850134210555e-09
-0.4890625,0.4670401602509408,1.849157750405527e-09
-0.48903125,0.4671196990421785,1.890604678091047e-09
-0.489,0.4671196990421785,1.932855084868997e-09
-0.48896875,0.4671992378334163,1.975922102967107e-09
-0.4889375,0.4671992378334163,2.019819038886815e-09
-0.48890625,0.4671992378334163,2.064559375168131e-09
-0.488875,0.4670401602509408,2.110156772166536e-09
-0.48884375,0.4669606214597031,2.15662506984195e-09
-0.4888125,0.4669606214597031,2.203978289559816e-09
-0.48878125,0.4671196990421785,2.252230635904317e-09
-0.48875,0.4670401602509408,2.301396498503784e-09
-0.48871875,0.4668810826684653,2.351490453868313e-09
-0.4886875,0.4670401602509408,2.402527267239641e-09
-0.48865625,0.4671196990421785,2.454521894453305e-09
-0.488625,0.4671992378334163,2.507489483813125e-09
-0.48859375,0.467278776624654,2.561445377978048e-09
-0.4885625,0.4671992378334163,2.616405115861384e-09
-0.48853125,0.4671196990421785,2.672384434542477e-09
-0.4885,0.4671196990421785,2.729399271190832e-09
-0.48846875,0.4671196990421785,2.787465765002748e-09
-0.4884375,0.4671196990421785,2.846600259150485e-09
-0.48840625,0.4669606214597031,2.906819302743991e-09
-0.488375,0.4671992378334163,2.968139652805249e-09
