Task5_10Hz_200mV_45+10.csv

#Digilent WaveForms Oscilloscope Acquisition
#Device Name: Discovery3
#Serial Number: SN:210415BD63A1
#Date Time: 2026-09-24 11:24:56.680.208.480
#Sample rate: 16000Hz
#Samples: 32000
#Trigger: Source: Channel 1 Type: Edge Condition: Rising Level: 0 V Hyst.: Auto HoldOff: 0 s
#Channel 1: Range: 500 mV/div Offset: 0 V Sample Mode: Average
#Math 1: Input: C1 Reference: Internal Frequency: 10 Hz Phase: 90 ° Filter: IIR Butterworth 8  Low-Pass CutOff: 2 Hz Output: Amplitude

#Wavegen Channel 1: Running
#Mode: Simple
#Type: Sine
#Frequency: 10 Hz
#Period: 100 ms
#Amplitude: 200 mV
#Offset: 0 V
#Symmetry: 50 %
#Phase: 0 °

Time (s),Channel 1 (V),Math 1 (V)
-1,0.3322219091029948,1.82889807893879e-28
-0.9999375,0.3322219091029948,3.108434019118801e-27
-0.999875,0.332142370311757,2.650650852415134e-26
-0.9998125,0.3323014478942325,1.522334024386263e-25
-0.99975,0.3323014478942325,6.666661500148321e-25
-0.9996875,0.3322219091029948,2.387643308909797e-24
-0.999625,0.3322219091029948,7.317851392082647e-24
-0.9995625,0.3322219091029948,1.981062451371422e-23
-0.9995000000000001,0.3322219091029948,4.848018655471992e-23
-0.9994375,0.3322219091029948,1.09134239066095e-22
-0.999375,0.3323014478942325,2.290524838203161e-22
-0.9993125,0.3323014478942325,4.529801647945321e-22
-0.99925,0.3322219091029948,8.512510207188512e-22
-0.9991875,0.332142370311757,1.530499157834653e-21
-0.999125,0.332142370311757,2.647464284323214e-21
-0.9990625,0.332142370311757,4.42643949362821e-21
-0.999,0.332142370311757,7.180955344159809e-21
-0.9989375,0.3320628315205193,1.134033835773628e-20
-0.998875,0.3320628315205193,1.748182624878447e-20
-0.9988125,0.332142370311757,2.636896620196224e-20
-0.99875,0.332142370311757,3.899706633906387e-20
-0.9986875,0.3319832927292816,5.664651415767946e-20
-0.998625,0.3320628315205193,8.094481918388072e-20
-0.9985625,0.3320628315205193,1.139382803577689e-19
-0.9985000000000001,0.3320628315205193,1.58174221761953e-19
-0.9984375,0.332142370311757,2.167947832078727e-19
-0.998375,0.3319037539380438,2.936432949139025e-19
-0.9983125,0.3318242151468061,3.933843080430287e-19
-0.99825,0.3319037539380438,5.216383952164188e-19
-0.9981875,0.3316651375643306,6.851328772818945e-19
-0.998125,0.3317446763555684,8.918696745918227e-19
-0.9980625,0.3302334393220516,1.151311522830689e-18
-0.998,0.3302334393220516,1.47458783502765e-18
-0.9979375,0.3302334393220516,1.874721532797313e-18
-0.997875,0.3300743617395762,2.36687821107862e-18
-0.9978125,0.3299948229483384,2.968639041687947e-18
-0.99775,0.3300743617395762,3.700298861862982e-18
-0.9976874999999999,0.3300743617395762,4.585190934642649e-18
-0.997625,0.3300743617395762,5.65003990840541e-18
-0.9975625,0.3299948229483384,6.925344543176975e-18
-0.9975000000000001,0.3299152841571007,8.445791811421147e-18
-0.9974375,0.3299948229483384,1.02507040209433e-17
-0.997375,0.3299152841571007,1.238452064726408e-17
-0.9973125,0.3299948229483384,1.489731660236111e-17
-0.99725,0.3299152841571007,1.784535870602847e-17
-0.9971875,0.329835745365863,2.129170216526822e-17
-0.997125,0.329835745365863,2.530682890610699e-17
-0.9970625,0.329835745365863,2.996932964102814e-17
-0.997,0.329835745365863,3.536663159382656e-17
-0.9969375,0.3299152841571007,4.159577384212874e-17
-0.996875,0.3299948229483384,4.876423227606559e-17
-0.9968125,0.329835745365863,5.69907962096408e-17
-0.99675,0.3297562065746252,6.6406498719201e-17
-0.9966874999999999,0.3297562065746252,7.715560282109377e-17
-0.996625,0.329835745365863,8.939664563809409e-17
-0.9965625,0.3299152841571007,1.03303542741492e-16
-0.9965000000000001,0.329835745365863,1.190667548928602e-16
-0.9964375,0.329835745365863,1.368945194464583e-16
-0.996375,0.3299152841571007,1.57014148709984e-16
-0.9963125,0.329835745365863,1.796733975979477e-16
-0.99625,0.329835745365863,2.05141902948328e-16
-0.9961875,0.3299152841571007,2.337126969093688e-16
-0.996125,0.3299152841571007,2.657037968393859e-16
-0.9960625,0.3299152841571007,3.014598741982893e-16
-0.996,0.3299152841571007,3.413540049451711e-16
-0.9959375,0.3299948229483384,3.85789503991771e-16
-0.995875,0.3299948229483384,4.352018462969097e-16
-0.9958125,0.3299152841571007,4.900606772220657e-16
-0.99575,0.3299948229483384,5.508719148031728e-16
-0.9956874999999999,0.3301539005308138,6.181799466284315e-16
-0.995625,0.3299948229483384,6.925699240464499e-16
-0.9955625,0.3299948229483384,7.746701564633741e-16
-0.9955000000000001,0.3300743617395762,8.651546085218101e-16
-0.9954375,0.3301539005308138,9.64745502988308e-16
-0.995375,0.3300743617395762,1.074216032209948e-15
-0.9953125,0.3301539005308138,1.194393181034163e-15
-0.99525,0.3301539005308138,1.326160664119351e-15
-0.9951875,0.3302334393220516,1.470461980597053e-15
-0.995125,0.3300743617395762,1.628303589079543e-15
-0.9950625,0.3300743617395762,1.800758206039536e-15
-0.995,0.3302334393220516,1.988968230621383e-15
-0.9949375,0.3303129781132893,2.194149298975658e-15
-0.994875,0.3301539005308138,2.417593971241332e-15
-0.9948125,0.3302334393220516,2.660675554331836e-15
-0.99475,0.3302334393220516,2.924852063713292e-15
-0.9946874999999999,0.3303129781132893,3.211670327394878e-15
-0.994625,0.3303129781132893,3.522770235382928e-15
-0.9945625,0.3303129781132893,3.859889137881631e-15
-0.9945000000000001,0.3304720556957648,4.224866395554494e-15
-0.9944375,0.3304720556957648,4.619648085191671e-15
-0.994375,0.330392516904527,5.046291864159099e-15
-0.9943125,0.3304720556957648,5.506971997036026e-15
-0.99425,0.3304720556957648,6.003984547877997e-15
-0.9941875,0.3304720556957648,6.539752741572542e-15
-0.994125,0.3304720556957648,7.116832497785036e-15
-0.9940625,0.3305515944870025,7.737918141021941e-15
-0.994,0.3305515944870025,8.405848290368528e-15
-0.9939375,0.3305515944870025,9.123611932487584e-15
-0.993875,0.3304720556957648,9.894354681495e-15
-0.9938125,0.3304720556957648,1.072138522935735e-14
-0.99375,0.3306311332782402,1.160818199048545e-14
-0.9936874999999999,0.3306311332782402,1.255839994422677e-14
-0.993625,0.3306311332782402,1.357587767898809e-14
-0.9935625,0.3305515944870025,1.466464464174827e-14
-0.9935,0.330710672069478,1.582892859674933e-14
-0.9934375,0.3305515944870025,1.707316329718183e-14
-0.993375,0.3306311332782402,1.840199637370883e-14
-0.9933125,0.3307902108607157,1.982029744370007e-14
-0.99325,0.330710672069478,2.133316644507578e-14
-0.9931875,0.3307902108607157,2.294594219868669e-14
-0.993125,0.3307902108607157,2.466421120318426e-14
-0.9930625,0.330710672069478,2.649381666636185e-14
-0.993,0.3306311332782402,2.844086777697459e-14
-0.9929375,0.330710672069478,3.051174922107218e-14
-0.992875,0.330710672069478,3.271313094690559e-14
-0.9928125,0.3307902108607157,3.505197818249464e-14
-0.99275,0.330710672069478,3.753556170996963e-14
-0.9926874999999999,0.330710672069478,4.017146840082634e-14
-0.992625,0.3308697496519534,4.296761201625924e-14
-0.9925625,0.3307902108607157,4.593224427676331e-14
-0.9925,0.3308697496519534,4.907396620522056e-14
-0.9924375,0.3309492884431911,5.240173974771242e-14
-0.992375,0.3309492884431911,5.592489967632388e-14
-0.9923125,0.3308697496519534,5.965316577823111e-14
-0.99225,0.3308697496519534,6.359665533538759e-14
-0.9921875,0.3309492884431911,6.776589589914979e-14
-0.992125,0.3309492884431911,7.217183836420684e-14
-0.9920625,0.3310288272344288,7.682587034620298e-14
-0.992,0.3309492884431911,8.173982986746605e-14
-0.9919375,0.3310288272344288,8.692601935527876e-14
-0.991875,0.3310288272344288,9.239721995715284e-14
-0.9918125,0.3310288272344288,9.816670617759054e-14
-0.99175,0.3310288272344288,1.042482608408404e-13
-0.9916875000000001,0.3310288272344288,1.106561903841781e-13
-0.991625,0.3309492884431911,1.174053404862648e-13
-0.9915625,0.3309492884431911,1.245111120351607e-13
-0.9915,0.3310288272344288,1.319894774405915e-13
-0.9914375,0.3310288272344288,1.398569972950888e-13
-0.991375,0.3309492884431911,1.481308373886497e-13
-0.9913125,0.3310288272344288,1.568287860815794e-13
-0.99125,0.3310288272344288,1.659692720402049e-13
-0.9911875,0.3310288272344288,1.755713823401708e-13
-0.991125,0.3310288272344288,1.856548809420455e-13
-0.9910625,0.3311083660256666,1.962402275439929e-13
-0.991,0.3309492884431911,2.07348596816281e-13
-0.9909375,0.3309492884431911,2.190018980224248e-13
-0.990875,0.3310288272344288,2.31222795031776e-13
-0.9908125,0.3310288272344288,2.440347267283999e-13
-0.99075,0.3310288272344288,2.574619278210923e-13
-0.9906875000000001,0.3309492884431911,2.715294500594184e-13
-0.990625,0.3309492884431911,2.862631838606673e-13
-0.9905625,0.3308697496519534,3.016898803526433e-13
-0.9905,0.3308697496519534,3.178371738372293e-13
-0.9904375,0.3307902108607157,3.347336046796812e-13
-0.990375,0.3308697496519534,3.524086426286303e-13
-0.9903125,0.3309492884431911,3.708927105717898e-13
-0.99025,0.3308697496519534,3.902172087323811e-13
-0.9901875,0.3309492884431911,4.104145393113146e-13
-0.990125,0.3309492884431911,4.315181315801793e-13
-0.9900625,0.3309492884431911,4.535624674301141e-13
-0.99,0.3309492884431911,4.76583107381649e-13
-0.9899375,0.3309492884431911,5.006167170606299e-13
-0.9898749999999999,0.3308697496519534,5.257010941453502e-13
-0.9898125,0.3308697496519534,5.5187519579004e-13
-0.98975,0.3310288272344288,5.791791665298699e-13
-0.9896875000000001,0.3308697496519534,6.076543666726587e-13
-0.989625,0.3308697496519534,6.37343401182476e-13
-0.9895625,0.3307902108607157,6.682901490603622e-13
-0.9895,0.3308697496519534,7.005397932273975e-13
-0.9894375,0.330710672069478,7.341388509153669e-13
-0.989375,0.3306311332782402,7.691352045702964e-13
-0.9893125,0.3306311332782402,8.055781332741367e-13
-0.98925,0.3305515944870025,8.435183446899008e-13
-0.9891875,0.3306311332782402,8.830080075355702e-13
-0.989125,0.330710672069478,9.24100784592104e-13
-0.9890625,0.3306311332782402,9.668518662509001e-13
-0.989,0.330710672069478,1.011318004606075e-12
-0.9889375,0.3305515944870025,1.057557548096943e-12
-0.9888749999999999,0.3304720556957648,1.105630476706089e-12
-0.9888125,0.3304720556957648,1.155598437718456e-12
-0.98875,0.3304720556957648,1.207524782046859e-12
-0.9886875000000001,0.3304720556957648,1.261474601129388e-12
-0.988625,0.330392516904527,1.317514764404141e-12
-0.9885625,0.3304720556957648,1.375713957366766e-12
-0.9885,0.330392516904527,1.436142720216301e-12
-0.9884375,0.3303129781132893,1.498873487094813e-12
-0.988375,0.3302334393220516,1.563980625926345e-12
-0.9883125,0.3301539005308138,1.631540478860708e-12
-0.98825,0.3302334393220516,1.701631403327663e-12
-0.9881875,0.3301539005308138,1.774333813707043e-12
-0.988125,0.3301539005308138,1.849730223620392e-12
-0.9880625,0.3301539005308138,1.927905288849707e-12
-0.988,0.3301539005308138,2.008945850888876e-12
-0.9879375,0.3301539005308138,2.092940981133422e-12
-0.9878749999999999,0.3301539005308138,2.179982025714195e-12
-0.9878125,0.3299948229483384,2.270162650980617e-12
-0.98775,0.3299948229483384,2.363578889639162e-12
-0.9876875000000001,0.3299152841571007,2.460329187552712e-12
-0.987625,0.329835745365863,2.560514451206476e-12
-0.9875625,0.3299152841571007,2.664238095846147e-12
-0.9875,0.3297562065746252,2.771606094294016e-12
-0.9874375,0.3297562065746252,2.882727026448717e-12
-0.987375,0.3297562065746252,2.997712129474379e-12
-0.9873125,0.3297562065746252,3.116675348684864e-12
-0.98725,0.3299152841571007,3.23973338912887e-12
-0.9871875,0.329835745365863,3.367005767881655e-12
-0.987125,0.329835745365863,3.498614867049125e-12
-0.9870625,0.3297562065746252,3.634685987490093e-12
-0.987,0.3297562065746252,3.775347403262485e-12
-0.9869375,0.3299152841571007,3.920730416799286e-12
-0.9868749999999999,0.329835745365863,4.070969414820051e-12
-0.9868125,0.329835745365863,4.226201924983798e-12
-0.98675,0.329835745365863,4.386568673289102e-12
-0.9866875000000001,0.329835745365863,4.552213642227239e-12
-0.986625,0.3299948229483384,4.723284129694239e-12
-0.9865625,0.3299152841571007,4.8999308086677e-12
-0.9865,0.3297562065746252,5.082307787654213e-12
-0.9864375,0.3297562065746252,5.27057267191332e-12
-0.986375,0.3297562065746252,5.464886625463864e-12
-0.9863125,0.329835745365863,5.665414433878615e-12
-0.98625,0.3297562065746252,5.872324567873116e-12
-0.9861875,0.3297562065746252,6.085789247694636e-12
-0.986125,0.329835745365863,6.305984508317164e-12
-0.9860625,0.3299152841571007,6.533090265448362e-12
-0.986,0.3299948229483384,6.767290382354443e-12
-0.9859375,0.329835745365863,7.008772737508886e-12
-0.9858749999999999,0.3299948229483384,7.25772929307099e-12
-0.9858125,0.3299948229483384,7.514356164200168e-12
-0.98575,0.3299948229483384,7.778853689212032e-12
-0.9856875,0.3300743617395762,8.051426500582158e-12
-0.985625,0.3299948229483384,8.332283596803595e-12
-0.9855625,0.3301539005308138,8.621638415104062e-12
-0.9855,0.3299948229483384,8.919708905028862e-12
-0.9854375,0.3299948229483384,9.226717602895498e-12
-0.985375,0.3299948229483384,9.542891707125995e-12
-0.9853125,0.3299948229483384,9.868463154463021e-12
-0.98525,0.3300743617395762,1.02036686970757e-11
-0.9851875,0.3300743617395762,1.054874998056133e-11
-0.985125,0.3301539005308138,1.090395362284881e-11
-0.9850625,0.3301539005308138,1.12695312940101e-11
-0.985,0.3302334393220516,1.164573979698552e-11
-0.9849375,0.3300743617395762,1.203284114922901e-11
-0.9848749999999999,0.3301539005308138,1.243110266527961e-11
-0.9848125,0.3302334393220516,1.284079704026484e-11
-0.98475,0.3302334393220516,1.326220243434247e-11
-0.9846875,0.3302334393220516,1.36956025580864e-11
-0.984625,0.3302334393220516,1.414128675882301e-11
-0.9845625,0.3302334393220516,1.459955010792386e-11
-0.9845,0.3302334393220516,1.507069348906096e-11
-0.9844375,0.3302334393220516,1.555502368743067e-11
-0.984375,0.3303129781132893,1.605285347995228e-11
-0.9843125,0.330392516904527,1.656450172644744e-11
-0.98425,0.330392516904527,1.709029346180655e-11
-0.9841875,0.330392516904527,1.76305599891481e-11
-0.984125,0.330392516904527,1.818563897397727e-11
-0.9840625,0.3304720556957648,1.875587453934974e-11
-0.984,0.3304720556957648,1.934161736204694e-11
-0.9839375,0.3304720556957648,1.994322476976877e-11
-0.9838750000000001,0.3306311332782402,2.056106083935001e-11
-0.9838125,0.3306311332782402,2.119549649600645e-11
-0.98375,0.3304720556957648,2.184690961361704e-11
-0.9836875,0.3305515944870025,2.251568511604797e-11
-0.983625,0.3305515944870025,2.320221507952498e-11
-0.9835625,0.3306311332782402,2.390689883606002e-11
-0.9835,0.3305515944870025,2.463014307793831e-11
-0.9834375,0.3306311332782402,2.53723619632721e-11
-0.983375,0.3305515944870025,2.613397722262708e-11
-0.9833125,0.3306311332782402,2.691541826672782e-11
-0.98325,0.3306311332782402,2.771712229524812e-11
-0.9831875,0.3306311332782402,2.853953440669269e-11
-0.983125,0.330710672069478,2.938310770937609e-11
-0.9830625,0.3306311332782402,3.024830343350525e-11
-0.983,0.330710672069478,3.113559104437155e-11
-0.9829375,0.3307902108607157,3.204544835665895e-11
-0.9828750000000001,0.3308697496519534,3.297836164987367e-11
-0.9828125,0.3308697496519534,3.393482578490249e-11
-0.98275,0.3308697496519534,3.491534432170495e-11
-0.9826875,0.3307902108607157,3.59204296381462e-11
-0.982625,0.3308697496519534,3.695060304997631e-11
-0.9825625,0.3308697496519534,3.800639493196246e-11
-0.9825,0.3308697496519534,3.908834484017993e-11
-0.9824375,0.3307902108607157,4.019700163546825e-11
-0.982375,0.3308697496519534,4.133292360805842e-11
-0.9823125,0.3308697496519534,4.249667860337771e-11
-0.98225,0.3309492884431911,4.368884414903776e-11
-0.9821875,0.3309492884431911,4.491000758301255e-11
-0.982125,0.3311083660256666,4.616076618301212e-11
-0.9820624999999999,0.3309492884431911,4.744172729705821e-11
-0.982,0.3310288272344288,4.875350847526817e-11
-0.9819375,0.3309492884431911,5.009673760285308e-11
-0.9818750000000001,0.3310288272344288,5.14720530343362e-11
-0.9818125,0.3311083660256666,5.288010372899821e-11
-0.98175,0.331267443608142,5.432154938755494e-11
-0.9816875,0.331267443608142,5.579706059007408e-11
-0.981625,0.3311879048169043,5.730731893513691e-11
-0.9815625,0.3311879048169043,5.885301718025099e-11
-0.9815,0.3311083660256666,6.043485938352042e-11
-0.9814375,0.3311083660256666,6.205356104657907e-11
-0.981375,0.3311083660256666,6.370984925879377e-11
-0.9813125,0.3310288272344288,6.540446284274295e-11
-0.98125,0.3311879048169043,6.713815250097685e-11
-0.9811875,0.3309492884431911,6.891168096406612e-11
-0.981125,0.3310288272344288,7.072582313994398e-11
-0.9810624999999999,0.3311083660256666,7.258136626454867e-11
-0.981,0.3311083660256666,7.447911005377225e-11
-0.9809375,0.3309492884431911,7.64198668567215e-11
-0.9808750000000001,0.3311083660256666,7.840446181029753e-11
-0.9808125,0.3311879048169043,8.043373299509973e-11
-0.98075,0.3311083660256666,8.250853159266041e-11
-0.9806875,0.3310288272344288,8.462972204401629e-11
-0.980625,0.3309492884431911,8.679818220962261e-11
-0.9805625,0.3308697496519534,8.901480353061637e-11
-0.9805,0.3309492884431911,9.128049119143428e-11
-0.9804375,0.3311083660256666,9.359616428379205e-11
-0.980375,0.3308697496519534,9.596275597203053e-11
-0.9803125,0.3310288272344288,9.838121365983529e-11
-0.98025,0.3309492884431911,1.008524991583351e-10
-0.9801875,0.3309492884431911,1.033775888555863e-10
-0.980125,0.3309492884431911,1.059574738874476e-10
-0.9800624999999999,0.3308697496519534,1.085931603098533e-10
-0.98,0.3308697496519534,1.112856692724892e-10
-0.9799375,0.3308697496519534,1.140360371938782e-10
-0.9798750000000001,0.3307902108607157,1.168453159378812e-10
-0.9798125,0.3308697496519534,1.197145729916203e-10
-0.97975,0.3309492884431911,1.226448916448282e-10
-0.9796875,0.3309492884431911,1.256373711706321e-10
-0.979625,0.3310288272344288,1.286931270077769e-10
-0.9795625,0.3308697496519534,1.31813290944294e-10
-0.9795,0.3308697496519534,1.349990113026211e-10
-0.9794375,0.3309492884431911,1.382514531261799e-10
-0.979375,0.3307902108607157,1.415717983674177e-10
-0.9793125,0.330710672069478,1.449612460773176e-10
-0.97925,0.3307902108607157,1.484210125963843e-10
-0.9791875,0.3307902108607157,1.519523317471117e-10
-0.979125,0.3306311332782402,1.555564550279376e-10
-0.9790624999999999,0.330710672069478,1.592346518086911e-10
-0.979,0.3304720556957648,1.6298820952754e-10
-0.9789375,0.3304720556957648,1.668184338894427e-10
-0.9788750000000001,0.3302334393220516,1.707266490661113e-10
-0.9788125,0.330392516904527,1.747141978974917e-10
-0.97875,0.330392516904527,1.787824420947662e-10
-0.9786875,0.330392516904527,1.829327624448858e-10
-0.978625,0.330392516904527,1.87166559016635e-10
-0.9785625,0.330392516904527,1.914852513682396e-10
-0.9785,0.3303129781132893,1.95890278756519e-10
-0.9784375,0.3303129781132893,2.00383100347592e-10
-0.978375,0.3303129781132893,2.049651954291386e-10
-0.9783125,0.3302334393220516,2.096380636242288e-10
-0.97825,0.3301539005308138,2.144032251067179e-10
-0.9781875,0.3302334393220516,2.192622208182198e-10
-0.978125,0.3300743617395762,2.2421661268666e-10
-0.9780624999999999,0.3301539005308138,2.292679838464171e-10
-0.978,0.3300743617395762,2.344179388600557e-10
-0.9779375,0.3300743617395762,2.396681039416596e-10
-0.977875,0.3299152841571007,2.450201271817688e-10
-0.9778125,0.329835745365863,2.504756787739262e-10
-0.97775,0.3299152841571007,2.560364512428415e-10
-0.9776875,0.329835745365863,2.617041596741763e-10
-0.977625,0.329835745365863,2.674805419459564e-10
-0.9775625,0.3297562065746252,2.733673589616178e-10
-0.9775,0.3297562065746252,2.793663948846916e-10
-0.9774375,0.3295971289921498,2.854794573751336e-10
-0.977375,0.3295971289921498,2.917083778273039e-10
-0.9773125,0.3296766677833875,2.980550116096028e-10
-0.97725,0.3296766677833875,3.045212383057685e-10
-0.9771875,0.3295971289921498,3.11108961957842e-10
-0.977125,0.329517590200912,3.178201113108052e-10
-0.9770624999999999,0.3295971289921498,3.246566400588971e-10
-0.977,0.329517590200912,3.316205270936156e-10
-0.9769375,0.3295971289921498,3.387137767534072e-10
-0.976875,0.3296766677833875,3.459384190750544e-10
-0.9768125,0.3296766677833875,3.532965100467622e-10
-0.97675,0.3297562065746252,3.607901318629532e-10
-0.9766875,0.3295971289921498,3.684213931807728e-10
