Task5_10Hz_500mV_45-10.csv

#Digilent WaveForms Oscilloscope Acquisition
#Device Name: Discovery3
#Serial Number: SN:210415BD63A1
#Date Time: 2026-09-24 11:25:52.548.476.770
#Sample rate: 16000Hz
#Samples: 32000
#Trigger: Source: Channel 1 Type: Edge Condition: Rising Level: 0 V Hyst.: Auto HoldOff: 0 s
#Channel 1: Range: 500 mV/div Offset: 0 V Sample Mode: Average
#Math 1: Input: C1 Reference: Internal Frequency: 10 Hz Phase: 90 ° Filter: IIR Butterworth 8  Low-Pass CutOff: 2 Hz Output: Amplitude

#Wavegen Channel 1: Running
#Mode: Simple
#Type: Sine
#Frequency: 10 Hz
#Period: 100 ms
#Amplitude: 500 mV
#Offset: 0 V
#Symmetry: 50 %
#Phase: 0 °

Time (s),Channel 1 (V),Math 1 (V)
-1,0.5047415472976231,2.845737235874403e-28
-0.9999375,0.5047415472976231,4.836650487040177e-27
-0.999875,0.5046620085063853,4.124324980851807e-26
-0.9998125,0.5047415472976231,2.36868633192128e-25
-0.99975,0.5048210860888608,1.037298115052392e-24
-0.9996875,0.5048210860888608,3.715034633573472e-24
-0.999625,0.5047415472976231,1.138612843155126e-23
-0.9995625,0.5049006248800986,3.082411582905108e-23
-0.9995000000000001,0.5048210860888608,7.543233662394502e-23
-0.9994375,0.5049006248800986,1.698071056641579e-22
-0.999375,0.5049006248800986,3.563953311000963e-22
-0.9993125,0.5048210860888608,7.048209974058148e-22
-0.99925,0.5047415472976231,1.324525463167615e-21
-0.9991875,0.5048210860888608,2.381436760995457e-21
-0.999125,0.5048210860888608,4.11945303152948e-21
-0.9990625,0.5047415472976231,6.887594878724902e-21
-0.999,0.5046620085063853,1.117375080097652e-20
-0.9989375,0.5047415472976231,1.764600893075154e-20
-0.998875,0.5047415472976231,2.720263710217839e-20
-0.9988125,0.5046620085063853,4.103184176132367e-20
-0.99875,0.5047415472976231,6.068250443913193e-20
-0.9986875,0.5047415472976231,8.814716242369501e-20
-0.998625,0.5046620085063853,1.259585678976987e-19
-0.9985625,0.5046620085063853,1.773012271492875e-19
-0.9985000000000001,0.5047415472976231,2.461393885199732e-19
-0.9984375,0.5046620085063853,3.373630145198106e-19
-0.998375,0.5045029309239099,4.569533400151533e-19
-0.9983125,0.5045029309239099,6.121696845756399e-19
-0.99825,0.5045824697151476,8.117592529540972e-19
-0.9981875,0.5045029309239099,1.066191723267395e-18
-0.998125,0.5045824697151476,1.38792048775067e-18
-0.9980625,0.5045029309239099,1.791672475974021e-18
-0.998,0.5044233921326722,2.294768555141305e-18
-0.9979375,0.5043438533414345,2.917476566536107e-18
-0.997875,0.5045029309239099,3.683399121339963e-18
-0.9978125,0.5045824697151476,4.61989834291965e-18
-0.99775,0.5045824697151476,5.758559806261311e-18
-0.9976874999999999,0.5045029309239099,7.135697988518653e-18
-0.997625,0.5044233921326722,8.792905607642033e-18
-0.9975625,0.5044233921326722,1.077764928876546e-17
-0.9975000000000001,0.5044233921326722,1.314391406044864e-17
-0.9974375,0.5042643145501967,1.595289924500039e-17
-0.997375,0.5042643145501967,1.927376836894735e-17
-0.9973125,0.5043438533414345,2.318445578125688e-17
-0.99725,0.5043438533414345,2.77725327281719e-17
-0.9971875,0.5042643145501967,3.313613569446647e-17
-0.997125,0.5042643145501967,3.938495988158637e-17
-0.9970625,0.5042643145501967,4.664132075350552e-17
-0.997,0.5043438533414345,5.504128664120996e-17
-0.9969375,0.504184775758959,6.473588545651659e-17
-0.996875,0.5041052369677212,7.589238862543884e-17
-0.9968125,0.5042643145501967,8.869567541052275e-17
-0.99675,0.504184775758959,1.033496808504975e-16
-0.9966874999999999,0.504184775758959,1.200789306042171e-16
-0.996625,0.504184775758959,1.391301660442185e-16
-0.9965625,0.504184775758959,1.607740630032837e-16
-0.9965000000000001,0.5040256981764836,1.85307047635168e-16
-0.9964375,0.5040256981764836,2.130532129081345e-16
-0.996375,0.504184775758959,2.443663393071278e-16
-0.9963125,0.5041052369677212,2.796320233773066e-16
-0.99625,0.5041052369677212,3.192699177982624e-16
-0.9961875,0.5041052369677212,3.637360867345664e-16
-0.996125,0.5040256981764836,4.135254802643093e-16
-0.9960625,0.504184775758959,4.691745317430473e-16
-0.996,0.504184775758959,5.312638820160131e-16
-0.9959375,0.5041052369677212,6.004212344466192e-16
-0.995875,0.5042643145501967,6.773243447841503e-16
-0.9958125,0.5042643145501967,7.627041499481331e-16
-0.99575,0.5042643145501967,8.573480398611585e-16
-0.9956874999999999,0.504184775758959,9.621032765159483e-16
-0.995625,0.504184775758959,1.077880564516169e-15
-0.9955625,0.5042643145501967,1.205657777383942e-15
-0.9955000000000001,0.504184775758959,1.346483843980132e-15
-0.9954375,0.504184775758959,1.501482799436377e-15
-0.995375,0.5041052369677212,1.671858005050355e-15
-0.9953125,0.504184775758959,1.85889654164811e-15
-0.99525,0.5042643145501967,2.063973780969187e-15
-0.9951875,0.504184775758959,2.288558139682088e-15
-0.995125,0.5042643145501967,2.534216020688925e-15
-0.9950625,0.5043438533414345,2.802616946429331e-15
-0.995,0.5044233921326722,3.095538888944495e-15
-0.9949375,0.5045029309239099,3.414873801512789e-15
-0.994875,0.5045029309239099,3.762633356718685e-15
-0.9948125,0.5043438533414345,4.1409548958667e-15
-0.99475,0.5045029309239099,4.552107594701767e-15
-0.9946874999999999,0.5044233921326722,4.998498850446844e-15
-0.994625,0.5044233921326722,5.482680895217719e-15
-0.9945625,0.5045029309239099,6.007357640923791e-15
-0.9945000000000001,0.5044233921326722,6.575391760812167e-15
-0.9944375,0.5045029309239099,7.189812012860657e-15
-0.994375,0.5045824697151476,7.853820810273273e-15
-0.9943125,0.5045824697151476,8.570802044379449e-15
-0.99425,0.5045824697151476,9.344329165285645e-15
-0.9941875,0.5045824697151476,1.017817352567509e-14
-0.994125,0.5045824697151476,1.107631299319819e-14
-0.9940625,0.5046620085063853,1.204294083694262e-14
-0.994,0.5047415472976231,1.308247489351857e-14
-0.9939375,0.5047415472976231,1.419956701834027e-14
-0.993875,0.5045824697151476,1.539911282773063e-14
-0.9938125,0.5047415472976231,1.668626173752157e-14
-0.99375,0.5048210860888608,1.806642730386716e-14
-0.9936874999999999,0.5047415472976231,1.954529787203191e-14
-0.993625,0.5048210860888608,2.1128847538961e-14
-0.9935625,0.5048210860888608,2.282334743548329e-14
-0.9935,0.5048210860888608,2.463537733404224e-14
-0.9934375,0.5049006248800986,2.657183758789336e-14
-0.993375,0.5049006248800986,2.863996140775024e-14
-0.9933125,0.5049006248800986,3.084732748190438e-14
-0.99325,0.5049801636713362,3.320187294588724e-14
-0.9931875,0.5049801636713362,3.571190670778459e-14
-0.993125,0.5049801636713362,3.838612313535698e-14
-0.9930625,0.505059702462574,4.123361611116066e-14
-0.993,0.5051392412538117,4.426389346190643e-14
-0.9929375,0.5051392412538117,4.748689176833436e-14
-0.992875,0.505059702462574,5.091299156192413e-14
-0.9928125,0.5052187800450494,5.45530329148015e-14
-0.99275,0.5053778576275249,5.841833142924219e-14
-0.9926874999999999,0.5052983188362872,6.252069463321464e-14
-0.992625,0.5051392412538117,6.687243878844358e-14
-0.9925625,0.5052187800450494,7.148640611751574e-14
-0.9925,0.5052187800450494,7.637598245658945e-14
-0.9924375,0.5052187800450494,8.155511534030793e-14
-0.992375,0.5053778576275249,8.703833252555627e-14
-0.9923125,0.5053778576275249,9.284076096074053e-14
-0.99225,0.5053778576275249,9.897814620730511e-14
-0.9921875,0.5053778576275249,1.054668723202442e-13
-0.992125,0.5054573964187626,1.123239821943997e-13
-0.9920625,0.5054573964187626,1.195671983833766e-13
-0.992,0.5052983188362872,1.272149443979434e-13
-0.9919375,0.5052983188362872,1.352863664908233e-13
-0.991875,0.5053778576275249,1.43801355934818e-13
-0.9918125,0.5053778576275249,1.527805718012426e-13
-0.99175,0.5054573964187626,1.622454642456871e-13
-0.9916875000000001,0.5055369352100003,1.722182983081548e-13
-0.991625,0.5055369352100003,1.827221782346654e-13
-0.9915625,0.5054573964187626,1.937810723274452e-13
-0.9915,0.5054573964187626,2.054198383308605e-13
-0.9914375,0.5053778576275249,2.176642493602901e-13
-0.991375,0.5055369352100003,2.305410203811608e-13
-0.9913125,0.5054573964187626,2.440778352454107e-13
-0.99125,0.5054573964187626,2.583033742926749e-13
-0.9911875,0.5054573964187626,2.732473425235249e-13
-0.991125,0.5055369352100003,2.889404983521235e-13
-0.9910625,0.5055369352100003,3.054146829456953e-13
-0.991,0.5056960127924758,3.227028501582413e-13
-0.9909375,0.5055369352100003,3.408390970659594e-13
-0.990875,0.5056164740012381,3.598586951118716e-13
-0.9908125,0.5055369352100003,3.797981218671809e-13
-0.99075,0.5055369352100003,4.006950934169209e-13
-0.9906875000000001,0.5056164740012381,4.225885973774903e-13
-0.990625,0.5056164740012381,4.455189265536948e-13
-0.9905625,0.5055369352100003,4.695277132429529e-13
-0.9905,0.5054573964187626,4.946579641943498e-13
-0.9904375,0.5053778576275249,5.209540962302593e-13
-0.990375,0.5054573964187626,5.484619725382768e-13
-0.9903125,0.5053778576275249,5.772289396412446e-13
-0.99025,0.5053778576275249,6.073038650531759e-13
-0.9901875,0.5053778576275249,6.387371756289138e-13
-0.990125,0.5053778576275249,6.71580896615393e-13
-0.9900625,0.5053778576275249,7.058886914124008e-13
-0.99,0.5053778576275249,7.417159020507614e-13
-0.9899375,0.5053778576275249,7.791195903958952e-13
-0.9898749999999999,0.5052983188362872,8.18158580084741e-13
-0.9898125,0.5053778576275249,8.58893499204042e-13
-0.98975,0.5052187800450494,9.01386823718044e-13
-0.9896875000000001,0.5053778576275249,9.457029216536634e-13
-0.989625,0.5053778576275249,9.919080980512215e-13
-0.9895625,0.5053778576275249,1.040070640688866e-12
-0.9895,0.5053778576275249,1.090260866588824e-12
-0.9894375,0.5052983188362872,1.142551169313663e-12
-0.989375,0.5052187800450494,1.197016067060757e-12
-0.9893125,0.5051392412538117,1.253732251563189e-12
-0.98925,0.5051392412538117,1.312778637805334e-12
-0.9891875,0.505059702462574,1.374236414561406e-12
-0.989125,0.5052187800450494,1.438189095765271e-12
-0.9890625,0.5049801636713362,1.504722572719851e-12
-0.989,0.5049801636713362,1.573925167154476e-12
-0.9889375,0.505059702462574,1.645887685138556e-12
-0.9888749999999999,0.5049801636713362,1.72070347185998e-12
-0.9888125,0.5049801636713362,1.798468467276659e-12
-0.98875,0.5049006248800986,1.87928126264968e-12
-0.9886875000000001,0.5049801636713362,1.963243157966517e-12
-0.988625,0.5049006248800986,2.050458220262821e-12
-0.9885625,0.5049006248800986,2.141033342851292e-12
-0.9885,0.5048210860888608,2.235078305466181e-12
-0.9884375,0.5049006248800986,2.332705835331989e-12
-0.988375,0.5049006248800986,2.434031669164936e-12
-0.9883125,0.5047415472976231,2.539174616115831e-12
-0.98825,0.5047415472976231,2.648256621662955e-12
-0.9881875,0.5046620085063853,2.76140283246361e-12
-0.988125,0.5046620085063853,2.878741662173024e-12
-0.9880625,0.5046620085063853,3.000404858239282e-12
-0.988,0.5045824697151476,3.126527569683015e-12
-0.9879375,0.5045824697151476,3.257248415870584e-12
-0.9878749999999999,0.5045029309239099,3.39270955628949e-12
-0.9878125,0.5045029309239099,3.533056761334824e-12
-0.98775,0.5045029309239099,3.678439484115513e-12
-0.9876875000000001,0.5044233921326722,3.82901093328921e-12
-0.987625,0.5044233921326722,3.984928146934637e-12
-0.9875625,0.5043438533414345,4.146352067470248e-12
-0.9875,0.5041052369677212,4.313447617628074e-12
-0.9874375,0.504184775758959,4.486383777491653e-12
-0.987375,0.5042643145501967,4.665333662606944e-12
-0.9873125,0.5042643145501967,4.850474603175138e-12
-0.98725,0.5042643145501967,5.041988224336352e-12
-0.9871875,0.504184775758959,5.240060527553111e-12
-0.987125,0.5041052369677212,5.444881973102646e-12
-0.9870625,0.5041052369677212,5.656647563686968e-12
-0.987,0.5040256981764836,5.875556929169763e-12
-0.9869375,0.5041052369677212,6.101814412449096e-12
-0.9868749999999999,0.5039461593852458,6.335629156475014e-12
-0.9868125,0.5040256981764836,6.577215192421068e-12
-0.98675,0.5039461593852458,6.826791529018864e-12
-0.9866875000000001,0.5039461593852458,7.084582243064706e-12
-0.986625,0.5040256981764836,7.350816571107478e-12
-0.9865625,0.5040256981764836,7.625729002326825e-12
-0.9865,0.5040256981764836,7.909559372610833e-12
-0.9864375,0.5039461593852458,8.202552959842338e-12
-0.986375,0.5040256981764836,8.504960580402998e-12
-0.9863125,0.5041052369677212,8.817038686904367e-12
-0.98625,0.5039461593852458,9.1390494671551e-12
-0.9861875,0.5040256981764836,9.471260944373566e-12
-0.986125,0.5040256981764836,9.813947078655012e-12
-0.9860625,0.5038666205940081,1.016738786970258e-11
-0.986,0.5039461593852458,1.05318694608314e-11
-0.9859375,0.5040256981764836,1.090768424425495e-11
-0.9858749999999999,0.5040256981764836,1.129513096766312e-11
-0.9858125,0.5038666205940081,1.169451484210106e-11
-0.98575,0.5039461593852458,1.210614765115826e-11
-0.9856875,0.5040256981764836,1.253034786147712e-11
-0.985625,0.5038666205940081,1.296744073459026e-11
-0.9855625,0.5039461593852458,1.341775844009602e-11
-0.9855,0.5039461593852458,1.38816401701814e-11
-0.9854375,0.5040256981764836,1.435943225550188e-11
-0.985375,0.504184775758959,1.48514882824273e-11
-0.9853125,0.5041052369677212,1.53581692116634e-11
-0.98525,0.5041052369677212,1.587984349825824e-11
-0.9851875,0.5041052369677212,1.641688721300296e-11
-0.985125,0.5041052369677212,1.696968416523624e-11
-0.9850625,0.5040256981764836,1.753862602706193e-11
-0.985,0.5041052369677212,1.812411245898917e-11
-0.9849375,0.504184775758959,1.872655123700452e-11
-0.9848749999999999,0.5043438533414345,1.934635838108552e-11
-0.9848125,0.504184775758959,1.998395828516502e-11
-0.98475,0.5042643145501967,2.063978384855592e-11
-0.9846875,0.5042643145501967,2.131427660884558e-11
-0.984625,0.504184775758959,2.200788687626951e-11
-0.9845625,0.504184775758959,2.272107386957375e-11
-0.9845,0.504184775758959,2.345430585337539e-11
-0.9844375,0.504184775758959,2.420806027703083e-11
-0.984375,0.5043438533414345,2.498282391502115e-11
-0.9843125,0.5042643145501967,2.577909300886416e-11
-0.98425,0.504184775758959,2.659737341056261e-11
-0.9841875,0.5042643145501967,2.743818072759807e-11
-0.984125,0.5043438533414345,2.830204046948008e-11
-0.9840625,0.5042643145501967,2.918948819585989e-11
-0.984,0.5043438533414345,3.010106966621858e-11
-0.9839375,0.5042643145501967,3.103734099113888e-11
-0.9838750000000001,0.5043438533414345,3.199886878517035e-11
-0.9838125,0.5044233921326722,3.298623032129739e-11
-0.98375,0.5042643145501967,3.400001368701972e-11
-0.9836875,0.5043438533414345,3.504081794205473e-11
-0.983625,0.5043438533414345,3.610925327767141e-11
-0.9835625,0.5044233921326722,3.720594117766538e-11
-0.9835,0.5043438533414345,3.83315145809844e-11
-0.9834375,0.5042643145501967,3.948661804601432e-11
-0.983375,0.5044233921326722,4.067190791653453e-11
-0.9833125,0.5045029309239099,4.188805248935293e-11
-0.98325,0.5045029309239099,4.313573218362979e-11
-0.9831875,0.5043438533414345,4.441563971189993e-11
-0.983125,0.5045029309239099,4.572848025280319e-11
-0.9830625,0.5045029309239099,4.707497162553239e-11
-0.983,0.5045029309239099,4.845584446600846e-11
-0.9829375,0.5044233921326722,4.987184240479248e-11
-0.9828750000000001,0.5044233921326722,5.132372224674409e-11
-0.9828125,0.5045029309239099,5.281225415243579e-11
-0.98275,0.5045029309239099,5.43382218213328e-11
-0.9826875,0.5045029309239099,5.590242267674812e-11
-0.982625,0.5045824697151476,5.750566805258217e-11
-0.9825625,0.5045824697151476,5.914878338185684e-11
-0.9825,0.5045824697151476,6.083260838705337e-11
-0.9824375,0.5045029309239099,6.255799727226372e-11
-0.982375,0.5045824697151476,6.432581891716491e-11
-0.9823125,0.5045824697151476,6.613695707282612e-11
-0.98225,0.5046620085063853,6.799231055935788e-11
-0.9821875,0.5046620085063853,6.989279346541311e-11
-0.982125,0.5045824697151476,7.183933534954951e-11
-0.9820624999999999,0.5045824697151476,7.383288144346284e-11
-0.982,0.5046620085063853,7.587439285710082e-11
-0.9819375,0.5046620085063853,7.796484678566705e-11
-0.9818750000000001,0.5048210860888608,8.010523671852462e-11
-0.9818125,0.5048210860888608,8.229657265000888e-11
-0.98175,0.5048210860888608,8.453988129215913e-11
-0.9816875,0.5049006248800986,8.683620628937857e-11
-0.981625,0.5049006248800986,8.918660843503204e-11
-0.9815625,0.5048210860888608,9.159216588999161e-11
-0.9815,0.5049006248800986,9.405397440313868e-11
-0.9814375,0.5049006248800986,9.657314753383308e-11
-0.981375,0.5049801636713362,9.915081687635801e-11
-0.9813125,0.5049801636713362,1.017881322863507e-10
-0.98125,0.5049006248800986,1.044862621092284e-10
-0.9811875,0.5049006248800986,1.072463934106187e-10
-0.981125,0.5048210860888608,1.100697322088045e-10
-0.9810624999999999,0.5048210860888608,1.129575037091926e-10
-0.981,0.5048210860888608,1.159109525408155e-10
-0.9809375,0.5049006248800986,1.189313429948758e-10
-0.9808750000000001,0.5049006248800986,1.220199592653434e-10
-0.9808125,0.5049006248800986,1.251781056916136e-10
-0.98075,0.5049006248800986,1.28407107003238e-10
-0.9806875,0.5048210860888608,1.317083085667342e-10
-0.980625,0.5048210860888608,1.350830766344872e-10
-0.9805625,0.5049006248800986,1.3853279859575e-10
-0.9805,0.5048210860888608,1.420588832297533e-10
-0.9804375,0.5049006248800986,1.456627609609338e-10
-0.980375,0.5049006248800986,1.493458841162912e-10
-0.9803125,0.5049801636713362,1.531097271848812e-10
-0.98025,0.5049006248800986,1.569557870794579e-10
-0.9801875,0.5049006248800986,1.608855834002697e-10
-0.980125,0.5049006248800986,1.649006587010233e-10
-0.9800624999999999,0.5047415472976231,1.690025787570218e-10
-0.98,0.5048210860888608,1.731929328354877e-10
-0.9799375,0.5047415472976231,1.774733339680798e-10
-0.9798750000000001,0.5047415472976231,1.818454192256136e-10
-0.9798125,0.5048210860888608,1.863108499949946e-10
-0.97975,0.5046620085063853,1.908713122583729e-10
-0.9796875,0.5047415472976231,1.955285168745308e-10
-0.979625,0.5048210860888608,2.002841998625096e-10
-0.9795625,0.5047415472976231,2.051401226874876e-10
-0.9795,0.5047415472976231,2.100980725489175e-10
-0.9794375,0.5047415472976231,2.15159862670932e-10
-0.979375,0.5046620085063853,2.203273325950282e-10
-0.9793125,0.5046620085063853,2.256023484750392e-10
-0.97925,0.5046620085063853,2.30986803374402e-10
-0.9791875,0.5047415472976231,2.364826175657319e-10
-0.979125,0.5045824697151476,2.420917388327117e-10
-0.9790624999999999,0.5045824697151476,2.478161427743057e-10
-0.979,0.5045824697151476,2.536578331113078e-10
-0.9789375,0.5045824697151476,2.596188419952308e-10
-0.9788750000000001,0.5047415472976231,2.657012303195501e-10
-0.9788125,0.5046620085063853,2.719070880333075e-10
-0.97875,0.5045824697151476,2.782385344570854e-10
-0.9786875,0.5045029309239099,2.846977186013613e-10
-0.978625,0.5045824697151476,2.912868194872513e-10
-0.9785625,0.5045824697151476,2.980080464696504e-10
-0.9785,0.5045029309239099,3.048636395627817e-10
-0.9784375,0.5045029309239099,3.118558697681609e-10
-0.978375,0.5044233921326722,3.189870394049857e-10
-0.9783125,0.5044233921326722,3.262594824429613e-10
-0.97825,0.5044233921326722,3.336755648375675e-10
-0.9781875,0.504184775758959,3.412376848677806e-10
-0.978125,0.5042643145501967,3.489482734762549e-10
-0.9780624999999999,0.504184775758959,3.568097946119768e-10
-0.978,0.5041052369677212,3.648247455753967e-10
-0.9779375,0.5039461593852458,3.72995657366052e-10
-0.977875,0.5039461593852458,3.813250950326857e-10
-0.9778125,0.5040256981764836,3.89815658025873e-10
-0.97775,0.5039461593852458,3.984699805531635e-10
-0.9776875,0.5038666205940081,4.072907319367476e-10
-0.977625,0.5038666205940081,4.162806169736572e-10
-0.9775625,0.5037870818027703,4.254423762985079e-10
-0.9775,0.5037870818027703,4.347787867487938e-10
-0.9774375,0.503628004220295,4.442926617327417e-10
-0.977375,0.5035484654290572,4.539868515997347e-10
-0.9773125,0.5034689266378195,4.638642440133141e-10
-0.97725,0.5035484654290572,4.73927764326768e-10
-0.9771875,0.503628004220295,4.841803759613155e-10
-0.977125,0.5034689266378195,4.946250807868949e-10
-0.9770624999999999,0.5034689266378195,5.052649195055664e-10
-0.977,0.5034689266378195,5.161029720375358e-10
-0.9769375,0.5032303102641063,5.271423579098089e-10
-0.976875,0.503309849055344,5.383862366474861e-10
-0.9768125,0.5033893878465817,5.498378081677046e-10
-0.97675,0.5032303102641063,5.615003131762378e-10
