Task5_40Hz_500mV_45-10.csv

#Digilent WaveForms Oscilloscope Acquisition
#Device Name: Discovery3
#Serial Number: SN:210415BD63A1
#Date Time: 2026-09-24 11:21:48.375.635.240
#Sample rate: 32000Hz
#Samples: 32000
#Trigger: Source: Channel 1 Type: Edge Condition: Rising Level: 0 V Hyst.: Auto HoldOff: 0 s
#Channel 1: Range: 500 mV/div Offset: 0 V Sample Mode: Average
#Math 1: Input: C1 Reference: Internal Frequency: 40 Hz Phase: 90 ° Filter: IIR Butterworth 8  Low-Pass CutOff: 5 Hz Output: Amplitude

#Wavegen Channel 1: Running
#Mode: Simple
#Type: Sine
#Frequency: 40 Hz
#Period: 25 ms
#Amplitude: 500 mV
#Offset: 0 V
#Symmetry: 50 %
#Phase: 0 °

Time (s),Channel 1 (V),Math 1 (V)
-0.5,0.5087980256507472,1.707908847603318e-27
-0.49996875,0.5087980256507472,2.902500383590638e-26
-0.4999375,0.5087980256507472,2.474775294337664e-25
-0.49990625,0.5086389480682717,1.42116291778655e-24
-0.499875,0.5086389480682717,6.222886640734137e-24
-0.49984375,0.5086389480682717,2.228445886662604e-23
-0.4998125,0.5087980256507472,6.829130583793275e-23
-0.49978125,0.5087980256507472,1.848542423249843e-22
-0.49975,0.5087184868595094,4.523194283136998e-22
-0.49971875,0.5087184868595094,1.018103482377556e-21
-0.4996875,0.5087184868595094,2.136564451507569e-21
-0.49965625,0.5086389480682717,4.224840840855311e-21
-0.499625,0.5086389480682717,7.938510171088301e-21
-0.49959375,0.5088775644419848,1.427133552576459e-20
-0.4995625,0.5087980256507472,2.46837832455762e-20
-0.49953125,0.5087980256507472,4.126540731181066e-20
-0.4995,0.5088775644419848,6.693660605254297e-20
-0.49946875,0.5087980256507472,1.056956646156693e-19
-0.4994375,0.5087980256507472,1.629174021835852e-19
-0.49940625,0.5087184868595094,2.457101461517583e-19
-0.499375,0.5087184868595094,3.633381564535687e-19
-0.49934375,0.5084798704857962,5.277170218785714e-19
-0.4993125,0.5086389480682717,7.539899465949241e-19
-0.49928125,0.5086389480682717,1.061193239145225e-18
-0.49925,0.5086389480682717,1.473019707920557e-18
-0.49921875,0.5087184868595094,2.018689056498615e-18
-0.4991875,0.5087184868595094,2.733934759242176e-18
-0.49915625,0.5087980256507472,3.662117282208734e-18
-0.499125,0.5087184868595094,4.855473896744268e-18
-0.49909375,0.5087980256507472,6.376515713126228e-18
-0.4990625,0.5087184868595094,8.299582939266795e-18
-0.49903125,0.5085594092770339,1.071256974477051e-17
-0.499,0.5085594092770339,1.371883048354682e-17
-0.49896875,0.5087980256507472,1.743927939869423e-17
-0.4989375,0.5086389480682717,2.201469630149324e-17
-0.49890625,0.5086389480682717,2.760825108207961e-17
-0.498875,0.5084798704857962,3.440826027273367e-17
-0.49884375,0.5086389480682717,4.263118924571541e-17
-0.4988125,0.5087184868595094,5.252491398618013e-17
-0.49878125,0.5085594092770339,6.43722567369038e-17
-0.49875,0.5086389480682717,7.849481016532024e-17
-0.49871875,0.5084798704857962,9.525706505472584e-17
-0.4986875,0.5085594092770339,1.150708568704398e-16
-0.49865625,0.5084798704857962,1.384001468982134e-16
-0.498625,0.5084003316945584,1.657661539962472e-16
-0.49859375,0.5084003316945584,1.977528533438094e-16
-0.4985625,0.5083207929033208,2.350128589086375e-16
-0.49853125,0.5084003316945584,2.782737066920755e-16
-0.4985,0.5083207929033208,3.28344556145237e-16
-0.49846875,0.5084003316945584,3.861233274814146e-16
-0.4984375,0.5083207929033208,4.526042929394474e-16
-0.49840625,0.5083207929033208,5.288861403798033e-16
-0.498375,0.5083207929033208,6.161805279197289e-16
-0.49834375,0.5084003316945584,7.158211486359697e-16
-0.4983125,0.508241254112083,8.29273324683262e-16
-0.49828125,0.5083207929033208,9.581441504940469e-16
-0.49825,0.5083207929033208,1.104193205039611e-15
-0.49821875,0.508241254112083,1.269343853445159e-15
-0.4981875,0.508241254112083,1.455695158561137e-15
-0.49815625,0.5084003316945584,1.665534423400476e-15
-0.498125,0.5084003316945584,1.901350385656314e-15
-0.49809375,0.5083207929033208,2.165847085817093e-15
-0.4980625,0.5084003316945584,2.461958430695849e-15
-0.49803125,0.5084003316945584,2.792863474487899e-15
-0.498,0.5084003316945584,3.162002439766044e-15
-0.49796875,0.5087184868595094,3.573093501114868e-15
-0.4979375,0.5084798704857962,4.030150354395643e-15
-0.49790625,0.5084798704857962,4.537500594920779e-15
-0.497875,0.5085594092770339,5.099804928101683e-15
-0.49784375,0.5084798704857962,5.722077236416296e-15
-0.4978125,0.5084003316945584,6.409705526822461e-15
-0.49778125,0.5085594092770339,7.168473783020617e-15
-0.49775,0.5085594092770339,8.004584747244206e-15
-0.49771875,0.5085594092770339,8.924683656528484e-15
-0.4976875,0.5084798704857962,9.93588295867829e-15
-0.49765625,0.5086389480682717,1.104578803342256e-14
-0.497625,0.5085594092770339,1.226252394450822e-14
-0.49759375,0.5084798704857962,1.359476324874816e-14
-0.4975625,0.5083207929033208,1.505175488829806e-14
-0.49753125,0.5083207929033208,1.664335419269341e-14
-0.4975,0.5083207929033208,1.838005401743318e-14
-0.49746875,0.5083207929033208,2.027301704614823e-14
-0.4974375,0.5083207929033208,2.233410928364204e-14
-0.49740625,0.508241254112083,2.457593476733839e-14
-0.497375,0.5081617153208453,2.701187152491486e-14
-0.49734375,0.5083207929033208,2.965610880614305e-14
-0.4973125,0.5083207929033208,3.252368561719543e-14
-0.49728125,0.5084003316945584,3.563053058591599e-14
-0.49725,0.508241254112083,3.899350318678575e-14
-0.49721875,0.5081617153208453,4.263043635454625e-14
-0.4971875,0.5080821765296076,4.656018051567284e-14
-0.49715625,0.508241254112083,5.08026490671169e-14
-0.497125,0.5083207929033208,5.537886533195944e-14
-0.49709375,0.5083207929033208,6.031101102184029e-14
-0.4970625,0.508241254112083,6.56224762362467e-14
-0.49703125,0.5081617153208453,7.133791102896034e-14
-0.497,0.5081617153208453,7.748327857217666e-14
-0.49696875,0.508241254112083,8.408590994902145e-14
-0.4969375,0.508241254112083,9.117456060539834e-14
-0.49690625,0.5083207929033208,9.877946849230723e-14
-0.496875,0.508241254112083,1.069324139299772e-13
-0.49684375,0.508241254112083,1.156667812253588e-13
-0.4968125,0.508241254112083,1.250176220747198e-13
-0.49678125,0.5080026377383698,1.350217207832814e-13
-0.49675,0.5081617153208453,1.457176613340314e-13
-0.49671875,0.5080821765296076,1.571458963380341e-13
-0.4966875,0.5080821765296076,1.693488178987514e-13
-0.49665625,0.5081617153208453,1.823708304230715e-13
-0.496625,0.5081617153208453,1.962584254119255e-13
-0.49659375,0.5081617153208453,2.110602582635557e-13
-0.4965625,0.508241254112083,2.268272271226712e-13
-0.49653125,0.5083207929033208,2.436125538089097e-13
-0.4965,0.5080821765296076,2.614718668581903e-13
-0.49646875,0.5079230989471322,2.804632867107169e-13
-0.4964375,0.5079230989471322,3.006475130795585e-13
-0.49640625,0.5080821765296076,3.220879145338965e-13
-0.496375,0.5080026377383698,3.448506203311941e-13
-0.49634375,0.5079230989471322,3.690046145327012e-13
-0.4963125,0.5080026377383698,3.946218324368671e-13
-0.49628125,0.5079230989471322,4.217772593653871e-13
-0.49625,0.5080821765296076,4.505490318367646e-13
-0.49621875,0.5079230989471322,4.810185411624142e-13
-0.4961875,0.5079230989471322,5.132705395004872e-13
-0.49615625,0.5079230989471322,5.473932484027382e-13
-0.496125,0.5079230989471322,5.834784698898968e-13
-0.49609375,0.5078435601558944,6.216217000911522e-13
-0.4960625,0.5080026377383698,6.619222454834861e-13
-0.49603125,0.5077640213646567,7.044833417667339e-13
-0.496,0.5077640213646567,7.494122754103826e-13
-0.49596875,0.5076844825734189,7.968205079082397e-13
-0.4959375,0.5076844825734189,8.468238027772422e-13
-0.49590625,0.5076844825734189,8.995423553367921e-13
-0.495875,0.5078435601558944,9.551009253051311e-13
-0.49584375,0.5077640213646567,1.013628972249387e-12
-0.4958125,0.5076844825734189,1.075260793926036e-12
-0.49578125,0.5077640213646567,1.140135667548651e-12
-0.49575,0.5076049437821812,1.208397994019897e-12
-0.49571875,0.5076049437821812,1.280197445164875e-12
-0.4956875,0.5076844825734189,1.355689114002997e-12
-0.49565625,0.5076049437821812,1.435033668095678e-12
-0.495625,0.5075254049909435,1.518397506007264e-12
-0.49559375,0.5075254049909435,1.60595291691668e-12
-0.4955625,0.5075254049909435,1.697878243417386e-12
-0.49553125,0.5075254049909435,1.794358047543353e-12
-0.4955,0.5076844825734189,1.895583280058808e-12
-0.49546875,0.5076844825734189,2.001751453049654e-12
-0.4954375,0.5076844825734189,2.113066815854488e-12
-0.49540625,0.5076844825734189,2.229740534373287e-12
-0.495375,0.5076049437821812,2.351990873791867e-12
-0.49534375,0.5076049437821812,2.480043384760331e-12
-0.4953125,0.5076049437821812,2.614131093063779e-12
-0.49528125,0.5076049437821812,2.754494692823649e-12
-0.49525,0.5076049437821812,2.901382743268083e-12
-0.49521875,0.5076049437821812,3.05505186910987e-12
-0.4951875,0.5075254049909435,3.215766964570476e-12
-0.49515625,0.5074458661997058,3.383801401088823e-12
-0.495125,0.5077640213646567,3.559437238753505e-12
-0.49509375,0.5076844825734189,3.742965441497179e-12
-0.4950625,0.5076844825734189,3.934686096091954e-12
-0.49503125,0.5075254049909435,4.134908634984636e-12
-0.495,0.5076844825734189,4.343952063010746e-12
-0.49496875,0.5077640213646567,4.562145188026288e-12
-0.4949375,0.5077640213646567,4.789826855496251e-12
-0.49490625,0.5076844825734189,5.027346187078956e-12
-0.494875,0.5077640213646567,5.275062823245288e-12
-0.49484375,0.5077640213646567,5.533347169972017e-12
-0.4948125,0.5078435601558944,5.802580649548342e-12
-0.49478125,0.5076844825734189,6.083155955534906e-12
-0.49475,0.5076844825734189,6.3754773119145e-12
-0.49471875,0.5076844825734189,6.679960736473782e-12
-0.4946875,0.5077640213646567,6.997034308455266e-12
-0.49465625,0.5076049437821812,7.327138440518959e-12
-0.494625,0.5078435601558944,7.670726155052985e-12
-0.49459375,0.5079230989471322,8.028263364872576e-12
-0.4945625,0.5079230989471322,8.400229158346834e-12
-0.49453125,0.5079230989471322,8.787116088992672e-12
-0.4945,0.5077640213646567,9.18943046957537e-12
-0.49446875,0.5076844825734189,9.607692670755188e-12
-0.4944375,0.5076049437821812,1.004243742431947e-11
-0.49440625,0.5077640213646567,1.049421413103972e-11
-0.494375,0.5078435601558944,1.09635871731931e-11
-0.49434375,0.5078435601558944,1.14511362317878e-11
-0.4943125,0.5078435601558944,1.195745660853178e-11
-0.49428125,0.5079230989471322,1.24831595525843e-11
-0.49425,0.5077640213646567,1.302887259212974e-11
-0.49421875,0.5077640213646567,1.359523987081313e-11
-0.4941875,0.5077640213646567,1.418292248907682e-11
-0.49415625,0.5079230989471322,1.479259885043781e-11
-0.494125,0.5077640213646567,1.542496501274498e-11
-0.49409375,0.5076844825734189,1.608073504445578e-11
-0.4940625,0.5077640213646567,1.676064138597175e-11
-0.49403125,0.5077640213646567,1.746543521607205e-11
-0.494,0.5078435601558944,1.819588682348464e-11
-0.49396875,0.5079230989471322,1.895278598363405e-11
-0.4939375,0.5079230989471322,1.973694234060544e-11
-0.49390625,0.5080026377383698,2.05491857943638e-11
-0.493875,0.5079230989471322,2.139036689326781e-11
-0.49384375,0.5080026377383698,2.226135723191737e-11
-0.4938125,0.5078435601558944,2.316304985437403e-11
-0.49378125,0.5077640213646567,2.409635966279345e-11
-0.49375,0.5079230989471322,2.506222383150885e-11
-0.49371875,0.5080026377383698,2.60616022266046e-11
-0.4936875,0.5080821765296076,2.709547783101885e-11
-0.49365625,0.5080026377383698,2.816485717521418e-11
-0.493625,0.5080026377383698,2.927077077345508e-11
-0.49359375,0.5079230989471322,3.041427356573122e-11
-0.4935625,0.5080026377383698,3.159644536536512e-11
-0.49353125,0.5080026377383698,3.281839131234304e-11
-0.4935,0.5081617153208453,3.408124233240782e-11
-0.49346875,0.5080026377383698,3.538615560195197e-11
-0.4934375,0.5080026377383698,3.673431501875006e-11
-0.49340625,0.5080821765296076,3.812693167856823e-11
-0.493375,0.5080026377383698,3.95652443576898e-11
-0.49334375,0.5080026377383698,4.105052000139501e-11
-0.4933125,0.5080026377383698,4.258405421843314e-11
-0.49328125,0.5079230989471322,4.41671717815254e-11
-0.49325,0.5080026377383698,4.580122713393639e-11
-0.49321875,0.5080026377383698,4.748760490215258e-11
-0.4931875,0.5080026377383698,4.922772041470526e-11
-0.49315625,0.5081617153208453,5.102302022717624e-11
-0.493125,0.5080821765296076,5.287498265342388e-11
-0.49309375,0.5080026377383698,5.478511830306722e-11
-0.4930625,0.5080821765296076,5.675497062526575e-11
-0.49303125,0.5080821765296076,5.878611645883241e-11
-0.493,0.5081617153208453,6.088016658871719e-11
-0.49296875,0.5080026377383698,6.303876630889872e-11
-0.4929375,0.5080821765296076,6.526359599172093e-11
-0.49290625,0.5081617153208453,6.755637166371219e-11
-0.492875,0.5080026377383698,6.991884558792362e-11
-0.49284375,0.5081617153208453,7.235280685282376e-11
-0.4928125,0.5081617153208453,7.486008196778638e-11
-0.49278125,0.5081617153208453,7.744253546520792e-11
-0.49275,0.5081617153208453,8.010207050929148e-11
-0.49271875,0.5081617153208453,8.284062951153378e-11
-0.4926875,0.5081617153208453,8.566019475295113e-11
-0.49265625,0.5081617153208453,8.856278901308126e-11
-0.492625,0.5083207929033208,9.155047620579662e-11
-0.49259375,0.5080026377383698,9.462536202196548e-11
-0.4925625,0.5081617153208453,9.778959457899678e-11
-0.49253125,0.508241254112083,1.010453650773042e-10
-0.4925,0.508241254112083,1.043949084637253e-10
-0.49246875,0.5080821765296076,1.078405041019316e-10
-0.4924375,0.5080821765296076,1.113844764498642e-10
-0.49240625,0.5081617153208453,1.15029195744231e-10
-0.492375,0.508241254112083,1.187770786921001e-10
-0.49234375,0.508241254112083,1.226305891696252e-10
-0.4923125,0.5081617153208453,1.265922389279363e-10
-0.49228125,0.508241254112083,1.306645883062322e-10
-0.49225,0.508241254112083,1.348502469521086e-10
-0.49221875,0.508241254112083,1.391518745491559e-10
-0.4921875,0.5081617153208453,1.435721815518613e-10
-0.49215625,0.508241254112083,1.481139299278498e-10
-0.492125,0.5081617153208453,1.527799339074978e-10
-0.49209375,0.508241254112083,1.575730607409522e-10
-0.4920625,0.5081617153208453,1.624962314625908e-10
-0.49203125,0.5084003316945584,1.675524216629557e-10
-0.492,0.5084003316945584,1.727446622681936e-10
-0.49196875,0.5084003316945584,1.780760403270365e-10
-0.4919375,0.508241254112083,1.835496998053562e-10
-0.49190625,0.5081617153208453,1.891688423883248e-10
-0.491875,0.5083207929033208,1.949367282902137e-10
-0.49184375,0.5083207929033208,2.008566770718654e-10
-0.4918125,0.508241254112083,2.069320684658686e-10
-0.49178125,0.5083207929033208,2.131663432094696e-10
-0.49175,0.5084003316945584,2.195630038852527e-10
-0.49171875,0.5084003316945584,2.261256157696205e-10
-0.4916875,0.5084003316945584,2.328578076891064e-10
-0.49165625,0.5083207929033208,2.39763272884551e-10
-0.491625,0.5084003316945584,2.468457698831736e-10
-0.49159375,0.5083207929033208,2.5410912337857e-10
-0.4915625,0.5084003316945584,2.61557225118667e-10
-0.49153125,0.5083207929033208,2.691940348016666e-10
-0.4915,0.5084003316945584,2.770235809800079e-10
-0.49146875,0.5084798704857962,2.850499619723787e-10
-0.4914375,0.5084003316945584,2.932773467838071e-10
-0.49140625,0.5084798704857962,3.017099760338632e-10
-0.491375,0.5084798704857962,3.103521628929993e-10
-0.49134375,0.5084003316945584,3.192082940270616e-10
-0.4913125,0.5084798704857962,3.282828305499992e-10
-0.49128125,0.5084003316945584,3.375803089848029e-10
-0.49125,0.5085594092770339,3.471053422327009e-10
-0.49121875,0.5085594092770339,3.568626205506406e-10
-0.4911875,0.5086389480682717,3.668569125370878e-10
-0.49115625,0.5084798704857962,3.770930661261672e-10
-0.491125,0.5086389480682717,3.87576009590177e-10
-0.49109375,0.5086389480682717,3.983107525505035e-10
-0.4910625,0.5085594092770339,4.093023869969639e-10
-0.49103125,0.5087184868595094,4.205560883156052e-10
-0.491,0.5084798704857962,4.320771163249875e-10
-0.49096875,0.5086389480682717,4.43870816320978e-10
-0.4909375,0.5086389480682717,4.559426201300828e-10
-0.49090625,0.5086389480682717,4.682980471713444e-10
-0.490875,0.5087184868595094,4.809427055268305e-10
-0.49084375,0.5087980256507472,4.938822930207417e-10
-0.4908125,0.5085594092770339,5.071225983071635e-10
-0.49078125,0.5086389480682717,5.206695019664886e-10
-0.49075,0.5087184868595094,5.345289776105365e-10
-0.49071875,0.5087184868595094,5.487070929963941e-10
-0.4906875,0.5087980256507472,5.632100111490045e-10
-0.49065625,0.5087980256507472,5.78043991492529e-10
-0.490625,0.5088775644419848,5.932153909905051e-10
-0.49059375,0.5087184868595094,6.087306652948288e-10
-0.4905625,0.5087184868595094,6.245963699035817e-10
-0.49053125,0.5087184868595094,6.408191613277306e-10
-0.4905,0.5087184868595094,6.574057982667227e-10
-0.49046875,0.5085594092770339,6.743631427929975e-10
-0.4904375,0.5087980256507472,6.916981615454431e-10
-0.49040625,0.5088775644419848,7.094179269318188e-10
-0.490375,0.5087980256507472,7.275296183401639e-10
-0.49034375,0.5087980256507472,7.460405233592219e-10
-0.4903125,0.5087980256507472,7.649580390078968e-10
-0.49028125,0.5089571032332226,7.842896729737668e-10
-0.49025,0.5089571032332226,8.04043044860677e-10
-0.49021875,0.5087980256507472,8.242258874454343e-10
-0.4901875,0.5087980256507472,8.448460479436223e-10
-0.49015625,0.5089571032332226,8.659114892845627e-10
-0.490125,0.5088775644419848,8.874302913954409e-10
-0.49009375,0.5088775644419848,9.094106524946181e-10
-0.4900625,0.5087980256507472,9.318608903941492e-10
-0.49003125,0.5087980256507472,9.547894438115303e-10
-0.49,0.5087184868595094,9.782048736906909e-10
-0.48996875,0.5089571032332226,1.002115864532255e-09
-0.4899375,0.5088775644419848,1.026531225733093e-09
-0.48990625,0.5089571032332226,1.051459892935171e-09
-0.489875,0.5089571032332226,1.076910929383735e-09
-0.48984375,0.5088775644419848,1.102893527294838e-09
-0.4898125,0.5087980256507472,1.129417009232223e-09
-0.48978125,0.5087184868595094,1.156490829493601e-09
-0.48975,0.5087184868595094,1.184124575506318e-09
-0.48971875,0.5087184868595094,1.212327969232444e-09
-0.4896875,0.5087184868595094,1.241110868583297e-09
-0.48965625,0.5087184868595094,1.270483268843423e-09
-0.489625,0.5088775644419848,1.300455304104044e-09
-0.48959375,0.5088775644419848,1.331037248705988e-09
-0.4895625,0.5087980256507472,1.362239518692131e-09
-0.48953125,0.5087184868595094,1.394072673269358e-09
-0.4895,0.5087980256507472,1.426547416280052e-09
-0.48946875,0.5089571032332226,1.459674597683143e-09
-0.4894375,0.5088775644419848,1.493465215044721e-09
-0.48940625,0.5088775644419848,1.527930415038233e-09
-0.489375,0.5089571032332226,1.56308149495428e-09
-0.48934375,0.5088775644419848,1.598929904220018e-09
-0.4893125,0.5087980256507472,1.635487245928196e-09
-0.48928125,0.5087980256507472,1.672765278375828e-09
-0.48925,0.5088775644419848,1.710775916612527e-09
-0.48921875,0.5089571032332226,1.749531233998499e-09
-0.4891875,0.5088775644419848,1.789043463772226e-09
-0.48915625,0.5087184868595094,1.829325000627844e-09
-0.489125,0.5087184868595094,1.870388402302221e-09
-0.48909375,0.5087980256507472,1.912246391171771e-09
-0.4890625,0.5088775644419848,1.954911855858985e-09
-0.48903125,0.5087980256507472,1.998397852848712e-09
-0.489,0.5087980256507472,2.042717608114207e-09
-0.48896875,0.5088775644419848,2.087884518752928e-09
-0.4889375,0.5088775644419848,2.133912154632134e-09
-0.48890625,0.5087980256507472,2.18081426004425e-09
-0.488875,0.5087980256507472,2.228604755372058e-09
-0.48884375,0.5087980256507472,2.277297738763671e-09
-0.4888125,0.5087184868595094,2.326907487817361e-09
-0.48878125,0.5087184868595094,2.377448461276181e-09
-0.48875,0.5087980256507472,2.428935300732464e-09
-0.48871875,0.5087184868595094,2.481382832342144e-09
-0.4886875,0.5087980256507472,2.534806068548948e-09
-0.48865625,0.5087980256507472,2.589220209818456e-09
-0.488625,0.5089571032332226,2.644640646382032e-09
-0.48859375,0.5089571032332226,2.70108295999064e-09
-0.4885625,0.5088775644419848,2.758562925678551e-09
-0.48853125,0.5087980256507472,2.817096513536954e-09
-0.4885,0.5087184868595094,2.876699890497466e-09
-0.48846875,0.5087184868595094,2.937389422125555e-09
-0.4884375,0.5086389480682717,2.999181674423893e-09
-0.48840625,0.5087184868595094,3.062093415645621e-09
