Task5_120Hz_500mV_45-10.csv

#Digilent WaveForms Oscilloscope Acquisition
#Device Name: Discovery3
#Serial Number: SN:210415BD63A1
#Date Time: 2026-09-24 11:19:35.180.164.630
#Sample rate: 32000Hz
#Samples: 32000
#Trigger: Source: Channel 1 Type: Edge Condition: Rising Level: 0 V Hyst.: Auto HoldOff: 0 s
#Channel 1: Range: 500 mV/div Offset: 0 V Sample Mode: Average
#Math 1: Input: C1 Reference: Internal Frequency: 20 Hz Phase: 90 ° Filter: IIR Butterworth 8  Low-Pass CutOff: 5 Hz Output: Amplitude

#Wavegen Channel 1: Running
#Mode: Simple
#Type: Sine
#Frequency: 20 Hz
#Period: 50 ms
#Amplitude: 500 mV
#Offset: 0 V
#Symmetry: 50 %
#Phase: 0 °

Time (s),Channel 1 (V),Math 1 (V)
-0.5,0.5080026377383698,1.708443751432516e-27
-0.49996875,0.5081617153208453,2.903466657138845e-26
-0.4999375,0.5080026377383698,2.475653688297654e-25
-0.49990625,0.5078435601558944,1.421700527762315e-24
-0.499875,0.5079230989471322,6.225389100364102e-24
-0.49984375,0.5078435601558944,2.229395068444489e-23
-0.4998125,0.5079230989471322,6.83219967110807e-23
-0.49978125,0.5080026377383698,1.849415773791447e-22
-0.49975,0.5080026377383698,4.525433449600901e-22
-0.49971875,0.5080026377383698,1.018629999979055e-21
-0.4996875,0.5077640213646567,2.137715550999513e-21
-0.49965625,0.5077640213646567,4.227205964901917e-21
-0.499625,0.5078435601558944,7.943116624751622e-21
-0.49959375,0.5079230989471322,1.427989966881436e-20
-0.4995625,0.5078435601558944,2.469906977805267e-20
-0.49953125,0.5078435601558944,4.12917303205319e-20
-0.4995,0.5078435601558944,6.698051294485759e-20
-0.49946875,0.5078435601558944,1.057668527272926e-19
-0.4994375,0.5080026377383698,1.6302992780836e-19
-0.49940625,0.5078435601558944,2.458839971072153e-19
-0.499375,0.5076844825734189,3.636012721897905e-19
-0.49934375,0.5076844825734189,5.28107859706194e-19
-0.4993125,0.5076844825734189,7.545607090139139e-19
-0.49928125,0.5077640213646567,1.062013895662142e-18
-0.49925,0.5076844825734189,1.47418296531457e-18
-0.49921875,0.5077640213646567,2.020316454423146e-18
-0.4991875,0.5076844825734189,2.736184093537652e-18
-0.49915625,0.5075254049909435,3.665191586553876e-18
-0.499125,0.5076049437821812,4.859632244464379e-18
-0.49909375,0.5076049437821812,6.382086135271072e-18
-0.4990625,0.5080026377383698,8.30697779264938e-18
-0.49903125,0.5080026377383698,1.072230390473382e-17
-0.499,0.5080821765296076,1.373154278103482e-17
-0.49896875,0.5079230989471322,1.745575776999439e-17
-0.4989375,0.5079230989471322,2.203590717203998e-17
-0.49890625,0.5078435601558944,2.763537356320376e-17
-0.498875,0.5078435601558944,3.44427258124459e-17
-0.49884375,0.5078435601558944,4.26747274417694e-17
-0.4988125,0.5078435601558944,5.25796053420557e-17
-0.49878125,0.5078435601558944,6.444059321929147e-17
-0.49875,0.5076844825734189,7.857976450548928e-17
-0.49871875,0.5076844825734189,9.536216982611339e-17
-0.4986875,0.5076049437821812,1.152002944711989e-16
-0.49865625,0.5075254049909435,1.385588516706086e-16
-0.498625,0.5075254049909435,1.659599278250161e-16
-0.49859375,0.5075254049909435,1.979884961932475e-16
-0.4985625,0.5076049437821812,2.35298315883551e-16
-0.49853125,0.5076049437821812,2.786182333412087e-16
-0.4985,0.5076049437821812,3.287589038676492e-16
-0.49846875,0.5075254049909435,3.866199510468692e-16
-0.4984375,0.5075254049909435,4.531975822935277e-16
-0.49840625,0.5076049437821812,5.295926790735602e-16
-0.498375,0.5076049437821812,6.170193806825726e-16
-0.49834375,0.5076049437821812,7.168141807996109e-16
-0.4983125,0.5075254049909435,8.304455563641373e-16
-0.49828125,0.5075254049909435,9.59524148652178e-16
-0.49825,0.5073663274084681,1.105813516753647e-15
-0.49821875,0.5073663274084681,1.271241483976838e-15
-0.4981875,0.5074458661997058,1.457912098027978e-15
-0.49815625,0.5074458661997058,1.668118226133615e-15
-0.498125,0.5074458661997058,1.90435480659136e-15
-0.49809375,0.5074458661997058,2.16933277855034e-15
-0.4980625,0.5073663274084681,2.465993712136371e-15
-0.49803125,0.5072867886172303,2.797525161348622e-15
-0.498,0.5073663274084681,3.167376762464106e-15
-0.49796875,0.5073663274084681,3.579277100993873e-15
-0.4979375,0.5073663274084681,4.037251370540258e-15
-0.49790625,0.5072867886172303,4.545639847207921e-15
-0.497875,0.5072072498259926,5.109117203522867e-15
-0.49784375,0.5072072498259926,5.732712686112991e-15
-0.4978125,0.5071277110347548,6.421831181701135e-15
-0.49778125,0.5072072498259926,7.182275196257038e-15
-0.49775,0.5072867886172303,8.020267772448008e-15
-0.49771875,0.5072072498259926,8.94247637081957e-15
-0.4976875,0.5072072498259926,9.956037740426669e-15
-0.49765625,0.5072867886172303,1.106858380492347e-14
-0.497625,0.5072072498259926,1.228826859040502e-14
-0.49759375,0.5071277110347548,1.36237962215774e-14
-0.4975625,0.5069686334522794,1.508445001311451e-14
-0.49753125,0.5069686334522794,1.668012268333867e-14
-0.4975,0.5070481722435172,1.842134771763998e-14
-0.49746875,0.5071277110347548,2.031933190932461e-14
-0.4974375,0.5072072498259926,2.238598910585534e-14
-0.49740625,0.5070481722435172,2.463397518871933e-14
-0.497375,0.5071277110347548,2.707672431542729e-14
-0.49734375,0.5069686334522794,2.972848645241563e-14
-0.4973125,0.5072072498259926,3.26043662278886e-14
-0.49728125,0.5072072498259926,3.572036313390094e-14
-0.49725,0.5072072498259926,3.90934131072428e-14
-0.49721875,0.5072072498259926,4.274143151894863e-14
-0.4971875,0.5071277110347548,4.668335760250841e-14
-0.49715625,0.5072867886172303,5.093920035111605e-14
-0.497125,0.5070481722435172,5.55300859145426e-14
-0.49709375,0.5071277110347548,6.047830652647351e-14
-0.4970625,0.5068890946610417,6.580737099339914e-14
-0.49703125,0.5068890946610417,7.154205677639477e-14
-0.497,0.5070481722435172,7.770846369737245e-14
-0.49696875,0.5071277110347548,8.433406930163056e-14
-0.4969375,0.5072072498259926,9.144778590876807e-14
-0.49690625,0.5071277110347548,9.9080019384272e-14
-0.496875,0.5071277110347548,1.072627296643222e-13
-0.49684375,0.5071277110347548,1.160294930665959e-13
-0.4968125,0.5071277110347548,1.254155664200861e-13
-0.49678125,0.5071277110347548,1.354579530471826e-13
-0.49675,0.5071277110347548,1.461954706314935e-13
-0.49671875,0.5071277110347548,1.57668821005111e-13
-0.4966875,0.5072072498259926,1.699206618892575e-13
-0.49665625,0.5071277110347548,1.829956806224657e-13
-0.496625,0.5072072498259926,1.969406699106732e-13
-0.49659375,0.5072867886172303,2.118046056338318e-13
-0.4965625,0.5072867886172303,2.276387267438487e-13
-0.49653125,0.5072867886172303,2.444966172888954e-13
-0.4965,0.5074458661997058,2.624342905993337e-13
-0.49646875,0.5073663274084681,2.815102756707213e-13
-0.4964375,0.5073663274084681,3.017857057795698e-13
-0.49640625,0.5073663274084681,3.233244093677381e-13
-0.496375,0.5073663274084681,3.461930032315502e-13
-0.49634375,0.5074458661997058,3.704609880519316e-13
-0.4963125,0.5075254049909435,3.962008463020636e-13
-0.49628125,0.5074458661997058,4.234881425692538e-13
-0.49625,0.5072867886172303,4.524016263279214e-13
-0.49621875,0.5073663274084681,4.830233372007958e-13
-0.4961875,0.5072867886172303,5.15438712745618e-13
-0.49615625,0.5074458661997058,5.497366988048333e-13
-0.496125,0.5074458661997058,5.860098624559527e-13
-0.49609375,0.5074458661997058,6.243545076004497e-13
-0.4960625,0.5073663274084681,6.648707932292526e-13
-0.49603125,0.5074458661997058,7.076628544030707e-13
-0.496,0.5072867886172303,7.52838925985986e-13
-0.49596875,0.5075254049909435,8.0051146917092e-13
-0.4959375,0.5075254049909435,8.50797300835763e-13
-0.49590625,0.5076049437821812,9.038177257691432e-13
-0.495875,0.5076844825734189,9.596986718049764e-13
-0.49584375,0.5075254049909435,1.018570827905124e-12
-0.4958125,0.5075254049909435,1.080569785229655e-12
-0.49578125,0.5076049437821812,1.145836181234377e-12
-0.49575,0.5075254049909435,1.214515846835485e-12
-0.49571875,0.5076844825734189,1.286759956681318e-12
-0.4956875,0.5074458661997058,1.362725182571413e-12
-0.49565625,0.5075254049909435,1.44257385006319e-12
-0.495625,0.5074458661997058,1.526474098306754e-12
-0.49559375,0.5076049437821812,1.614600043148503e-12
-0.4955625,0.5076844825734189,1.707131943544334e-12
-0.49553125,0.5076049437821812,1.804256371323446e-12
-0.4955,0.5076844825734189,1.906166384343862e-12
-0.49546875,0.5076844825734189,2.013061703080964e-12
-0.4954375,0.5076844825734189,2.125148890690476e-12
-0.49540625,0.5076049437821812,2.242641536587491e-12
-0.495375,0.5076049437821812,2.365760443583265e-12
-0.49534375,0.5075254049909435,2.49473381862169e-12
-0.4953125,0.5076049437821812,2.629797467157448e-12
-0.49528125,0.5075254049909435,2.771194991218035e-12
-0.49525,0.5076049437821812,2.919177991191973e-12
-0.49521875,0.5076844825734189,3.074006271385639e-12
-0.4951875,0.5076844825734189,3.235948049391351e-12
-0.49515625,0.5077640213646567,3.405280169309383e-12
-0.495125,0.5076844825734189,3.582288318866819e-12
-0.49509375,0.5076844825734189,3.767267250476223e-12
-0.4950625,0.5076844825734189,3.960521006277244e-12
-0.49503125,0.5077640213646567,4.162363147204431e-12
-0.495,0.5076049437821812,4.373116986124638e-12
-0.49496875,0.5076844825734189,4.593115825087509e-12
-0.4949375,0.5076844825734189,4.822703196732723e-12
-0.49490625,0.5076844825734189,5.062233109897694e-12
-0.494875,0.5076844825734189,5.312070299469668e-12
-0.49484375,0.5077640213646567,5.572590480526164e-12
-0.4948125,0.5077640213646567,5.844180606807915e-12
-0.49478125,0.5077640213646567,6.127239133568501e-12
-0.49475,0.5077640213646567,6.42217628484504e-12
-0.49471875,0.5076844825734189,6.729414325194398e-12
-0.4946875,0.5077640213646567,7.049387835939473e-12
-0.49465625,0.5077640213646567,7.38254399597022e-12
-0.494625,0.5076844825734189,7.72934286714424e-12
-0.49459375,0.5077640213646567,8.090257684331766e-12
-0.4945625,0.5078435601558944,8.465775150150083e-12
-0.49453125,0.5078435601558944,8.856395734432465e-12
-0.4945,0.5078435601558944,9.262633978476798e-12
-0.49446875,0.5078435601558944,9.685018804119238e-12
-0.4944375,0.5077640213646567,1.012409382767824e-11
-0.49440625,0.5077640213646567,1.058041767881447e-11
-0.494375,0.5079230989471322,1.105456432435221e-11
-0.49434375,0.5077640213646567,1.154712339710782e-11
-0.4943125,0.5078435601558944,1.205870052977125e-11
-0.49428125,0.5079230989471322,1.258991769388612e-11
-0.49425,0.5078435601558944,1.314141354397466e-11
-0.49421875,0.5079230989471322,1.371384376685325e-11
-0.4941875,0.5080821765296076,1.43078814361849e-11
-0.49415625,0.5080026377383698,1.492421737231465e-11
-0.494125,0.5080821765296076,1.556356050743432e-11
-0.49409375,0.5081617153208453,1.622663825612293e-11
-0.4940625,0.5080821765296076,1.691419689130917e-11
-0.49403125,0.5078435601558944,1.762700192570243e-11
-0.494,0.5079230989471322,1.836583849873909e-11
-0.49396875,0.5080026377383698,1.913151176909048e-11
-0.4939375,0.5081617153208453,1.992484731277957e-11
-0.49390625,0.5080821765296076,2.074669152695282e-11
-0.493875,0.5080821765296076,2.15979120393544e-11
-0.49384375,0.5080821765296076,2.247939812354934e-11
-0.4938125,0.5080821765296076,2.339206111994301e-11
-0.49378125,0.5080026377383698,2.433683486264366e-11
-0.49375,0.5081617153208453,2.531467611221523e-11
-0.49371875,0.5081617153208453,2.632656499436776e-11
-0.4936875,0.5081617153208453,2.73735054446324e-11
-0.49365625,0.5081617153208453,2.845652565906844e-11
-0.493625,0.5081617153208453,2.957667855104979e-11
-0.49359375,0.5081617153208453,3.073504221417805e-11
-0.4935625,0.5080821765296076,3.193272039136994e-11
-0.49353125,0.5080821765296076,3.31708429501664e-11
-0.4935,0.508241254112083,3.445056636431091e-11
-0.49346875,0.508241254112083,3.577307420164474e-11
-0.4934375,0.508241254112083,3.713957761836665e-11
-0.49340625,0.5084003316945584,3.855131585970496e-11
-0.493375,0.508241254112083,4.000955676704935e-11
-0.49334375,0.5083207929033208,4.15155972915905e-11
-0.4933125,0.508241254112083,4.307076401451531e-11
-0.49328125,0.5084003316945584,4.467641367380538e-11
-0.49325,0.5081617153208453,4.633393369768684e-11
-0.49321875,0.508241254112083,4.804474274477948e-11
-0.4931875,0.5081617153208453,4.981029125099291e-11
-0.49315625,0.5083207929033208,5.163206198321784e-11
-0.493125,0.5081617153208453,5.351157059986077e-11
-0.49309375,0.5081617153208453,5.545036621826964e-11
-0.4930625,0.5084003316945584,5.745003198909903e-11
-0.49303125,0.5083207929033208,5.951218567766254e-11
-0.493,0.5084003316945584,6.1638480252321e-11
-0.49296875,0.5084798704857962,6.383060447995408e-11
-0.4929375,0.5084003316945584,6.609028352856396e-11
-0.49290625,0.5085594092770339,6.841927957705911e-11
-0.492875,0.5084798704857962,7.081939243226618e-11
-0.49284375,0.5083207929033208,7.329246015321852e-11
-0.4928125,0.5083207929033208,7.58403596827695e-11
-0.49278125,0.5083207929033208,7.846500748657873e-11
-0.49275,0.508241254112083,8.116836019951966e-11
-0.49271875,0.508241254112083,8.39524152795568e-11
-0.4926875,0.5081617153208453,8.681921166914073e-11
-0.49265625,0.508241254112083,8.977083046416928e-11
-0.492625,0.508241254112083,9.280939559056345e-11
-0.49259375,0.508241254112083,9.593707448850574e-11
-0.4925625,0.5084798704857962,9.915607880438998e-11
-0.49253125,0.5084003316945584,1.024686650905304e-10
-0.4925,0.5083207929033208,1.058771355126784e-10
-0.49246875,0.5084003316945584,1.093838385653959e-10
-0.4924375,0.5084003316945584,1.129911697953325e-10
-0.49240625,0.5086389480682717,1.167015725324558e-10
-0.492375,0.5084798704857962,1.205175386292825e-10
-0.49234375,0.5084798704857962,1.244416092081593e-10
-0.4923125,0.5085594092770339,1.284763754166408e-10
-0.49228125,0.5085594092770339,1.326244791910142e-10
-0.49225,0.5084798704857962,1.368886140280176e-10
-0.49221875,0.5084003316945584,1.412715257648009e-10
-0.4921875,0.5085594092770339,1.457760133671779e-10
-0.49215625,0.5084798704857962,1.504049297262171e-10
-0.492125,0.5084798704857962,1.551611824632193e-10
-0.49209375,0.5086389480682717,1.600477347431322e-10
-0.4920625,0.5084798704857962,1.650676060964464e-10
-0.49203125,0.5086389480682717,1.702238732496254e-10
-0.492,0.5085594092770339,1.755196709641144e-10
-0.49196875,0.5085594092770339,1.809581928839771e-10
-0.4919375,0.5084798704857962,1.865426923922097e-10
-0.49190625,0.5085594092770339,1.922764834757781e-10
-0.491875,0.5085594092770339,1.981629415994282e-10
-0.49184375,0.5087184868595094,2.042055045883163e-10
-0.4918125,0.5085594092770339,2.10407673519508e-10
-0.49178125,0.5084798704857962,2.167730136223933e-10
-0.49175,0.5085594092770339,2.23305155188066e-10
-0.49171875,0.5084798704857962,2.300077944877158e-10
-0.4916875,0.5084798704857962,2.368846947000792e-10
-0.49165625,0.5083207929033208,2.439396868479998e-10
-0.491625,0.5084003316945584,2.511766707441436e-10
-0.49159375,0.5083207929033208,2.585996159459169e-10
-0.4915625,0.5084003316945584,2.66212562719637e-10
-0.49153125,0.5084003316945584,2.740196230140008e-10
-0.4915,0.5085594092770339,2.820249814428991e-10
-0.49146875,0.5085594092770339,2.902328962776268e-10
-0.4914375,0.5084798704857962,2.986477004485329e-10
-0.49140625,0.5084003316945584,3.072738025561606e-10
-0.491375,0.5084003316945584,3.161156878919236e-10
-0.49134375,0.5084798704857962,3.251779194683661e-10
-0.4913125,0.5084003316945584,3.344651390590545e-10
-0.49128125,0.5084798704857962,3.439820682481474e-10
-0.49125,0.5086389480682717,3.537335094896912e-10
-0.49121875,0.5086389480682717,3.637243471766894e-10
-0.4911875,0.5085594092770339,3.739595487199909e-10
-0.49115625,0.5085594092770339,3.844441656370467e-10
-0.491125,0.5083207929033208,3.951833346505799e-10
-0.49109375,0.5084798704857962,4.061822787972173e-10
-0.4910625,0.5085594092770339,4.174463085461291e-10
-0.49103125,0.5084798704857962,4.289808229277229e-10
-0.491,0.5085594092770339,4.407913106724404e-10
-0.49096875,0.5086389480682717,4.528833513597018e-10
-0.4909375,0.5084003316945584,4.65262616577045e-10
-0.49090625,0.5085594092770339,4.779348710895072e-10
-0.490875,0.5084798704857962,4.909059740192939e-10
-0.49084375,0.5085594092770339,5.041818800357828e-10
-0.4908125,0.5085594092770339,5.177686405559081e-10
-0.49078125,0.5086389480682717,5.316724049549733e-10
-0.49075,0.5086389480682717,5.458994217879357e-10
-0.49071875,0.5084798704857962,5.604560400212125e-10
-0.4906875,0.5084798704857962,5.753487102750495e-10
-0.49065625,0.5085594092770339,5.905839860765052e-10
-0.490625,0.5085594092770339,6.061685251230897e-10
-0.49059375,0.5084798704857962,6.221090905571082e-10
-0.4905625,0.5084798704857962,6.384125522507531e-10
-0.49053125,0.5086389480682717,6.55085888101992e-10
-0.4905,0.5084798704857962,6.721361853412938e-10
-0.49046875,0.5085594092770339,6.895706418492448e-10
-0.4904375,0.5084003316945584,7.073965674850916e-10
-0.49040625,0.5084003316945584,7.256213854262639e-10
-0.490375,0.5083207929033208,7.44252633518918e-10
-0.49034375,0.5084003316945584,7.632979656395476e-10
-0.4903125,0.5083207929033208,7.827651530677069e-10
-0.49028125,0.508241254112083,8.026620858698912e-10
-0.49025,0.5083207929033208,8.229967742946194e-10
-0.49021875,0.5084003316945584,8.437773501787626e-10
-0.4901875,0.508241254112083,8.650120683651654e-10
-0.49015625,0.5083207929033208,8.867093081316037e-10
-0.490125,0.5084003316945584,9.088775746311214e-10
-0.49009375,0.508241254112083,9.31525500343794e-10
-0.4900625,0.508241254112083,9.54661846539961e-10
-0.49003125,0.5081617153208453,9.782955047549719e-10
-0.49,0.5080821765296076,1.00243549827549e-09
-0.48996875,0.5081617153208453,1.027090983637399e-09
-0.4899375,0.5080026377383698,1.052271252135353e-09
-0.48990625,0.5080821765296076,1.07798573134402e-09
-0.489875,0.5081617153208453,1.104243986651053e-09
-0.48984375,0.508241254112083,1.131055722801841e-09
-0.4898125,0.5081617153208453,1.158430785456085e-09
-0.48978125,0.5080821765296076,1.186379162756226e-09
-0.48975,0.5080821765296076,1.214910986907792e-09
-0.48971875,0.5080821765296076,1.244036535771691e-09
-0.4896875,0.5081617153208453,1.273766234468491e-09
-0.48965625,0.5081617153208453,1.304110656994744e-09
-0.489625,0.5081617153208453,1.335080527851389e-09
-0.48959375,0.5081617153208453,1.366686723684268e-09
-0.4895625,0.5081617153208453,1.398940274936817e-09
-0.48953125,0.5081617153208453,1.431852367514957e-09
-0.4895,0.5079230989471322,1.465434344464235e-09
-0.48946875,0.5079230989471322,1.499697707659256e-09
-0.4894375,0.5079230989471322,1.534654119505453e-09
-0.48940625,0.5080026377383698,1.570315404653226e-09
-0.489375,0.5078435601558944,1.606693551724498e-09
-0.48934375,0.5080026377383698,1.643800715051738e-09
-0.4893125,0.5077640213646567,1.681649216429478e-09
-0.48928125,0.5078435601558944,1.720251546878371e-09
-0.48925,0.5080821765296076,1.759620368421836e-09
-0.48921875,0.5079230989471322,1.799768515875326e-09
-0.4891875,0.5078435601558944,1.840708998648266e-09
-0.48915625,0.5077640213646567,1.882455002558687e-09
-0.489125,0.5076844825734189,1.925019891660622e-09
-0.48909375,0.5077640213646567,1.968417210084277e-09
-0.4890625,0.5076844825734189,2.012660683889038e-09
-0.48903125,0.5077640213646567,2.05776422292935e-09
-0.489,0.5077640213646567,2.103741922733498e-09
-0.48896875,0.5076844825734189,2.15060806639534e-09
-0.4889375,0.5076844825734189,2.198377126479038e-09
-0.48890625,0.5076844825734189,2.247063766936804e-09
-0.488875,0.5076049437821812,2.29668284503973e-09
-0.48884375,0.5076049437821812,2.34724941332172e-09
-0.4888125,0.5076844825734189,2.398778721536568e-09
-0.48878125,0.5076844825734189,2.451286218628232e-09
-0.48875,0.5076049437821812,2.504787554714329e-09
-0.48871875,0.5076049437821812,2.559298583082895e-09
-0.4886875,0.5075254049909435,2.614835362202461e-09
-0.48865625,0.5075254049909435,2.671414157745455e-09
-0.488625,0.5075254049909435,2.729051444625007e-09
-0.48859375,0.5074458661997058,2.787763909045155e-09
-0.4885625,0.5075254049909435,2.847568450564526e-09
-0.48853125,0.5076049437821812,2.908482184173509e-09
-0.4885,0.5074458661997058,2.970522442384961e-09
-0.48846875,0.5075254049909435,3.033706777338486e-09
-0.4884375,0.5075254049909435,3.098052962918334e-09
-0.48840625,0.5074458661997058,3.163578996884937e-09
-0.488375,0.5073663274084681,3.230303103020138e-09
