Task5_30Hz.csv

#Digilent WaveForms Oscilloscope Acquisition
#Device Name: Discovery3
#Serial Number: SN:210415BD63A1
#Date Time: 2026-09-24 11:12:24.552.265.030
#Sample rate: 32000Hz
#Samples: 32000
#Trigger: Source: Channel 1 Type: Edge Condition: Rising Level: 0 V Hyst.: Auto HoldOff: 0 s
#Channel 1: Range: 500 mV/div Offset: 0 V Sample Mode: Average
#Math 1: Input: C1 Reference: Internal Frequency: 30 Hz Phase: 90 ° Filter: IIR Butterworth 8  Low-Pass CutOff: 5 Hz Output: Amplitude

#Wavegen Channel 1: Running
#Mode: Simple
#Type: Sine
#Frequency: 30 Hz
#Period: 33.33333333 ms
#Amplitude: 50 mV
#Offset: 0 V
#Symmetry: 50 %
#Phase: 0 °

Time (s),Channel 1 (V),Math 1 (V)
-0.5,0.4378494238666953,1.469609191695401e-27
-0.49996875,0.4375312687017444,2.497620423657305e-26
-0.4999375,0.4376903462842198,2.129643253146681e-25
-0.49990625,0.4377698850754576,1.223014062045436e-24
-0.499875,0.4377698850754576,5.355440023153964e-24
-0.49984375,0.4376108074929821,1.917873487980727e-23
-0.4998125,0.4376903462842198,5.877553816149894e-23
-0.49978125,0.4374517299105066,1.591009016850443e-22
-0.49975,0.4373721911192689,3.893132631025501e-22
-0.49971875,0.4373721911192689,8.763052456405642e-22
-0.4996875,0.4373721911192689,1.839026186699054e-21
-0.49965625,0.4374517299105066,3.636551189981724e-21
-0.499625,0.4374517299105066,6.833212522637851e-21
-0.49959375,0.4373721911192689,1.22844683370646e-20
-0.4995625,0.4374517299105066,2.124754095587805e-20
-0.49953125,0.4372926523280312,3.552121229375117e-20
-0.4995,0.4372131135367934,5.761951739635976e-20
-0.49946875,0.4372131135367934,9.098442855152734e-20
-0.4994375,0.4372926523280312,1.402429719635278e-19
-0.49940625,0.4372926523280312,2.115145665812833e-19
-0.499375,0.4372926523280312,3.127747203489872e-19
-0.49934375,0.4371335747455558,4.542815629135441e-19
-0.4993125,0.4372131135367934,6.490720356810367e-19
-0.49928125,0.4372926523280312,9.13534900070985e-19
-0.49925,0.4371335747455558,1.268068062876356e-18
-0.49921875,0.437054035954318,1.737828053785672e-18
-0.4991875,0.4372131135367934,2.353579824338308e-18
-0.49915625,0.4373721911192689,3.152655369859583e-18
-0.499125,0.4372131135367934,4.180030006280499e-18
-0.49909375,0.4372926523280312,5.489525462217403e-18
-0.4990625,0.4372926523280312,7.145149273279216e-18
-0.49903125,0.4372926523280312,9.222580290262961e-18
-0.499,0.4371335747455558,1.181081043565478e-17
-0.49896875,0.4371335747455558,1.50139531636512e-17
-0.4989375,0.4373721911192689,1.895322939776187e-17
-0.49890625,0.4372926523280312,2.376914203697366e-17
-0.498875,0.4366563419981294,2.962385043646646e-17
-0.49884375,0.4365768032068916,3.670375658198187e-17
-0.4988125,0.4365768032068916,4.522231498814769e-17
-0.49878125,0.4365768032068916,5.542307866033967e-17
-0.49875,0.4367358807893671,6.75829937670098e-17
-0.49871875,0.4367358807893671,8.201595597483462e-17
-0.4986875,0.4367358807893671,9.9076641702541e-17
-0.49865625,0.4368154195806048,1.191646278508447e-16
-0.498625,0.4367358807893671,1.427288138655865e-16
-0.49859375,0.4367358807893671,1.702721602888784e-16
-0.4985625,0.4365768032068916,2.023567582488771e-16
-0.49853125,0.4366563419981294,2.39609244632696e-16
-0.4985,0.4367358807893671,2.827265779789397e-16
-0.49846875,0.4367358807893671,3.324821904163792e-16
-0.4984375,0.4368154195806048,3.897325312633789e-16
-0.49840625,0.4367358807893671,4.554240181888508e-16
-0.498375,0.4366563419981294,5.306004121197633e-16
-0.49834375,0.4365768032068916,6.164106323626021e-16
-0.4983125,0.4367358807893671,7.141170286866606e-16
-0.49828125,0.4367358807893671,8.251041273956112e-16
-0.49825,0.4368949583718426,9.508878686904648e-16
-0.49821875,0.4366563419981294,1.093125352901745e-15
-0.4981875,0.4367358807893671,1.253625113441508e-15
-0.49815625,0.4368154195806048,1.434357934596745e-15
-0.498125,0.4368949583718426,1.637468232554708e-15
-0.49809375,0.4368154195806048,1.865286018317794e-15
-0.4980625,0.4367358807893671,2.120339461430846e-15
-0.49803125,0.4366563419981294,2.405368073706951e-15
-0.498,0.4368949583718426,2.723336532399206e-15
-0.49796875,0.4368949583718426,3.077449162525317e-15
-0.4979375,0.4368949583718426,3.471165098309447e-15
-0.49790625,0.4368154195806048,3.908214143961339e-15
-0.497875,0.4367358807893671,4.39261335426639e-15
-0.49784375,0.4368154195806048,4.928684355712146e-15
-0.4978125,0.4368154195806048,5.521071429126477e-15
-0.49778125,0.4368154195806048,6.174760375050592e-15
-0.49775,0.4368949583718426,6.895098183316063e-15
-0.49771875,0.4368154195806048,7.68781352853907e-15
-0.4976875,0.4368949583718426,8.559038113487257e-15
-0.49765625,0.4368154195806048,9.5153288825148e-15
-0.497625,0.4368154195806048,1.056369112749973e-14
-0.49759375,0.4368154195806048,1.171160250895393e-14
-0.4975625,0.4369744971630803,1.296703801521096e-14
-0.49753125,0.437054035954318,1.433849588282932e-14
-0.4975,0.4369744971630803,1.583502450157988e-14
-0.49746875,0.4369744971630803,1.746625032761474e-14
-0.4974375,0.4368949583718426,1.924240682864187e-14
-0.49740625,0.4368154195806048,2.117436448515515e-14
-0.497375,0.4368154195806048,2.327366187199201e-14
-0.49734375,0.437054035954318,2.555253784471298e-14
-0.4973125,0.4369744971630803,2.802396485551604e-14
-0.49728125,0.437054035954318,3.070168342361666e-14
-0.49725,0.437054035954318,3.360023778523974e-14
-0.49721875,0.4371335747455558,3.67350127485837e-14
-0.4971875,0.4371335747455558,4.012227177932839e-14
-0.49715625,0.4371335747455558,4.377919634246859e-14
-0.497125,0.4371335747455558,4.772392652646309e-14
-0.49709375,0.4371335747455558,5.197560297589495e-14
-0.4970625,0.437054035954318,5.655441015904327e-14
-0.49703125,0.437054035954318,6.148162099696875e-14
-0.497,0.437054035954318,6.6779642880916e-14
-0.49696875,0.4368949583718426,7.247206510503377e-14
-0.4969375,0.4369744971630803,7.858370774161134e-14
-0.49690625,0.4371335747455558,8.51406719862237e-14
-0.496875,0.4372131135367934,9.217039200037121e-14
-0.49684375,0.4372131135367934,9.97016882793907e-14
-0.4968125,0.4372131135367934,1.077648225736031e-13
-0.49678125,0.4372131135367934,1.16391554390852e-13
-0.49675,0.4372131135367934,1.256151991087699e-13
-0.49671875,0.4372926523280312,1.354706877252963e-13
-0.4966875,0.4372131135367934,1.459946282761495e-13
-0.49665625,0.4371335747455558,1.57225368948136e-13
-0.496625,0.4372131135367934,1.692030629173596e-13
-0.49659375,0.4372131135367934,1.819697349415662e-13
-0.4965625,0.4372131135367934,1.955693497360355e-13
-0.49653125,0.4372131135367934,2.100478821626039e-13
-0.4965,0.4373721911192689,2.254533892615721e-13
-0.49646875,0.4373721911192689,2.418360841564184e-13
-0.4964375,0.4372926523280312,2.592484118614079e-13
-0.49640625,0.4372926523280312,2.777451270223513e-13
-0.496375,0.4373721911192689,2.973833736209275e-13
-0.49634375,0.4372926523280312,3.182227666731498e-13
-0.4963125,0.4372926523280312,3.403254759527115e-13
-0.49628125,0.4373721911192689,3.637563117701031e-13
-0.49625,0.4373721911192689,3.88582812838553e-13
-0.49621875,0.4373721911192689,4.148753362579922e-13
-0.4961875,0.4373721911192689,4.427071496483992e-13
-0.49615625,0.4375312687017444,4.721545254640291e-13
-0.496125,0.4375312687017444,5.032968375201792e-13
-0.49609375,0.4375312687017444,5.362166597642905e-13
-0.4960625,0.4374517299105066,5.709998673233287e-13
-0.49603125,0.4375312687017444,6.077357398595286e-13
-0.496,0.4375312687017444,6.465170672667306e-13
-0.49596875,0.4375312687017444,6.874402577396732e-13
-0.4959375,0.4374517299105066,7.306054482487431e-13
-0.49590625,0.4376903462842198,7.761166174528222e-13
-0.495875,0.4376108074929821,8.240817010830019e-13
-0.49584375,0.4376108074929821,8.746127098300636e-13
-0.4958125,0.4378494238666953,9.278258497687632e-13
-0.49578125,0.4377698850754576,9.838416453520741e-13
-0.49575,0.4376108074929821,1.042785065008677e-12
-0.49571875,0.4377698850754576,1.104785649377108e-12
-0.4956875,0.4378494238666953,1.169977642210095e-12
-0.49565625,0.4375312687017444,1.238500123982735e-12
-0.495625,0.4377698850754576,1.310497148238292e-12
-0.49559375,0.4376903462842198,1.386117880705492e-12
-0.4955625,0.4377698850754576,1.465516741221331e-12
-0.49553125,0.4377698850754576,1.54885354849351e-12
-0.4955,0.4377698850754576,1.636293667736719e-12
-0.49546875,0.4377698850754576,1.728008161217121e-12
-0.4954375,0.4377698850754576,1.824173941739476e-12
-0.49540625,0.4377698850754576,1.924973929111454e-12
-0.495375,0.4378494238666953,2.030597209619806e-12
-0.49534375,0.4378494238666953,2.141239198553138e-12
-0.4953125,0.4377698850754576,2.25710180580616e-12
-0.49528125,0.4377698850754576,2.378393604600369e-12
-0.49525,0.4377698850754576,2.50533000335621e-12
-0.49521875,0.4377698850754576,2.638133420751884e-12
-0.4951875,0.4378494238666953,2.777033464004038e-12
-0.49515625,0.4378494238666953,2.922267110405671e-12
-0.495125,0.437928962657933,3.074078892156704e-12
-0.49509375,0.437928962657933,3.232721084522696e-12
-0.4950625,0.437928962657933,3.398453897357345e-12
-0.49503125,0.4380085014491707,3.571545670024426e-12
-0.495,0.4382471178228839,3.752273069754964e-12
-0.49496875,0.4381675790316462,3.940921293475471e-12
-0.4949375,0.4380880402404084,4.137784273143194e-12
-0.49490625,0.4380880402404084,4.343164884624364e-12
-0.494875,0.4381675790316462,4.557375160151551e-12
-0.49484375,0.4381675790316462,4.780736504396259e-12
-0.4948125,0.4382471178228839,5.013579914193004e-12
-0.49478125,0.4381675790316462,5.256246201951179e-12
-0.49475,0.4381675790316462,5.50908622279106e-12
-0.49471875,0.4381675790316462,5.77246110544041e-12
-0.4946875,0.4382471178228839,6.046742486928156e-12
-0.49465625,0.4382471178228839,6.33231275111173e-12
-0.494625,0.4384061954053594,6.629565271074686e-12
-0.49459375,0.4383266566141216,6.938904655431278e-12
-0.4945625,0.4383266566141216,7.260746998574761e-12
-0.49453125,0.4383266566141216,7.595520134906193e-12
-0.4945,0.4383266566141216,7.943663897080627e-12
-0.49446875,0.4382471178228839,8.305630378307543e-12
-0.4944375,0.4381675790316462,8.681884198742588e-12
-0.49440625,0.4384061954053594,9.072902776007506e-12
-0.494375,0.4384061954053594,9.479176599875419e-12
-0.49434375,0.4383266566141216,9.901209511158521e-12
-0.4943125,0.4384061954053594,1.033951898483534e-11
-0.49428125,0.4385652729878348,1.079463641745475e-11
-0.49425,0.4384857341965971,1.126710741885403e-11
-0.49421875,0.4384857341965971,1.175749210822812e-11
-0.4941875,0.4385652729878348,1.226636541458754e-11
-0.49415625,0.4385652729878348,1.279431738164219e-11
-0.494125,0.4385652729878348,1.334195347714849e-11
-0.49409375,0.4384857341965971,1.390989490675723e-11
-0.4940625,0.4384857341965971,1.449877893239963e-11
-0.49403125,0.4384857341965971,1.510925919524906e-11
-0.494,0.4384857341965971,1.574200604329583e-11
-0.49396875,0.4385652729878348,1.63977068635728e-11
-0.4939375,0.4384857341965971,1.707706641906914e-11
-0.49390625,0.4384857341965971,1.778080719036992e-11
-0.493875,0.4385652729878348,1.850966972205916e-11
-0.49384375,0.4386448117790726,1.926441297392388e-11
-0.4938125,0.4386448117790726,2.004581467699679e-11
-0.49378125,0.4385652729878348,2.085467169447539e-11
-0.49375,0.4386448117790726,2.169180038755496e-11
-0.49371875,0.4386448117790726,2.255803698621329e-11
-0.4936875,0.4386448117790726,2.345423796498472e-11
-0.49365625,0.4384061954053594,2.43812804237612e-11
-0.493625,0.4385652729878348,2.534006247365825e-11
-0.49359375,0.4384857341965971,2.633150362798325e-11
-0.4935625,0.4384857341965971,2.735654519834395e-11
-0.49353125,0.4386448117790726,2.841615069593497e-11
-0.4935,0.4385652729878348,2.951130623803986e-11
-0.49346875,0.4387243505703102,3.064302095978656e-11
-0.4934375,0.4387243505703102,3.18123274311939e-11
-0.49340625,0.4386448117790726,3.302028207954694e-11
-0.493375,0.4386448117790726,3.426796561713879e-11
-0.49334375,0.4386448117790726,3.555648347441669e-11
-0.4933125,0.4386448117790726,3.688696623856992e-11
-0.49328125,0.4386448117790726,3.826057009759735e-11
-0.49325,0.4387243505703102,3.967847728989232e-11
-0.49321875,0.4386448117790726,4.114189655938237e-11
-0.4931875,0.4386448117790726,4.265206361626159e-11
-0.49315625,0.4386448117790726,4.421024160335325e-11
-0.493125,0.438803889361548,4.581772156814012e-11
-0.49309375,0.438803889361548,4.747582294050042e-11
-0.4930625,0.4388834281527857,4.918589401618654e-11
-0.49303125,0.438803889361548,5.094931244608451e-11
-0.493,0.438803889361548,5.276748573129148e-11
-0.49296875,0.4385652729878348,5.464185172404874e-11
-0.4929375,0.4386448117790726,5.657387913456792e-11
-0.49290625,0.438803889361548,5.856506804378752e-11
-0.492875,0.438803889361548,6.061695042209759e-11
-0.49284375,0.438803889361548,6.273109065406946e-11
-0.4928125,0.438803889361548,6.490908606922848e-11
-0.49278125,0.4387243505703102,6.715256747890622e-11
-0.49275,0.438803889361548,6.946319971921055e-11
-0.49271875,0.4387243505703102,7.184268220014969e-11
-0.4926875,0.4387243505703102,7.429274946094824e-11
-0.49265625,0.438803889361548,7.681517173159203e-11
-0.492625,0.4386448117790726,7.94117555006389e-11
-0.49259375,0.4387243505703102,8.208434408933263e-11
-0.4925625,0.4387243505703102,8.483481823205682e-11
-0.49253125,0.4388834281527857,8.766509666316602e-11
-0.4925,0.4388834281527857,9.057713671023072e-11
-0.49246875,0.438803889361548,9.357293489373332e-11
-0.4924375,0.4388834281527857,9.665452753325182e-11
-0.49240625,0.438803889361548,9.9823991360168e-11
-0.492375,0.4389629669440234,1.030834441369368e-10
-0.49234375,0.4388834281527857,1.064350452829539e-10
-0.4923125,0.4388834281527857,1.09880996507057e-10
-0.49228125,0.4388834281527857,1.134235424466995e-10
-0.49225,0.4389629669440234,1.170649713138304e-10
-0.49221875,0.4388834281527857,1.208076155475192e-10
-0.4921875,0.4389629669440234,1.246538524733607e-10
-0.49215625,0.4388834281527857,1.286061049696963e-10
-0.492125,0.438803889361548,1.32666842140689e-10
-0.49209375,0.438803889361548,1.368385799962865e-10
-0.4920625,0.4386448117790726,1.411238821391106e-10
-0.49203125,0.4387243505703102,1.455253604583066e-10
-0.492,0.438803889361548,1.500456758303909e-10
-0.49196875,0.4388834281527857,1.546875388271312e-10
-0.4919375,0.4387243505703102,1.594537104304959e-10
-0.49190625,0.4387243505703102,1.643470027547078e-10
-0.491875,0.4387243505703102,1.693702797754382e-10
-0.49184375,0.438803889361548,1.745264580661773e-10
-0.4918125,0.4387243505703102,1.798185075418154e-10
-0.49178125,0.438803889361548,1.85249452209471e-10
-0.49175,0.4387243505703102,1.908223709266017e-10
-0.49171875,0.4387243505703102,1.965403981664316e-10
-0.4916875,0.4385652729878348,2.024067247907319e-10
-0.49165625,0.4386448117790726,2.08424598829989e-10
-0.491625,0.4386448117790726,2.14597326270995e-10
-0.49159375,0.4387243505703102,2.209282718518962e-10
-0.4915625,0.4387243505703102,2.274208598647336e-10
-0.49153125,0.4386448117790726,2.340785749655107e-10
-0.4915,0.4385652729878348,2.409049629918231e-10
-0.49146875,0.4387243505703102,2.479036317880839e-10
-0.4914375,0.4387243505703102,2.550782520383805e-10
-0.49140625,0.4387243505703102,2.624325581069954e-10
-0.491375,0.4387243505703102,2.699703488866278e-10
-0.49134375,0.4387243505703102,2.77695488654347e-10
-0.4913125,0.4385652729878348,2.856119079353142e-10
-0.49128125,0.4386448117790726,2.937236043743055e-10
-0.49125,0.4386448117790726,3.020346436150699e-10
-0.49121875,0.4386448117790726,3.105491601875564e-10
-0.4911875,0.4386448117790726,3.19271358403044e-10
-0.49115625,0.4385652729878348,3.282055132572067e-10
-0.491125,0.4385652729878348,3.373559713411494e-10
-0.49109375,0.4385652729878348,3.467271517604457e-10
-0.4910625,0.4383266566141216,3.563235470622111e-10
-0.49103125,0.4384857341965971,3.661497241702469e-10
-0.491,0.4384857341965971,3.762103253282841e-10
-0.49096875,0.4385652729878348,3.865100690513637e-10
-0.4909375,0.4384857341965971,3.970537510853834e-10
-0.49090625,0.4384061954053594,4.078462453748452e-10
-0.490875,0.4383266566141216,4.188925050388346e-10
-0.49084375,0.4383266566141216,4.30197563355266e-10
-0.4908125,0.4384061954053594,4.417665347534244e-10
-0.49078125,0.4383266566141216,4.536046158148368e-10
-0.49075,0.4384061954053594,4.657170862825043e-10
-0.49071875,0.4384061954053594,4.781093100785282e-10
-0.4906875,0.4383266566141216,4.907867363301606e-10
-0.49065625,0.4384061954053594,5.037549004043114e-10
-0.490625,0.4383266566141216,5.170194249505433e-10
-0.49059375,0.4384061954053594,5.305860209525865e-10
-0.4905625,0.4384061954053594,5.444604887884034e-10
-0.49053125,0.4384857341965971,5.586487192988358e-10
-0.4905,0.4383266566141216,5.731566948648632e-10
-0.49046875,0.4384061954053594,5.879904904935062e-10
-0.4904375,0.4382471178228839,6.031562749124033e-10
-0.49040625,0.4382471178228839,6.186603116730925e-10
-0.490375,0.4382471178228839,6.345089602630269e-10
-0.49034375,0.4382471178228839,6.507086772263574e-10
-0.4903125,0.4382471178228839,6.672660172935095e-10
-0.49028125,0.4384061954053594,6.84187634519586e-10
-0.49025,0.4384061954053594,7.014802834316256e-10
-0.49021875,0.4382471178228839,7.19150820184745e-10
-0.4901875,0.4381675790316462,7.372062037271966e-10
-0.49015625,0.4381675790316462,7.556534969743709e-10
-0.490125,0.4381675790316462,7.744998679917695e-10
-0.49009375,0.4380880402404084,7.93752591186983e-10
-0.4900625,0.4381675790316462,8.134190485106993e-10
-0.49003125,0.4380880402404084,8.335067306667711e-10
-0.49,0.4380085014491707,8.540232383313738e-10
-0.48996875,0.4381675790316462,8.749762833812788e-10
-0.4899375,0.4381675790316462,8.963736901312738e-10
-0.48990625,0.4381675790316462,9.182233965807564e-10
-0.489875,0.4380880402404084,9.405334556695295e-10
-0.48984375,0.4381675790316462,9.633120365428262e-10
-0.4898125,0.4380880402404084,9.865674258255925e-10
-0.48978125,0.4380880402404084,1.010308028906055e-09
-0.48975,0.4380085014491707,1.034542371228601e-09
-0.48971875,0.4380085014491707,1.059279099595997e-09
-0.4896875,0.4380085014491707,1.084526983480977e-09
-0.48965625,0.4380085014491707,1.11029491634722e-09
-0.489625,0.437928962657933,1.136591916979752e-09
-0.48959375,0.4380085014491707,1.163427130824794e-09
-0.4895625,0.4380085014491707,1.190809831339081e-09
-0.48953125,0.4378494238666953,1.218749421348684e-09
-0.4895,0.437928962657933,1.247255434417354e-09
-0.48946875,0.4380085014491707,1.276337536224425e-09
-0.4894375,0.4378494238666953,1.306005525952282e-09
-0.48940625,0.437928962657933,1.336269337683444e-09
-0.489375,0.4378494238666953,1.367139041807271e-09
-0.48934375,0.437928962657933,1.398624846436322e-09
-0.4893125,0.4378494238666953,1.430737098832397e-09
-0.48928125,0.4377698850754576,1.463486286842276e-09
-0.48925,0.4376108074929821,1.496883040343193e-09
-0.48921875,0.4378494238666953,1.530938132698057e-09
-0.4891875,0.4378494238666953,1.565662482220456e-09
-0.48915625,0.437928962657933,1.601067153649458e-09
-0.489125,0.4378494238666953,1.637163359634237e-09
-0.48909375,0.4378494238666953,1.673962462228551e-09
-0.4890625,0.437928962657933,1.711475974395092e-09
-0.48903125,0.4376903462842198,1.749715561519729e-09
-0.489,0.4377698850754576,1.788693042935679e-09
-0.48896875,0.4376903462842198,1.828420393457608e-09
-0.4889375,0.4377698850754576,1.868909744925706e-09
-0.48890625,0.4376903462842198,1.910173387759752e-09
-0.488875,0.4377698850754576,1.952223772523183e-09
-0.48884375,0.4376903462842198,1.995073511497198e-09
-0.4888125,0.4376903462842198,2.038735380264922e-09
-0.48878125,0.4376108074929821,2.083222319305637e-09
-0.48875,0.4376108074929821,2.128547435599127e-09
-0.48871875,0.4377698850754576,2.174724004240127e-09
-0.4886875,0.4376903462842198,2.221765470062925e-09
-0.48865625,0.4376903462842198,2.269685449276124e-09
-0.488625,0.4377698850754576,2.318497731107586e-09
-0.48859375,0.4376903462842198,2.368216279459582e-09
-0.4885625,0.4378494238666953,2.418855234574173e-09
-0.48853125,0.4377698850754576,2.470428914708825e-09
-0.4885,0.4376903462842198,2.522951817822301e-09
-0.48846875,0.4378494238666953,2.576438623270834e-09
-0.4884375,0.4378494238666953,2.630904193514606e-09
-0.48840625,0.4378494238666953,2.686363575834554e-09
-0.488375,0.4377698850754576,2.742832004059523e-09
