Task5_45+4.csv

#Digilent WaveForms Oscilloscope Acquisition
#Device Name: Discovery3
#Serial Number: SN:210415BD63A1
#Date Time: 2026-09-24 10:51:31.075.756.330
#Sample rate: 32000Hz
#Samples: 32000
#Trigger: Source: Channel 1 Type: Edge Condition: Rising Level: 0 V Hyst.: Auto HoldOff: 0 s
#Channel 1: Range: 500 mV/div Offset: 0 V Sample Mode: Average
#Math 1: Input: C1 Reference: Internal Frequency: 20 Hz Phase: 90 ° Filter: IIR Butterworth 8  Low-Pass CutOff: 10 Hz Output: Amplitude

#Wavegen Channel 1: Running
#Mode: Simple
#Type: Sine
#Frequency: 20 Hz
#Period: 50 ms
#Amplitude: 200 mV
#Offset: 0 V
#Symmetry: 50 %
#Phase: 0 °

Time (s),Channel 1 (V),Math 1 (V)
-0.5,0.3793884123069665,3.279462807314157e-25
-0.49996875,0.3795474898894419,5.571852057712346e-24
-0.4999375,0.3796270286806796,4.749393141006724e-23
-0.49990625,0.3795474898894419,2.726509597464624e-22
-0.499875,0.3793884123069665,1.193444239272022e-21
-0.49984375,0.3793884123069665,4.272151585504949e-21
-0.4998125,0.3794679510982042,1.308678111600024e-20
-0.49978125,0.3795474898894419,3.540867734371275e-20
-0.49975,0.3795474898894419,8.660238576461182e-20
-0.49971875,0.3794679510982042,1.948380223302013e-19
-0.4996875,0.3794679510982042,4.086853087562502e-19
-0.49965625,0.3794679510982042,8.077365266235652e-19
-0.499625,0.3793884123069665,1.516982912000925e-18
-0.49959375,0.3794679510982042,2.725745459478243e-18
-0.4995625,0.3793884123069665,4.712036735079878e-18
-0.49953125,0.3794679510982042,7.87330511703029e-18
-0.4995,0.3793884123069665,1.276458689614454e-17
-0.49946875,0.3794679510982042,2.014516487725739e-17
-0.4994375,0.3793088735157287,3.103490453155518e-17
-0.49940625,0.3793088735157287,4.678151035672733e-17
-0.499375,0.3793088735157287,6.914001590788039e-17
-0.49934375,0.3793884123069665,1.003658909719808e-16
-0.4993125,0.3793884123069665,1.433232185802264e-16
-0.49928125,0.3794679510982042,2.016094629912879e-16
-0.49925,0.3794679510982042,2.796984174338454e-16
-0.49921875,0.3793088735157287,3.831029872692536e-16
-0.4991875,0.3794679510982042,5.185595303287557e-16
-0.49915625,0.3793088735157287,6.942355415012978e-16
-0.499125,0.379229334724491,9.199625332039174e-16
-0.49909375,0.379229334724491,1.207496027161507e-15
-0.4990625,0.3793088735157287,1.570804635960566e-15
-0.49903125,0.379229334724491,2.026390275127183e-15
-0.499,0.3793088735157287,2.593641608018449e-15
-0.49896875,0.379229334724491,3.295222886613113e-15
-0.4989375,0.379229334724491,4.157500411344442e-15
-0.49890625,0.3791497959332533,5.211008892437399e-15
-0.498875,0.379229334724491,6.49096005379448e-15
-0.49884375,0.3793088735157287,8.037795878319859e-15
-0.4988125,0.3793088735157287,9.897788950682637e-15
-0.49878125,0.3793088735157287,1.21236924099014e-14
-0.49875,0.3791497959332533,1.477544207979074e-14
-0.49871875,0.3793088735157287,1.792091340025254e-14
-0.4986875,0.3791497959332533,2.163673583662301e-14
-0.49865625,0.3793088735157287,2.600916749780425e-14
-0.498625,0.379229334724491,3.113503274671692e-14
-0.49859375,0.379229334724491,3.712272563871564e-14
-0.4985625,0.379229334724491,4.409328207501533e-14
-0.49853125,0.3791497959332533,5.218152360888631e-14
-0.4985,0.379229334724491,6.153727589239225e-14
-0.49846875,0.3791497959332533,7.232666480076898e-14
-0.4984375,0.3790702571420155,8.473349332018215e-14
-0.49840625,0.3790702571420155,9.896070233255759e-14
-0.498375,0.3849561276936073,1.152319184784589e-13
-0.49834375,0.3851152052760827,1.337930923255894e-13
-0.4983125,0.3848765889023695,1.549142301164242e-13
-0.49828125,0.3849561276936073,1.788912224137337e-13
-0.49825,0.3848765889023695,2.060477730073473e-13
-0.49821875,0.385035666484845,2.367374314894302e-13
-0.4981875,0.385035666484845,2.713457329488237e-13
-0.49815625,0.3849561276936073,3.102924482776229e-13
-0.498125,0.385035666484845,3.540339486251381e-13
-0.49809375,0.3849561276936073,4.030656875757101e-13
-0.4980625,0.3847970501111318,4.579248046675146e-13
-0.49803125,0.3848765889023695,5.19192853909507e-13
-0.498,0.3848765889023695,5.874986609930242e-13
-0.49796875,0.3847970501111318,6.635213129333001e-13
-0.4979375,0.3848765889023695,7.479932839142539e-13
-0.49790625,0.3847970501111318,8.417037011473891e-13
-0.497875,0.3846379725286564,9.455017545925001e-13
-0.49784375,0.3846379725286564,1.06030025442411e-12
-0.4978125,0.3847175113198941,1.187079340163168e-12
-0.49778125,0.3846379725286564,1.326890345428542e-12
-0.49775,0.3846379725286564,1.48085982229722e-12
-0.49771875,0.3846379725286564,1.650193729295939e-12
-0.4976875,0.3846379725286564,1.836181787080142e-12
-0.49765625,0.3846379725286564,2.040202005888723e-12
-0.497625,0.3846379725286564,2.263725388895045e-12
-0.49759375,0.3847175113198941,2.508320815606085e-12
-0.4975625,0.3846379725286564,2.775660109492339e-12
-0.49753125,0.3844788949461809,3.067523294061349e-12
-0.4975,0.3844788949461809,3.385804041617279e-12
-0.49746875,0.3844788949461809,3.732515318978006e-12
-0.4974375,0.3845584337374187,4.109795234449627e-12
-0.49740625,0.3843993561549432,4.519913090386119e-12
-0.497375,0.3843993561549432,4.965275645689181e-12
-0.49734375,0.3843993561549432,5.448433592630006e-12
-0.4973125,0.3843198173637055,5.972088252400794e-12
-0.49728125,0.3843993561549432,6.539098493829478e-12
-0.49725,0.3843993561549432,7.152487879716055e-12
-0.49721875,0.3843993561549432,7.815452045273416e-12
-0.4971875,0.3843198173637055,8.531366313179426e-12
-0.49715625,0.3843993561549432,9.303793549770406e-12
-0.497125,0.3843993561549432,1.013649226692888e-11
-0.49709375,0.3842402785724677,1.103342497424079e-11
-0.4970625,0.3842402785724677,1.199876678601899e-11
-0.49703125,0.3842402785724677,1.303691428781108e-11
-0.497,0.3842402785724677,1.415249466703017e-11
-0.49696875,0.3840812009899923,1.535037511236739e-11
-0.4969375,0.3842402785724677,1.663567248666439e-11
-0.49690625,0.3842402785724677,1.801376327794293e-11
-0.496875,0.3840016621987546,1.949029383330769e-11
-0.49684375,0.3840812009899923,2.107119088045571e-11
-0.4968125,0.38416073978123,2.276267234154367e-11
-0.49678125,0.3840016621987546,2.457125844418131e-11
-0.49675,0.3840016621987546,2.650378313433513e-11
-0.49671875,0.38416073978123,2.856740579594299e-11
-0.4966875,0.3839221234075169,3.076962328205534e-11
-0.49665625,0.3839221234075169,3.311828226233354e-11
-0.496625,0.3838425846162791,3.562159189175033e-11
-0.49659375,0.3840016621987546,3.828813680535155e-11
-0.4965625,0.3839221234075169,4.11268904439509e-11
-0.49653125,0.3839221234075169,4.414722871564327e-11
-0.4965,0.3839221234075169,4.735894399803403e-11
-0.49646875,0.3840016621987546,5.077225948609353e-11
-0.4964375,0.3840016621987546,5.439784389055797e-11
-0.49640625,0.3840016621987546,5.824682649180792e-11
-0.496375,0.3840812009899923,6.233081255416697e-11
-0.49634375,0.3840016621987546,6.666189910557262e-11
-0.4963125,0.3840016621987546,7.125269108758052e-11
-0.49628125,0.3839221234075169,7.611631788067338e-11
-0.49625,0.3840812009899923,8.126645020985292e-11
-0.49621875,0.3839221234075169,8.671731743550222e-11
-0.4961875,0.3838425846162791,9.248372523451356e-11
-0.49615625,0.3839221234075169,9.858107367668257e-11
-0.496125,0.3840812009899923,1.050253757013787e-10
-0.49609375,0.3840016621987546,1.118332759995048e-10
-0.4960625,0.3840016621987546,1.190220703057682e-10
-0.49603125,0.3840812009899923,1.266097251062869e-10
-0.496,0.3840016621987546,1.34614897766564e-10
-0.49596875,0.3840812009899923,1.430569570848629e-10
-0.4959375,0.38416073978123,1.519560042760233e-10
-0.49590625,0.38416073978123,1.613328943907618e-10
-0.495875,0.3840016621987546,1.712092581755004e-10
-0.49584375,0.3840016621987546,1.816075243777727e-10
-0.4958125,0.3839221234075169,1.92550942502258e-10
-0.49578125,0.3839221234075169,2.040636060224968e-10
-0.49575,0.3837630458250414,2.161704760533384e-10
-0.49571875,0.3839221234075169,2.28897405489179e-10
-0.4956875,0.38416073978123,2.422711636130438e-10
-0.49565625,0.3840812009899923,2.563194611815677e-10
-0.495625,0.3840016621987546,2.710709759909317e-10
-0.49559375,0.3839221234075169,2.865553789288085e-10
-0.4955625,0.3839221234075169,3.028033605173694e-10
-0.49553125,0.3839221234075169,3.198466579524077e-10
-0.4955,0.3840812009899923,3.377180826436238e-10
-0.49546875,0.3840812009899923,3.564515482611251e-10
-0.4954375,0.3839221234075169,3.7608209929318e-10
-0.49540625,0.3838425846162791,3.966459401202723e-10
-0.495375,0.3840016621987546,4.181804646104921e-10
-0.49534375,0.3840812009899923,4.407242862412973e-10
-0.4953125,0.3840016621987546,4.643172687526771e-10
-0.49528125,0.3840016621987546,4.890005573367417e-10
-0.49525,0.3840812009899923,5.14816610368758e-10
-0.49521875,0.38416073978123,5.418092316846493e-10
-0.4951875,0.3840016621987546,5.70023603409962e-10
-0.49515625,0.3840016621987546,5.995063193453097e-10
-0.495125,0.3840812009899923,6.303054189132831e-10
-0.49509375,0.38416073978123,6.624704216718215e-10
-0.4950625,0.3840812009899923,6.960523623990229e-10
-0.49503125,0.38416073978123,7.311038267543706e-10
-0.495,0.38416073978123,7.676789875213403e-10
-0.49496875,0.3842402785724677,8.058336414363451e-10
-0.4949375,0.3840812009899923,8.456252466089706e-10
-0.49490625,0.38416073978123,8.871129605384344e-10
-0.494875,0.38416073978123,9.303576787312075e-10
-0.49484375,0.3840812009899923,9.754220739247115e-10
-0.4948125,0.38416073978123,1.022370635922006e-09
-0.49478125,0.38416073978123,1.071269712042365e-09
-0.49475,0.38416073978123,1.122187548192632e-09
-0.49471875,0.3840812009899923,1.175194330564227e-09
-0.4946875,0.38416073978123,1.230362227960685e-09
-0.49465625,0.3840812009899923,1.287765434760559e-09
-0.494625,0.3842402785724677,1.347480214520551e-09
-0.49459375,0.3842402785724677,1.40958494422369e-09
-0.4945625,0.3842402785724677,1.474160159177371e-09
-0.49453125,0.38416073978123,1.541288598566063e-09
-0.4945,0.38416073978123,1.611055251663483e-09
-0.49446875,0.3842402785724677,1.683547404708998e-09
-0.4944375,0.38416073978123,1.758854688453023e-09
-0.49440625,0.38416073978123,1.837069126376165e-09
-0.494375,0.3842402785724677,1.918285183586844e-09
-0.49434375,0.3842402785724677,2.002599816402111e-09
-0.4943125,0.3843198173637055,2.090112522616353e-09
-0.49428125,0.3843993561549432,2.180925392462588e-09
-0.49425,0.38416073978123,2.275143160271009e-09
-0.49421875,0.3842402785724677,2.372873256829433e-09
-0.4941875,0.3843993561549432,2.474225862450299e-09
-0.49415625,0.3842402785724677,2.57931396074882e-09
-0.494125,0.3843198173637055,2.688253393136906e-09
-0.49409375,0.3843198173637055,2.801162914037444e-09
-0.4940625,0.3843198173637055,2.918164246823483e-09
-0.49403125,0.3843198173637055,3.039382140486898e-09
-0.494,0.3843993561549432,3.164944427041055e-09
-0.49396875,0.3844788949461809,3.29498207966197e-09
-0.4939375,0.3843993561549432,3.429629271572494e-09
-0.49390625,0.3843993561549432,3.56902343567396e-09
-0.493875,0.3843198173637055,3.713305324929768e-09
-0.49384375,0.3843993561549432,3.862619073505331e-09
-0.4938125,0.3844788949461809,4.017112258668815e-09
-0.49378125,0.3844788949461809,4.17693596345703e-09
-0.49375,0.3844788949461809,4.342244840110897e-09
-0.49371875,0.3845584337374187,4.513197174284787e-09
-0.4936875,0.3844788949461809,4.689954950034111e-09
-0.49365625,0.3843993561549432,4.872683915585443e-09
-0.493625,0.3843993561549432,5.061553649893461e-09
-0.49359375,0.3844788949461809,5.256737629989003e-09
-0.4935625,0.3844788949461809,5.458413299122448e-09
-0.49353125,0.3843993561549432,5.666762135706646e-09
-0.4935,0.3843993561549432,5.881969723063632e-09
-0.49346875,0.3843993561549432,6.104225819979237e-09
-0.4934375,0.3845584337374187,6.333724432069818e-09
-0.49340625,0.3845584337374187,6.570663883965179e-09
-0.493375,0.3844788949461809,6.815246892311814e-09
-0.49334375,0.3844788949461809,7.067680639600564e-09
-0.4933125,0.3844788949461809,7.328176848822696e-09
-0.49328125,0.3844788949461809,7.596951858958512e-09
-0.49325,0.3844788949461809,7.874226701302423e-09
-0.49321875,0.3845584337374187,8.160227176628514e-09
-0.4931875,0.3844788949461809,8.455183933200534e-09
-0.49315625,0.3844788949461809,8.759332545630273e-09
-0.493125,0.3845584337374187,9.072913594588184e-09
-0.49309375,0.3845584337374187,9.396172747370194e-09
-0.4930625,0.3846379725286564,9.729360839324495e-09
-0.49303125,0.3847175113198941,1.007273395614219e-08
-0.493,0.3847175113198941,1.042655351701556e-08
-0.49296875,0.3847175113198941,1.079108635866777e-08
-0.4929375,0.3847970501111318,1.116660482025773e-08
-0.49290625,0.3847175113198941,1.155338682916379e-08
-0.492875,0.3845584337374187,1.195171598765011e-08
-0.49284375,0.3846379725286564,1.236188166041917e-08
-0.4928125,0.3845584337374187,1.278417906305424e-08
-0.49278125,0.3846379725286564,1.321890935135526e-08
-0.49275,0.3847175113198941,1.366637971157191e-08
-0.49271875,0.3847970501111318,1.412690345153717e-08
-0.4926875,0.3847970501111318,1.460080009270513e-08
-0.49265625,0.3847175113198941,1.50883954630964e-08
-0.492625,0.3847970501111318,1.559002179115467e-08
-0.49259375,0.3846379725286564,1.610601780051778e-08
-0.4925625,0.3847970501111318,1.663672880570678e-08
-0.49253125,0.3847970501111318,1.718250680873632e-08
-0.4925,0.3848765889023695,1.774371059664976e-08
-0.49246875,0.3848765889023695,1.832070583998223e-08
-0.4924375,0.3847970501111318,1.891386519215505e-08
-0.49240625,0.3849561276936073,1.952356838980466e-08
-0.492375,0.3849561276936073,2.01502023540494e-08
-0.49234375,0.385035666484845,2.079416129269715e-08
-0.4923125,0.385035666484845,2.145584680339731e-08
-0.49228125,0.3848765889023695,2.213566797773985e-08
-0.49225,0.3848765889023695,2.283404150630496e-08
-0.49221875,0.3847970501111318,2.355139178466598e-08
-0.4921875,0.3847970501111318,2.4288151020349e-08
-0.49215625,0.3849561276936073,2.504475934075187e-08
-0.492125,0.3848765889023695,2.582166490202569e-08
-0.49209375,0.3847970501111318,2.661932399892189e-08
-0.4920625,0.3849561276936073,2.743820117560746e-08
-0.49203125,0.3849561276936073,2.82787693374516e-08
-0.492,0.385035666484845,2.914150986378634e-08
-0.49196875,0.3848765889023695,3.00269127216441e-08
-0.4919375,0.3848765889023695,3.093547658047497e-08
-0.49190625,0.3849561276936073,3.186770892784641e-08
-0.491875,0.385035666484845,3.282412618612805e-08
-0.49184375,0.385035666484845,3.380525383016442e-08
-0.4918125,0.3849561276936073,3.481162650593811e-08
-0.49178125,0.385035666484845,3.584378815022611e-08
-0.49175,0.385035666484845,3.690229211125174e-08
-0.49171875,0.3851152052760827,3.798770127033492e-08
-0.4916875,0.385035666484845,3.910058816454321e-08
-0.49165625,0.3851152052760827,4.024153511034597e-08
-0.491625,0.385035666484845,4.141113432827434e-08
-0.49159375,0.385035666484845,4.260998806858925e-08
-0.4915625,0.3851152052760827,4.383870873796004e-08
-0.49153125,0.3851152052760827,4.509791902715567e-08
-0.4915,0.3851947440673205,4.638825203975137e-08
-0.49146875,0.3851947440673205,4.771035142185243e-08
-0.4914375,0.3851947440673205,4.906487149283781e-08
-0.49140625,0.3851947440673205,5.045247737712562e-08
-0.491375,0.3851947440673205,5.18738451369625e-08
-0.49134375,0.3851947440673205,5.332966190623926e-08
-0.4913125,0.3851152052760827,5.482062602533483e-08
-0.49128125,0.3851947440673205,5.634744717699036e-08
-0.49125,0.3851152052760827,5.791084652321591e-08
-0.49121875,0.3851152052760827,5.951155684323127e-08
-0.4911875,0.3851152052760827,6.115032267244325e-08
-0.49115625,0.3852742828585582,6.282790044246107e-08
-0.491125,0.3851947440673205,6.454505862215191e-08
-0.49109375,0.3851947440673205,6.630257785973844e-08
-0.4910625,0.3851152052760827,6.810125112594005e-08
-0.49103125,0.3851947440673205,6.994188385815972e-08
-0.491,0.3851947440673205,7.182529410571799e-08
-0.49096875,0.3851947440673205,7.375231267613618e-08
-0.4909375,0.3851947440673205,7.572378328246998e-08
-0.49090625,0.3851152052760827,7.774056269169549e-08
-0.490875,0.3852742828585582,7.980352087414902e-08
-0.49084375,0.3851947440673205,8.191354115402245e-08
-0.4908125,0.385035666484845,8.40715203609154e-08
-0.49078125,0.3852742828585582,8.627836898244575e-08
-0.49075,0.3852742828585582,8.853501131792032e-08
-0.49071875,0.3852742828585582,9.084238563306645e-08
-0.4906875,0.3851947440673205,9.320144431582645e-08
-0.49065625,0.3851947440673205,9.561315403321597e-08
-0.490625,0.3852742828585582,9.807849588924762e-08
-0.49059375,0.3853538216497959,1.00598465583921e-07
-0.4905625,0.3851947440673205,1.031740735732805e-07
-0.49053125,0.3851947440673205,1.058063452305424e-07
-0.4905,0.3851947440673205,1.084963210082912e-07
-0.49046875,0.3851947440673205,1.112450566017479e-07
-0.4904375,0.3851152052760827,1.140536231131104e-07
-0.49040625,0.3851947440673205,1.169231072169661e-07
-0.490375,0.3851947440673205,1.198546113267808e-07
-0.49034375,0.3852742828585582,1.228492537624604e-07
-0.4903125,0.3851152052760827,1.259081689189908e-07
-0.49028125,0.3851947440673205,1.290325074361533e-07
-0.49025,0.3852742828585582,1.322234363693185e-07
-0.49021875,0.3852742828585582,1.35482139361319e-07
-0.4901875,0.3852742828585582,1.388098168154009e-07
-0.49015625,0.3851947440673205,1.422076860692555e-07
-0.490125,0.3851947440673205,1.456769815701327e-07
-0.49009375,0.3851152052760827,1.492189550510341e-07
-0.4900625,0.3851947440673205,1.528348757079898e-07
-0.49003125,0.385035666484845,1.565260303784172e-07
-0.49,0.3851152052760827,1.602937237205622e-07
-0.48996875,0.3851152052760827,1.641392783940252e-07
-0.4899375,0.3851947440673205,1.680640352413705e-07
-0.48990625,0.3852742828585582,1.7206935347082e-07
-0.489875,0.3852742828585582,1.761566108400327e-07
-0.48984375,0.3852742828585582,1.80327203840968e-07
-0.4898125,0.3851947440673205,1.845825478858356e-07
-0.48978125,0.3851152052760827,1.889240774941309e-07
-0.48975,0.3851947440673205,1.933532464807555e-07
-0.48971875,0.3851947440673205,1.978715281452251e-07
-0.4896875,0.3851152052760827,2.024804154619632e-07
-0.48965625,0.3851152052760827,2.071814212716801e-07
-0.489625,0.385035666484845,2.119760784738403e-07
-0.48959375,0.385035666484845,2.168659402202145e-07
-0.4895625,0.3851152052760827,2.218525801095194e-07
-0.48953125,0.3851152052760827,2.269375923831427e-07
-0.4895,0.385035666484845,2.32122592121955e-07
-0.48946875,0.3849561276936073,2.374092154442082e-07
-0.4894375,0.3851152052760827,2.427991197045186e-07
-0.48940625,0.3851152052760827,2.482939836939372e-07
-0.489375,0.385035666484845,2.538955078411043e-07
-0.48934375,0.3849561276936073,2.596054144144899e-07
-0.4893125,0.3851152052760827,2.654254477257189e-07
-0.48928125,0.3851947440673205,2.713573743339802e-07
-0.48925,0.385035666484845,2.774029832515208e-07
-0.48921875,0.3849561276936073,2.835640861502228e-07
-0.4891875,0.3848765889023695,2.898425175692636e-07
-0.48915625,0.3851152052760827,2.962401351238592e-07
-0.489125,0.3849561276936073,3.027588197150882e-07
-0.48909375,0.385035666484845,3.094004757407989e-07
-0.4890625,0.385035666484845,3.16167031307596e-07
-0.48903125,0.3848765889023695,3.230604384439076e-07
-0.489,0.385035666484845,3.300826733141313e-07
-0.48896875,0.3849561276936073,3.372357364338596e-07
-0.4889375,0.3849561276936073,3.445216528861823e-07
-0.48890625,0.3849561276936073,3.519424725390659e-07
-0.488875,0.385035666484845,3.595002702638095e-07
-0.48884375,0.3849561276936073,3.671971461545747e-07
-0.4888125,0.3849561276936073,3.750352257489909e-07
-0.48878125,0.3847970501111318,3.830166602498332e-07
-0.48875,0.3847970501111318,3.911436267477712e-07
-0.48871875,0.3848765889023695,3.994183284451912e-07
-0.4886875,0.3848765889023695,4.078429948810857e-07
-0.48865625,0.3849561276936073,4.164198821570133e-07
-0.488625,0.3848765889023695,4.251512731641254e-07
-0.48859375,0.3847970501111318,4.340394778112587e-07
-0.4885625,0.3847175113198941,4.430868332540938e-07
-0.48853125,0.3848765889023695,4.522957041253762e-07
-0.4885,0.3847175113198941,4.616684827662004e-07
-0.48846875,0.3846379725286564,4.712075894583541e-07
-0.4884375,0.3846379725286564,4.809154726577227e-07
-0.48840625,0.3847175113198941,4.907946092287513e-07
-0.488375,0.3846379725286564,5.008475046799621e-07
