Task5_45+2.csv

#Digilent WaveForms Oscilloscope Acquisition
#Device Name: Discovery3
#Serial Number: SN:210415BD63A1
#Date Time: 2026-09-24 10:50:39.792.072.710
#Sample rate: 32000Hz
#Samples: 32000
#Trigger: Source: Channel 1 Type: Edge Condition: Rising Level: 0 V Hyst.: Auto HoldOff: 0 s
#Channel 1: Range: 500 mV/div Offset: 0 V Sample Mode: Average
#Math 1: Input: C1 Reference: Internal Frequency: 20 Hz Phase: 90 ° Filter: IIR Butterworth 8  Low-Pass CutOff: 10 Hz Output: Amplitude

#Wavegen Channel 1: Running
#Mode: Simple
#Type: Sine
#Frequency: 20 Hz
#Period: 50 ms
#Amplitude: 200 mV
#Offset: 0 V
#Symmetry: 50 %
#Phase: 0 °

Time (s),Channel 1 (V),Math 1 (V)
-0.5,0.4047612867118011,3.476837565944168e-25
-0.49996875,0.4046817479205634,5.907326946029321e-24
-0.4999375,0.4047612867118011,5.035447210773296e-23
-0.49990625,0.4046817479205634,2.89077487534844e-22
-0.499875,0.4046817479205634,1.2653647519527e-21
-0.49984375,0.4046817479205634,4.529663869421456e-21
-0.4998125,0.4048408255030388,1.387578476655166e-20
-0.49978125,0.4047612867118011,3.754392860562796e-20
-0.49975,0.4048408255030388,9.182589667171206e-20
-0.49971875,0.4047612867118011,2.065924174063745e-19
-0.4996875,0.4048408255030388,4.333462298504059e-19
-0.49965625,0.4049203642942766,8.564873855415621e-19
-0.499625,0.4049999030855143,1.608559186714788e-18
-0.49959375,0.4048408255030388,2.890324273921877e-18
-0.4995625,0.4049203642942766,4.996600616419557e-18
-0.49953125,0.4049203642942766,8.34886654585801e-18
-0.4995,0.4049999030855143,1.353572250815886e-17
-0.49946875,0.4049999030855143,2.136237489250475e-17
-0.4994375,0.4049999030855143,3.291038413496823e-17
-0.49940625,0.4049999030855143,4.960899529195227e-17
-0.499375,0.4049999030855143,7.331944443859321e-17
-0.49934375,0.4049999030855143,1.064337085726029e-16
-0.4993125,0.4049999030855143,1.519892401984003e-16
-0.49928125,0.4051589806679898,2.138013004348543e-16
-0.49925,0.405079441876752,2.966145763378999e-16
-0.49921875,0.4051589806679898,4.062758391607578e-16
-0.4991875,0.4049999030855143,5.499294704925611e-16
-0.49915625,0.405079441876752,7.362377526236944e-16
-0.499125,0.4051589806679898,9.75627888084527e-16
-0.49909375,0.4052385194592275,1.280567781093319e-15
-0.4990625,0.4049999030855143,1.665872680629769e-15
-0.49903125,0.405079441876752,2.149044851027283e-15
-0.499,0.405079441876752,2.750648501356035e-15
-0.49896875,0.4051589806679898,3.494722269455876e-15
-0.4989375,0.4049203642942766,4.409231620276828e-15
-0.49890625,0.4049999030855143,5.526563581198709e-15
-0.498875,0.4051589806679898,6.884066299235716e-15
-0.49884375,0.405079441876752,8.524635966494127e-15
-0.4988125,0.405079441876752,1.049735372094814e-14
-0.49878125,0.405079441876752,1.285817518953415e-14
-0.49875,0.4052385194592275,1.567067539973981e-14
-0.49871875,0.4051589806679898,1.900685184428337e-14
-0.4986875,0.4051589806679898,2.294798854113945e-14
-0.49865625,0.4051589806679898,2.758558398806934e-14
-0.498625,0.4053180582504652,3.302234596695802e-14
-0.49859375,0.4052385194592275,3.93732562086536e-14
-0.4985625,0.4052385194592275,4.676670798365507e-14
-0.49853125,0.4051589806679898,5.534571973790245e-14
-0.4985,0.4052385194592275,6.526922794609279e-14
-0.49846875,0.4053180582504652,7.671346240737987e-14
-0.4984375,0.4053975970417029,8.987340726002213e-14
-0.49840625,0.4053975970417029,1.049643510425211e-13
-0.498375,0.4052385194592275,1.222235291790463e-13
-0.49834375,0.4053975970417029,1.41911862316476e-13
-0.4983125,0.4054771358329406,1.643157939891987e-13
-0.49828125,0.4053975970417029,1.897492311359298e-13
-0.49825,0.4053975970417029,2.185555910401853e-13
-0.49821875,0.4053975970417029,2.511099583127353e-13
-0.4981875,0.4053975970417029,2.878213555803319e-13
-0.49815625,0.4054771358329406,3.291351315902739e-13
-0.498125,0.3896489163766331,3.755354704849587e-13
-0.49809375,0.3894898387941577,4.275480260444537e-13
-0.4980625,0.3895693775853954,4.857426847383227e-13
-0.49803125,0.3896489163766331,5.507364614704424e-13
-0.498,0.3895693775853954,6.231965319423583e-13
-0.49796875,0.3894898387941577,7.038434056018631e-13
-0.4979375,0.3896489163766331,7.934542431839421e-13
-0.49790625,0.3895693775853954,8.928663228910228e-13
-0.497875,0.3895693775853954,1.002980659298598e-12
-0.49784375,0.3896489163766331,1.124765779110758e-12
-0.4978125,0.3897284551678709,1.259261657927951e-12
-0.49778125,0.3896489163766331,1.407583822226447e-12
-0.49775,0.3897284551678709,1.570927620785434e-12
-0.49771875,0.3897284551678709,1.750572669833527e-12
-0.4976875,0.3898875327503463,1.947887476221652e-12
-0.49765625,0.3896489163766331,2.164334242963805e-12
-0.497625,0.3897284551678709,2.401473861521097e-12
-0.49759375,0.3898079939591086,2.660971095237755e-12
-0.4975625,0.3897284551678709,2.944599958370385e-12
-0.49753125,0.3898079939591086,3.254249295183783e-12
-0.4975,0.3898079939591086,3.591928563617958e-12
-0.49746875,0.3897284551678709,3.959773828061774e-12
-0.4974375,0.3897284551678709,4.360053965798688e-12
-0.49740625,0.3898079939591086,4.79517709171962e-12
-0.497375,0.3897284551678709,5.267697205926753e-12
-0.49734375,0.3898079939591086,5.780321068880432e-12
-0.4973125,0.3897284551678709,6.335915308768854e-12
-0.49728125,0.3898079939591086,6.937513765807393e-12
-0.49725,0.3898875327503463,7.588325078200743e-12
-0.49721875,0.3898875327503463,8.291740514527002e-12
-0.4971875,0.3898875327503463,9.051342057327951e-12
-0.49715625,0.3899670715415841,9.870910742714614e-12
-0.497125,0.3899670715415841,1.075443526082107e-11
-0.49709375,0.3902056879152972,1.170612082196311e-11
-0.4970625,0.3901261491240595,1.273039829338123e-11
-0.49703125,0.3900466103328218,1.383193361146975e-11
-0.497,0.3900466103328218,1.501563747441552e-11
-0.49696875,0.3901261491240595,1.628667532019115e-11
-0.4969375,0.3900466103328218,1.765047759486791e-11
-0.49690625,0.3901261491240595,1.911275031623356e-11
-0.496875,0.3901261491240595,2.067948593772018e-11
-0.49684375,0.3902056879152972,2.235697451766527e-11
-0.4968125,0.3900466103328218,2.415181519894826e-11
-0.49678125,0.3900466103328218,2.607092800406214e-11
-0.49675,0.3901261491240595,2.812156595069697e-11
-0.49671875,0.3899670715415841,3.031132749292895e-11
-0.4966875,0.3901261491240595,3.264816929312467e-11
-0.49665625,0.3900466103328218,3.514041932968592e-11
-0.496625,0.3901261491240595,3.77967903457753e-11
-0.49659375,0.3901261491240595,4.062639364417743e-11
-0.4965625,0.3900466103328218,4.363875323346475e-11
-0.49653125,0.3899670715415841,4.68438203306499e-11
-0.4965,0.3900466103328218,5.025198822552003e-11
-0.49646875,0.3902056879152972,5.387410751186044e-11
-0.4964375,0.3902056879152972,5.772150169078708e-11
-0.49640625,0.3901261491240595,6.180598315141848e-11
-0.496375,0.3902056879152972,6.613986953412889e-11
-0.49634375,0.3902852267065349,7.073600048163417e-11
-0.4963125,0.3902056879152972,7.560775478317288e-11
-0.49628125,0.3902852267065349,8.076906791705245e-11
-0.49625,0.3902056879152972,8.62344499968412e-11
-0.49621875,0.3902056879152972,9.201900412649387e-11
-0.4961875,0.3902056879152972,9.813844516970626e-11
-0.49615625,0.3903647654977727,1.04609118938803e-10
-0.496125,0.3903647654977727,1.114480218084674e-10
-0.49609375,0.3902852267065349,1.186728207596313e-10
-0.4960625,0.3904443042890104,1.263018738588453e-10
-0.49603125,0.3902852267065349,1.343542511784592e-10
-0.496,0.3902056879152972,1.42849756162943e-10
-0.49596875,0.3902852267065349,1.518089474466878e-10
-0.4959375,0.3901261491240595,1.612531611286258e-10
-0.49590625,0.3901261491240595,1.712045335090145e-10
-0.495875,0.3902056879152972,1.816860242937328e-10
-0.49584375,0.3901261491240595,1.927214402714387e-10
-0.4958125,0.3902056879152972,2.043354594689411e-10
-0.49578125,0.3902056879152972,2.165536557901399e-10
-0.49575,0.3902056879152972,2.294025241438876e-10
-0.49571875,0.3902056879152972,2.429095060661311e-10
-0.4956875,0.3902056879152972,2.571030158416873e-10
-0.49565625,0.3901261491240595,2.720124671310101e-10
-0.495625,0.3902056879152972,2.876683001073034e-10
-0.49559375,0.3902852267065349,3.041020091093343e-10
-0.4955625,0.3902852267065349,3.213461708153008e-10
-0.49553125,0.3902056879152972,3.394344729431032e-10
-0.4955,0.3902056879152972,3.584017434823697e-10
-0.49546875,0.3901261491240595,3.78283980463581e-10
-0.4954375,0.3902852267065349,3.991183822696375e-10
-0.49540625,0.3902056879152972,4.209433784952078e-10
-0.495375,0.3902852267065349,4.437986613591941e-10
-0.49534375,0.3901261491240595,4.677252176756454e-10
-0.4953125,0.3902056879152972,4.927653613884443e-10
-0.49528125,0.3901261491240595,5.189627666750878e-10
-0.49525,0.3902056879152972,5.463625016248785e-10
-0.49521875,0.3902852267065349,5.750110624968345e-10
-0.4951875,0.3901261491240595,6.04956408562619e-10
-0.49515625,0.3902056879152972,6.362479975397889e-10
-0.495125,0.3900466103328218,6.689368216206488e-10
-0.49509375,0.3901261491240595,7.030754441019907e-10
-0.4950625,0.3902056879152972,7.387180366209943e-10
-0.49503125,0.3900466103328218,7.759204170025507e-10
-0.495,0.3902056879152972,8.147400877232674e-10
-0.49496875,0.3902056879152972,8.552362749973981e-10
-0.4949375,0.3901261491240595,8.974699684899374e-10
-0.49490625,0.3899670715415841,9.415039616621061e-10
-0.494875,0.3900466103328218,9.874028927544436e-10
-0.49484375,0.3899670715415841,1.035233286412716e-09
-0.4948125,0.3900466103328218,1.08506359596183e-09
-0.49478125,0.3901261491240595,1.136964246332945e-09
-0.49475,0.3900466103328218,1.191007677648942e-09
-0.49471875,0.3900466103328218,1.247268389473428e-09
-0.4946875,0.3899670715415841,1.305822985728401e-09
-0.49465625,0.3901261491240595,1.366750220285734e-09
-0.494625,0.3900466103328218,1.430131043237574e-09
-0.49459375,0.3901261491240595,1.496048647850791e-09
-0.4945625,0.3901261491240595,1.564588518210544e-09
-0.49453125,0.3899670715415841,1.635838477558066e-09
-0.4945,0.3899670715415841,1.709888737327725e-09
-0.49446875,0.3900466103328218,1.786831946888395e-09
-0.4944375,0.3901261491240595,1.866763243994213e-09
-0.49440625,0.3899670715415841,1.949780305949688e-09
-0.494375,0.3899670715415841,2.035983401494214e-09
-0.49434375,0.3900466103328218,2.125475443410947e-09
-0.4943125,0.3898875327503463,2.218362041865014e-09
-0.49428125,0.3899670715415841,2.314751558476032e-09
-0.49425,0.3899670715415841,2.414755161129852e-09
-0.49421875,0.3899670715415841,2.518486879534447e-09
-0.4941875,0.3898079939591086,2.626063661524865e-09
-0.49415625,0.3898875327503463,2.7376054301221e-09
-0.494125,0.3898875327503463,2.853235141350785e-09
-0.49409375,0.3896489163766331,2.973078842820508e-09
-0.4940625,0.3896489163766331,3.097265733075612e-09
-0.49403125,0.3897284551678709,3.225928221718273e-09
-0.494,0.3895693775853954,3.359201990309644e-09
-0.49396875,0.3897284551678709,3.497226054053825e-09
-0.4939375,0.3898079939591086,3.640142824269434e-09
-0.49390625,0.3897284551678709,3.788098171653465e-09
-0.493875,0.3896489163766331,3.941241490342172e-09
-0.49384375,0.3895693775853954,4.099725762773652e-09
-0.4938125,0.3897284551678709,4.263707625356777e-09
-0.49378125,0.3896489163766331,4.433347434951151e-09
-0.49375,0.3895693775853954,4.608809336162668e-09
-0.49371875,0.3894898387941577,4.790261329459295e-09
-0.4936875,0.3897284551678709,4.977875340111665e-09
-0.49365625,0.3897284551678709,5.171827287962979e-09
-0.493625,0.3897284551678709,5.372297158032822e-09
-0.49359375,0.3896489163766331,5.579469071959321e-09
-0.4935625,0.3896489163766331,5.793531360284198e-09
-0.49353125,0.3895693775853954,6.014676635585094e-09
-0.4935,0.3894898387941577,6.243101866459692e-09
-0.49346875,0.3894898387941577,6.47900845236596e-09
-0.4934375,0.3894898387941577,6.722602299322952e-09
-0.49340625,0.3896489163766331,6.974093896476505e-09
-0.493375,0.3895693775853954,7.233698393534172e-09
-0.49334375,0.3895693775853954,7.501635679073695e-09
-0.4933125,0.3895693775853954,7.778130459729303e-09
-0.49328125,0.3894103000029199,8.063412340260088e-09
-0.49325,0.3893307612116823,8.35771590450469e-09
-0.49321875,0.3893307612116823,8.661280797226494e-09
-0.4931875,0.3894103000029199,8.974351806853527e-09
-0.49315625,0.3893307612116823,9.297178949117167e-09
-0.493125,0.3894103000029199,9.63001755159385e-09
-0.49309375,0.3894103000029199,9.973128339153806e-09
-0.4930625,0.3893307612116823,1.032677752032091e-08
-0.49303125,0.3894103000029199,1.069123687454773e-08
-0.493,0.3892512224204445,1.106678384040972e-08
-0.49296875,0.3892512224204445,1.145370160472259e-08
-0.4929375,0.3893307612116823,1.185227919258672e-08
-0.49290625,0.3891716836292068,1.226281155836273e-08
-0.492875,0.3891716836292068,1.268559967758183e-08
-0.49284375,0.3893307612116823,1.312095063979512e-08
-0.4928125,0.3890921448379691,1.35691777423654e-08
-0.49278125,0.3890126060467313,1.403060058520547e-08
-0.49275,0.3890126060467313,1.450554516646668e-08
-0.49271875,0.3889330672554936,1.499434397918138e-08
-0.4926875,0.3890126060467313,1.549733610886307e-08
-0.49265625,0.3890921448379691,1.601486733206801e-08
-0.492625,0.3890126060467313,1.65472902159217e-08
-0.49259375,0.3890126060467313,1.709496421861415e-08
-0.4925625,0.3890126060467313,1.765825579086729e-08
-0.49253125,0.3890921448379691,1.823753847837827e-08
-0.4925,0.3889330672554936,1.883319302524202e-08
-0.49246875,0.3889330672554936,1.944560747835675e-08
-0.4924375,0.3887739896730181,2.00751772928156e-08
-0.49240625,0.3888535284642559,2.07223054382882e-08
-0.492375,0.3886944508817804,2.138740250639526e-08
-0.49234375,0.3886149120905427,2.207088681907969e-08
-0.4923125,0.3886944508817804,2.277318453797765e-08
-0.49228125,0.3887739896730181,2.349472977479258e-08
-0.49225,0.3886944508817804,2.423596470267589e-08
-0.49221875,0.3886944508817804,2.499733966861711e-08
-0.4921875,0.3887739896730181,2.577931330684704e-08
-0.49215625,0.3886944508817804,2.65823526532569e-08
-0.492125,0.3887739896730181,2.740693326083665e-08
-0.49209375,0.3886149120905427,2.825353931613564e-08
-0.4920625,0.388535373299305,2.912266375674853e-08
-0.49203125,0.388535373299305,3.001480838982977e-08
-0.492,0.3886149120905427,3.093048401163927e-08
-0.49196875,0.388535373299305,3.187021052812257e-08
-0.4919375,0.388535373299305,3.283451707652827e-08
-0.49190625,0.3886944508817804,3.382394214806569e-08
-0.491875,0.388535373299305,3.483903371160547e-08
-0.49184375,0.388535373299305,3.588034933842623e-08
-0.4918125,0.388535373299305,3.694845632800977e-08
-0.49178125,0.388535373299305,3.804393183488773e-08
-0.49175,0.3886944508817804,3.916736299654249e-08
-0.49171875,0.3886944508817804,4.03193470623648e-08
-0.4916875,0.3887739896730181,4.150049152367097e-08
-0.49165625,0.3886944508817804,4.271141424478218e-08
-0.491625,0.3886944508817804,4.395274359516843e-08
-0.49159375,0.3886944508817804,4.522511858265966e-08
-0.4915625,0.3886944508817804,4.652918898772687e-08
-0.49153125,0.3886149120905427,4.7865615498835e-08
-0.4915,0.3886944508817804,4.923506984887094e-08
-0.49146875,0.3886944508817804,5.063823495264811e-08
-0.4914375,0.3886944508817804,5.207580504549079e-08
-0.49140625,0.3886149120905427,5.354848582289992e-08
-0.491375,0.3888535284642559,5.505699458130299e-08
-0.49134375,0.3887739896730181,5.660206035989021e-08
-0.4913125,0.3888535284642559,5.818442408353898e-08
-0.49128125,0.3888535284642559,5.980483870682915e-08
-0.49125,0.3887739896730181,6.146406935915094e-08
-0.49121875,0.3888535284642559,6.316289349090774e-08
-0.4911875,0.3887739896730181,6.490210102081572e-08
-0.49115625,0.3888535284642559,6.66824944843026e-08
-0.491125,0.3889330672554936,6.85048891830071e-08
-0.49109375,0.3889330672554936,7.037011333538133e-08
-0.4910625,0.3888535284642559,7.227900822839793e-08
-0.49103125,0.3888535284642559,7.423242837036398e-08
-0.491,0.3887739896730181,7.623124164484308e-08
-0.49096875,0.3887739896730181,7.827632946568794e-08
-0.4909375,0.3888535284642559,8.03685869331849e-08
-0.49090625,0.3888535284642559,8.250892299131196e-08
-0.490875,0.3888535284642559,8.469826058611257e-08
-0.49084375,0.3889330672554936,8.69375368251862e-08
-0.4908125,0.3889330672554936,8.922770313829742e-08
-0.49078125,0.3888535284642559,9.156972543910544e-08
-0.49075,0.3888535284642559,9.396458428801531e-08
-0.49071875,0.3889330672554936,9.641327505615186e-08
-0.4906875,0.3888535284642559,9.891680809045886e-08
-0.49065625,0.3888535284642559,1.014762088799237e-07
-0.490625,0.3890126060467313,1.040925182229298e-07
-0.49059375,0.3890126060467313,1.067667923957375e-07
-0.4905625,0.3888535284642559,1.095001033220946e-07
-0.49053125,0.3888535284642559,1.12293538743979e-07
-0.4905,0.3890126060467313,1.151482023934728e-07
-0.49046875,0.3889330672554936,1.180652141657706e-07
-0.4904375,0.3888535284642559,1.21045710293322e-07
-0.49040625,0.3890126060467313,1.240908435211102e-07
-0.490375,0.3890126060467313,1.272017832830673e-07
-0.49034375,0.3890126060467313,1.303797158796275e-07
-0.4903125,0.3889330672554936,1.336258446564189e-07
-0.49028125,0.3890126060467313,1.369413901840949e-07
-0.49025,0.3890921448379691,1.403275904393063e-07
-0.49021875,0.3891716836292068,1.437857009868152e-07
-0.4901875,0.3889330672554936,1.4731699516275e-07
-0.49015625,0.3890921448379691,1.509227642590047e-07
-0.490125,0.3891716836292068,1.546043177087807e-07
-0.49009375,0.3892512224204445,1.583629832732736e-07
-0.4900625,0.3891716836292068,1.622001072295049e-07
-0.49003125,0.3890921448379691,1.661170545592986e-07
-0.49,0.3891716836292068,1.701152091394055e-07
-0.48996875,0.3893307612116823,1.741959739327718e-07
-0.4899375,0.3892512224204445,1.783607711809571e-07
-0.48990625,0.3893307612116823,1.826110425976986e-07
-0.489875,0.3893307612116823,1.869482495636231e-07
-0.48984375,0.3893307612116823,1.913738733221083e-07
-0.4898125,0.3891716836292068,1.958894151762917e-07
-0.48978125,0.3892512224204445,2.004963966872285e-07
-0.48975,0.3893307612116823,2.051963598731992e-07
-0.48971875,0.3893307612116823,2.099908674101652e-07
-0.4896875,0.3891716836292068,2.148815028333753e-07
-0.48965625,0.3891716836292068,2.198698707401205e-07
-0.489625,0.3894103000029199,2.249575969936386e-07
-0.48959375,0.3891716836292068,2.301463289281685e-07
-0.4895625,0.3893307612116823,2.354377355551541e-07
-0.48953125,0.3894103000029199,2.408335077705975e-07
-0.4895,0.3892512224204445,2.463353585635615e-07
-0.48946875,0.3894898387941577,2.519450232258212e-07
-0.4894375,0.3894898387941577,2.576642595626651e-07
-0.48940625,0.3894103000029199,2.634948481048441e-07
-0.489375,0.3892512224204445,2.694385923216699e-07
-0.48934375,0.3894103000029199,2.754973188352615e-07
-0.4893125,0.3894103000029199,2.816728776359382e-07
-0.48928125,0.3894898387941577,2.879671422987621e-07
-0.48925,0.3894103000029199,2.943820102012258e-07
-0.48921875,0.3893307612116823,3.009194027420875e-07
-0.4891875,0.3894898387941577,3.075812655613521e-07
-0.48915625,0.3895693775853954,3.143695687613967e-07
-0.489125,0.3894103000029199,3.212863071292428e-07
-0.48909375,0.3893307612116823,3.283335003599706e-07
-0.4890625,0.3894103000029199,3.35513193281278e-07
-0.48903125,0.3895693775853954,3.428274560791821e-07
-0.489,0.3894103000029199,3.50278384524862e-07
-0.48896875,0.3894898387941577,3.57868100202644e-07
-0.4889375,0.3894103000029199,3.655987507391256e-07
-0.48890625,0.3894898387941577,3.734725100334402e-07
-0.488875,0.3894898387941577,3.814915784886594e-07
-0.48884375,0.3894103000029199,3.896581832443326e-07
-0.4888125,0.3894898387941577,3.979745784101638e-07
-0.48878125,0.3895693775853954,4.064430453008236e-07
-0.48875,0.3894898387941577,4.150658926718943e-07
-0.48871875,0.3896489163766331,4.2384545695695e-07
-0.4886875,0.3895693775853954,4.327841025057666e-07
-0.48865625,0.3894898387941577,4.418842218236644e-07
-0.488625,0.3896489163766331,4.511482358119781e-07
-0.48859375,0.3895693775853954,4.605785940096572e-07
-0.4885625,0.3894898387941577,4.701777748359905e-07
-0.48853125,0.3895693775853954,4.799482858344581e-07
-0.4885,0.3897284551678709,4.898926639177062e-07
-0.48846875,0.3897284551678709,5.000134756136445e-07
-0.4884375,0.3898079939591086,5.103133173126641e-07
-0.48840625,0.3897284551678709,5.207948155159764e-07
