Task5_40Hz_200mV_45.csv

#Digilent WaveForms Oscilloscope Acquisition
#Device Name: Discovery3
#Serial Number: SN:210415BD63A1
#Date Time: 2026-09-24 11:23:02.504.792.330
#Sample rate: 32000Hz
#Samples: 32000
#Trigger: Source: Channel 1 Type: Edge Condition: Rising Level: 0 V Hyst.: Auto HoldOff: 0 s
#Channel 1: Range: 500 mV/div Offset: 0 V Sample Mode: Average
#Math 1: Input: C1 Reference: Internal Frequency: 40 Hz Phase: 90 ° Filter: IIR Butterworth 8  Low-Pass CutOff: 5 Hz Output: Amplitude

#Wavegen Channel 1: Running
#Mode: Simple
#Type: Sine
#Frequency: 40 Hz
#Period: 25 ms
#Amplitude: 200 mV
#Offset: 0 V
#Symmetry: 50 %
#Phase: 0 °

Time (s),Channel 1 (V),Math 1 (V)
-0.5,0.4220212044103877,1.416653712604753e-27
-0.49996875,0.4221007432016254,2.407594300444996e-26
-0.4999375,0.4220212044103877,2.052857084857003e-25
-0.49990625,0.4220212044103877,1.178903474106544e-24
-0.499875,0.4221007432016254,5.162224689238158e-24
-0.49984375,0.42194166561915,1.848658774228841e-23
-0.4998125,0.4221007432016254,5.66537560213966e-23
-0.49978125,0.4220212044103877,1.533558623694058e-22
-0.49975,0.42194166561915,3.752520176026235e-22
-0.49971875,0.4218621268279123,8.446481640734594e-22
-0.4996875,0.4218621268279123,1.772578379515183e-21
-0.49965625,0.4218621268279123,3.505135588743943e-21
-0.499625,0.42194166561915,6.586247521271495e-21
-0.49959375,0.4217825880366746,1.18404397664114e-20
-0.4995625,0.4217030492454368,2.047947190974525e-20
-0.49953125,0.4217825880366746,3.423707495616483e-20
-0.4995,0.4217825880366746,5.553635853812345e-20
-0.49946875,0.4216235104541991,8.769479478058764e-20
-0.4994375,0.4217825880366746,1.351720221634366e-19
-0.49940625,0.4217825880366746,2.038660473003253e-19
-0.499375,0.4217030492454368,3.014637552451573e-19
-0.49934375,0.4217030492454368,4.37851969736195e-19
-0.4993125,0.4217825880366746,6.255956336752707e-19
-0.49928125,0.4217825880366746,8.804900070995638e-19
-0.49925,0.4217825880366746,1.22219410493073e-18
-0.49921875,0.4216235104541991,1.674952919879868e-18
-0.4991875,0.4215439716629614,2.268416297045148e-18
-0.49915625,0.4215439716629614,3.038562645961847e-18
-0.499125,0.4215439716629614,4.028735993151876e-18
-0.49909375,0.4214644328717236,5.290805193568256e-18
-0.4990625,0.4214644328717236,6.886454432733549e-18
-0.49903125,0.4214644328717236,8.888614462821001e-18
-0.499,0.4214644328717236,1.138304432541215e-17
-0.49896875,0.4213848940804859,1.447007362118157e-17
-0.4989375,0.4213848940804859,1.826651569231977e-17
-0.49890625,0.4213848940804859,2.290776238712289e-17
-0.498875,0.4213053552892482,2.855007137785767e-17
-0.49884375,0.4213053552892482,3.537305730274317e-17
-0.4988125,0.4213053552892482,4.35823983006641e-17
-0.49878125,0.4212258164980105,5.341276980302175e-17
-0.49875,0.4212258164980105,6.513101774091781e-17
-0.49871875,0.4213053552892482,7.903958361764604e-17
-0.4986875,0.4213053552892482,9.548019418624634e-17
-0.49865625,0.4213848940804859,1.148378287596671e-16
-0.498625,0.4212258164980105,1.375449774668835e-16
-0.49859375,0.4213053552892482,1.640862040521209e-16
-0.4985625,0.4213053552892482,1.950030270961074e-16
-0.49853125,0.4212258164980105,2.308991338180212e-16
-0.4985,0.4213053552892482,2.724459408945032e-16
-0.49846875,0.4213053552892482,3.203885170077862e-16
-0.4984375,0.4211462777067728,3.75551882108662e-16
-0.49840625,0.4211462777067728,4.388476986516627e-16
-0.498375,0.4213848940804859,5.112813703294608e-16
-0.49834375,0.4213053552892482,5.939595641010977e-16
-0.4983125,0.4213848940804859,6.880981715742131e-16
-0.49828125,0.4099313081422533,7.950307260649808e-16
-0.49825,0.410010846933491,9.162172919209235e-16
-0.49821875,0.4099313081422533,1.053253842951213e-15
-0.4981875,0.4099313081422533,1.207882147066412e-15
-0.49815625,0.4098517693510156,1.382000174484928e-15
-0.498125,0.4098517693510156,1.5776730471167e-15
-0.49809375,0.4099313081422533,1.797144546985791e-15
-0.4980625,0.410010846933491,2.042849201802737e-15
-0.49803125,0.410010846933491,2.317424966044489e-15
-0.498,0.410010846933491,2.62372651614489e-15
-0.49796875,0.410010846933491,2.964839178641553e-15
-0.4979375,0.4099313081422533,3.344093510366028e-15
-0.49790625,0.4098517693510156,3.765080550003085e-15
-0.497875,0.410010846933491,4.231667760581834e-15
-0.49784375,0.4099313081422533,4.748015682696197e-15
-0.4978125,0.4099313081422533,5.318595318485046e-15
-0.49778125,0.4099313081422533,5.948206266632861e-15
-0.49775,0.4098517693510156,6.641995628880342e-15
-0.49771875,0.4099313081422533,7.405477708760853e-15
-0.4976875,0.4099313081422533,8.244554523502885e-15
-0.49765625,0.4098517693510156,9.165537150261024e-15
-0.497625,0.4099313081422533,1.017516792805803e-14
-0.49759375,0.4099313081422533,1.128064353703878e-14
-0.4975625,0.410010846933491,1.248963897685286e-14
-0.49753125,0.410010846933491,1.381033246619648e-14
-0.4975,0.4099313081422533,1.525143128575635e-14
-0.49746875,0.4098517693510156,1.682219858700807e-14
-0.4974375,0.410010846933491,1.853248118952895e-14
-0.49740625,0.4100903857247288,2.039273838969138e-14
-0.497375,0.4100903857247288,2.241407180380576e-14
-0.49734375,0.410010846933491,2.460825626898385e-14
-0.4973125,0.410010846933491,2.698777182519225e-14
-0.49728125,0.4099313081422533,2.956583680216307e-14
-0.49725,0.4101699245159665,3.235644203502394e-14
-0.49721875,0.4100903857247288,3.537438623270222e-14
-0.4971875,0.410010846933491,3.863531252334952e-14
-0.49715625,0.4100903857247288,4.215574620122123e-14
-0.497125,0.4101699245159665,4.595313369963242e-14
-0.49709375,0.4100903857247288,5.00458828147961e-14
-0.4970625,0.410010846933491,5.445340420553217e-14
-0.49703125,0.4100903857247288,5.919615419401589e-14
-0.497,0.410010846933491,6.429567889291248e-14
-0.49696875,0.4100903857247288,6.977465968442123e-14
-0.4969375,0.4100903857247288,7.565696007692575e-14
-0.49690625,0.4100903857247288,8.196767396511959e-14
-0.496875,0.4100903857247288,8.873317531964574e-14
-0.49684375,0.4101699245159665,9.598116933245645e-14
-0.4968125,0.4100903857247288,1.037407450442652e-13
-0.49678125,0.4100903857247288,1.120424294806265e-13
-0.49675,0.4102494633072042,1.209182433233395e-13
-0.49671875,0.4101699245159665,1.304017581440327e-13
-0.4966875,0.4100903857247288,1.405281552269412e-13
-0.49665625,0.4102494633072042,1.513342860080461e-13
-0.496625,0.4102494633072042,1.628587341578958e-13
-0.49659375,0.4104085408896797,1.751418793355822e-13
-0.4965625,0.4101699245159665,1.88225962641491e-13
-0.49653125,0.4101699245159665,2.021551537965946e-13
-0.4965,0.4100903857247288,2.169756200761981e-13
-0.49646875,0.4101699245159665,2.327355970261923e-13
-0.4964375,0.410329002098442,2.494854609900091e-13
-0.49640625,0.4104085408896797,2.672778034746102e-13
-0.496375,0.410329002098442,2.861675073839768e-13
-0.49634375,0.4104085408896797,3.062118251487059e-13
-0.4963125,0.410329002098442,3.274704587804422e-13
-0.49628125,0.4104880796809174,3.500056418800142e-13
-0.49625,0.4104880796809174,3.738822236282633e-13
-0.49621875,0.4104085408896797,3.991677547886818e-13
-0.4961875,0.4104085408896797,4.259325757511042e-13
-0.49615625,0.4104880796809174,4.542499066458086e-13
-0.496125,0.4104085408896797,4.841959395575117e-13
-0.49609375,0.410329002098442,5.158499328688551e-13
-0.4960625,0.410329002098442,5.492943077630947e-13
-0.49603125,0.4104085408896797,5.846147469158187e-13
-0.496,0.4104085408896797,6.219002954056325e-13
-0.49596875,0.4104085408896797,6.612434638738537e-13
-0.4959375,0.4104880796809174,7.027403339633687e-13
-0.49590625,0.4104085408896797,7.464906660669098e-13
-0.495875,0.410329002098442,7.925980094151075e-13
-0.49584375,0.4104085408896797,8.411698145347802e-13
-0.4958125,0.4104880796809174,8.92317548108016e-13
-0.49578125,0.410329002098442,9.461568102627001e-13
-0.49575,0.4104880796809174,1.002807454325237e-12
-0.49571875,0.4104880796809174,1.062393709066304e-12
-0.4956875,0.4105676184721552,1.125044303470563e-12
-0.49565625,0.4104880796809174,1.190892594061357e-12
-0.495625,0.4104880796809174,1.260076694811477e-12
-0.49559375,0.4106471572633928,1.332739609671203e-12
-0.4955625,0.4106471572633928,1.409029367744875e-12
-0.49553125,0.4105676184721552,1.489099161147342e-12
-0.4955,0.4105676184721552,1.573107485571722e-12
-0.49546875,0.4105676184721552,1.661218283599959e-12
-0.4954375,0.4107266960546306,1.753601090787763e-12
-0.49540625,0.4107266960546306,1.850431184555566e-12
-0.495375,0.4107266960546306,1.951889735917217e-12
-0.49534375,0.4106471572633928,2.058163964078186e-12
-0.4953125,0.4107266960546306,2.169447293935128e-12
-0.49528125,0.4105676184721552,2.285939516508718e-12
-0.49525,0.4108062348458683,2.407846952341713e-12
-0.49521875,0.4107266960546306,2.535382617894285e-12
-0.4951875,0.4107266960546306,2.668766394968695e-12
-0.49515625,0.4105676184721552,2.80822520319545e-12
-0.495125,0.4106471572633928,2.95399317561315e-12
-0.49509375,0.4107266960546306,3.10631183737424e-12
-0.4950625,0.4108062348458683,3.265430287608975e-12
-0.49503125,0.410885773637106,3.431605384479936e-12
-0.495,0.4108062348458683,3.605101933459471e-12
-0.49496875,0.410885773637106,3.786192878862492e-12
-0.4949375,0.410885773637106,3.975159498667075e-12
-0.49490625,0.4109653124283438,4.172291602655406e-12
-0.494875,0.4108062348458683,4.377887733907555e-12
-0.49484375,0.4108062348458683,4.592255373680708e-12
-0.4948125,0.4108062348458683,4.81571114970642e-12
-0.49478125,0.410885773637106,5.048581047938549e-12
-0.49475,0.4109653124283438,5.29120062778453e-12
-0.49471875,0.4108062348458683,5.543915240852673e-12
-0.4946875,0.4108062348458683,5.807080253248213e-12
-0.49465625,0.410885773637106,6.081061271450834e-12
-0.494625,0.4109653124283438,6.366234371806435e-12
-0.49459375,0.4110448512195815,6.662986333665907e-12
-0.4945625,0.4111243900108192,6.97171487620373e-12
-0.49453125,0.4111243900108192,7.292828898949165e-12
-0.4945,0.4110448512195815,7.626748726062901e-12
-0.49446875,0.4111243900108192,7.973906354391932e-12
-0.4944375,0.410885773637106,8.334745705335573e-12
-0.49440625,0.4111243900108192,8.709722880555401e-12
-0.494375,0.4110448512195815,9.09930642156197e-12
-0.49434375,0.4109653124283438,9.50397757321121e-12
-0.4943125,0.4110448512195815,9.924230551143298e-12
-0.49428125,0.4110448512195815,1.036057281319689e-11
-0.49425,0.4109653124283438,1.081352533483152e-11
-0.49421875,0.4111243900108192,1.128362288859109e-11
-0.4941875,0.4110448512195815,1.177141432764116e-11
-0.49415625,0.4110448512195815,1.227746287341299e-11
-0.494125,0.4111243900108192,1.280234640738713e-11
-0.49409375,0.4111243900108192,1.334665776704919e-11
-0.4940625,0.4110448512195815,1.391100504605085e-11
-0.49403125,0.4110448512195815,1.449601189860867e-11
-0.494,0.4110448512195815,1.510231784817358e-11
-0.49396875,0.4110448512195815,1.573057860040362e-11
-0.4939375,0.411203928802057,1.638146636047287e-11
-0.49390625,0.4112834675932947,1.705567015474904e-11
-0.493875,0.411203928802057,1.775389615687247e-11
-0.49384375,0.411203928802057,1.847686801826924e-11
-0.4938125,0.411203928802057,1.922532720313081e-11
-0.49378125,0.411203928802057,2.000003332789289e-11
-0.49375,0.4112834675932947,2.080176450524616e-11
-0.49371875,0.4112834675932947,2.163131769271099e-11
-0.4936875,0.411203928802057,2.24895090458091e-11
-0.49365625,0.411203928802057,2.337717427586415e-11
-0.493625,0.4112834675932947,2.429516901246393e-11
-0.49359375,0.411203928802057,2.524436917061635e-11
-0.4935625,0.411203928802057,2.622567132263148e-11
-0.49353125,0.4112834675932947,2.723999307476213e-11
-0.4935,0.4112834675932947,2.82882734486348e-11
-0.49346875,0.4111243900108192,2.93714732675035e-11
-0.4934375,0.4111243900108192,3.049057554735822e-11
-0.49340625,0.411203928802057,3.164658589292041e-11
-0.493375,0.411203928802057,3.284053289855711e-11
-0.49334375,0.4112834675932947,3.407346855414605e-11
-0.4933125,0.4112834675932947,3.534646865592317e-11
-0.49328125,0.4112834675932947,3.666063322234462e-11
-0.49325,0.411203928802057,3.801708691499505e-11
-0.49321875,0.411203928802057,3.941697946457358e-11
-0.4931875,0.411203928802057,4.086148610198936e-11
-0.49315625,0.4113630063845324,4.235180799459806e-11
-0.493125,0.4113630063845324,4.388917268761088e-11
-0.49309375,0.4114425451757701,4.547483455070737e-11
-0.4930625,0.4114425451757701,4.711007522988361e-11
-0.49303125,0.4113630063845324,4.879620410456662e-11
-0.493,0.4113630063845324,5.05345587500267e-11
-0.49296875,0.4113630063845324,5.23265054051182e-11
-0.4929375,0.4112834675932947,5.417343944538019e-11
-0.49290625,0.4112834675932947,5.607678586152796e-11
-0.492875,0.4113630063845324,5.803799974336573e-11
-0.49284375,0.4113630063845324,6.005856676915194e-11
-0.4928125,0.411203928802057,6.214000370044738e-11
-0.49278125,0.4112834675932947,6.428385888247702e-11
-0.49275,0.4112834675932947,6.649171275003568e-11
-0.49271875,0.4113630063845324,6.876517833896846e-11
-0.4926875,0.4112834675932947,7.110590180325569e-11
-0.49265625,0.411203928802057,7.35155629377331e-11
-0.492625,0.411203928802057,7.599587570647698e-11
-0.49259375,0.4112834675932947,7.854858877688465e-11
-0.4925625,0.411203928802057,8.117548605947965e-11
-0.49253125,0.4112834675932947,8.387838725347231e-11
-0.4925,0.4113630063845324,8.665914839810454e-11
-0.49246875,0.4112834675932947,8.95196624298089e-11
-0.4924375,0.4112834675932947,9.246185974521157e-11
-0.49240625,0.411203928802057,9.548770877000816e-11
-0.492375,0.411203928802057,9.859921653374216e-11
-0.49234375,0.4112834675932947,1.017984292505147e-10
-0.4923125,0.4112834675932947,1.050874329056554e-10
-0.49228125,0.411203928802057,1.084683538483819e-10
-0.49225,0.411203928802057,1.119433593904788e-10
-0.49221875,0.4111243900108192,1.155146584110233e-10
-0.4921875,0.4111243900108192,1.191845019671859e-10
-0.49215625,0.4111243900108192,1.229551839111368e-10
-0.492125,0.4110448512195815,1.268290415130827e-10
-0.49209375,0.4111243900108192,1.308084560904665e-10
-0.4920625,0.411203928802057,1.348958536433544e-10
-0.49203125,0.4110448512195815,1.390937054960402e-10
-0.492,0.4112834675932947,1.434045289448943e-10
-0.49196875,0.411203928802057,1.478308879124852e-10
-0.4919375,0.411203928802057,1.523753936080005e-10
-0.49190625,0.4112834675932947,1.570407051939957e-10
-0.491875,0.4113630063845324,1.618295304594974e-10
-0.49184375,0.4113630063845324,1.667446264994888e-10
-0.4918125,0.4111243900108192,1.717888004008033e-10
-0.49178125,0.4112834675932947,1.769649099344549e-10
-0.49175,0.411203928802057,1.822758642544304e-10
-0.49171875,0.411203928802057,1.877246246029712e-10
-0.4916875,0.411203928802057,1.933142050223707e-10
-0.49165625,0.411203928802057,1.990476730733132e-10
-0.491625,0.4111243900108192,2.049281505597819e-10
-0.49159375,0.4110448512195815,2.109588142605605e-10
-0.4915625,0.411203928802057,2.171428966673547e-10
-0.49153125,0.4112834675932947,2.234836867295603e-10
-0.4915,0.4111243900108192,2.299845306057017e-10
-0.49146875,0.411203928802057,2.366488324215685e-10
-0.4914375,0.411203928802057,2.43480055035073e-10
-0.49140625,0.4112834675932947,2.504817208078561e-10
-0.491375,0.411203928802057,2.576574123836643e-10
-0.49134375,0.4112834675932947,2.650107734735245e-10
-0.4913125,0.4112834675932947,2.725455096477404e-10
-0.49128125,0.411203928802057,2.802653891347354e-10
-0.49125,0.4111243900108192,2.881742436267647e-10
-0.49121875,0.4111243900108192,2.962759690925235e-10
-0.4911875,0.4111243900108192,3.045745265966736e-10
-0.49115625,0.4110448512195815,3.130739431263116e-10
-0.491125,0.4111243900108192,3.217783124244044e-10
-0.49109375,0.4111243900108192,3.30691795830214e-10
-0.4910625,0.4110448512195815,3.398186231267348e-10
-0.49103125,0.411203928802057,3.491630933951677e-10
-0.491,0.4111243900108192,3.587295758764531e-10
-0.49096875,0.4111243900108192,3.68522510839886e-10
-0.4909375,0.4111243900108192,3.785464104588352e-10
-0.49090625,0.411203928802057,3.888058596935904e-10
-0.490875,0.4111243900108192,3.99305517181358e-10
-0.49084375,0.411203928802057,4.100501161334284e-10
-0.4908125,0.4109653124283438,4.210444652395369e-10
-0.49078125,0.4110448512195815,4.322934495794397e-10
-0.49075,0.4111243900108192,4.438020315417264e-10
-0.49071875,0.4110448512195815,4.555752517498908e-10
-0.4906875,0.4111243900108192,4.676182299956812e-10
-0.49065625,0.4111243900108192,4.799361661797501e-10
-0.490625,0.4110448512195815,4.925343412596259e-10
-0.49059375,0.4109653124283438,5.054181182050262e-10
-0.4905625,0.411203928802057,5.18592942960533e-10
-0.49053125,0.4111243900108192,5.320643454156505e-10
-0.4905,0.4111243900108192,5.458379403822659e-10
-0.49046875,0.4110448512195815,5.59919428579532e-10
-0.4904375,0.411203928802057,5.743145976261921e-10
-0.49040625,0.4111243900108192,5.890293230403667e-10
-0.490375,0.4110448512195815,6.040695692468216e-10
-0.49034375,0.4110448512195815,6.194413905917339e-10
-0.4903125,0.4109653124283438,6.351509323649801e-10
-0.49028125,0.4109653124283438,6.512044318299601e-10
-0.49025,0.4109653124283438,6.676082192609764e-10
-0.49021875,0.4110448512195815,6.8436871898819e-10
-0.4901875,0.4109653124283438,7.014924504501677e-10
-0.49015625,0.410885773637106,7.189860292540392e-10
-0.490125,0.4108062348458683,7.368561682432838e-10
-0.49009375,0.4109653124283438,7.551096785731629e-10
-0.4900625,0.4107266960546306,7.73753470793813e-10
-0.49003125,0.4107266960546306,7.927945559410225e-10
-0.49,0.4107266960546306,8.122400466347026e-10
-0.48996875,0.4107266960546306,8.320971581850733e-10
-0.4899375,0.4108062348458683,8.523732097065791e-10
-0.48990625,0.4108062348458683,8.730756252395512e-10
-0.489875,0.4107266960546306,8.942119348796322e-10
-0.48984375,0.4106471572633928,9.157897759149791e-10
-0.4898125,0.4107266960546306,9.378168939712604e-10
-0.48978125,0.4108062348458683,9.603011441644615e-10
-0.48975,0.4108062348458683,9.832504922615176e-10
-0.48971875,0.4107266960546306,1.006673015848781e-09
-0.4896875,0.4106471572633928,1.03057690550835e-09
-0.48965625,0.4106471572633928,1.054970466002258e-09
-0.489625,0.4106471572633928,1.079862117464554e-09
-0.48959375,0.4104880796809174,1.105260396601276e-09
-0.4895625,0.4104880796809174,1.131173957898334e-09
-0.48953125,0.4104880796809174,1.157611574837325e-09
-0.4895,0.4106471572633928,1.184582141119278e-09
-0.48946875,0.4105676184721552,1.212094671896357e-09
-0.4894375,0.410329002098442,1.240158305011526e-09
-0.48940625,0.4104880796809174,1.268782302246192e-09
-0.489375,0.4104880796809174,1.297976050575835e-09
-0.48934375,0.4104085408896797,1.327749063433647e-09
-0.4893125,0.4102494633072042,1.358110981982183e-09
-0.48928125,0.4104085408896797,1.389071576393033e-09
-0.48925,0.410329002098442,1.420640747134538e-09
-0.48921875,0.4102494633072042,1.452828526267558e-09
-0.4891875,0.4102494633072042,1.485645078749292e-09
-0.48915625,0.4101699245159665,1.51910070374518e-09
-0.489125,0.4101699245159665,1.553205835948879e-09
-0.48909375,0.4101699245159665,1.587971046910336e-09
-0.4890625,0.410329002098442,1.623407046371967e-09
-0.48903125,0.410329002098442,1.659524683612945e-09
-0.489,0.4100903857247288,1.696334948801613e-09
-0.48896875,0.4100903857247288,1.733848974356032e-09
-0.4889375,0.4101699245159665,1.772078036312669e-09
-0.48890625,0.4101699245159665,1.811033555703238e-09
-0.488875,0.4102494633072042,1.8507270999397e-09
-0.48884375,0.4102494633072042,1.891170384207435e-09
-0.4888125,0.410010846933491,1.93237527286659e-09
-0.48878125,0.4099313081422533,1.974353780861608e-09
-0.48875,0.4098517693510156,2.017118075138965e-09
-0.48871875,0.4099313081422533,2.060680476073093e-09
-0.4886875,0.4098517693510156,2.105053458900517e-09
-0.48865625,0.4099313081422533,2.150249655162217e-09
-0.488625,0.4100903857247288,2.1962818541542e-09
-0.48859375,0.410010846933491,2.243163004386316e-09
-0.4885625,0.4099313081422533,2.290906215049293e-09
-0.48853125,0.410010846933491,2.339524757490039e-09
-0.4885,0.4099313081422533,2.389032066695168e-09
-0.48846875,0.4099313081422533,2.439441742782802e-09
-0.4884375,0.4098517693510156,2.490767552502623e-09
-0.48840625,0.4098517693510156,2.543023430744191e-09
-0.488375,0.4100903857247288,2.596223482053536e-09
-0.48834375,0.410010846933491,2.650381982158028e-09
