Task5_40Hz_200mV_45-10.csv

#Digilent WaveForms Oscilloscope Acquisition
#Device Name: Discovery3
#Serial Number: SN:210415BD63A1
#Date Time: 2026-09-24 11:23:22.260.249.600
#Sample rate: 32000Hz
#Samples: 32000
#Trigger: Source: Channel 1 Type: Edge Condition: Rising Level: 0 V Hyst.: Auto HoldOff: 0 s
#Channel 1: Range: 500 mV/div Offset: 0 V Sample Mode: Average
#Math 1: Input: C1 Reference: Internal Frequency: 40 Hz Phase: 90 ° Filter: IIR Butterworth 8  Low-Pass CutOff: 5 Hz Output: Amplitude

#Wavegen Channel 1: Running
#Mode: Simple
#Type: Sine
#Frequency: 40 Hz
#Period: 25 ms
#Amplitude: 200 mV
#Offset: 0 V
#Symmetry: 50 %
#Phase: 0 °

Time (s),Channel 1 (V),Math 1 (V)
-0.5,0.50275307751668,1.686780146349978e-27
-0.49996875,0.50275307751668,2.866645774251646e-26
-0.4999375,0.5026735387254422,2.444251507508319e-25
-0.49990625,0.50275307751668,1.40366139866777e-24
-0.499875,0.50275307751668,6.146365345501514e-24
-0.49984375,0.5028326163079176,2.201080464160071e-23
-0.4998125,0.5029121550991553,6.745370233079434e-23
-0.49978125,0.50275307751668,1.825893743946594e-22
-0.49975,0.50275307751668,4.467825516893932e-22
-0.49971875,0.50275307751668,1.005650347250178e-21
-0.4996875,0.50275307751668,2.110447344669987e-21
-0.49965625,0.50275307751668,4.17322406461554e-21
-0.499625,0.5028326163079176,7.841563092586721e-21
-0.49959375,0.5029121550991553,1.409710890315793e-20
-0.4995625,0.5028326163079176,2.438251689195856e-20
-0.49953125,0.5028326163079176,4.076185433906831e-20
-0.4995,0.5029121550991553,6.61198909861413e-20
-0.49946875,0.5028326163079176,1.04406119610359e-19
-0.4994375,0.50275307751668,1.609297474137304e-19
-0.49940625,0.5028326163079176,2.427122972189612e-19
-0.499375,0.50275307751668,3.589048533818932e-19
-0.49934375,0.50275307751668,5.212773809967057e-19
-0.4993125,0.5028326163079176,7.447879383707015e-19
-0.49928125,0.5028326163079176,1.048239991857595e-18
-0.49925,0.5029121550991553,1.455036428942152e-18
-0.49921875,0.5029121550991553,1.99403924996274e-18
-0.4991875,0.5030712326816308,2.700544301058334e-18
-0.49915625,0.5029916938903931,3.617380790849036e-18
-0.499125,0.4973444397125145,4.796145710997379e-18
-0.49909375,0.4973444397125145,6.298583656120632e-18
-0.4990625,0.49750351729499,8.198122911498064e-18
-0.49903125,0.49750351729499,1.058157904762263e-17
-0.499,0.49750351729499,1.355103762887917e-17
-0.49896875,0.4974239785037523,1.722592800949328e-17
-0.4989375,0.4974239785037523,2.174530055339402e-17
-0.49890625,0.49750351729499,2.727031997578024e-17
-0.498875,0.49750351729499,3.398698786298107e-17
-0.49884375,0.4972649009212768,4.210910778365265e-17
-0.4988125,0.4974239785037523,5.188150675845048e-17
-0.49878125,0.49750351729499,6.358352720705385e-17
-0.49875,0.49750351729499,7.753280384079536e-17
-0.49871875,0.49750351729499,9.408934031616131e-17
-0.4986875,0.4972649009212768,1.136599008090713e-16
-0.49865625,0.4973444397125145,1.367027320121064e-16
-0.498625,0.49750351729499,1.637326313967095e-16
-0.49859375,0.4977421336687032,1.953263779198244e-16
-0.4985625,0.4975830560862277,2.321285416894719e-16
-0.49853125,0.4975830560862277,2.748576894364024e-16
-0.4985,0.4975830560862277,3.243130029692185e-16
-0.49846875,0.4975830560862277,3.813813281182028e-16
-0.4984375,0.4975830560862277,4.470446719985083e-16
-0.49840625,0.4977421336687032,5.22388166746359e-16
-0.498375,0.49750351729499,6.086085182024532e-16
-0.49834375,0.4976625948774654,7.070229583348977e-16
-0.4983125,0.4975830560862277,8.190787205097077e-16
-0.49828125,0.49750351729499,9.463630570302001e-16
-0.49825,0.4976625948774654,1.090613818677463e-15
-0.49821875,0.4976625948774654,1.253730616292535e-15
-0.4981875,0.49750351729499,1.437786584746959e-15
-0.49815625,0.4976625948774654,1.645040769951939e-15
-0.498125,0.49750351729499,1.877951159857505e-15
-0.49809375,0.4975830560862277,2.139188380691769e-15
-0.4980625,0.4976625948774654,2.431650079986615e-15
-0.49803125,0.4975830560862277,2.758476018229967e-15
-0.498,0.4975830560862277,3.123063891276115e-15
-0.49796875,0.4975830560862277,3.529085905934542e-15
-0.4979375,0.4977421336687032,3.980506131444092e-15
-0.49790625,0.4976625948774654,4.481598649823426e-15
-0.497875,0.4974239785037523,5.036966528370215e-15
-0.49784375,0.49750351729499,5.651561637860649e-15
-0.4978125,0.4975830560862277,6.330705340277449e-15
-0.49778125,0.4976625948774654,7.080110070168698e-15
-0.49775,0.4975830560862277,7.90590183401151e-15
-0.49771875,0.49750351729499,8.814643652223633e-15
-0.4976875,0.4975830560862277,9.813359968732943e-15
-0.49765625,0.4975830560862277,1.09095620532789e-14
-0.497625,0.4975830560862277,1.211127442188189e-14
-0.49759375,0.49750351729499,1.342706230117574e-14
-0.4975625,0.4975830560862277,1.486606016255542e-14
-0.49753125,0.4974239785037523,1.643800135234648e-14
-0.4975,0.49750351729499,1.815324884445432e-14
-0.49746875,0.4976625948774654,2.002282714220122e-14
-0.4974375,0.4975830560862277,2.205845535630535e-14
-0.49740625,0.4975830560862277,2.427258148620088e-14
-0.497375,0.49750351729499,2.667841793213972e-14
-0.49734375,0.4975830560862277,2.928997826575536e-14
-0.4973125,0.49750351729499,3.212211528700556e-14
-0.49728125,0.4975830560862277,3.519056039564542e-14
-0.49725,0.4976625948774654,3.851196430561427e-14
-0.49721875,0.4976625948774654,4.210393913094863e-14
-0.4971875,0.4976625948774654,4.598510187206133e-14
-0.49715625,0.4975830560862277,5.017511933145034e-14
-0.497125,0.4975830560862277,5.469475448812374e-14
-0.49709375,0.4975830560862277,5.956591436024589e-14
-0.4970625,0.49750351729499,6.481169938572722e-14
-0.49703125,0.49750351729499,7.04564543506948e-14
-0.497,0.49750351729499,7.652582089599174e-14
-0.49696875,0.4974239785037523,8.30467916320643e-14
-0.4969375,0.49750351729499,9.004776589280081e-14
-0.49690625,0.4973444397125145,9.75586071590925e-14
-0.496875,0.4974239785037523,1.056107021830871e-13
-0.49684375,0.4973444397125145,1.14237021844306e-13
-0.4968125,0.4974239785037523,1.23472183768992e-13
-0.49678125,0.49750351729499,1.333525167442513e-13
-0.49675,0.4973444397125145,1.439161269587409e-13
-0.49671875,0.4973444397125145,1.552029661018477e-13
-0.4966875,0.4973444397125145,1.672549013534856e-13
-0.49665625,0.4972649009212768,1.80115787296829e-13
-0.496625,0.4971853621300391,1.938315397864751e-13
-0.49659375,0.4972649009212768,2.08450211804712e-13
-0.4965625,0.4972649009212768,2.240220713387446e-13
-0.49653125,0.4972649009212768,2.40599681311905e-13
-0.4965,0.4971853621300391,2.582379816020439e-13
-0.49646875,0.4974239785037523,2.769943731804716e-13
-0.4964375,0.4972649009212768,2.969288044049821e-13
-0.49640625,0.4972649009212768,3.181038595006576e-13
-0.496375,0.4972649009212768,3.405848492623145e-13
-0.49634375,0.49750351729499,3.644399040126086e-13
-0.4963125,0.4973444397125145,3.897400688499765e-13
-0.49628125,0.4973444397125145,4.165594012207413e-13
-0.49625,0.4974239785037523,4.44975070849867e-13
-0.49621875,0.4974239785037523,4.750674620649895e-13
-0.4961875,0.4973444397125145,5.069202785485045e-13
-0.49615625,0.4971853621300391,5.406206505526327e-13
-0.496125,0.4971853621300391,5.76259244612526e-13
-0.49609375,0.4972649009212768,6.13930375792618e-13
-0.4960625,0.4970262845475636,6.537321225015587e-13
-0.49603125,0.4971058233388014,6.957664439112065e-13
-0.496,0.4971853621300391,7.40139300015281e-13
-0.49596875,0.4970262845475636,7.869607743634179e-13
-0.4959375,0.4971853621300391,8.363451995064775e-13
-0.49590625,0.4971058233388014,8.884112851891022e-13
-0.495875,0.4971058233388014,9.432822493256235e-13
-0.49584375,0.4971853621300391,1.001085951795548e-12
-0.4958125,0.4971058233388014,1.061955031094967e-12
-0.49578125,0.4972649009212768,1.126027043880343e-12
-0.49575,0.4972649009212768,1.19344460744125e-12
-0.49571875,0.4971058233388014,1.264355545138733e-12
-0.4956875,0.4969467457563259,1.338913034846094e-12
-0.49565625,0.4970262845475636,1.417275760428965e-12
-0.495625,0.4971058233388014,1.499608066301693e-12
-0.49559375,0.4972649009212768,1.586080115097097e-12
-0.4955625,0.4972649009212768,1.676868048486808e-12
-0.49553125,0.4971853621300391,1.772154151189457e-12
-0.4955,0.4972649009212768,1.872127018204105e-12
-0.49546875,0.4971058233388014,1.976981725306355e-12
-0.4954375,0.4971058233388014,2.086920002844725e-12
-0.49540625,0.4971853621300391,2.202150412874882e-12
-0.495375,0.4971058233388014,2.322888529669499e-12
-0.49534375,0.4969467457563259,2.449357123641489e-12
-0.4953125,0.4968672069650882,2.581786348718521e-12
-0.49528125,0.4969467457563259,2.720413933206755e-12
-0.49525,0.4968672069650882,2.865485374181819e-12
-0.49521875,0.4968672069650882,3.017254135445123e-12
-0.4951875,0.4967876681738504,3.175981849083667e-12
-0.49515625,0.4967876681738504,3.341938520671573e-12
-0.495125,0.4967876681738504,3.515402738151612e-12
-0.49509375,0.4968672069650882,3.6966618844351e-12
-0.4950625,0.4967081293826127,3.886012353758546e-12
-0.49503125,0.496628590591375,4.083759771835518e-12
-0.495,0.4965490518001373,4.290219219842249e-12
-0.49496875,0.496628590591375,4.505715462275536e-12
-0.4949375,0.4967081293826127,4.730583178721553e-12
-0.49490625,0.4968672069650882,4.965167199574233e-12
-0.494875,0.4967081293826127,5.209822745741905e-12
-0.49484375,0.496628590591375,5.464915672380973e-12
-0.4948125,0.4967081293826127,5.730822716695347e-12
-0.49478125,0.496628590591375,6.00793174984052e-12
-0.49475,0.4967081293826127,6.29664203297108e-12
-0.49471875,0.496628590591375,6.597364477470574e-12
-0.4946875,0.4965490518001373,6.910521909402616e-12
-0.49465625,0.4963899742176618,7.236549338222193e-12
-0.494625,0.4965490518001373,7.575894229786117e-12
-0.49459375,0.4965490518001373,7.929016783701605e-12
-0.4945625,0.4964695130088995,8.296390215052015e-12
-0.49453125,0.4964695130088995,8.678501040538708e-12
-0.4945,0.4962308966351864,9.075849369078125e-12
-0.49446875,0.4961513578439486,9.488949196893097e-12
-0.4944375,0.4963104354264241,9.918328707137449e-12
-0.49440625,0.4963104354264241,1.036453057409295e-11
-0.494375,0.4963104354264241,1.08281122719777e-11
-0.49434375,0.4963104354264241,1.130964638840508e-11
-0.4943125,0.4962308966351864,1.18097209425321e-11
-0.49428125,0.4963104354264241,1.232893970793663e-11
-0.49425,0.4963104354264241,1.286792254026209e-11
-0.49421875,0.4963104354264241,1.342730570966909e-11
-0.4941875,0.4963899742176618,1.400774223813275e-11
-0.49415625,0.4962308966351864,1.46099022416249e-11
-0.494125,0.4961513578439486,1.523447327722014e-11
-0.49409375,0.4961513578439486,1.588216069516469e-11
-0.4940625,0.4963899742176618,1.65536879959472e-11
-0.49403125,0.4963899742176618,1.72497971924102e-11
-0.494,0.4962308966351864,1.797124917694137e-11
-0.49396875,0.4963104354264241,1.871882409378347e-11
-0.4939375,0.4962308966351864,1.949332171650172e-11
-0.49390625,0.4963104354264241,2.02955618306476e-11
-0.493875,0.4963104354264241,2.112638462165787e-11
-0.49384375,0.4963899742176618,2.198665106802748e-11
-0.4938125,0.4962308966351864,2.287724333979534e-11
-0.49378125,0.4962308966351864,2.379906520238138e-11
-0.49375,0.4962308966351864,2.47530424258138e-11
-0.49371875,0.4962308966351864,2.574012319938506e-11
-0.4936875,0.4962308966351864,2.676127855177507e-11
-0.49365625,0.4963104354264241,2.781750277668032e-11
-0.493625,0.4962308966351864,2.890981386398724e-11
-0.49359375,0.4963104354264241,3.003925393652834e-11
-0.4935625,0.4963104354264241,3.120688969245939e-11
-0.49353125,0.4963899742176618,3.241381285329612e-11
-0.4935,0.4963104354264241,3.366114061764847e-11
-0.49346875,0.4963899742176618,3.495001612069081e-11
-0.4934375,0.4963899742176618,3.628160889940611e-11
-0.49340625,0.4964695130088995,3.76571153636421e-11
-0.493375,0.4964695130088995,3.907775927301768e-11
-0.49334375,0.496628590591375,4.054479221971707e-11
-0.4933125,0.496628590591375,4.205949411721004e-11
-0.49328125,0.4963899742176618,4.362317369493556e-11
-0.49325,0.4964695130088995,4.523716899898692e-11
-0.49321875,0.4965490518001373,4.690284789883569e-11
-0.4931875,0.4964695130088995,4.862160860013234e-11
-0.49315625,0.4965490518001373,5.039488016362059e-11
-0.493125,0.4964695130088995,5.222412303020346e-11
-0.49309375,0.4964695130088995,5.411082955219749e-11
-0.4930625,0.4963899742176618,5.60565245308133e-11
-0.49303125,0.4963104354264241,5.806276575989871e-11
-0.493,0.4964695130088995,6.013114457598207e-11
-0.49296875,0.4963899742176618,6.226328641465242e-11
-0.4929375,0.4963899742176618,6.446085137331344e-11
-0.49290625,0.4963899742176618,6.67255347803478e-11
-0.492875,0.4963899742176618,6.90590677707286e-11
-0.49284375,0.4963899742176618,7.146321786811461e-11
-0.4928125,0.4963104354264241,7.393978957346526e-11
-0.49278125,0.4963899742176618,7.649062496021237e-11
-0.49275,0.4963104354264241,7.911760427602409e-11
-0.49271875,0.4963104354264241,8.182264655119778e-11
-0.4926875,0.4963899742176618,8.460771021371744e-11
-0.49265625,0.4963899742176618,8.747479371101156e-11
-0.492625,0.4964695130088995,9.042593613844754e-11
-0.49259375,0.4964695130088995,9.346321787459773e-11
-0.4925625,0.4964695130088995,9.6588761223313e-11
-0.49253125,0.4964695130088995,9.980473106263912e-11
-0.4925,0.4963104354264241,1.031133355006113e-10
-0.49246875,0.4965490518001373,1.06516826537962e-10
-0.4924375,0.4964695130088995,1.100175007377765e-10
-0.49240625,0.4965490518001373,1.136176999021323e-10
-0.492375,0.4964695130088995,1.173198117557559e-10
-0.49234375,0.4964695130088995,1.211262706367322e-10
-0.4923125,0.496628590591375,1.250395581943009e-10
-0.49228125,0.4965490518001373,1.290622040937742e-10
-0.49225,0.4964695130088995,1.331967867286099e-10
-0.49221875,0.4964695130088995,1.374459339396742e-10
-0.4921875,0.4964695130088995,1.418123237417279e-10
-0.49215625,0.4964695130088995,1.462986850571704e-10
-0.492125,0.4965490518001373,1.509077984570733e-10
-0.49209375,0.4965490518001373,1.556424969095397e-10
-0.4920625,0.4964695130088995,1.605056665354209e-10
-0.49203125,0.4964695130088995,1.655002473714231e-10
-0.492,0.4963104354264241,1.706292341406395e-10
-0.49196875,0.4963899742176618,1.758956770305378e-10
-0.4919375,0.4963899742176618,1.81302682478438e-10
-0.49190625,0.4965490518001373,1.868534139645119e-10
-0.491875,0.4965490518001373,1.925510928123373e-10
-0.49184375,0.4965490518001373,1.983989989970383e-10
-0.4918125,0.4964695130088995,2.044004719610452e-10
-0.49178125,0.4965490518001373,2.10558911437504e-10
-0.49175,0.4964695130088995,2.168777782813693e-10
-0.49171875,0.4964695130088995,2.233605953082099e-10
-0.4916875,0.4965490518001373,2.300109481407613e-10
-0.49165625,0.496628590591375,2.368324860632527e-10
-0.491625,0.4965490518001373,2.438289228835437e-10
-0.49159375,0.4965490518001373,2.510040378030976e-10
-0.4915625,0.4965490518001373,2.583616762948249e-10
-0.49153125,0.4965490518001373,2.659057509888262e-10
-0.4915,0.4965490518001373,2.736402425660647e-10
-0.49146875,0.4964695130088995,2.815692006599996e-10
-0.4914375,0.4963899742176618,2.896967447662084e-10
-0.49140625,0.4965490518001373,2.980270651600302e-10
-0.491375,0.4963899742176618,3.065644238222578e-10
-0.49134375,0.496628590591375,3.153131553729084e-10
-0.4913125,0.496628590591375,3.242776680131035e-10
-0.49128125,0.4964695130088995,3.334624444750842e-10
-0.49125,0.4963899742176618,3.42872042980394e-10
-0.49121875,0.4963899742176618,3.525110982062547e-10
-0.4911875,0.4963104354264241,3.623843222601667e-10
-0.49115625,0.4964695130088995,3.724965056627591e-10
-0.491125,0.4963899742176618,3.828525183389199e-10
-0.49109375,0.4964695130088995,3.93457310617233e-10
-0.4910625,0.4964695130088995,4.0431591423775e-10
-0.49103125,0.4963899742176618,4.15433443368124e-10
-0.491,0.4964695130088995,4.268150956281329e-10
-0.49096875,0.4963899742176618,4.384661531226187e-10
-0.4909375,0.4965490518001373,4.503919834828705e-10
-0.49090625,0.4961513578439486,4.62598040916477e-10
-0.490875,0.4963104354264241,4.750898672656753e-10
-0.49084375,0.4964695130088995,4.878730930742217e-10
-0.4908125,0.4963899742176618,5.009534386628112e-10
-0.49078125,0.4964695130088995,5.143367152130706e-10
-0.49075,0.4965490518001373,5.280288258601523e-10
-0.49071875,0.4965490518001373,5.420357667939515e-10
-0.4906875,0.4963899742176618,5.563636283689742e-10
-0.49065625,0.4964695130088995,5.710185962228804e-10
-0.490625,0.4963899742176618,5.860069524037254e-10
-0.49059375,0.4964695130088995,6.013350765059271e-10
-0.4905625,0.4965490518001373,6.170094468149795e-10
-0.49053125,0.496628590591375,6.3303664146094e-10
-0.4905,0.496628590591375,6.494233395807114e-10
-0.49046875,0.4965490518001373,6.661763224891434e-10
-0.4904375,0.4965490518001373,6.833024748589775e-10
-0.49040625,0.4965490518001373,7.008087859096571e-10
-0.490375,0.4965490518001373,7.18702350605026e-10
-0.49034375,0.4964695130088995,7.369903708599393e-10
-0.4903125,0.4964695130088995,7.556801567558059e-10
-0.49028125,0.4965490518001373,7.747791277650884e-10
-0.49025,0.4965490518001373,7.9429481398478e-10
-0.49021875,0.4965490518001373,8.142348573788799e-10
-0.4901875,0.4964695130088995,8.346070130298902e-10
-0.49015625,0.4964695130088995,8.554191503993553e-10
-0.490125,0.4967081293826127,8.766792545974623e-10
-0.49009375,0.4965490518001373,8.983954276617246e-10
-0.4900625,0.4964695130088995,9.205758898447735e-10
-0.49003125,0.4965490518001373,9.432289809112677e-10
-0.49,0.496628590591375,9.663631614439517e-10
-0.48996875,0.4964695130088995,9.899870141588757e-10
-0.4899375,0.4964695130088995,1.0141092452298e-09
-0.48990625,0.496628590591375,1.038738685621799e-09
-0.489875,0.4964695130088995,1.063884292434093e-09
-0.48984375,0.4964695130088995,1.089555150252111e-09
-0.4898125,0.4963899742176618,1.115760472508818e-09
-0.48978125,0.4964695130088995,1.142509602855321e-09
-0.48975,0.4963899742176618,1.169812016540763e-09
-0.48971875,0.4964695130088995,1.197677321801535e-09
-0.4896875,0.4967081293826127,1.226115261259817e-09
-0.48965625,0.4967081293826127,1.255135713331461e-09
-0.489625,0.496628590591375,1.284748693643247e-09
-0.48959375,0.4964695130088995,1.31496435645951e-09
-0.4895625,0.4967876681738504,1.345792996118174e-09
-0.48953125,0.4967081293826127,1.377245048476189e-09
-0.4895,0.496628590591375,1.409331092364404e-09
-0.48946875,0.4967876681738504,1.442061851051883e-09
-0.4894375,0.496628590591375,1.475448193719682e-09
-0.48940625,0.496628590591375,1.509501136944098e-09
-0.489375,0.4967876681738504,1.544231846189411e-09
-0.48934375,0.4967081293826127,1.57965163731013e-09
-0.4893125,0.496628590591375,1.615771978062757e-09
-0.48928125,0.4967876681738504,1.652604489627085e-09
-0.48925,0.4967081293826127,1.690160948137042e-09
-0.48921875,0.4967081293826127,1.728453286221095e-09
-0.4891875,0.496628590591375,1.767493594552231e-09
-0.48915625,0.4967081293826127,1.807294123407517e-09
-0.489125,0.4967081293826127,1.847867284237264e-09
-0.48909375,0.4967876681738504,1.889225651243805e-09
-0.4890625,0.4967876681738504,1.931381962969889e-09
-0.48903125,0.4967876681738504,1.974349123896721e-09
-0.489,0.4968672069650882,2.018140206051638e-09
-0.48896875,0.4967876681738504,2.062768450625446e-09
-0.4889375,0.4968672069650882,2.108247269599437e-09
-0.48890625,0.4968672069650882,2.154590247382075e-09
-0.488875,0.4968672069650882,2.201811142455369e-09
-0.48884375,0.4967876681738504,2.249923889030965e-09
-0.4888125,0.4968672069650882,2.298942598715928e-09
-0.48878125,0.4967876681738504,2.34888156218826e-09
-0.48875,0.4968672069650882,2.39975525088214e-09
-0.48871875,0.4967081293826127,2.451578318682904e-09
-0.4886875,0.4967081293826127,2.504365603631775e-09
-0.48865625,0.4967876681738504,2.55813212964035e-09
-0.488625,0.496628590591375,2.612893108214843e-09
-0.48859375,0.4967081293826127,2.668663940190115e-09
-0.4885625,0.4964695130088995,2.725460217473472e-09
-0.48853125,0.4967876681738504,2.783297724798258e-09
-0.4885,0.4967081293826127,2.842192441487234e-09
-0.48846875,0.4967876681738504,2.902160543225772e-09
-0.4884375,0.4967081293826127,2.963218403844846e-09
-0.48840625,0.4967081293826127,3.025382597113839e-09
-0.488375,0.4967081293826127,3.088669898543176e-09
-0.48834375,0.4967081293826127,3.153097287196777e-09
