Task5_120Hz_200mV_45.csv

#Digilent WaveForms Oscilloscope Acquisition
#Device Name: Discovery3
#Serial Number: SN:210415BD63A1
#Date Time: 2026-09-24 11:18:11.356.471.770
#Sample rate: 32000Hz
#Samples: 32000
#Trigger: Source: Channel 1 Type: Edge Condition: Rising Level: 0 V Hyst.: Auto HoldOff: 0 s
#Channel 1: Range: 500 mV/div Offset: 0 V Sample Mode: Average
#Math 1: Input: C1 Reference: Internal Frequency: 20 Hz Phase: 90 ° Filter: IIR Butterworth 8  Low-Pass CutOff: 5 Hz Output: Amplitude

#Wavegen Channel 1: Running
#Mode: Simple
#Type: Sine
#Frequency: 20 Hz
#Period: 50 ms
#Amplitude: 200 mV
#Offset: 0 V
#Symmetry: 50 %
#Phase: 0 °

Time (s),Channel 1 (V),Math 1 (V)
-0.5,0.4314067817764394,1.44553851938147e-27
-0.49996875,0.4313272429852017,2.456740489548668e-26
-0.4999375,0.4314863205676772,2.09480255740103e-25
-0.49990625,0.4313272429852017,1.203011011289501e-24
-0.499875,0.4313272429852017,5.267858526142371e-24
-0.49984375,0.4311681654027262,1.886509547303836e-23
-0.4998125,0.431247704193964,5.781433318010266e-23
-0.49978125,0.431247704193964,1.564989713799227e-22
-0.49975,0.4311681654027262,3.829466643833222e-22
-0.49971875,0.4311681654027262,8.619759844381286e-22
-0.4996875,0.4311681654027262,1.808959248291704e-21
-0.49965625,0.4311681654027262,3.577108608783986e-21
-0.499625,0.4310886266114886,6.721547812267773e-21
-0.49959375,0.4310886266114886,1.208378548264487e-20
-0.4995625,0.4309295490290131,2.090055740689325e-20
-0.49953125,0.4309295490290131,3.494135506387966e-20
-0.4995,0.4310090878202508,5.667930555917446e-20
-0.49946875,0.4308500102377754,8.950041420362021e-20
-0.4994375,0.4309295490290131,1.379565252093571e-19
-0.49940625,0.4310090878202508,2.080676983910725e-19
-0.499375,0.4307704714465376,3.07680040362887e-19
-0.49934375,0.4309295490290131,4.468853675015731e-19
-0.4993125,0.4308500102377754,6.385094148893144e-19
-0.49928125,0.4309295490290131,8.986756405567854e-19
-0.49925,0.4309295490290131,1.247452007632411e-18
-0.49921875,0.4310090878202508,1.709588458467996e-18
-0.4991875,0.4309295490290131,2.315353124450101e-18
-0.49915625,0.4309295490290131,3.101475643027409e-18
-0.499125,0.4307704714465376,4.112206279501151e-18
-0.49909375,0.4309295490290131,5.400499875343666e-18
-0.4990625,0.4307704714465376,7.029333967227005e-18
-0.49903125,0.4307704714465376,9.073170741560332e-18
-0.499,0.4306909326552999,1.161957280815323e-17
-0.49896875,0.4306909326552999,1.477098309363967e-17
-0.4989375,0.4305318550728244,1.864667947051792e-17
-0.49890625,0.4306909326552999,2.338491505109856e-17
-0.498875,0.4307704714465376,2.914525538731654e-17
-0.49884375,0.4306113938640622,3.611112412724523e-17
-0.4988125,0.4305318550728244,4.449256898723613e-17
-0.49878125,0.4306909326552999,5.45292602048922e-17
-0.49875,0.4306113938640622,6.649373394257834e-17
-0.49871875,0.4305318550728244,8.069489341389883e-17
-0.4986875,0.4306113938640622,9.748178080653518e-17
-0.49865625,0.4306909326552999,1.172476333740345e-16
-0.498625,0.4304523162815867,1.404342373665565e-16
-0.49859375,0.4304523162815867,1.675365937662394e-16
-0.4985625,0.4306113938640622,1.991079100867274e-16
-0.49853125,0.4304523162815867,2.357649327885387e-16
-0.4985,0.430372777490349,2.781936351523134e-16
-0.49846875,0.4304523162815867,3.271552757405792e-16
-0.4984375,0.430372777490349,3.834928428654909e-16
-0.49840625,0.4302932386991113,4.481379007650418e-16
-0.498375,0.4304523162815867,5.221178534735276e-16
-0.49834375,0.430372777490349,6.065636426535857e-16
-0.4983125,0.4302932386991113,7.027178959369535e-16
-0.49828125,0.4290206180393076,8.119435425991746e-16
-0.49825,0.4290206180393076,9.357329136698326e-16
-0.49821875,0.4290206180393076,1.075717343854501e-15
-0.4981875,0.4290206180393076,1.233677292917449e-15
-0.49815625,0.4288615404568322,1.411553004445273e-15
-0.498125,0.4288615404568322,1.611455720181026e-15
-0.49809375,0.4288615404568322,1.83567946838615e-15
-0.4980625,0.4288615404568322,2.086713444953511e-15
-0.49803125,0.4287024628743568,2.367255006259162e-15
-0.498,0.4288615404568322,2.680223293003044e-15
-0.49796875,0.4288615404568322,3.02877350454967e-15
-0.4979375,0.4289410792480699,3.416311843538997e-15
-0.49790625,0.4289410792480699,3.846511150795009e-15
-0.497875,0.4288615404568322,4.323327250815227e-15
-0.49784375,0.4290206180393076,4.85101602837826e-15
-0.4978125,0.4288615404568322,5.434151257058788e-15
-0.49778125,0.4288615404568322,6.077643200689822e-15
-0.49775,0.4291001568305454,6.786758009061014e-15
-0.49771875,0.4290206180393076,7.567137929388966e-15
-0.4976875,0.4291001568305454,8.424822355341033e-15
-0.49765625,0.4290206180393076,9.366269735637984e-15
-0.497625,0.4290206180393076,1.039838036450306e-14
-0.49759375,0.4289410792480699,1.15285200764654e-14
-0.4975625,0.4288615404568322,1.27645448682647e-14
-0.49753125,0.4289410792480699,1.411482647084072e-14
-0.4975,0.4289410792480699,1.558827889462728e-14
-0.49746875,0.4290206180393076,1.719438597160345e-14
-0.4974375,0.4289410792480699,1.894322991778719e-14
-0.49740625,0.4288615404568322,2.084552094008697e-14
-0.497375,0.4289410792480699,2.291262791165559e-14
-0.49734375,0.4288615404568322,2.51566101401173e-14
-0.4973125,0.4289410792480699,2.759025025326507e-14
-0.49728125,0.4289410792480699,3.022708822704839e-14
-0.49725,0.4289410792480699,3.30814565808939e-14
-0.49721875,0.4287820016655945,3.616851676562222e-14
-0.4971875,0.4289410792480699,3.950429676944228e-14
-0.49715625,0.4288615404568322,4.310572996772236e-14
-0.497125,0.4287820016655945,4.699069524245194e-14
-0.49709375,0.4287820016655945,5.117805839752281e-14
-0.4970625,0.4289410792480699,5.568771489616945e-14
-0.49703125,0.4288615404568322,6.054063394712007e-14
-0.497,0.4288615404568322,6.57589039662176e-14
-0.49696875,0.4287024628743568,7.136577944047829e-14
-0.4969375,0.4287820016655945,7.738572922176004e-14
-0.49690625,0.4288615404568322,8.384448627741729e-14
-0.496875,0.4287024628743568,9.076909892552129e-14
-0.49684375,0.4288615404568322,9.818798358242527e-14
-0.4968125,0.4288615404568322,1.061309790506529e-13
-0.49678125,0.4288615404568322,1.146294023752862e-13
-0.49675,0.4287820016655945,1.237161062972261e-13
-0.49671875,0.4288615404568322,1.334255383318893e-13
-0.4966875,0.4289410792480699,1.437938015021035e-13
-0.49665625,0.4288615404568322,1.548587167541488e-13
-0.496625,0.4291001568305454,1.666598870860859e-13
-0.49659375,0.4289410792480699,1.792387634176975e-13
-0.4965625,0.4290206180393076,1.926387122315573e-13
-0.49653125,0.4291001568305454,2.069050850149241e-13
-0.4965,0.4291001568305454,2.220852895323419e-13
-0.49646875,0.4291001568305454,2.382288629590093e-13
-0.4964375,0.4290206180393076,2.553875469051597e-13
-0.49640625,0.4291001568305454,2.736153643618726e-13
-0.496375,0.4290206180393076,2.929686985989144e-13
-0.49634375,0.4291001568305454,3.135063740453782e-13
-0.4963125,0.4289410792480699,3.3528973918407e-13
-0.49628125,0.4290206180393076,3.583827514907573e-13
-0.49625,0.4290206180393076,3.828520644495672e-13
-0.49621875,0.4289410792480699,4.087671166759911e-13
-0.4961875,0.4291001568305454,4.362002231791162e-13
-0.49615625,0.4290206180393076,4.652266687948753e-13
-0.496125,0.4291001568305454,4.95924803822264e-13
-0.49609375,0.4291001568305454,5.283761418946421e-13
-0.4960625,0.4291001568305454,5.626654601183921e-13
-0.49603125,0.4291001568305454,5.988809015113712e-13
-0.496,0.4291796956217831,6.371140797737478e-13
-0.49596875,0.4291001568305454,6.774601864239686e-13
-0.4959375,0.4291796956217831,7.200181003327623e-13
-0.49590625,0.4292592344130208,7.648904996882322e-13
-0.495875,0.4292592344130208,8.121839764252457e-13
-0.49584375,0.4293387732042586,8.620091531524746e-13
-0.4958125,0.4294183119954963,9.144808026105956e-13
-0.49578125,0.4292592344130208,9.697179696952963e-13
-0.49575,0.4293387732042586,1.027844096078888e-12
-0.49571875,0.4292592344130208,1.088987147464463e-12
-0.4956875,0.4293387732042586,1.15327974350668e-12
-0.49565625,0.4293387732042586,1.220859290433394e-12
-0.495625,0.4291796956217831,1.291868116402506e-12
-0.49559375,0.4291796956217831,1.366453609628521e-12
-0.4955625,0.4293387732042586,1.444768359313448e-12
-0.49553125,0.4293387732042586,1.52697029941682e-12
-0.4955,0.4294183119954963,1.613222855299735e-12
-0.49546875,0.4294183119954963,1.703695093277948e-12
-0.4954375,0.4291001568305454,1.79856187311918e-12
-0.49540625,0.4291796956217831,1.898004003519943e-12
-0.495375,0.4292592344130208,2.002208400597283e-12
-0.49534375,0.4292592344130208,2.111368249431007e-12
-0.4953125,0.4291001568305454,2.225683168692058e-12
-0.49528125,0.4291796956217831,2.345359378392805e-12
-0.49525,0.4292592344130208,2.470609870795201e-12
-0.49521875,0.4293387732042586,2.601654584512808e-12
-0.4951875,0.4292592344130208,2.738720581842854e-12
-0.49515625,0.4291796956217831,2.88204222936458e-12
-0.495125,0.4292592344130208,3.031861381840267e-12
-0.49509375,0.4293387732042586,3.18842756945543e-12
-0.4950625,0.4293387732042586,3.351998188434789e-12
-0.49503125,0.4293387732042586,3.522838695070733e-12
-0.495,0.4291796956217831,3.701222803201098e-12
-0.49496875,0.4292592344130208,3.887432685173201e-12
-0.4949375,0.4291796956217831,4.081759176331171e-12
-0.49490625,0.4291796956217831,4.284501983063699e-12
-0.494875,0.4292592344130208,4.495969894449482e-12
-0.49484375,0.4292592344130208,4.716480997537704e-12
-0.4948125,0.4292592344130208,4.946362896300972e-12
-0.49478125,0.4291796956217831,5.185952934298309e-12
-0.49475,0.4291796956217831,5.435598421085799e-12
-0.49471875,0.4291796956217831,5.695656862412641e-12
-0.4946875,0.4291796956217831,5.966496194240478e-12
-0.49465625,0.4292592344130208,6.248495020623868e-12
-0.494625,0.4291796956217831,6.542042855489962e-12
-0.49459375,0.4293387732042586,6.847540368355498e-12
-0.4945625,0.4293387732042586,7.165399634019282e-12
-0.49453125,0.4294183119954963,7.496044386268447e-12
-0.4945,0.4294183119954963,7.839910275636919e-12
-0.49446875,0.4294183119954963,8.197445131254414e-12
-0.4944375,0.4293387732042586,8.569109226824679e-12
-0.49440625,0.429497850786734,8.95537555077143e-12
-0.494375,0.4295773895779718,9.356730080590806e-12
-0.49434375,0.4294183119954963,9.773672061449054e-12
-0.4943125,0.4293387732042586,1.020671428906433e-11
-0.49428125,0.4295773895779718,1.06563833969115e-11
-0.49425,0.4295773895779718,1.112322014778908e-11
-0.49421875,0.4296569283692094,1.160777972978714e-11
-0.4941875,0.4295773895779718,1.211063205669566e-11
-0.49415625,0.4294183119954963,1.263236207289221e-11
-0.494125,0.4295773895779718,1.317357006274857e-11
-0.49409375,0.4296569283692094,1.373487196459536e-11
-0.4940625,0.4295773895779718,1.43168996892843e-11
-0.49403125,0.4295773895779718,1.492030144338751e-11
-0.494,0.429497850786734,1.554574205707344e-11
-0.49396875,0.429497850786734,1.619390331669896e-11
-0.4939375,0.4295773895779718,1.686548430215735e-11
-0.49390625,0.4297364671604472,1.756120172902198e-11
-0.493875,0.4296569283692094,1.828179029552536e-11
-0.49384375,0.4296569283692094,1.902800303441341e-11
-0.4938125,0.4295773895779718,1.980061166971499e-11
-0.49378125,0.4296569283692094,2.060040697846645e-11
-0.49375,0.4298160059516849,2.142819915743145e-11
-0.49371875,0.4298160059516849,2.228481819485575e-11
-0.4936875,0.4297364671604472,2.317111424729759e-11
-0.49365625,0.4297364671604472,2.408795802157323e-11
-0.493625,0.4297364671604472,2.503624116185841e-11
-0.49359375,0.4298160059516849,2.601687664198555e-11
-0.4935625,0.4298160059516849,2.703079916297721e-11
-0.49353125,0.4299750835341604,2.807896555585615e-11
-0.4935,0.4298160059516849,2.916235518977219e-11
-0.49346875,0.4296569283692094,3.028197038548658e-11
-0.4934375,0.4298160059516849,3.143883683425395e-11
-0.49340625,0.4298160059516849,3.263400402214282e-11
-0.493375,0.4298160059516849,3.386854565983468e-11
-0.49334375,0.4297364671604472,3.514356011794261e-11
-0.4933125,0.4298955447429226,3.646017086788986e-11
-0.49328125,0.4298160059516849,3.781952692838909e-11
-0.49325,0.4298955447429226,3.922280331756278e-11
-0.49321875,0.4298955447429226,4.067120151074577e-11
-0.4931875,0.4299750835341604,4.216594990401033e-11
-0.49315625,0.4298955447429226,4.370830428345488e-11
-0.493125,0.4300546223253981,4.529954830029679e-11
-0.49309375,0.4300546223253981,4.694099395181017e-11
-0.4930625,0.4300546223253981,4.863398206814965e-11
-0.49303125,0.4300546223253981,5.03798828051007e-11
-0.493,0.4300546223253981,5.218009614279758e-11
-0.49296875,0.4301341611166358,5.403605239044974e-11
-0.4929375,0.4299750835341604,5.59492126971174e-11
-0.49290625,0.4300546223253981,5.792106956857759e-11
-0.492875,0.4301341611166358,5.995314739032127e-11
-0.49284375,0.4301341611166358,6.204700295672253e-11
-0.4928125,0.4302136999078736,6.420422600642103e-11
-0.49278125,0.4302136999078736,6.642643976395837e-11
-0.49275,0.4302136999078736,6.871530148770955e-11
-0.49271875,0.4301341611166358,7.107250302415045e-11
-0.4926875,0.4302136999078736,7.349977136850255e-11
-0.49265625,0.4301341611166358,7.599886923179542e-11
-0.492625,0.4302136999078736,7.857159561438836e-11
-0.49259375,0.4299750835341604,8.121978638599228e-11
-0.4925625,0.4299750835341604,8.394531487223248e-11
-0.49253125,0.4300546223253981,8.675009244779363e-11
-0.4925,0.4299750835341604,8.963606913618797e-11
-0.49246875,0.4299750835341604,9.260523421618755e-11
-0.4924375,0.4300546223253981,9.565961683496175e-11
-0.49240625,0.4301341611166358,9.880128662796096e-11
-0.492375,0.4301341611166358,1.020323543455875e-10
-0.49234375,0.4301341611166358,1.053549724866947e-10
-0.4923125,0.4302932386991113,1.087713359389554e-10
-0.49228125,0.4301341611166358,1.122836826261403e-10
-0.49225,0.4302136999078736,1.158942941623481e-10
-0.49221875,0.4302136999078736,1.196054965132269e-10
-0.4921875,0.4302136999078736,1.234196606642299e-10
-0.49215625,0.4302136999078736,1.273392032959441e-10
-0.492125,0.4301341611166358,1.313665874665347e-10
-0.49209375,0.4302136999078736,1.355043233013452e-10
-0.4920625,0.4301341611166358,1.397549686896944e-10
-0.49203125,0.4302136999078736,1.441211299889109e-10
-0.492,0.4302932386991113,1.486054627356465e-10
-0.49196875,0.430372777490349,1.532106723645089e-10
-0.4919375,0.430372777490349,1.579395149340546e-10
-0.49190625,0.4302136999078736,1.627947978601833e-10
-0.491875,0.4302932386991113,1.677793806569732e-10
-0.49184375,0.4302136999078736,1.72896175685e-10
-0.4918125,0.4302136999078736,1.781481489071785e-10
-0.49178125,0.4302136999078736,1.835383206521686e-10
-0.49175,0.4302136999078736,1.890697663853855e-10
-0.49171875,0.4301341611166358,1.947456174876566e-10
-0.4916875,0.4302136999078736,2.005690620415622e-10
-0.49165625,0.4300546223253981,2.06543345625505e-10
-0.491625,0.4300546223253981,2.12671772115545e-10
-0.49159375,0.4299750835341604,2.189577044950436e-10
-0.4915625,0.4300546223253981,2.254045656721541e-10
-0.49153125,0.4302932386991113,2.320158393052021e-10
-0.4915,0.430372777490349,2.387950706359945e-10
-0.49146875,0.4302932386991113,2.457458673310975e-10
-0.4914375,0.4301341611166358,2.528719003311252e-10
-0.49140625,0.4301341611166358,2.601769047080768e-10
-0.491375,0.4300546223253981,2.676646805307654e-10
-0.49134375,0.4302932386991113,2.753390937383766e-10
-0.4913125,0.4302136999078736,2.832040770221977e-10
-0.49128125,0.4302136999078736,2.912636307155577e-10
-0.49125,0.4302136999078736,2.995218236920186e-10
-0.49121875,0.4301341611166358,3.079827942718565e-10
-0.4911875,0.4300546223253981,3.166507511368748e-10
-0.49115625,0.4302136999078736,3.255299742535873e-10
-0.491125,0.4301341611166358,3.346248158048121e-10
-0.49109375,0.4301341611166358,3.439397011297168e-10
-0.4910625,0.4300546223253981,3.534791296723521e-10
-0.49103125,0.4302136999078736,3.632476759387177e-10
-0.491,0.4301341611166358,3.732499904623964e-10
-0.49096875,0.4302136999078736,3.834908007787977e-10
-0.4909375,0.4301341611166358,3.939749124080506e-10
-0.49090625,0.4302136999078736,4.047072098465844e-10
-0.490875,0.4302932386991113,4.156926575674383e-10
-0.49084375,0.4301341611166358,4.269363010293361e-10
-0.4908125,0.4302136999078736,4.384432676945702e-10
-0.49078125,0.4300546223253981,4.502187680557285e-10
-0.49075,0.4301341611166358,4.622680966713089e-10
-0.49071875,0.4302136999078736,4.745966332102561e-10
-0.4906875,0.4302136999078736,4.872098435054627e-10
-0.49065625,0.4300546223253981,5.001132806162718e-10
-0.490625,0.4299750835341604,5.133125859000208e-10
-0.49059375,0.4298955447429226,5.268134900926664e-10
-0.4905625,0.4300546223253981,5.406218143985266e-10
-0.49053125,0.4301341611166358,5.547434715891822e-10
-0.4905,0.4298955447429226,5.691844671115724e-10
-0.49046875,0.4300546223253981,5.839509002053275e-10
-0.4904375,0.4298955447429226,5.99048965029373e-10
-0.49040625,0.4298955447429226,6.144849517978473e-10
-0.490375,0.4298955447429226,6.302652479253678e-10
-0.49034375,0.4298955447429226,6.463963391816875e-10
-0.4903125,0.4298955447429226,6.628848108557753e-10
-0.49028125,0.4298955447429226,6.79737348929366e-10
-0.49025,0.4299750835341604,6.969607412600067e-10
-0.49021875,0.4298955447429226,7.145618787736508e-10
-0.4901875,0.4298955447429226,7.325477566668259e-10
-0.49015625,0.4299750835341604,7.509254756184201e-10
-0.490125,0.4299750835341604,7.697022430111241e-10
-0.49009375,0.4301341611166358,7.888853741625623e-10
-0.4900625,0.4299750835341604,8.084822935661561e-10
-0.49003125,0.4299750835341604,8.285005361417533e-10
-0.49,0.4300546223253981,8.489477484960617e-10
-0.48996875,0.4299750835341604,8.698316901929247e-10
-0.4899375,0.4299750835341604,8.911602350334767e-10
-0.48990625,0.4298955447429226,9.129413723462138e-10
-0.489875,0.4298160059516849,9.351832082870176e-10
-0.48984375,0.4297364671604472,9.578939671491708e-10
-0.4898125,0.4297364671604472,9.810819926833978e-10
-0.48978125,0.4296569283692094,1.004755749427968e-09
-0.48975,0.4297364671604472,1.028923824048908e-09
-0.48971875,0.4296569283692094,1.053594926690335e-09
-0.4896875,0.4295773895779718,1.078777892334983e-09
-0.48965625,0.4296569283692094,1.104481682174922e-09
-0.489625,0.4296569283692094,1.130715384992534e-09
-0.48959375,0.4295773895779718,1.15748821855177e-09
-0.4895625,0.4295773895779718,1.184809530999717e-09
-0.48953125,0.4295773895779718,1.212688802278534e-09
-0.4895,0.4296569283692094,1.241135645547768e-09
-0.48946875,0.4297364671604472,1.270159808617097e-09
-0.4894375,0.429497850786734,1.299771175389539e-09
-0.48940625,0.429497850786734,1.329979767315157e-09
-0.489375,0.4294183119954963,1.360795744855296e-09
-0.48934375,0.429497850786734,1.392229408957387e-09
-0.4893125,0.4296569283692094,1.424291202540361e-09
-0.48928125,0.4296569283692094,1.456991711990693e-09
-0.48925,0.4294183119954963,1.490341668669129e-09
-0.48921875,0.4293387732042586,1.524351950428112e-09
-0.4891875,0.429497850786734,1.55903358313996e-09
-0.48915625,0.429497850786734,1.594397742235823e-09
-0.489125,0.4294183119954963,1.630455754255441e-09
-0.48909375,0.4292592344130208,1.667219098407765e-09
-0.4890625,0.4294183119954963,1.704699408142452e-09
-0.48903125,0.4293387732042586,1.742908472732274e-09
-0.489,0.4292592344130208,1.781858238866482e-09
-0.48896875,0.4293387732042586,1.821560812255155e-09
-0.4889375,0.4291796956217831,1.862028459244565e-09
-0.48890625,0.4291796956217831,1.903273608443591e-09
-0.488875,0.4291001568305454,1.945308852361227e-09
-0.48884375,0.4292592344130208,1.988146949055201e-09
-0.4888125,0.4292592344130208,2.031800823791756e-09
-0.48878125,0.4291796956217831,2.076283570716607e-09
-0.48875,0.4292592344130208,2.121608454537124e-09
-0.48871875,0.4291001568305454,2.167788912215769e-09
-0.4886875,0.4291001568305454,2.214838554674812e-09
-0.48865625,0.4290206180393076,2.262771168512371e-09
-0.488625,0.4291001568305454,2.311600717729802e-09
-0.48859375,0.4291796956217831,2.36134134547047e-09
-0.4885625,0.4291001568305454,2.412007375769939e-09
-0.48853125,0.4290206180393076,2.46361331531761e-09
-0.4885,0.4291001568305454,2.516173855229839e-09
-0.48846875,0.4289410792480699,2.569703872834571e-09
-0.4884375,0.4289410792480699,2.624218433467511e-09
-0.48840625,0.4289410792480699,2.679732792279879e-09
