Task5_10Hz_200mV_45.csv

#Digilent WaveForms Oscilloscope Acquisition
#Device Name: Discovery3
#Serial Number: SN:210415BD63A1
#Date Time: 2026-09-24 11:24:32.832.368.020
#Sample rate: 16000Hz
#Samples: 32000
#Trigger: Source: Channel 1 Type: Edge Condition: Rising Level: 0 V Hyst.: Auto HoldOff: 0 s
#Channel 1: Range: 500 mV/div Offset: 0 V Sample Mode: Average
#Math 1: Input: C1 Reference: Internal Frequency: 10 Hz Phase: 90 ° Filter: IIR Butterworth 8  Low-Pass CutOff: 2 Hz Output: Amplitude

#Wavegen Channel 1: Running
#Mode: Simple
#Type: Sine
#Frequency: 10 Hz
#Period: 100 ms
#Amplitude: 200 mV
#Offset: 0 V
#Symmetry: 50 %
#Phase: 0 °

Time (s),Channel 1 (V),Math 1 (V)
-1,0.4101699245159665,2.322278314467372e-28
-0.9999375,0.410329002098442,3.946936542308375e-27
-0.999875,0.410329002098442,3.365617731151426e-26
-0.9998125,0.410329002098442,1.932931717379613e-25
-0.99975,0.4104880796809174,8.464673030788801e-25
-0.9996875,0.410329002098442,3.031570185636147e-24
-0.999625,0.410329002098442,9.291362293923699e-24
-0.9995625,0.4104880796809174,2.515317053556052e-23
-0.9995000000000001,0.4105676184721552,6.155431940806735e-23
-0.9994375,0.4105676184721552,1.385656658611043e-22
-0.999375,0.4106471572633928,2.908241085948515e-22
-0.9993125,0.4108062348458683,5.751426959704048e-22
-0.99925,0.4107266960546306,1.080824464091591e-21
-0.9991875,0.4108062348458683,1.943263398949335e-21
-0.999125,0.4106471572633928,3.36147293413367e-21
-0.9990625,0.4108062348458683,5.620239168669293e-21
-0.999,0.4108062348458683,9.117652517949854e-21
-0.9989375,0.4108062348458683,1.439882779424276e-20
-0.998875,0.4108062348458683,2.219667875219428e-20
-0.9988125,0.4107266960546306,3.348066893037554e-20
-0.99875,0.410885773637106,4.95145161731821e-20
-0.9986875,0.410885773637106,7.192388352898085e-20
-0.998625,0.4111243900108192,1.027751442910225e-19
-0.9985625,0.4110448512195815,1.446663637774595e-19
-0.9985000000000001,0.4109653124283438,2.008316950343661e-19
-0.9984375,0.4110448512195815,2.75260439988653e-19
-0.998375,0.4111243900108192,3.728320816753781e-19
-0.9983125,0.4111243900108192,4.99468647018201e-19
-0.99825,0.4111243900108192,6.623058132561238e-19
-0.9981875,0.411203928802057,8.698842244866982e-19
-0.998125,0.411203928802057,1.132362537935787e-18
-0.9980625,0.4003866531937262,1.461753772465696e-18
-0.998,0.4003071144024885,1.872186584496752e-18
-0.9979375,0.4003866531937262,2.380193148943596e-18
-0.997875,0.4005457307762016,3.005025374958462e-18
-0.9978125,0.4004661919849639,3.769001238230254e-18
-0.99775,0.4004661919849639,4.697883063311748e-18
-0.9976874999999999,0.4003866531937262,5.821289640939371e-18
-0.997625,0.4003866531937262,7.173144116570572e-18
-0.9975625,0.4003866531937262,8.792159637390062e-18
-0.9975000000000001,0.4003071144024885,1.072236479582521e-17
-0.9974375,0.4004661919849639,1.301367095816222e-17
-0.997375,0.4004661919849639,1.572248361716974e-17
-0.9973125,0.4003866531937262,1.891235995771755e-17
-0.99725,0.4003866531937262,2.265471487422478e-17
-0.9971875,0.4003071144024885,2.702957772838486e-17
-0.997125,0.4003071144024885,3.212640218499294e-17
-0.9970625,0.4003866531937262,3.804493151284328e-17
-0.997,0.4003866531937262,4.489612178656939e-17
-0.9969375,0.4003866531937262,5.280312547396851e-17
-0.996875,0.4002275756112507,6.190233794178613e-17
-0.9968125,0.4003866531937262,7.23445094611378e-17
-0.99675,0.4003866531937262,8.429592534171273e-17
-0.9966874999999999,0.4003866531937262,9.793965687163893e-17
-0.996625,0.4003071144024885,1.134768857873893e-16
-0.9965625,0.4002275756112507,1.311283050453759e-16
-0.9965000000000001,0.4002275756112507,1.511355987139124e-16
-0.9964375,0.4003071144024885,1.737630038510226e-16
-0.996375,0.4003071144024885,1.992989572801372e-16
-0.9963125,0.4002275756112507,2.28057830222048e-16
-0.99625,0.400148036820013,2.603817537875784e-16
-0.9961875,0.4003071144024885,2.966425383812866e-16
-0.996125,0.4003071144024885,3.37243690112134e-16
-0.9960625,0.400148036820013,3.826225273524357e-16
-0.996,0.4002275756112507,4.332524006315657e-16
-0.9959375,0.4003071144024885,4.896450190958112e-16
-0.995875,0.400148036820013,5.523528868104664e-16
-0.9958125,0.4000684980287753,6.219718522247195e-16
-0.99575,0.400148036820013,6.99143774164119e-16
-0.9956874999999999,0.4000684980287753,7.84559307759414e-16
-0.995625,0.4000684980287753,8.789608137643323e-16
-0.9955625,0.4000684980287753,9.831453947584063e-16
-0.9955000000000001,0.4000684980287753,1.097968061774267e-15
-0.9954375,0.3999094204462998,1.22434503493191e-15
-0.995375,0.3999889592375375,1.36325718170529e-15
-0.9953125,0.3999889592375375,1.515753596489234e-15
-0.99525,0.4000684980287753,1.682955325177063e-15
-0.9951875,0.3999094204462998,1.866059238501453e-15
-0.995125,0.3999889592375375,2.066342057933038e-15
-0.9950625,0.3998298816550621,2.285164537972937e-15
-0.995,0.3997503428638244,2.523975808716872e-15
-0.9949375,0.3997503428638244,2.78431788260979e-15
-0.994875,0.3996708040725866,3.067830329350949e-15
-0.9948125,0.3996708040725866,3.376255122950176e-15
-0.99475,0.3996708040725866,3.711441664976626e-15
-0.9946874999999999,0.3996708040725866,4.075351988081704e-15
-0.994625,0.3995912652813489,4.470066143917917e-15
-0.9945625,0.3995117264901112,4.897787779615332e-15
-0.9945000000000001,0.3995117264901112,5.360849907016984e-15
-0.9944375,0.3995912652813489,5.861720868914046e-15
-0.994375,0.3995117264901112,6.403010506560775e-15
-0.9943125,0.3995912652813489,6.987476532788224e-15
-0.99425,0.3993526489076357,7.618031115074563e-15
-0.9941875,0.3993526489076357,8.297747672968331e-15
-0.994125,0.399273110116398,9.029867894299251e-15
-0.9940625,0.3993526489076357,9.817808974649456e-15
-0.994,0.3991935713251603,1.066517108459564e-14
-0.9939375,0.3991935713251603,1.157574506927056e-14
-0.993875,0.399273110116398,1.255352038482936e-14
-0.9938125,0.3991140325339226,1.360269327644392e-14
-0.99375,0.3990344937426848,1.472767520248477e-14
-0.9936874999999999,0.3989549549514471,1.593310150958745e-14
-0.993625,0.3991140325339226,1.722384036333628e-14
-0.9935625,0.3990344937426848,1.860500193933511e-14
-0.9935,0.3989549549514471,2.008194787947044e-14
-0.9934375,0.3989549549514471,2.166030101820838e-14
-0.993375,0.3988754161602094,2.334595538380235e-14
-0.9933125,0.3989549549514471,2.514508647932395e-14
-0.99325,0.3990344937426848,2.70641618484645e-14
-0.9931875,0.3989549549514471,2.910995193108995e-14
-0.993125,0.3988754161602094,3.128954121356623e-14
-0.9930625,0.3988754161602094,3.3610339678907e-14
-0.993,0.3989549549514471,3.608009456182978e-14
-0.9929375,0.3988754161602094,3.870690241384076e-14
-0.992875,0.3988754161602094,4.149922148350213e-14
-0.9928125,0.3989549549514471,4.446588441706973e-14
-0.99275,0.3988754161602094,4.761611128472207e-14
-0.9926874999999999,0.3988754161602094,5.09595229376348e-14
-0.992625,0.3988754161602094,5.450615470118818e-14
-0.9925625,0.3989549549514471,5.82664704096271e-14
-0.9925,0.3988754161602094,6.22513767875265e-14
-0.9924375,0.3988754161602094,6.647223818344691e-14
-0.992375,0.3990344937426848,7.094089166119681e-14
-0.9923125,0.3990344937426848,7.566966245415095e-14
-0.99225,0.3989549549514471,8.067137978810463e-14
-0.9921875,0.3990344937426848,8.59593930781761e-14
-0.992125,0.3989549549514471,9.154758850529992e-14
-0.9920625,0.3989549549514471,9.745040597788532e-14
-0.992,0.3990344937426848,1.036828564842443e-13
-0.9919375,0.3991935713251603,1.102605398414247e-13
-0.991875,0.3991140325339226,1.171996628461141e-13
-0.9918125,0.3991140325339226,1.245170578333097e-13
-0.99175,0.3991140325339226,1.322302016484801e-13
-0.9916875000000001,0.3991935713251603,1.403572350389741e-13
-0.991625,0.3991935713251603,1.489169824704618e-13
-0.9915625,0.3991935713251603,1.579289723742199e-13
-0.9915,0.3991935713251603,1.674134578311064e-13
-0.9914375,0.399273110116398,1.77391437698095e-13
-0.991375,0.3991935713251603,1.878846781832695e-13
-0.9913125,0.399273110116398,1.989157348752066e-13
-0.99125,0.3991935713251603,2.105079752327048e-13
-0.9911875,0.399273110116398,2.226856015408419e-13
-0.991125,0.399273110116398,2.354736743393754e-13
-0.9910625,0.399273110116398,2.488981363295248e-13
-0.991,0.3993526489076357,2.629858367652007e-13
-0.9909375,0.399273110116398,2.777645563347792e-13
-0.990875,0.399273110116398,2.93263032539536e-13
-0.9908125,0.3991935713251603,3.095109855748941e-13
-0.99075,0.3993526489076357,3.26539144720653e-13
-0.9906875000000001,0.3994321876988735,3.443792752464028e-13
-0.990625,0.3995117264901112,3.630642058383473e-13
-0.9905625,0.3995117264901112,3.826278565537875e-13
-0.9905,0.3994321876988735,4.031052673095428e-13
-0.9904375,0.3994321876988735,4.24532626910611e-13
-0.990375,0.3994321876988735,4.469473026253957e-13
-0.9903125,0.3993526489076357,4.703878703138511e-13
-0.99025,0.3993526489076357,4.948941451149226e-13
-0.9901875,0.3994321876988735,5.205072126996819e-13
-0.990125,0.3995117264901112,5.472694610965833e-13
-0.9900625,0.3994321876988735,5.752246130952903e-13
-0.99,0.3994321876988735,6.044177592355426e-13
-0.9899375,0.3994321876988735,6.348953913875632e-13
-0.9898749999999999,0.3995117264901112,6.66705436930523e-13
-0.9898125,0.3995117264901112,6.998972935356036e-13
-0.98975,0.3995912652813489,7.345218645602291e-13
-0.9896875000000001,0.3996708040725866,7.706315950600481e-13
-0.989625,0.3995912652813489,8.082805084252822e-13
-0.9895625,0.3996708040725866,8.475242436480686e-13
-0.9895,0.3995912652813489,8.884200932274544e-13
-0.9894375,0.3996708040725866,9.310270417187183e-13
-0.989375,0.3997503428638244,9.754058049337151e-13
-0.9893125,0.3997503428638244,1.021618869798968e-12
-0.98925,0.3999094204462998,1.069730534878237e-12
-0.9891875,0.3997503428638244,1.119806951566342e-12
-0.989125,0.3997503428638244,1.171916165961002e-12
-0.9890625,0.3998298816550621,1.226128161419511e-12
-0.989,0.3999094204462998,1.282514901807057e-12
-0.9889375,0.3998298816550621,1.341150375443541e-12
-0.9888749999999999,0.3999094204462998,1.402110639755745e-12
-0.9888125,0.3999889592375375,1.465473866641741e-12
-0.98875,0.3999889592375375,1.531320388554433e-12
-0.9886875000000001,0.3999094204462998,1.599732745311157e-12
-0.988625,0.3999889592375375,1.670795731636284e-12
-0.9885625,0.3999889592375375,1.744596445443765e-12
-0.9885,0.4000684980287753,1.821224336866615e-12
-0.9884375,0.3999889592375375,1.900771258040319e-12
-0.988375,0.400148036820013,1.983331513647172e-12
-0.9883125,0.400148036820013,2.06900191222859e-12
-0.98825,0.4002275756112507,2.157881818272426e-12
-0.9881875,0.400148036820013,2.250073205082381e-12
-0.988125,0.400148036820013,2.34568070843656e-12
-0.9880625,0.400148036820013,2.444811681042298e-12
-0.988,0.400148036820013,2.547576247794367e-12
-0.9879375,0.4002275756112507,2.654087361843677e-12
-0.9878749999999999,0.400148036820013,2.764460861483657e-12
-0.9878125,0.400148036820013,2.878815527861442e-12
-0.98775,0.400148036820013,2.997273143521076e-12
-0.9876875000000001,0.400148036820013,3.119958551785911e-12
-0.987625,0.400148036820013,3.246999716987421e-12
-0.9875625,0.4000684980287753,3.378527785547664e-12
-0.9875,0.4002275756112507,3.514677147922618e-12
-0.9874375,0.400148036820013,3.655585501413671e-12
-0.987375,0.4000684980287753,3.801393913854526e-12
-0.9873125,0.400148036820013,3.952246888180787e-12
-0.98725,0.4000684980287753,4.108292427889586e-12
-0.9871875,0.4000684980287753,4.269682103396495e-12
-0.987125,0.4000684980287753,4.436571119297101e-12
-0.9870625,0.3999094204462998,4.609118382540578e-12
-0.987,0.4000684980287753,4.787486571522596e-12
-0.9869375,0.4000684980287753,4.971842206104946e-12
-0.9868749999999999,0.3999094204462998,5.162355718569286e-12
-0.9868125,0.3999889592375375,5.359201525512359e-12
-0.98675,0.4000684980287753,5.562558100690128e-12
-0.9866875000000001,0.4000684980287753,5.772608048818242e-12
-0.986625,0.4000684980287753,5.989538180336256e-12
-0.9865625,0.3999889592375375,6.213539587143053e-12
-0.9865,0.3999889592375375,6.444807719310937e-12
-0.9864375,0.3999889592375375,6.683542462785861e-12
-0.986375,0.3999094204462998,6.929948218081249e-12
-0.9863125,0.3999094204462998,7.184233979972945e-12
-0.98625,0.3999889592375375,7.446613418202763e-12
-0.9861875,0.3999094204462998,7.717304959198155e-12
-0.986125,0.3998298816550621,7.996531868815521e-12
-0.9860625,0.3999094204462998,8.284522336114727e-12
-0.986,0.3999889592375375,8.581509558172318e-12
-0.9859375,0.3999889592375375,8.887731825941034e-12
-0.9858749999999999,0.3999094204462998,9.203432611163178e-12
-0.9858125,0.3999889592375375,9.528860654345393e-12
-0.98575,0.3999889592375375,9.864270053802472e-12
-0.9856875,0.3998298816550621,1.020992035577775e-11
-0.985625,0.3998298816550621,1.056607664564771e-11
-0.9855625,0.3998298816550621,1.093300964021844e-11
-0.9855,0.3997503428638244,1.131099578112148e-11
-0.9854375,0.3997503428638244,1.170031732931677e-11
-0.985375,0.3997503428638244,1.210126246071033e-11
-0.9853125,0.3996708040725866,1.251412536289426e-11
-0.98525,0.3995912652813489,1.293920633301675e-11
-0.9851875,0.3995912652813489,1.337681187678985e-11
-0.985125,0.3995117264901112,1.382725480864243e-11
-0.9850625,0.3995912652813489,1.429085435302631e-11
-0.985,0.3995117264901112,1.476793624688302e-11
-0.9849375,0.3995912652813489,1.5258832843279e-11
-0.9848749999999999,0.3994321876988735,1.576388321621684e-11
-0.9848125,0.3994321876988735,1.628343326663041e-11
-0.98475,0.3994321876988735,1.68178358295714e-11
-0.9846875,0.3995117264901112,1.736745078259525e-11
-0.984625,0.3995117264901112,1.793264515535385e-11
-0.9845625,0.3993526489076357,1.85137932404031e-11
-0.9845,0.3993526489076357,1.911127670523277e-11
-0.9844375,0.3994321876988735,1.972548470552664e-11
-0.984375,0.3993526489076357,2.035681399966048e-11
-0.9843125,0.399273110116398,2.10056690644457e-11
-0.98425,0.3991140325339226,2.16724622121265e-11
-0.9841875,0.3990344937426848,2.235761370863811e-11
-0.984125,0.3991140325339226,2.306155189313409e-11
-0.9840625,0.3989549549514471,2.378471329879029e-11
-0.984,0.3990344937426848,2.45275427748933e-11
-0.9839375,0.3988754161602094,2.529049361022128e-11
-0.9838750000000001,0.3989549549514471,2.607402765772475e-11
-0.9838125,0.3987163385777339,2.687861546051533e-11
-0.98375,0.3987958773689717,2.770473637917003e-11
-0.9836875,0.3987958773689717,2.855287872035911e-11
-0.983625,0.3987958773689717,2.942353986680504e-11
-0.9835625,0.3987163385777339,3.031722640858061e-11
-0.9835,0.3987163385777339,3.123445427575385e-11
-0.9834375,0.3988754161602094,3.21757488723876e-11
-0.983375,0.3986367997864962,3.31416452119015e-11
-0.9833125,0.3986367997864962,3.413268805380437e-11
-0.98325,0.3986367997864962,3.514943204180453e-11
-0.9831875,0.3985572609952585,3.619244184330613e-11
-0.983125,0.3987163385777339,3.726229229029914e-11
-0.9830625,0.3987163385777339,3.835956852165091e-11
-0.983,0.3987163385777339,3.948486612680704e-11
-0.9829375,0.3986367997864962,4.06387912909095e-11
-0.9828750000000001,0.3986367997864962,4.182196094133969e-11
-0.9828125,0.3986367997864962,4.30350028956943e-11
-0.98275,0.3987163385777339,4.427855601120188e-11
-0.9826875,0.3987163385777339,4.555327033558789e-11
-0.982625,0.3986367997864962,4.685980725939592e-11
-0.9825625,0.3986367997864962,4.819883966977318e-11
-0.9825,0.3987958773689717,4.957105210572782e-11
-0.9824375,0.3987958773689717,5.097714091486609e-11
-0.982375,0.3987958773689717,5.241781441161702e-11
-0.9823125,0.3987163385777339,5.389379303695259e-11
-0.98225,0.3988754161602094,5.540580951961106e-11
-0.9821875,0.3988754161602094,5.695460903883139e-11
-0.982125,0.3986367997864962,5.854094938860655e-11
-0.9820624999999999,0.3987958773689717,6.016560114346351e-11
-0.982,0.3987958773689717,6.182934782577769e-11
-0.9819375,0.3987958773689717,6.353298607462983e-11
-0.9818750000000001,0.3987163385777339,6.527732581621299e-11
-0.9818125,0.3988754161602094,6.706319043579735e-11
-0.98175,0.3988754161602094,6.8891416951261e-11
-0.9816875,0.3988754161602094,7.076285618819411e-11
-0.981625,0.3990344937426848,7.267837295658471e-11
-0.9815625,0.3990344937426848,7.463884622909321e-11
-0.9815,0.3990344937426848,7.664516932092441e-11
-0.9814375,0.3989549549514471,7.869825007130392e-11
-0.981375,0.3989549549514471,8.079901102656731e-11
-0.9813125,0.3988754161602094,8.294838962486948e-11
-0.98125,0.3991140325339226,8.514733838252236e-11
-0.9811875,0.3991140325339226,8.739682508196835e-11
-0.981125,0.3990344937426848,8.969783296139758e-11
-0.9810624999999999,0.3991935713251603,9.205136090601651e-11
-0.981,0.3991140325339226,9.445842364097582e-11
-0.9809375,0.3991935713251603,9.692005192596541e-11
-0.9808750000000001,0.3991140325339226,9.943729275148408e-11
-0.9808125,0.3991935713251603,1.020112095367916e-10
-0.98075,0.3991935713251603,1.046428823295514e-10
-0.9806875,0.399273110116398,1.073334080071709e-10
-0.980625,0.3991140325339226,1.100839004798475e-10
-0.9805625,0.3993526489076357,1.128954908953289e-10
-0.9805,0.3991935713251603,1.157693278453937e-10
-0.9804375,0.399273110116398,1.18706577574061e-10
-0.980375,0.3991935713251603,1.217084241875377e-10
-0.9803125,0.3991935713251603,1.247760698659086e-10
-0.98025,0.3991935713251603,1.279107350765799e-10
-0.9801875,0.3991935713251603,1.311136587894817e-10
-0.980125,0.3993526489076357,1.343860986940385e-10
-0.9800624999999999,0.3993526489076357,1.377293314179142e-10
-0.98,0.3993526489076357,1.411446527475406e-10
-0.9799375,0.3993526489076357,1.446333778504359e-10
-0.9798750000000001,0.3993526489076357,1.481968414993214e-10
-0.9798125,0.399273110116398,1.518363982980447e-10
-0.97975,0.3994321876988735,1.55553422909315e-10
-0.9796875,0.3993526489076357,1.593493102842612e-10
-0.979625,0.3994321876988735,1.632254758938171e-10
-0.9795625,0.3995117264901112,1.671833559619439e-10
-0.9795,0.3995117264901112,1.71224407700697e-10
-0.9794375,0.3995117264901112,1.753501095471428e-10
-0.979375,0.3995912652813489,1.795619614021367e-10
-0.9793125,0.3995912652813489,1.838614848709662e-10
-0.97925,0.3995117264901112,1.882502235058695e-10
-0.9791875,0.3995117264901112,1.927297430504352e-10
-0.979125,0.3995117264901112,1.973016316858922e-10
-0.9790624999999999,0.3995912652813489,2.019675002792956e-10
-0.979,0.3996708040725866,2.067289826336187e-10
-0.9789375,0.3996708040725866,2.115877357397552e-10
-0.9788750000000001,0.3997503428638244,2.165454400304433e-10
-0.9788125,0.3995912652813489,2.216037996361144e-10
-0.97875,0.3995912652813489,2.267645426426786e-10
-0.9786875,0.3997503428638244,2.320294213512513e-10
-0.978625,0.3998298816550621,2.374002125398294e-10
-0.9785625,0.3997503428638244,2.428787177269251e-10
-0.9785,0.3999094204462998,2.484667634371636e-10
-0.9784375,0.3999094204462998,2.541662014688535e-10
-0.978375,0.3999094204462998,2.599789091635359e-10
-0.9783125,0.3998298816550621,2.659067896775212e-10
-0.97825,0.3997503428638244,2.719517722554191e-10
-0.9781875,0.3997503428638244,2.781158125056717e-10
-0.978125,0.3999094204462998,2.844008926780941e-10
-0.9780624999999999,0.3998298816550621,2.908090219434328e-10
-0.978,0.3998298816550621,2.973422366749469e-10
-0.9779375,0.3999094204462998,3.040026007320214e-10
-0.977875,0.3997503428638244,3.107922057458183e-10
-0.9778125,0.3998298816550621,3.177131714069734e-10
-0.97775,0.3999889592375375,3.247676457553477e-10
-0.9776875,0.3999094204462998,3.319578054718371e-10
-0.977625,0.3999889592375375,3.392858561722516e-10
-0.9775625,0.3999889592375375,3.467540327032691e-10
-0.9775,0.3999094204462998,3.543645994404707e-10
-0.9774375,0.4000684980287753,3.621198505884666e-10
-0.977375,0.4000684980287753,3.700221104831183e-10
-0.9773125,0.3999094204462998,3.780737338958653e-10
-0.97725,0.3999094204462998,3.862771063401619e-10
-0.9771875,0.3999094204462998,3.946346443800338e-10
-0.977125,0.3999094204462998,4.031487959407594e-10
-0.9770624999999999,0.3999889592375375,4.118220406216839e-10
-0.977,0.3999094204462998,4.206568900111745e-10
-0.9769375,0.3998298816550621,4.296558880037206e-10
-0.976875,0.3998298816550621,4.388216111191897e-10
-0.9768125,0.3999094204462998,4.481566688242452e-10
-0.97675,0.3997503428638244,4.576637038559302e-10
