Task5_45-3.csv

#Digilent WaveForms Oscilloscope Acquisition
#Device Name: Discovery3
#Serial Number: SN:210415BD63A1
#Date Time: 2026-09-24 10:56:53.077.292.440
#Sample rate: 32000Hz
#Samples: 32000
#Trigger: Source: Channel 1 Type: Edge Condition: Rising Level: 0 V Hyst.: Auto HoldOff: 0 s
#Channel 1: Range: 500 mV/div Offset: 0 V Sample Mode: Average
#Math 1: Input: C1 Reference: Internal Frequency: 20 Hz Phase: 90 ° Filter: IIR Butterworth 8  Low-Pass CutOff: 10 Hz Output: Amplitude

#Wavegen Channel 1: Running
#Mode: Simple
#Type: Sine
#Frequency: 20 Hz
#Period: 50 ms
#Amplitude: 200 mV
#Offset: 0 V
#Symmetry: 50 %
#Phase: 0 °

Time (s),Channel 1 (V),Math 1 (V)
-0.5,0.4763461988257548,4.058717477199426e-25
-0.49996875,0.4761871212432793,6.895731851342061e-24
-0.4999375,0.4762666600345171,5.877790824501352e-23
-0.49990625,0.4761871212432793,3.3742634704953e-22
-0.499875,0.4760280436608039,1.47696759574229e-21
-0.49984375,0.4761075824520416,5.287050048699767e-21
-0.4998125,0.4763461988257548,1.619566015981265e-20
-0.49978125,0.4761871212432793,4.382033132670708e-20
-0.49975,0.4763461988257548,1.071758476529312e-19
-0.49971875,0.4763461988257548,2.41125271092191e-19
-0.4996875,0.4763461988257548,5.057788206328096e-19
-0.49965625,0.4763461988257548,9.996418092222688e-19
-0.499625,0.4762666600345171,1.877408502667082e-18
-0.49959375,0.4761075824520416,3.373393412439672e-18
-0.4995625,0.4761871212432793,5.831685178944332e-18
-0.49953125,0.4761871212432793,9.744200846486728e-18
-0.4995,0.4761871212432793,1.579790997426181e-17
-0.49946875,0.4761871212432793,2.493258866884491e-17
-0.4994375,0.4761871212432793,3.841055326897708e-17
-0.49940625,0.4763461988257548,5.789991207216572e-17
-0.499375,0.4761871212432793,8.557296117188962e-17
-0.49934375,0.4761871212432793,1.242214371784904e-16
-0.4993125,0.4762666600345171,1.773904253313706e-16
-0.49928125,0.4761075824520416,2.495328062833119e-16
-0.49925,0.4762666600345171,3.461862086595643e-16
-0.49921875,0.4761871212432793,4.741745173715663e-16
-0.4991875,0.4762666600345171,6.41836069598498e-16
-0.49915625,0.4762666600345171,8.5928075133728e-16
-0.499125,0.4777778970680339,1.138678287463536e-15
-0.49909375,0.4779369746505093,1.494580097347271e-15
-0.4990625,0.4779369746505093,1.944277166234347e-15
-0.49903125,0.4778574358592716,2.50819645984421e-15
-0.499,0.4779369746505093,3.210338485951014e-15
-0.49896875,0.4779369746505093,4.078758682114992e-15
-0.4989375,0.4778574358592716,5.146095383218385e-15
-0.49890625,0.4779369746505093,6.450147196038281e-15
-0.498875,0.4779369746505093,8.034502680759602e-15
-0.49884375,0.4780165134417471,9.949225311098405e-15
-0.4988125,0.4780165134417471,1.2251596755573e-14
-0.49878125,0.4780165134417471,1.500692159243095e-14
-0.49875,0.4779369746505093,1.828939663981616e-14
-0.49871875,0.4780165134417471,2.218304815094775e-14
-0.4986875,0.4780165134417471,2.678274019139053e-14
-0.49865625,0.4780960522329848,3.219525758193512e-14
-0.498625,0.4780960522329848,3.854046685617661e-14
-0.49859375,0.4779369746505093,4.595255874658257e-14
-0.4985625,0.4780165134417471,5.458137577667642e-14
-0.49853125,0.4780165134417471,6.459382859993599e-14
-0.4985,0.4780165134417471,7.617540478812555e-14
-0.49846875,0.4780165134417471,8.953177383304426e-14
-0.4984375,0.4780960522329848,1.048904921860815e-13
-0.49840625,0.4780165134417471,1.225028122195214e-13
-0.498375,0.4781755910242225,1.426455990522399e-13
-0.49834375,0.4780165134417471,1.656233592402974e-13
-0.4983125,0.4781755910242225,1.917703853899646e-13
-0.49828125,0.4783346686066979,2.214530208069171e-13
-0.49825,0.4782551298154602,2.550720483507132e-13
-0.49821875,0.4782551298154602,2.930652077182196e-13
-0.4981875,0.4781755910242225,3.359098454333855e-13
-0.49815625,0.4782551298154602,3.841257018736862e-13
-0.498125,0.4781755910242225,4.382778397156612e-13
-0.49809375,0.4782551298154602,4.989797182332767e-13
-0.4980625,0.4782551298154602,5.668964179333307e-13
-0.49803125,0.4783346686066979,6.427480200618148e-13
-0.498,0.4783346686066979,7.273131455640448e-13
-0.49796875,0.4783346686066979,8.214326581294744e-13
-0.4979375,0.4783346686066979,9.260135359994409e-13
-0.49790625,0.4784142073979357,1.042032917262617e-12
-0.497875,0.4783346686066979,1.1705423234087e-12
-0.49784375,0.4784142073979357,1.312672065955843e-12
-0.4978125,0.4783346686066979,1.469635841011496e-12
-0.49778125,0.4783346686066979,1.642735516669803e-12
-0.49775,0.4782551298154602,1.833366118191285e-12
-0.49771875,0.4784937461891734,2.043021015952501e-12
-0.4976875,0.4784937461891734,2.273297321194445e-12
-0.49765625,0.4784937461891734,2.52590149463886e-12
-0.497625,0.4784142073979357,2.802655173081274e-12
-0.49759375,0.4784142073979357,3.105501219108479e-12
-0.4975625,0.4784142073979357,3.436509999126335e-12
-0.49753125,0.4784142073979357,3.797885894921238e-12
-0.4975,0.4784142073979357,4.191974054015294e-12
-0.49746875,0.4783346686066979,4.621267384111192e-12
-0.4974375,0.4783346686066979,5.088413796958017e-12
-0.49740625,0.4783346686066979,5.596223707003791e-12
-0.497375,0.4784937461891734,6.14767779023428e-12
-0.49734375,0.4785732849804111,6.745935008630755e-12
-0.4973125,0.4784937461891734,7.394340905711764e-12
-0.49728125,0.4783346686066979,8.096436178655628e-12
-0.49725,0.4783346686066979,8.855965532531415e-12
-0.49721875,0.4784937461891734,9.676886822196389e-12
-0.4971875,0.4784937461891734,1.05633804874475e-11
-0.49715625,0.4785732849804111,1.151985928704339e-11
-0.497125,0.4784937461891734,1.255097833724169e-11
-0.49709375,0.4784937461891734,1.366164546052365e-11
-0.4970625,0.4785732849804111,1.485703185020526e-11
-0.49703125,0.4785732849804111,1.614258305666006e-11
-0.497,0.4786528237716489,1.752403030090427e-11
-0.49696875,0.4785732849804111,1.900740212131983e-11
-0.4969375,0.4783346686066979,2.059903635931498e-11
-0.49690625,0.4786528237716489,2.230559248974559e-11
-0.496875,0.4785732849804111,2.413406430194331e-11
-0.49684375,0.4785732849804111,2.609179293721877e-11
-0.4968125,0.4785732849804111,2.818648028872954e-11
-0.49678125,0.4787323625628866,3.042620276962381e-11
-0.49675,0.4787323625628866,3.281942545539039e-11
-0.49671875,0.4787323625628866,3.537501660636597e-11
-0.4966875,0.4787323625628866,3.810226257636899e-11
-0.49665625,0.4786528237716489,4.101088311344808e-11
-0.496625,0.4787323625628866,4.411104705875081e-11
-0.49659375,0.4786528237716489,4.741338844953543e-11
-0.4965625,0.4787323625628866,5.092902303236483e-11
-0.49653125,0.4788119013541243,5.466956519253792e-11
-0.4965,0.4787323625628866,5.864714530582843e-11
-0.49646875,0.4788914401453621,6.287442751861659e-11
-0.4964375,0.4788914401453621,6.736462796251217e-11
-0.49640625,0.4788119013541243,7.21315334095815e-11
-0.496375,0.4788914401453621,7.718952037430371e-11
-0.49634375,0.4788119013541243,8.25535746683932e-11
-0.4963125,0.4788119013541243,8.823931141463768e-11
-0.49628125,0.4787323625628866,9.426299552591166e-11
-0.49625,0.4788119013541243,1.006415626555356e-10
-0.49621875,0.4788914401453621,1.073926406251611e-10
-0.4961875,0.4789709789365997,1.145345713363719e-10
-0.49615625,0.4788914401453621,1.220864331721982e-10
-0.496125,0.4787323625628866,1.300680638947513e-10
-0.49609375,0.4788119013541243,1.385000840451918e-10
-0.4960625,0.4787323625628866,1.474039208522523e-10
-0.49603125,0.4788914401453621,1.568018326555432e-10
-0.496,0.4788914401453621,1.66716933849872e-10
-0.49596875,0.4788914401453621,1.771732203568172e-10
-0.4959375,0.4789709789365997,1.881955956297987e-10
-0.49590625,0.4789709789365997,1.998098971988927e-10
-0.495875,0.4789709789365997,2.120429237616415e-10
-0.49584375,0.4789709789365997,2.249224628261136e-10
-0.4958125,0.4788914401453621,2.384773189124699e-10
-0.49578125,0.4788914401453621,2.527373423192952e-10
-0.49575,0.4789709789365997,2.677334584609559e-10
-0.49571875,0.4787323625628866,2.834976977822446e-10
-0.4956875,0.4788119013541243,3.000632262565733e-10
-0.49565625,0.4788119013541243,3.174643764739782e-10
-0.495625,0.4788914401453621,3.357366793251962e-10
-0.49559375,0.4789709789365997,3.54916896288073e-10
-0.4955625,0.4789709789365997,3.750430523225617e-10
-0.49553125,0.4788914401453621,3.96154469380569e-10
-0.4955,0.4788119013541243,4.18291800536901e-10
-0.49546875,0.4788914401453621,4.414970647475596e-10
-0.4954375,0.4788119013541243,4.658136822416386e-10
-0.49540625,0.4788914401453621,4.912865105530582e-10
-0.495375,0.4789709789365997,5.179618811983796e-10
-0.49534375,0.4789709789365997,5.458876370069308e-10
-0.4953125,0.4788914401453621,5.751131701094725e-10
-0.49528125,0.4788914401453621,6.056894605916221e-10
-0.49525,0.4788119013541243,6.376691158182559e-10
-0.49521875,0.4789709789365997,6.711064104350911e-10
-0.4951875,0.4788914401453621,7.060573270536533e-10
-0.49515625,0.4788914401453621,7.425795976258165e-10
-0.495125,0.4789709789365997,7.807327455141036e-10
-0.49509375,0.4788914401453621,8.205781282639184e-10
-0.4950625,0.4788914401453621,8.621789810838784e-10
-0.49503125,0.4789709789365997,9.056004610403989e-10
-0.495,0.4789709789365997,9.509096919726784e-10
-0.49496875,0.4789709789365997,9.981758101342164e-10
-0.4949375,0.4788914401453621,1.047470010566987e-09
-0.49490625,0.4788914401453621,1.098865594214381e-09
-0.494875,0.4790505177278375,1.152438015779018e-09
-0.49484375,0.4788914401453621,1.208264932331509e-09
-0.4948125,0.4789709789365997,1.266426252676245e-09
-0.49478125,0.4792095953103129,1.327004187480283e-09
-0.49475,0.4790505177278375,1.390083300171357e-09
-0.49471875,0.4789709789365997,1.455750558611061e-09
-0.4946875,0.4789709789365997,1.524095387549219e-09
-0.49465625,0.4790505177278375,1.595209721865435e-09
-0.494625,0.4789709789365997,1.669188060603827e-09
-0.49459375,0.4789709789365997,1.746127521806896e-09
-0.4945625,0.4790505177278375,1.826127898154506e-09
-0.49453125,0.4788914401453621,1.909291713413892e-09
-0.4945,0.4788914401453621,1.995724279706633e-09
-0.49446875,0.4790505177278375,2.085533755598486e-09
-0.4944375,0.4789709789365997,2.178831205017966e-09
-0.49440625,0.4790505177278375,2.275730657009539e-09
-0.494375,0.4788914401453621,2.376349166327283e-09
-0.49434375,0.4789709789365997,2.480806874874833e-09
-0.4943125,0.4789709789365997,2.589227073997434e-09
-0.49428125,0.4788119013541243,2.701736267631879e-09
-0.49425,0.4788914401453621,2.818464236320115e-09
-0.49421875,0.4789709789365997,2.939544102092247e-09
-0.4941875,0.4788914401453621,3.065112394224686e-09
-0.49415625,0.4789709789365997,3.195309115879142e-09
-0.494125,0.4788914401453621,3.330277811628138e-09
-0.49409375,0.4788914401453621,3.470165635872715e-09
-0.4940625,0.4788914401453621,3.615123422157974e-09
-0.49403125,0.4788914401453621,3.76530575339205e-09
-0.494,0.4788119013541243,3.920871032974147e-09
-0.49396875,0.4788914401453621,4.081981556837159e-09
-0.4939375,0.4788119013541243,4.248803586410475e-09
-0.49390625,0.4788119013541243,4.421507422508439e-09
-0.493875,0.4788914401453621,4.600267480150001e-09
-0.49384375,0.4788119013541243,4.785262364315017e-09
-0.4938125,0.4788119013541243,4.976674946642635e-09
-0.49378125,0.4788119013541243,5.174692443077211e-09
-0.49375,0.4787323625628866,5.37950649246713e-09
-0.49371875,0.4786528237716489,5.591313236121923e-09
-0.4936875,0.4787323625628866,5.810313398332984e-09
-0.49365625,0.4788119013541243,6.03671236786326e-09
-0.493625,0.4789709789365997,6.27072028041115e-09
-0.49359375,0.4788119013541243,6.512552102053902e-09
-0.4935625,0.4786528237716489,6.762427713675734e-09
-0.49353125,0.4787323625628866,7.020571996385884e-09
-0.4935,0.4787323625628866,7.287214917931759e-09
-0.49346875,0.4784937461891734,7.562591620112359e-09
-0.4934375,0.4784937461891734,7.846942507197033e-09
-0.49340625,0.4787323625628866,8.140513335354737e-09
-0.493375,0.4785732849804111,8.443555303098791e-09
-0.49334375,0.4786528237716489,8.756325142752175e-09
-0.4933125,0.4785732849804111,9.079085212938391e-09
-0.49328125,0.4786528237716489,9.412103592102834e-09
-0.49325,0.4785732849804111,9.755654173069625e-09
-0.49321875,0.4785732849804111,1.011001675863877e-08
-0.4931875,0.4785732849804111,1.047547715822861e-08
-0.49315625,0.4786528237716489,1.085232728556829e-08
-0.493125,0.4785732849804111,1.124086525744515e-08
-0.49309375,0.4784937461891734,1.164139549351179e-08
-0.4930625,0.4785732849804111,1.205422881715751e-08
-0.49303125,0.4784937461891734,1.247968255744892e-08
-0.493,0.4784142073979357,1.291808065214434e-08
-0.49296875,0.4784142073979357,1.33697537517866e-08
-0.4929375,0.4784937461891734,1.383503932487903e-08
-0.49290625,0.4785732849804111,1.431428176414898e-08
-0.492875,0.4785732849804111,1.480783249390357e-08
-0.49284375,0.4786528237716489,1.531605007848217e-08
-0.4928125,0.4784142073979357,1.583930033181002e-08
-0.49278125,0.4785732849804111,1.637795642805748e-08
-0.49275,0.4785732849804111,1.693239901340932e-08
-0.49271875,0.4783346686066979,1.750301631894841e-08
-0.4926875,0.4784142073979357,1.809020427465805e-08
-0.49265625,0.4785732849804111,1.869436662454753e-08
-0.492625,0.4784937461891734,1.931591504290475e-08
-0.49259375,0.4783346686066979,1.995526925168053e-08
-0.4925625,0.4784937461891734,2.061285713900856e-08
-0.49253125,0.4785732849804111,2.128911487886521e-08
-0.4925,0.4784142073979357,2.198448705187336e-08
-0.49246875,0.4783346686066979,2.269942676725424e-08
-0.4924375,0.4784937461891734,2.343439578593143e-08
-0.49240625,0.4784937461891734,2.418986464479086e-08
-0.492375,0.4784142073979357,2.496631278210104e-08
-0.49234375,0.4784937461891734,2.576422866409714e-08
-0.4923125,0.4784937461891734,2.658410991273301e-08
-0.49228125,0.4784142073979357,2.742646343460501e-08
-0.49225,0.4784142073979357,2.829180555105124e-08
-0.49221875,0.4784937461891734,2.918066212943026e-08
-0.4921875,0.4783346686066979,3.009356871558274e-08
-0.49215625,0.4783346686066979,3.103107066747995e-08
-0.492125,0.4780960522329848,3.199372329006258e-08
-0.49209375,0.4782551298154602,3.298209197127365e-08
-0.4920625,0.4782551298154602,3.3996752319289e-08
-0.49203125,0.4781755910242225,3.503829030094893e-08
-0.492,0.4782551298154602,3.610730238139438e-08
-0.49196875,0.4781755910242225,3.720439566491136e-08
-0.4919375,0.4781755910242225,3.833018803698673e-08
-0.49190625,0.4782551298154602,3.948530830757892e-08
-0.491875,0.4780960522329848,4.067039635560682e-08
-0.49184375,0.4780960522329848,4.188610327466025e-08
-0.4918125,0.4780960522329848,4.313309151993504e-08
-0.49178125,0.4780960522329848,4.441203505639616e-08
-0.49175,0.4780960522329848,4.572361950817195e-08
-0.49171875,0.4780960522329848,4.706854230918261e-08
-0.4916875,0.4781755910242225,4.844751285500588e-08
-0.49165625,0.4780165134417471,4.986125265598339e-08
-0.491625,0.4780165134417471,5.131049549156995e-08
-0.49159375,0.4780165134417471,5.279598756592954e-08
-0.4915625,0.4782551298154602,5.431848766478033e-08
-0.49153125,0.4780960522329848,5.587876731349185e-08
-0.4915,0.4780165134417471,5.747761093643704e-08
-0.49146875,0.4780165134417471,5.911581601760213e-08
-0.4914375,0.4780165134417471,6.079419326245681e-08
-0.49140625,0.4778574358592716,6.251356676108765e-08
-0.491375,0.4780165134417471,6.427477415259734e-08
-0.49134375,0.4779369746505093,6.607866679077221e-08
-0.4913125,0.4778574358592716,6.792610991102088e-08
-0.49128125,0.4780165134417471,6.981798279858627e-08
-0.49125,0.4779369746505093,7.175517895803368e-08
-0.49121875,0.4779369746505093,7.373860628401725e-08
-0.4911875,0.4778574358592716,7.576918723332711e-08
-0.49115625,0.4776983582767961,7.784785899821991e-08
-0.491125,0.4777778970680339,7.997557368103449e-08
-0.49109375,0.4778574358592716,8.215329847009547e-08
-0.4910625,0.4778574358592716,8.438201581690654e-08
-0.49103125,0.4777778970680339,8.666272361463612e-08
-0.491,0.4777778970680339,8.899643537789691e-08
-0.49096875,0.4777778970680339,9.138418042382171e-08
-0.4909375,0.4778574358592716,9.382700405443775e-08
-0.49090625,0.4776188194855584,9.632596774034113e-08
-0.490875,0.4776983582767961,9.888214930567342e-08
-0.49084375,0.4777778970680339,1.014966431144025e-07
-0.4908125,0.4777778970680339,1.041705602579093e-07
-0.49078125,0.4776188194855584,1.069050287438822e-07
-0.49075,0.4776983582767961,1.097011936865209e-07
-0.49071875,0.4776188194855584,1.125602174980518e-07
-0.4906875,0.4776983582767961,1.15483280081556e-07
-0.49065625,0.4778574358592716,1.184715790251115e-07
-0.490625,0.4778574358592716,1.215263297972524e-07
-0.49059375,0.4777778970680339,1.246487659437442e-07
-0.4905625,0.4777778970680339,1.278401392856797e-07
-0.49053125,0.4776983582767961,1.311017201188945e-07
-0.4905,0.4777778970680339,1.344347974147042e-07
-0.49046875,0.4777778970680339,1.378406790219656e-07
-0.4904375,0.4778574358592716,1.413206918704618e-07
-0.49040625,0.4779369746505093,1.448761821756128e-07
-0.490375,0.4778574358592716,1.485085156445137e-07
-0.49034375,0.4778574358592716,1.522190776833008e-07
-0.4903125,0.4780165134417471,1.560092736058461e-07
-0.49028125,0.4779369746505093,1.598805288437832e-07
-0.49025,0.4779369746505093,1.638342891578639e-07
-0.49021875,0.4778574358592716,1.678720208506462e-07
-0.4901875,0.4778574358592716,1.719952109805172e-07
-0.49015625,0.4780165134417471,1.762053675770479e-07
-0.490125,0.4778574358592716,1.805040198576846e-07
-0.49009375,0.4779369746505093,1.848927184457744e-07
-0.4900625,0.4780960522329848,1.893730355899282e-07
-0.49003125,0.4780165134417471,1.939465653847192e-07
-0.49,0.4780165134417471,1.986149239927206e-07
-0.48996875,0.4779369746505093,2.033797498678803e-07
-0.4899375,0.4779369746505093,2.082427039802342e-07
-0.48990625,0.4780960522329848,2.132054700419596e-07
-0.489875,0.4780960522329848,2.182697547347673e-07
-0.48984375,0.4780960522329848,2.234372879386341e-07
-0.4898125,0.4780165134417471,2.287098229618752e-07
-0.48978125,0.4781755910242225,2.340891367725578e-07
-0.48975,0.4781755910242225,2.395770302312546e-07
-0.48971875,0.4780960522329848,2.451753283251399e-07
-0.4896875,0.4781755910242225,2.508858804034244e-07
-0.48965625,0.4780960522329848,2.567105604141341e-07
-0.489625,0.4782551298154602,2.62651267142228e-07
-0.48959375,0.4780960522329848,2.687099244490591e-07
-0.4895625,0.4780960522329848,2.748884815131746e-07
-0.48953125,0.4780960522329848,2.811889130724596e-07
-0.4895,0.4781755910242225,2.876132196676197e-07
-0.48946875,0.4780960522329848,2.941634278870056e-07
-0.4894375,0.4781755910242225,3.008415906127778e-07
-0.48940625,0.4781755910242225,3.076497872684121e-07
-0.489375,0.4780960522329848,3.145901240675439e-07
-0.48934375,0.4780960522329848,3.216647342641537e-07
-0.4893125,0.4780960522329848,3.288757784040898e-07
-0.48928125,0.4780960522329848,3.362254445779312e-07
-0.48925,0.4781755910242225,3.437159486751876e-07
-0.48921875,0.4781755910242225,3.513495346398372e-07
-0.4891875,0.4781755910242225,3.591284747272018e-07
-0.48915625,0.4781755910242225,3.670550697621572e-07
-0.489125,0.4783346686066979,3.751316493986793e-07
-0.48909375,0.4782551298154602,3.833605723807256e-07
-0.4890625,0.4781755910242225,3.917442268044493e-07
-0.48903125,0.4782551298154602,4.002850303817478e-07
-0.489,0.4783346686066979,4.089854307051414e-07
-0.48896875,0.4783346686066979,4.178479055139852e-07
-0.4889375,0.4781755910242225,4.26874962962009e-07
-0.48890625,0.4782551298154602,4.360691418861876e-07
-0.488875,0.4781755910242225,4.454330120769384e-07
-0.48884375,0.4782551298154602,4.549691745496452e-07
-0.4888125,0.4782551298154602,4.646802618175081e-07
-0.48878125,0.4782551298154602,4.745689381657179e-07
-0.48875,0.4782551298154602,4.846378999269522e-07
-0.48871875,0.4784142073979357,4.948898757581939e-07
-0.4886875,0.4783346686066979,5.053276269188701e-07
-0.48865625,0.4784142073979357,5.159539475503077e-07
-0.488625,0.4782551298154602,5.267716649565089e-07
-0.48859375,0.4783346686066979,5.377836398862401e-07
-0.4885625,0.4784142073979357,5.489927668164353e-07
-0.48853125,0.4784142073979357,5.604019742369135e-07
-0.4885,0.4782551298154602,5.720142249364025e-07
-0.48846875,0.4784142073979357,5.838325162898773e-07
-0.4884375,0.4784142073979357,5.958598805471997e-07
-0.48840625,0.4783346686066979,6.080993851230679e-07
