Task5_45+1.csv

#Digilent WaveForms Oscilloscope Acquisition
#Device Name: Discovery3
#Serial Number: SN:210415BD63A1
#Date Time: 2026-09-24 10:50:28.518.081.090
#Sample rate: 32000Hz
#Samples: 32000
#Trigger: Source: Channel 1 Type: Edge Condition: Rising Level: 0 V Hyst.: Auto HoldOff: 0 s
#Channel 1: Range: 500 mV/div Offset: 0 V Sample Mode: Average
#Math 1: Input: C1 Reference: Internal Frequency: 20 Hz Phase: 90 ° Filter: IIR Butterworth 8  Low-Pass CutOff: 10 Hz Output: Amplitude

#Wavegen Channel 1: Running
#Mode: Simple
#Type: Sine
#Frequency: 20 Hz
#Period: 50 ms
#Amplitude: 200 mV
#Offset: 0 V
#Symmetry: 50 %
#Phase: 0 °

Time (s),Channel 1 (V),Math 1 (V)
-0.5,0.4064316013277934,3.500741083425311e-25
-0.49996875,0.4065111401190311,5.947870555299828e-24
-0.4999375,0.4065906789102688,5.069961612009129e-23
-0.49990625,0.4065111401190311,2.910571584826724e-22
-0.499875,0.4062725237453179,1.274026120187856e-21
-0.49984375,0.4064316013277934,4.560665170158492e-21
-0.4998125,0.4064316013277934,1.397076511741602e-20
-0.49978125,0.4064316013277934,3.780100631985422e-20
-0.49975,0.4065111401190311,9.245496155565315e-20
-0.49971875,0.4064316013277934,2.08008484437144e-19
-0.4996875,0.4065906789102688,4.363183049823164e-19
-0.49965625,0.4065111401190311,8.623650525084351e-19
-0.499625,0.4065111401190311,1.619604449522962e-18
-0.49959375,0.4064316013277934,2.910182073926202e-18
-0.4995625,0.4066702177015066,5.030947873500688e-18
-0.49953125,0.4064316013277934,8.406286536782348e-18
-0.4995,0.4065906789102688,1.362885887708695e-17
-0.49946875,0.4065111401190311,2.150942757397886e-17
-0.4994375,0.4065906789102688,3.313701794669648e-17
-0.49940625,0.4066702177015066,4.995074091639001e-17
-0.499375,0.4065906789102688,7.382468095372659e-17
-0.49934375,0.4065111401190311,1.071673266063996e-16
-0.4993125,0.4065906789102688,1.530370951583542e-16
-0.49928125,0.4065906789102688,2.152755760925978e-16
-0.49925,0.4065906789102688,2.986601903165315e-16
-0.49921875,0.4067497564927443,4.090780335661547e-16
-0.4991875,0.4065111401190311,5.53722743036993e-16
-0.49915625,0.4066702177015066,7.413162961009556e-16
-0.499125,0.4066702177015066,9.823577189661677e-16
-0.49909375,0.4065906789102688,1.289400751326307e-15
-0.4990625,0.4066702177015066,1.677362580430684e-15
-0.49903125,0.4066702177015066,2.163865824589458e-15
-0.499,0.4065111401190311,2.76961601191245e-15
-0.49896875,0.4065906789102688,3.518816865065724e-15
-0.4989375,0.4066702177015066,4.439625767017811e-15
-0.49890625,0.4067497564927443,5.564651846139108e-15
-0.498875,0.4066702177015066,6.931499181617578e-15
-0.49884375,0.4066702177015066,8.58335769196653e-15
-0.4988125,0.4065906789102688,1.056964433043286e-14
-0.49878125,0.4066702177015066,1.294669727137205e-14
-0.49875,0.4065906789102688,1.577852583114308e-14
-0.49871875,0.4067497564927443,1.913761892579418e-14
-0.4986875,0.4065906789102688,2.310581492576337e-14
-0.49865625,0.4066702177015066,2.77752358250096e-14
-0.498625,0.4067497564927443,3.324928869842366e-14
-0.49859375,0.4067497564927443,3.964373747704571e-14
-0.4985625,0.4067497564927443,4.708784812554709e-14
-0.49853125,0.406829295283982,5.572561036062027e-14
-0.4985,0.406829295283982,6.571703910237025e-14
-0.49846875,0.4067497564927443,7.723955890350709e-14
-0.4984375,0.4066702177015066,9.048947465310672e-14
-0.49840625,0.406829295283982,1.056835319029374e-13
-0.498375,0.4067497564927443,1.230605702148534e-13
-0.49834375,0.4066702177015066,1.428832729775409e-13
-0.4983125,0.4067497564927443,1.654400171899679e-13
-0.49828125,0.4066702177015066,1.910468267572418e-13
-0.49825,0.406829295283982,2.200494328922057e-13
-0.49821875,0.406829295283982,2.528254452630192e-13
-0.4981875,0.406829295283982,2.89786637573173e-13
-0.49815625,0.406829295283982,3.313813513058939e-13
-0.498125,0.4069088340752197,3.780970214096984e-13
-0.49809375,0.4067497564927443,4.304628277459712e-13
-0.4980625,0.4069088340752197,4.890524761628664e-13
-0.49803125,0.406829295283982,5.544871131025613e-13
-0.498,0.4069088340752197,6.274383776909455e-13
-0.49796875,0.4069088340752197,7.086315953001811e-13
-0.4979375,0.4069883728664574,7.988491166152524e-13
-0.49790625,0.4072269892401706,8.989338062756118e-13
-0.497875,0.4069883728664574,1.009792685202355e-12
-0.49784375,0.4071474504489329,1.132400730760002e-12
-0.4978125,0.4072269892401706,1.267804838939946e-12
-0.49778125,0.4072269892401706,1.417127952789942e-12
-0.49775,0.4071474504489329,1.581573361350687e-12
-0.49771875,0.4071474504489329,1.762429173396495e-12
-0.4976875,0.4071474504489329,1.961072970312474e-12
-0.49765625,0.4071474504489329,2.178976642475238e-12
-0.497625,0.4072269892401706,2.417711413538274e-12
-0.49759375,0.4070679116576952,2.678953057056488e-12
-0.4975625,0.4072269892401706,2.964487309917168e-12
-0.49753125,0.4072269892401706,3.276215487076777e-12
-0.4975,0.4072269892401706,3.616160302134461e-12
-0.49746875,0.4073065280314084,3.986471898304001e-12
-0.4974375,0.4073065280314084,4.389434094376248e-12
-0.49740625,0.4071474504489329,4.82747085029363e-12
-0.497375,0.4072269892401706,5.303152956987373e-12
-0.49734375,0.4073065280314084,5.819204955156417e-12
-0.4973125,0.4073860668226461,6.378512287694772e-12
-0.49728125,0.4073065280314084,6.984128690501214e-12
-0.49725,0.4073065280314084,7.639283826431715e-12
-0.49721875,0.4072269892401706,8.347391167181004e-12
-0.4971875,0.4072269892401706,9.112056127904895e-12
-0.49715625,0.4072269892401706,9.937084459419872e-12
-0.497125,0.4073065280314084,1.082649090284045e-11
-0.49709375,0.4073065280314084,1.178450811153848e-11
-0.4970625,0.4072269892401706,1.281559584533156e-11
-0.49703125,0.4073065280314084,1.392445044183004e-11
-0.497,0.4072269892401706,1.511601456989401e-11
-0.49696875,0.4073065280314084,1.639548727017291e-11
-0.4969375,0.4072269892401706,1.776833428772108e-11
-0.49690625,0.4073065280314084,1.924029870170253e-11
-0.496875,0.4073860668226461,2.081741185721808e-11
-0.49684375,0.4074656056138838,2.250600460430646e-11
-0.4968125,0.4073065280314084,2.431271884919007e-11
-0.49678125,0.4073860668226461,2.624451942285317e-11
-0.49675,0.4073860668226461,2.830870627205829e-11
-0.49671875,0.4073860668226461,3.05129269779229e-11
-0.4966875,0.4073860668226461,3.286518960719482e-11
-0.49665625,0.4073860668226461,3.537387590138063e-11
-0.496625,0.4074656056138838,3.804775480889603e-11
-0.49659375,0.4073065280314084,4.089599636542228e-11
-0.4965625,0.4073860668226461,4.392818592766635e-11
-0.49653125,0.4073860668226461,4.715433876573627e-11
-0.4965,0.4073065280314084,5.058491501935609e-11
-0.49646875,0.4073860668226461,5.423083502315721e-11
-0.4964375,0.4073860668226461,5.810349500629482e-11
-0.49640625,0.4074656056138838,6.221478317164989e-11
-0.496375,0.4074656056138838,6.657709615988758e-11
-0.49634375,0.4073860668226461,7.120335590365394e-11
-0.4963125,0.4073860668226461,7.610702687720212e-11
-0.49628125,0.4075451444051216,8.130213374674902e-11
-0.49625,0.4075451444051216,8.680327942687228e-11
-0.49621875,0.4075451444051216,9.262566354826559e-11
-0.4961875,0.4073860668226461,9.878510134217842e-11
-0.49615625,0.4075451444051216,1.052980429468738e-10
-0.496125,0.4076246831963592,1.121815931414443e-10
-0.49609375,0.4076246831963592,1.194535315123336e-10
-0.4960625,0.407704221987597,1.271323330579152e-10
-0.49603125,0.4074656056138838,1.352371892364885e-10
-0.496,0.4074656056138838,1.437880294630532e-10
-0.49596875,0.4074656056138838,1.528055430602318e-10
-0.4959375,0.4076246831963592,1.623112016687112e-10
-0.49590625,0.4075451444051216,1.723272821225771e-10
-0.495875,0.4076246831963592,1.828768897949235e-10
-0.49584375,0.4075451444051216,1.939839824191143e-10
-0.4958125,0.4076246831963592,2.05673394391083e-10
-0.49578125,0.407704221987597,2.179708615580535e-10
-0.49575,0.407704221987597,2.309030464990712e-10
-0.49571875,0.407704221987597,2.444975643027271e-10
-0.4956875,0.4076246831963592,2.587830088474675e-10
-0.49565625,0.4077837607788347,2.737889795898722e-10
-0.495625,0.407704221987597,2.895461088662914e-10
-0.49559375,0.407704221987597,3.060860897132254e-10
-0.4955625,0.4077837607788347,3.234417042118333e-10
-0.49553125,0.4078632995700724,3.416468523619521e-10
-0.4955,0.4078632995700724,3.607365814910088e-10
-0.49546875,0.4077837607788347,3.807471162032012e-10
-0.4954375,0.407704221987597,4.017158888743252e-10
-0.49540625,0.407704221987597,4.236815706976168e-10
-0.495375,0.4077837607788347,4.466841032859795e-10
-0.49534375,0.4077837607788347,4.70764730835958e-10
-0.4953125,0.4078632995700724,4.959660328588171e-10
-0.49528125,0.407704221987597,5.223319574840804e-10
-0.49525,0.4077837607788347,5.499078553408733e-10
-0.49521875,0.407704221987597,5.787405140224168e-10
-0.4951875,0.4077837607788347,6.088781931390016e-10
-0.49515625,0.4079428383613102,6.403706599647757e-10
-0.495125,0.4078632995700724,6.732692256836642e-10
-0.49509375,0.4078632995700724,7.076267822397357e-10
-0.4950625,0.4077837607788347,7.434978397973207e-10
-0.49503125,0.4079428383613102,7.809385648161802e-10
-0.495,0.4078632995700724,8.200068187470117e-10
-0.49496875,0.4078632995700724,8.607621973525736e-10
-0.4949375,0.4078632995700724,9.032660706596956e-10
-0.49490625,0.4077837607788347,9.475816235474374e-10
-0.494875,0.4077837607788347,9.937738969766435e-10
-0.49484375,0.4077837607788347,1.041909829866136e-09
-0.4948125,0.4077837607788347,1.092058301620766e-09
-0.49478125,0.4077837607788347,1.144290175316553e-09
-0.49475,0.4078632995700724,1.198678341548103e-09
-0.49471875,0.4078632995700724,1.255297762943506e-09
-0.4946875,0.4079428383613102,1.314225519351892e-09
-0.49465625,0.4078632995700724,1.375540853708813e-09
-0.494625,0.4078632995700724,1.439325218584601e-09
-0.49459375,0.4080223771525479,1.505662323420844e-09
-0.4945625,0.4079428383613102,1.574638182460115e-09
-0.49453125,0.4078632995700724,1.646341163374055e-09
-0.4945,0.4078632995700724,1.720862036594903e-09
-0.49446875,0.4079428383613102,1.798294025355583e-09
-0.4944375,0.4078632995700724,1.878732856443379e-09
-0.49440625,0.4077837607788347,1.962276811672276e-09
-0.494375,0.4078632995700724,2.049026780078992e-09
-0.49434375,0.4077837607788347,2.139086310847728e-09
-0.4943125,0.4079428383613102,2.232561666968621e-09
-0.49428125,0.4079428383613102,2.329561879634915e-09
-0.49425,0.4079428383613102,2.430198803383785e-09
-0.49421875,0.4079428383613102,2.534587171985796e-09
-0.4941875,0.4081019159437856,2.642844655087908e-09
-0.49415625,0.4079428383613102,2.755091915614958e-09
-0.494125,0.4079428383613102,2.87145266793449e-09
-0.49409375,0.4080223771525479,2.992053736789854e-09
-0.4940625,0.4080223771525479,3.117025117006376e-09
-0.49403125,0.4080223771525479,3.246500033975495e-09
-0.494,0.4079428383613102,3.380615004921638e-09
-0.49396875,0.4078632995700724,3.519509900956667e-09
-0.4939375,0.4080223771525479,3.66332800992665e-09
-0.49390625,0.4080223771525479,3.812216100055736e-09
-0.493875,0.4080223771525479,3.966324484391854e-09
-0.49384375,0.4079428383613102,4.125807086058963e-09
-0.4938125,0.4078632995700724,4.290821504320534e-09
-0.49378125,0.4079428383613102,4.461529081458959e-09
-0.49375,0.4078632995700724,4.638094970475509e-09
-0.49371875,0.4079428383613102,4.820688203615485e-09
-0.4936875,0.4077837607788347,5.009481761723171e-09
-0.49365625,0.4079428383613102,5.204652644431158e-09
-0.493625,0.4079428383613102,5.4063819411886e-09
-0.49359375,0.4080223771525479,5.614854903132953e-09
-0.4935625,0.4079428383613102,5.830261015809684e-09
-0.49353125,0.4078632995700724,6.052794072744456e-09
-0.4935,0.4079428383613102,6.28265224987225e-09
-0.49346875,0.4079428383613102,6.520038180827846e-09
-0.4934375,0.4078632995700724,6.765159033102098e-09
-0.49340625,0.4079428383613102,7.018226585068381e-09
-0.493375,0.4079428383613102,7.279457303883574e-09
-0.49334375,0.4079428383613102,7.549072424267909e-09
-0.4933125,0.4077837607788347,7.827298028168026e-09
-0.49328125,0.4077837607788347,8.114365125307461e-09
-0.49325,0.4079428383613102,8.410509734628915e-09
-0.49321875,0.4078632995700724,8.715972966632434e-09
-0.4931875,0.4078632995700724,9.031001106613799e-09
-0.49315625,0.4078632995700724,9.35584569880722e-09
-0.493125,0.407704221987597,9.690763631436579e-09
-0.49309375,0.4078632995700724,1.003601722267924e-08
-0.4930625,0.4078632995700724,1.039187430754661e-08
-0.49303125,0.4078632995700724,1.075860832568548e-08
-0.493,0.4077837607788347,1.113649841010416e-08
-0.49296875,0.4077837607788347,1.152582947682751e-08
-0.4929375,0.4078632995700724,1.19268923154847e-08
-0.49290625,0.4079428383613102,1.233998368083384e-08
-0.492875,0.4077837607788347,1.276540638522718e-08
-0.49284375,0.407704221987597,1.320346939202105e-08
-0.4928125,0.4076246831963592,1.36544879099341e-08
-0.49278125,0.4076246831963592,1.411878348835795e-08
-0.49275,0.4077837607788347,1.45966841136238e-08
-0.49271875,0.407704221987597,1.50885243062291e-08
-0.4926875,0.4076246831963592,1.55946452190276e-08
-0.49265625,0.4076246831963592,1.611539473638693e-08
-0.492625,0.4076246831963592,1.665112757431703e-08
-0.49259375,0.407704221987597,1.720220538157334e-08
-0.4925625,0.4076246831963592,1.776899684173826e-08
-0.49253125,0.4076246831963592,1.835187777628437e-08
-0.4925,0.4076246831963592,1.895123124862324e-08
-0.49246875,0.4076246831963592,1.956744766914307e-08
-0.4924375,0.4074656056138838,2.020092490123881e-08
-0.49240625,0.4075451444051216,2.085206836833817e-08
-0.492375,0.407704221987597,2.1521291161927e-08
-0.49234375,0.4075451444051216,2.220901415057734e-08
-0.4923125,0.4075451444051216,2.291566608998161e-08
-0.49228125,0.407704221987597,2.364168373399619e-08
-0.49225,0.4075451444051216,2.438751194669775e-08
-0.49221875,0.4074656056138838,2.515360381545549e-08
-0.4921875,0.4074656056138838,2.594042076502268e-08
-0.49215625,0.4073860668226461,2.674843267265053e-08
-0.492125,0.4074656056138838,2.757811798422767e-08
-0.49209375,0.4074656056138838,2.842996383144834e-08
-0.4920625,0.4074656056138838,2.930446615001232e-08
-0.49203125,0.4073860668226461,3.02021297988597e-08
-0.492,0.4073860668226461,3.112346868044363e-08
-0.49196875,0.4073065280314084,3.206900586204381e-08
-0.4919375,0.4073860668226461,3.303927369812387e-08
-0.49190625,0.4073860668226461,3.403481395373546e-08
-0.491875,0.4073065280314084,3.5056177928972e-08
-0.49184375,0.4073860668226461,3.610392658447482e-08
-0.4918125,0.4073860668226461,3.71786306679947e-08
-0.49178125,0.4073860668226461,3.828087084201145e-08
-0.49175,0.4073860668226461,3.941123781241418e-08
-0.49171875,0.4072269892401706,4.057033245824527e-08
-0.4916875,0.4072269892401706,4.175876596251038e-08
-0.49165625,0.4073065280314084,4.297715994405738e-08
-0.491625,0.4073065280314084,4.422614659052663e-08
-0.49159375,0.4072269892401706,4.550636879237525e-08
-0.4915625,0.4072269892401706,4.681848027797796e-08
-0.49153125,0.4073065280314084,4.816314574980686e-08
-0.4915,0.4072269892401706,4.954104102169263e-08
-0.49146875,0.4073860668226461,5.095285315716964e-08
-0.4914375,0.4072269892401706,5.239928060890728e-08
-0.49140625,0.4073065280314084,5.388103335922991e-08
-0.491375,0.4072269892401706,5.539883306172749e-08
-0.49134375,0.4071474504489329,5.695341318395973e-08
-0.4913125,0.4071474504489329,5.854551915125517e-08
-0.49128125,0.4071474504489329,6.017590849160819e-08
-0.49125,0.4071474504489329,6.184535098167543e-08
-0.49121875,0.4070679116576952,6.355462879387435e-08
-0.4911875,0.4069088340752197,6.530453664458535e-08
-0.49115625,0.4069088340752197,6.709588194346002e-08
-0.491125,0.4069088340752197,6.892948494383745e-08
-0.49109375,0.4069088340752197,7.080617889427002e-08
-0.4910625,0.4069088340752197,7.272681019116141e-08
-0.49103125,0.4069088340752197,7.46922385325182e-08
-0.491,0.4067497564927443,7.670333707281683e-08
-0.49096875,0.4069088340752197,7.876099257898818e-08
-0.4909375,0.4069088340752197,8.086610558752099e-08
-0.49090625,0.4069088340752197,8.301959056268642e-08
-0.490875,0.4069088340752197,8.522237605588482e-08
-0.49084375,0.4069088340752197,8.747540486611692e-08
-0.4908125,0.4066702177015066,8.977963420158062e-08
-0.49078125,0.4067497564927443,9.213603584239526e-08
-0.49075,0.4067497564927443,9.45455963044548e-08
-0.49071875,0.406829295283982,9.700931700441122e-08
-0.4906875,0.4066702177015066,9.952821442578986e-08
-0.49065625,0.4066702177015066,1.021033202862379e-07
-0.490625,0.4066702177015066,1.047356817059077e-07
-0.49059375,0.4065906789102688,1.074263613769756e-07
-0.4905625,0.4065906789102688,1.101764377342985e-07
-0.49053125,0.4065111401190311,1.129870051272083e-07
-0.4905,0.4065906789102688,1.158591739924468e-07
-0.49046875,0.4065906789102688,1.187940710282407e-07
-0.4904375,0.4065906789102688,1.21792839369519e-07
-0.49040625,0.4065906789102688,1.248566387642734e-07
-0.490375,0.4064316013277934,1.279866457510626e-07
-0.49034375,0.4062725237453179,1.311840538376625e-07
-0.4903125,0.4064316013277934,1.344500736808612e-07
-0.49028125,0.4064316013277934,1.377859332674023e-07
-0.49025,0.4064316013277934,1.411928780960751e-07
-0.49021875,0.4064316013277934,1.446721713609545e-07
-0.4901875,0.4064316013277934,1.482250941357895e-07
-0.49015625,0.4063520625365556,1.51852945559543e-07
-0.490125,0.4063520625365556,1.555570430230816e-07
-0.49009375,0.4063520625365556,1.593387223570179e-07
-0.4900625,0.4065111401190311,1.63199338020705e-07
-0.49003125,0.4065111401190311,1.671402632923839e-07
-0.49,0.4064316013277934,1.71162890460484e-07
-0.48996875,0.4065906789102688,1.752686310160784e-07
-0.4899375,0.4065906789102688,1.794589158464934e-07
-0.48990625,0.4065111401190311,1.837351954300724e-07
-0.489875,0.4065111401190311,1.88098940032096e-07
-0.48984375,0.4065906789102688,1.925516399018574e-07
-0.4898125,0.4064316013277934,1.970948054708934e-07
-0.48978125,0.4065111401190311,2.017299675523727e-07
-0.48975,0.4065111401190311,2.064586775416391e-07
-0.48971875,0.4064316013277934,2.112825076179131e-07
-0.4896875,0.4063520625365556,2.162030509471492e-07
-0.48965625,0.4065111401190311,2.212219218860503e-07
-0.489625,0.4065111401190311,2.263407561872391e-07
-0.48959375,0.4065906789102688,2.315612112055871e-07
-0.4895625,0.4065111401190311,2.368849661056994e-07
-0.48953125,0.4064316013277934,2.423137220705571e-07
-0.4895,0.4064316013277934,2.478492025113169e-07
-0.48946875,0.4064316013277934,2.534931532782663e-07
-0.4894375,0.4064316013277934,2.59247342872936e-07
-0.48940625,0.4064316013277934,2.651135626613683e-07
-0.489375,0.4065111401190311,2.710936270885414e-07
-0.48934375,0.4065111401190311,2.771893738939493e-07
-0.4893125,0.4065111401190311,2.83402664328337e-07
-0.48928125,0.4065111401190311,2.897353833715909e-07
-0.48925,0.4064316013277934,2.961894399517824e-07
-0.48921875,0.4065906789102688,3.027667671653673e-07
-0.4891875,0.4066702177015066,3.094693224985371e-07
-0.48915625,0.4066702177015066,3.162990880497232e-07
-0.489125,0.4066702177015066,3.232580707532548e-07
-0.48909375,0.4065111401190311,3.303483026041661e-07
-0.4890625,0.4065111401190311,3.375718408841567e-07
-0.48903125,0.4065111401190311,3.449307683886995e-07
-0.489,0.4066702177015066,3.52427193655301e-07
-0.48896875,0.4065906789102688,3.600632511929077e-07
-0.4889375,0.4066702177015066,3.678411017124609e-07
-0.48890625,0.4067497564927443,3.757629323585986e-07
-0.488875,0.4066702177015066,3.838309569425033e-07
-0.48884375,0.4066702177015066,3.920474161758938e-07
-0.4888125,0.4067497564927443,4.004145779061611e-07
-0.48878125,0.4065906789102688,4.089347373526478e-07
-0.48875,0.4066702177015066,4.17610217344068e-07
-0.48871875,0.4066702177015066,4.264433685570683e-07
-0.4886875,0.4065906789102688,4.354365697559272e-07
-0.48865625,0.4066702177015066,4.445922280333944e-07
-0.488625,0.4067497564927443,4.539127790526642e-07
-0.48859375,0.4066702177015066,4.634006872904861e-07
-0.4885625,0.4065906789102688,4.730584462814097e-07
-0.48853125,0.4066702177015066,4.828885788631594e-07
-0.4885,0.4065906789102688,4.928936374231447e-07
-0.48846875,0.4067497564927443,5.030762041460955e-07
-0.4884375,0.4067497564927443,5.134388912628295e-07
-0.48840625,0.406829295283982,5.239843413001429e-07
-0.488375,0.4066702177015066,5.347152273318287e-07
