Task5_45+9.csv

#Digilent WaveForms Oscilloscope Acquisition
#Device Name: Discovery3
#Serial Number: SN:210415BD63A1
#Date Time: 2026-09-24 10:53:00.913.892.580
#Sample rate: 32000Hz
#Samples: 32000
#Trigger: Source: Channel 1 Type: Edge Condition: Rising Level: 0 V Hyst.: Auto HoldOff: 0 s
#Channel 1: Range: 500 mV/div Offset: 0 V Sample Mode: Average
#Math 1: Input: C1 Reference: Internal Frequency: 20 Hz Phase: 90 ° Filter: IIR Butterworth 8  Low-Pass CutOff: 10 Hz Output: Amplitude

#Wavegen Channel 1: Running
#Mode: Simple
#Type: Sine
#Frequency: 20 Hz
#Period: 50 ms
#Amplitude: 200 mV
#Offset: 0 V
#Symmetry: 50 %
#Phase: 0 °

Time (s),Channel 1 (V),Math 1 (V)
-0.5,0.3448685769097932,2.955740884855246e-25
-0.49996875,0.3451071932835064,5.021714245248534e-24
-0.4999375,0.3450276544922687,4.280351026693776e-23
-0.49990625,0.3447890381185555,2.457183292808606e-22
-0.499875,0.3448685769097932,1.075530468249913e-21
-0.49984375,0.3447890381185555,3.849980192464435e-21
-0.4998125,0.3448685769097932,1.179335668247057e-20
-0.49978125,0.3447094993273178,3.190867094022383e-20
-0.49975,0.3448685769097932,7.804138198201238e-20
-0.49971875,0.3447890381185555,1.755765190157276e-19
-0.4996875,0.3447094993273178,3.682821824700096e-19
-0.49965625,0.34462996053608,7.278828006232273e-19
-0.499625,0.3447890381185555,1.367015174130805e-18
-0.49959375,0.3448685769097932,2.456289266763308e-18
-0.4995625,0.3447094993273178,4.246243901779934e-18
-0.49953125,0.3447094993273178,7.095054998998791e-18
-0.4995,0.3447890381185555,1.150292073560577e-17
-0.49946875,0.344948115701031,1.815411403330021e-17
-0.4994375,0.344948115701031,2.796775806566271e-17
-0.49940625,0.3447890381185555,4.215844504419051e-17
-0.499375,0.3447094993273178,6.230788238485519e-17
-0.49934375,0.3447890381185555,9.044881348763814e-17
-0.4993125,0.3447890381185555,1.291625227853259e-16
-0.49928125,0.3447890381185555,1.816912964377627e-16
-0.49925,0.3447890381185555,2.520672710666852e-16
-0.49921875,0.3447890381185555,3.452591632471988e-16
-0.4991875,0.344948115701031,4.673384320959671e-16
-0.49915625,0.3447890381185555,6.256664862239085e-16
-0.499125,0.3447890381185555,8.291046045546011e-16
-0.49909375,0.3447890381185555,1.088248298050723e-15
-0.4990625,0.3448685769097932,1.415687896241333e-15
-0.49903125,0.344948115701031,1.826297198607351e-15
-0.499,0.3447890381185555,2.337552086370536e-15
-0.49896875,0.34462996053608,2.969881045052936e-15
-0.4989375,0.34462996053608,3.747049602334983e-15
-0.49890625,0.3447094993273178,4.696580739242691e-15
-0.498875,0.34462996053608,5.850213385538108e-15
-0.49884375,0.3447890381185555,7.244401162372689e-15
-0.4988125,0.3447890381185555,8.920853586790933e-15
-0.49878125,0.34462996053608,1.092712200354333e-14
-0.49875,0.34462996053608,1.331723255988937e-14
-0.49871875,0.3444708829536046,1.615236858865055e-14
-0.4986875,0.3444708829536046,1.95016048137141e-14
-0.49865625,0.34462996053608,2.344269584049105e-14
-0.498625,0.34462996053608,2.806292144149589e-14
-0.49859375,0.34462996053608,3.345999119423767e-14
-0.4985625,0.3447094993273178,3.974301107499281e-14
-0.49853125,0.34462996053608,4.703351465777275e-14
-0.4985,0.3447094993273178,5.54665616129094e-14
-0.49846875,0.34462996053608,6.519190624416237e-14
-0.4984375,0.3445504217448423,7.637523884710691e-14
-0.49840625,0.34462996053608,8.919950271479464e-14
-0.498375,0.34462996053608,1.038662896592994e-13
-0.49834375,0.34462996053608,1.205973169597732e-13
-0.4983125,0.3444708829536046,1.396359886890403e-13
-0.49828125,0.3444708829536046,1.612490444115511e-13
-0.49825,0.34462996053608,1.85728298285704e-13
-0.49821875,0.3444708829536046,2.133924716431191e-13
-0.4981875,0.3443913441623669,2.445891221564254e-13
-0.49815625,0.3443913441623669,2.796966727454979e-13
-0.498125,0.3444708829536046,3.191265434098691e-13
-0.49809375,0.3444708829536046,3.63325389212237e-13
-0.4980625,0.3443913441623669,4.12777447674609e-13
-0.49803125,0.3443913441623669,4.680069988846453e-13
-0.498,0.3444708829536046,5.295809416452201e-13
-0.49796875,0.3445504217448423,5.981114890350897e-13
-0.4979375,0.3444708829536046,6.742589867828674e-13
-0.49790625,0.3444708829536046,7.587348578902324e-13
-0.497875,0.3443913441623669,8.523046769734768e-13
-0.49784375,0.3442322665798914,9.557913778250832e-13
-0.4978125,0.3441527277886537,1.070078597729071e-12
-0.49778125,0.3441527277886537,1.196114162095312e-12
-0.49775,0.3439936502061782,1.334913713008954e-12
-0.49771875,0.3441527277886537,1.487564485321407e-12
-0.4976875,0.3441527277886537,1.655229233939179e-12
-0.49765625,0.344073188997416,1.83915031599608e-12
-0.497625,0.344073188997416,2.040653931623014e-12
-0.49759375,0.3439936502061782,2.261154527057779e-12
-0.4975625,0.3439936502061782,2.502159363864914e-12
-0.49753125,0.3439141114149405,2.765273258062741e-12
-0.4975,0.344073188997416,3.052203492981275e-12
-0.49746875,0.3439936502061782,3.36476490970076e-12
-0.4974375,0.344073188997416,3.704885178945975e-12
-0.49740625,0.3438345726237028,4.074610258336521e-12
-0.497375,0.3436754950412274,4.476110038917632e-12
-0.49734375,0.3437550338324651,4.911684184920049e-12
-0.4973125,0.3437550338324651,5.383768170720819e-12
-0.49728125,0.3438345726237028,5.894939518999821e-12
-0.49725,0.3438345726237028,6.447924244109163e-12
-0.49721875,0.3439141114149405,7.045603504694484e-12
-0.4971875,0.3437550338324651,7.691020469628598e-12
-0.49715625,0.3437550338324651,8.387387401338758e-12
-0.497125,0.3435959562499896,9.138092960629308e-12
-0.49709375,0.3436754950412274,9.946709737121214e-12
-0.4970625,0.3435959562499896,1.081700200944955e-11
-0.49703125,0.3437550338324651,1.175293373937874e-11
-0.497,0.3435959562499896,1.275867680401385e-11
-0.49696875,0.3437550338324651,1.38386194703041e-11
-0.4969375,0.3435164174587519,1.499737511605216e-11
-0.49690625,0.3435164174587519,1.623979120165993e-11
-0.496875,0.3435959562499896,1.757095849685764e-11
-0.49684375,0.3435959562499896,1.899622056667947e-11
-0.4968125,0.3437550338324651,2.052118352096427e-11
-0.49678125,0.3435164174587519,2.215172603167486e-11
-0.49675,0.3436754950412274,2.389400962234427e-11
-0.49671875,0.3435164174587519,2.575448923397115e-11
-0.4966875,0.3435959562499896,2.773992407170041e-11
-0.49665625,0.3435164174587519,2.98573887366383e-11
-0.496625,0.3433573398762764,3.211428464716383e-11
-0.49659375,0.3433573398762764,3.4518351754111e-11
-0.4965625,0.3435164174587519,3.707768055420774e-11
-0.49653125,0.3433573398762764,3.980072440616944e-11
-0.4965,0.3432778010850387,4.269631215385528e-11
-0.49646875,0.3432778010850387,4.577366106090685e-11
-0.4964375,0.3433573398762764,4.904239006129794e-11
-0.49640625,0.3432778010850387,5.25125333302346e-11
-0.496375,0.343198262293801,5.619455417985366e-11
-0.49634375,0.3432778010850387,6.009935928417661e-11
-0.4963125,0.3432778010850387,6.42383132377842e-11
-0.49628125,0.3432778010850387,6.862325345268532e-11
-0.49625,0.3433573398762764,7.326650539786078e-11
-0.49621875,0.3430391847113255,7.81808981859703e-11
-0.4961875,0.3432778010850387,8.337978051171701e-11
-0.49615625,0.343198262293801,8.887703694637098e-11
-0.496125,0.3431187235025632,9.468710459295795e-11
-0.49609375,0.343198262293801,1.008249901066262e-10
-0.4960625,0.3431187235025632,1.073062870847089e-10
-0.49603125,0.3430391847113255,1.141471938310025e-10
-0.496,0.3431187235025632,1.213645314987901e-10
-0.49596875,0.3431187235025632,1.289757626171373e-10
-0.4959375,0.3429596459200878,1.369990100049953e-10
-0.49590625,0.3428801071288501,1.454530760776476e-10
-0.495875,0.3430391847113255,1.54357462550039e-10
-0.49584375,0.3429596459200878,1.637323905415297e-10
-0.4958125,0.3430391847113255,1.735988210866155e-10
-0.49578125,0.3429596459200878,1.839784760561613e-10
-0.49575,0.3429596459200878,1.948938594936919e-10
-0.49571875,0.3428801071288501,2.063682793712877e-10
-0.4956875,0.3430391847113255,2.184258697696316e-10
-0.49565625,0.3429596459200878,2.310916134867546e-10
-0.495625,0.3429596459200878,2.443913650800261e-10
-0.49559375,0.3429596459200878,2.583518743459346e-10
-0.4955625,0.3431187235025632,2.73000810242203e-10
-0.49553125,0.3430391847113255,2.883667852567831e-10
-0.4955,0.3428801071288501,3.044793802282674e-10
-0.49546875,0.3429596459200878,3.213691696222601e-10
-0.4954375,0.3428801071288501,3.390677472682416e-10
-0.49540625,0.3430391847113255,3.576077525614605e-10
-0.495375,0.3431187235025632,3.770228971343824e-10
-0.49534375,0.3431187235025632,3.973479920022225e-10
-0.4953125,0.3431187235025632,4.186189751870833e-10
-0.49528125,0.3430391847113255,4.408729398252153e-10
-0.49525,0.3431187235025632,4.641481627619149e-10
-0.49521875,0.3430391847113255,4.884841336385661e-10
-0.4951875,0.3430391847113255,5.139215844763283e-10
-0.49515625,0.3430391847113255,5.405025197609701e-10
-0.495125,0.3431187235025632,5.682702470333343e-10
-0.49509375,0.3431187235025632,5.972694079899255e-10
-0.4950625,0.3429596459200878,6.275460100980916e-10
-0.49503125,0.3429596459200878,6.591474587302737e-10
-0.495,0.343198262293801,6.921225898217846e-10
-0.49496875,0.3431187235025632,7.265217030565751e-10
-0.4949375,0.3430391847113255,7.623965955854306e-10
-0.49490625,0.3431187235025632,7.998005962810417e-10
-0.494875,0.3431187235025632,8.387886005343746e-10
-0.49484375,0.3431187235025632,8.794171055967669e-10
-0.4948125,0.343198262293801,9.217442464721561e-10
-0.49478125,0.343198262293801,9.658298323638475e-10
-0.49475,0.343198262293801,1.011735383680211e-09
-0.49471875,0.3431187235025632,1.05952416960369e-09
-0.4946875,0.3431187235025632,1.109261246227492e-09
-0.49465625,0.3431187235025632,1.161013495264329e-09
-0.494625,0.3432778010850387,1.214849663331544e-09
-0.49459375,0.3431187235025632,1.270840401816975e-09
-0.4945625,0.3431187235025632,1.329058307329875e-09
-0.49453125,0.3431187235025632,1.389577962741207e-09
-0.4945,0.343198262293801,1.452475978817607e-09
-0.49446875,0.3431187235025632,1.517831036453324e-09
-0.4944375,0.3431187235025632,1.585723929504386e-09
-0.49440625,0.3430391847113255,1.65623760822928e-09
-0.494375,0.3431187235025632,1.729457223340386e-09
-0.49434375,0.3432778010850387,1.805470170670392e-09
-0.4943125,0.3433573398762764,1.884366136457933e-09
-0.49428125,0.343198262293801,1.966237143256643e-09
-0.49425,0.3433573398762764,2.051177596471821e-09
-0.49421875,0.3432778010850387,2.139284331528891e-09
-0.4941875,0.343198262293801,2.230656661677815e-09
-0.49415625,0.343198262293801,2.32539642643761e-09
-0.494125,0.3433573398762764,2.423608040685097e-09
-0.49409375,0.3433573398762764,2.525398544392005e-09
-0.4940625,0.3432778010850387,2.630877653014528e-09
-0.49403125,0.343198262293801,2.740157808539406e-09
-0.494,0.3432778010850387,2.853354231190627e-09
-0.49396875,0.3433573398762764,2.970584971800759e-09
-0.4939375,0.3432778010850387,3.091970964850988e-09
-0.49390625,0.3433573398762764,3.217636082183839e-09
-0.493875,0.3432778010850387,3.347707187392608e-09
-0.49384375,0.3433573398762764,3.482314190891462e-09
-0.4938125,0.3432778010850387,3.621590105670187e-09
-0.49378125,0.3434368786675142,3.765671103737508e-09
-0.49375,0.3433573398762764,3.914696573256926e-09
-0.49371875,0.3434368786675142,4.068809176378967e-09
-0.4936875,0.3434368786675142,4.228154907773711e-09
-0.49365625,0.3433573398762764,4.392883153867517e-09
-0.493625,0.3434368786675142,4.563146752787733e-09
-0.49359375,0.3433573398762764,4.739102055019261e-09
-0.4935625,0.3434368786675142,4.920908984776766e-09
-0.49353125,0.3432778010850387,5.108731102096326e-09
-0.4935,0.3433573398762764,5.302735665650262e-09
-0.49346875,0.3435164174587519,5.50309369628894e-09
-0.4934375,0.3435164174587519,5.709980041313228e-09
-0.49340625,0.3435164174587519,5.923573439481334e-09
-0.493375,0.3434368786675142,6.144056586753704e-09
-0.49334375,0.3433573398762764,6.371616202779632e-09
-0.4933125,0.3433573398762764,6.606443098129224e-09
-0.49328125,0.3435164174587519,6.848732242274349e-09
-0.49325,0.3436754950412274,7.098682832322144e-09
-0.49321875,0.3435164174587519,7.356498362504658e-09
-0.4931875,0.3435164174587519,7.6223866944282e-09
-0.49315625,0.3435959562499896,7.89656012808589e-09
-0.493125,0.3435164174587519,8.179235473636921e-09
-0.49309375,0.3435164174587519,8.470634123956042e-09
-0.4930625,0.3435164174587519,8.770982127956674e-09
-0.49303125,0.3435959562499896,9.080510264691142e-09
-0.493,0.3435959562499896,9.399454118231363e-09
-0.49296875,0.3437550338324651,9.728054153333456e-09
-0.4929375,0.3436754950412274,1.006655579188958e-08
-0.49290625,0.3435959562499896,1.041520949017033e-08
-0.492875,0.3434368786675142,1.07742708168611e-08
-0.49284375,0.3435164174587519,1.11440005318955e-08
-0.4928125,0.3435959562499896,1.152466466608931e-08
-0.49278125,0.3435164174587519,1.191653460157813e-08
-0.49275,0.3435959562499896,1.231988715306178e-08
-0.49271875,0.3435164174587519,1.273500464985895e-08
-0.4926875,0.3436754950412274,1.316217501877497e-08
-0.49265625,0.3435164174587519,1.360169186778593e-08
-0.492625,0.3435959562499896,1.405385457054241e-08
-0.49259375,0.3435959562499896,1.45189683516956e-08
-0.4925625,0.3436754950412274,1.499734437304917e-08
-0.49253125,0.3435959562499896,1.548929982053969e-08
-0.4925,0.3436754950412274,1.599515799204872e-08
-0.49246875,0.3436754950412274,1.65152483860496e-08
-0.4924375,0.3437550338324651,1.704990679109163e-08
-0.49240625,0.3437550338324651,1.75994753761249e-08
-0.492375,0.3436754950412274,1.816430278166847e-08
-0.49234375,0.3436754950412274,1.874474421182468e-08
-0.4923125,0.3437550338324651,1.934116152714274e-08
-0.49228125,0.3435959562499896,1.995392333833404e-08
-0.49225,0.3435164174587519,2.058340510084223e-08
-0.49221875,0.3436754950412274,2.122998921027071e-08
-0.4921875,0.3437550338324651,2.18940650986703e-08
-0.49215625,0.3438345726237028,2.257602933168971e-08
-0.492125,0.3438345726237028,2.327628570659158e-08
-0.49209375,0.3438345726237028,2.399524535113667e-08
-0.4920625,0.3439141114149405,2.473332682333884e-08
-0.49203125,0.3438345726237028,2.549095621209337e-08
-0.492,0.3439141114149405,2.626856723868117e-08
-0.49196875,0.3439141114149405,2.70666013591515e-08
-0.4919375,0.3438345726237028,2.788550786758552e-08
-0.49190625,0.3438345726237028,2.872574400024327e-08
-0.491875,0.3439936502061782,2.958777504059656e-08
-0.49184375,0.3439936502061782,3.047207442524993e-08
-0.4918125,0.3439141114149405,3.137912385075237e-08
-0.49178125,0.3439936502061782,3.230941338130188e-08
-0.49175,0.3441527277886537,3.326344155734541e-08
-0.49171875,0.344073188997416,3.424171550507621e-08
-0.4916875,0.344073188997416,3.524475104683111e-08
-0.49165625,0.3439936502061782,3.627307281238979e-08
-0.491625,0.3439936502061782,3.732721435117825e-08
-0.49159375,0.3439141114149405,3.840771824537866e-08
-0.4915625,0.3441527277886537,3.951513622394779e-08
-0.49153125,0.3439936502061782,4.065002927754594e-08
-0.4915,0.3439936502061782,4.181296777437867e-08
-0.49146875,0.344073188997416,4.300453157695318e-08
-0.4914375,0.3439936502061782,4.422531015975143e-08
-0.49140625,0.344073188997416,4.547590272782194e-08
-0.491375,0.344073188997416,4.675691833629235e-08
-0.49134375,0.3441527277886537,4.806897601080433e-08
-0.4913125,0.3439936502061782,4.941270486887309e-08
-0.49128125,0.3441527277886537,5.07887442421731e-08
-0.49125,0.344073188997416,5.219774379975193e-08
-0.49121875,0.3441527277886537,5.364036367217402e-08
-0.4911875,0.3439936502061782,5.511727457659587e-08
-0.49115625,0.344073188997416,5.662915794277493e-08
-0.491125,0.3441527277886537,5.817670604001315e-08
-0.49109375,0.3442322665798914,5.976062210503756e-08
-0.4910625,0.3442322665798914,6.138162047081891e-08
-0.49103125,0.3441527277886537,6.30404266963303e-08
-0.491,0.3441527277886537,6.473777769724737e-08
-0.49096875,0.3441527277886537,6.647442187759132e-08
-0.4909375,0.3442322665798914,6.825111926231642e-08
-0.49090625,0.3442322665798914,7.006864163084355e-08
-0.490875,0.3442322665798914,7.192777265154103e-08
-0.49084375,0.3441527277886537,7.38293080171542e-08
-0.4908125,0.3442322665798914,7.577405558118507e-08
-0.49078125,0.3442322665798914,7.776283549522349e-08
-0.49075,0.3442322665798914,7.979648034723092e-08
-0.49071875,0.3441527277886537,8.187583530077827e-08
-0.4906875,0.3443118053711292,8.400175823523899e-08
-0.49065625,0.3441527277886537,8.617511988693831e-08
-0.490625,0.3441527277886537,8.83968039912604e-08
-0.49059375,0.3441527277886537,9.066770742571387e-08
-0.4905625,0.3442322665798914,9.29887403539572e-08
-0.49053125,0.3442322665798914,9.536082637078499e-08
-0.4905,0.3442322665798914,9.778490264807601e-08
-0.49046875,0.3443118053711292,1.002619200817041e-07
-0.4904375,0.3443118053711292,1.027928434394128e-07
-0.49040625,0.3443913441623669,1.053786515096547e-07
-0.490375,0.3441527277886537,1.080203372513966e-07
-0.49034375,0.3443118053711292,1.107189079448907e-07
-0.4903125,0.3442322665798914,1.134753853434135e-07
-0.49028125,0.3441527277886537,1.162908058259721e-07
-0.49025,0.3444708829536046,1.191662205509801e-07
-0.49021875,0.3443118053711292,1.221026956109027e-07
-0.4901875,0.3442322665798914,1.251013121878711e-07
-0.49015625,0.3443118053711292,1.281631667102694e-07
-0.490125,0.3442322665798914,1.312893710102918e-07
-0.49009375,0.3441527277886537,1.344810524824715e-07
-0.4900625,0.3442322665798914,1.377393542431833e-07
-0.49003125,0.3442322665798914,1.410654352911189e-07
-0.49,0.3442322665798914,1.444604706687344e-07
-0.48996875,0.3441527277886537,1.47925651624674e-07
-0.4899375,0.3441527277886537,1.514621857771665e-07
-0.48990625,0.3442322665798914,1.550712972783965e-07
-0.489875,0.3442322665798914,1.587542269798521e-07
-0.48984375,0.3443118053711292,1.62512232598646e-07
-0.4898125,0.3443118053711292,1.663465888848139e-07
-0.48978125,0.3442322665798914,1.702585877895876e-07
-0.48975,0.3443118053711292,1.742495386346452e-07
-0.48971875,0.3443913441623669,1.78320768282336e-07
-0.4896875,0.3443118053711292,1.824736213068837e-07
-0.48965625,0.3442322665798914,1.86709460166564e-07
-0.489625,0.3443913441623669,1.910296653768603e-07
-0.48959375,0.3443118053711292,1.954356356845946e-07
-0.4895625,0.3442322665798914,1.999287882430357e-07
-0.48953125,0.3441527277886537,2.045105587879835e-07
-0.4895,0.3442322665798914,2.091824018148296e-07
-0.48946875,0.3442322665798914,2.139457907565942e-07
-0.4894375,0.3441527277886537,2.188022181629388e-07
-0.48940625,0.3441527277886537,2.237531958801548e-07
-0.489375,0.3441527277886537,2.28800255232128e-07
-0.48934375,0.3442322665798914,2.33944947202278e-07
-0.4893125,0.3442322665798914,2.391888426164728e-07
-0.48928125,0.3443118053711292,2.445335323269182e-07
-0.48925,0.3443118053711292,2.499806273970212e-07
-0.48921875,0.3442322665798914,2.555317592872281e-07
-0.4891875,0.3441527277886537,2.611885800418346e-07
-0.48915625,0.3442322665798914,2.669527624767707e-07
-0.489125,0.3442322665798914,2.728260003683563e-07
-0.48909375,0.3442322665798914,2.788100086430302e-07
-0.4890625,0.3441527277886537,2.849065235680492e-07
-0.48903125,0.3441527277886537,2.911173029431594e-07
-0.489,0.3442322665798914,2.974441262932356e-07
-0.48896875,0.3442322665798914,3.038887950618921e-07
-0.4889375,0.3442322665798914,3.104531328060603e-07
-0.48890625,0.3443118053711292,3.171389853915358e-07
-0.488875,0.3442322665798914,3.239482211894912e-07
-0.48884375,0.3442322665798914,3.30882731273956e-07
-0.4888125,0.3441527277886537,3.379444296202619e-07
-0.48878125,0.3441527277886537,3.45135253304452e-07
-0.48875,0.3441527277886537,3.524571627036536e-07
-0.48871875,0.3442322665798914,3.59912141697414e-07
-0.4886875,0.3443118053711292,3.675021978699982e-07
-0.48865625,0.3441527277886537,3.752293627136456e-07
-0.488625,0.3441527277886537,3.830956918327871e-07
-0.48859375,0.3441527277886537,3.911032651492212e-07
-0.4885625,0.3441527277886537,3.992541871082454e-07
-0.48853125,0.3443118053711292,4.075505868857459e-07
-0.4885,0.3443118053711292,4.159946185962392e-07
-0.48846875,0.3442322665798914,4.245884615018699e-07
-0.4884375,0.3442322665798914,4.333343202223588e-07
-0.48840625,0.3442322665798914,4.422344249459033e-07
-0.488375,0.3441527277886537,4.512910316410254e-07
