Task5_45-8.csv

#Digilent WaveForms Oscilloscope Acquisition
#Device Name: Discovery3
#Serial Number: SN:210415BD63A1
#Date Time: 2026-09-24 10:57:48.629.914.520
#Sample rate: 32000Hz
#Samples: 32000
#Trigger: Source: Channel 1 Type: Edge Condition: Rising Level: 0 V Hyst.: Auto HoldOff: 0 s
#Channel 1: Range: 500 mV/div Offset: 0 V Sample Mode: Average
#Math 1: Input: C1 Reference: Internal Frequency: 20 Hz Phase: 90 ° Filter: IIR Butterworth 8  Low-Pass CutOff: 10 Hz Output: Amplitude

#Wavegen Channel 1: Running
#Mode: Simple
#Type: Sine
#Frequency: 20 Hz
#Period: 50 ms
#Amplitude: 200 mV
#Offset: 0 V
#Symmetry: 50 %
#Phase: 0 °

Time (s),Channel 1 (V),Math 1 (V)
-0.5,0.4842205391582897,4.167307742328047e-25
-0.49996875,0.4843000779495274,7.080157636797535e-24
-0.4999375,0.4843000779495274,6.034940687344844e-23
-0.49990625,0.4843000779495274,3.464452995577974e-22
-0.499875,0.4843796167407651,1.516435290659472e-21
-0.49984375,0.4842205391582897,5.428300939117026e-21
-0.4998125,0.4843000779495274,1.662826666769706e-20
-0.49978125,0.4842205391582897,4.499061928001037e-20
-0.49975,0.4842205391582897,1.100376507845726e-19
-0.49971875,0.4842205391582897,2.475626976830656e-19
-0.4996875,0.4843000779495274,5.192795366128304e-19
-0.49965625,0.4843000779495274,1.026320633547573e-18
-0.499625,0.4843000779495274,1.927504930708643e-18
-0.49959375,0.4842205391582897,3.463392991567122e-18
-0.4995625,0.4843796167407651,5.987243415721351e-18
-0.49953125,0.4843000779495274,1.000407949410088e-17
-0.4995,0.4843000779495274,1.621916911430972e-17
-0.49946875,0.4844591555320029,2.559731395494655e-17
-0.4994375,0.4843796167407651,3.943443602892588e-17
-0.49940625,0.4844591555320029,5.944304064861176e-17
-0.499375,0.4845386943232406,8.785322489087496e-17
-0.49934375,0.4846977719057161,1.275309896420062e-16
-0.4993125,0.4845386943232406,1.821157013070143e-16
-0.49928125,0.4844591555320029,2.561786362815024e-16
-0.49925,0.4845386943232406,3.554046273105976e-16
-0.49921875,0.4845386943232406,4.867989158980954e-16
-0.4991875,0.4845386943232406,6.589213989786184e-16
-0.49915625,0.4845386943232406,8.821505411278341e-16
-0.499125,0.4845386943232406,1.168979305667536e-15
-0.49909375,0.4843796167407651,1.534345539133071e-15
-0.4990625,0.4843000779495274,1.995999323717992e-15
-0.49903125,0.4843796167407651,2.574909891501091e-15
-0.499,0.4845386943232406,3.295714772501276e-15
-0.49896875,0.4844591555320029,4.187213925903251e-15
-0.4989375,0.4843796167407651,5.282911680157283e-15
-0.49890625,0.4845386943232406,6.621609383082398e-15
-0.498875,0.4843796167407651,8.248051737594258e-15
-0.49884375,0.4845386943232406,1.021362987223517e-14
-0.4988125,0.4844591555320029,1.257714426830371e-14
-0.49878125,0.4843000779495274,1.540563073706939e-14
-0.49875,0.4844591555320029,1.877525271132061e-14
-0.49871875,0.4845386943232406,2.277226318534046e-14
-0.4986875,0.4845386943232406,2.749403970633992e-14
-0.49865625,0.4846182331144783,3.305019588841064e-14
-0.498625,0.4845386943232406,3.95637729871958e-14
-0.49859375,0.4845386943232406,4.717251513972432e-14
-0.4985625,0.4846182331144783,5.603023193921282e-14
-0.49853125,0.4845386943232406,6.630825207911027e-14
-0.4985,0.4845386943232406,7.819697186424385e-14
-0.49846875,0.4846182331144783,9.190750244962087e-14
-0.4984375,0.4845386943232406,1.076734197292567e-13
-0.49840625,0.4845386943232406,1.25752620858335e-13
-0.498375,0.4846182331144783,1.464292914520721e-13
-0.49834375,0.4846182331144783,1.700159875638612e-13
-0.4983125,0.4847773106969538,1.9685583660362e-13
-0.49828125,0.4846182331144783,2.27324861414755e-13
-0.49825,0.4846182331144783,2.618344317847987e-13
-0.49821875,0.4835046900371502,3.008338477205651e-13
-0.4981875,0.4835842288283879,3.448130588736197e-13
-0.49815625,0.4834251512459125,3.943055245559797e-13
-0.498125,0.4835046900371502,4.498912188392363e-13
-0.49809375,0.4834251512459125,5.121997852827596e-13
-0.4980625,0.4835046900371502,5.819138458882848e-13
-0.49803125,0.4834251512459125,6.597724689290076e-13
-0.498,0.4835046900371502,7.46574800351337e-13
-0.49796875,0.4834251512459125,8.431838634966545e-13
-0.4979375,0.4835046900371502,9.505305319388265e-13
-0.49790625,0.4834251512459125,1.069617680280821e-12
-0.497875,0.4835046900371502,1.201524517800572e-12
-0.49784375,0.4835046900371502,1.34741110988227e-12
-0.4978125,0.4835046900371502,1.50852309221445e-12
-0.49778125,0.4835046900371502,1.686196582780736e-12
-0.49775,0.4835046900371502,1.881863296712725e-12
-0.49771875,0.4835842288283879,2.097055869117392e-12
-0.4976875,0.4834251512459125,2.333413391033491e-12
-0.49765625,0.4835842288283879,2.592687163712771e-12
-0.497625,0.4836637676196256,2.87674667646237e-12
-0.49759375,0.4835046900371502,3.187585813324599e-12
-0.4975625,0.4836637676196256,3.527329293909359e-12
-0.49753125,0.4836637676196256,3.898239353732781e-12
-0.4975,0.4836637676196256,4.302722669453202e-12
-0.49746875,0.4835842288283879,4.743337534432474e-12
-0.4974375,0.4835842288283879,5.222801290086606e-12
-0.49740625,0.4835842288283879,5.743998018525134e-12
-0.497375,0.4835842288283879,6.309986502013168e-12
-0.49734375,0.4835842288283879,6.924008454823977e-12
-0.4973125,0.4836637676196256,7.589497033083055e-12
-0.49728125,0.4837433064108633,8.310085628237116e-12
-0.49725,0.4837433064108633,9.089616949813088e-12
-0.49721875,0.4838228452021011,9.932152403163236e-12
-0.4971875,0.4839023839933388,1.084198176792283e-11
-0.49715625,0.4838228452021011,1.182363318293633e-11
-0.497125,0.4837433064108633,1.288188344343696e-11
-0.49709375,0.4836637676196256,1.402176861629288e-11
-0.4970625,0.4837433064108633,1.524859497916039e-11
-0.49703125,0.4837433064108633,1.656795028941169e-11
-0.497,0.4837433064108633,1.798571538873077e-11
-0.49696875,0.4837433064108633,1.950807614929615e-11
-0.4969375,0.4837433064108633,2.114153576749454e-11
-0.49690625,0.4837433064108633,2.289292741113287e-11
-0.496875,0.4839023839933388,2.476942722614023e-11
-0.49684375,0.4839023839933388,2.677856770877327e-11
-0.4968125,0.4838228452021011,2.892825144936159e-11
-0.49678125,0.4839819227845765,3.122676525365014e-11
-0.49675,0.4839819227845765,3.368279464781718e-11
-0.49671875,0.4840614615758143,3.630543877326603e-11
-0.4966875,0.4840614615758143,3.910422567730843e-11
-0.49665625,0.4840614615758143,4.208912800587614e-11
-0.496625,0.4839819227845765,4.527057910441571e-11
-0.49659375,0.484141000367052,4.86594895331384e-11
-0.4965625,0.4840614615758143,5.226726400281499e-11
-0.49653125,0.4840614615758143,5.610581873732034e-11
-0.4965,0.484141000367052,6.018759926914939e-11
-0.49646875,0.4839819227845765,6.452559867414021e-11
-0.4964375,0.4839023839933388,6.913337625165508e-11
-0.49640625,0.4840614615758143,7.402507665648349e-11
-0.496375,0.484141000367052,7.921544948874495e-11
-0.49634375,0.4840614615758143,8.471986934808123e-11
-0.4963125,0.4839819227845765,9.05543563584404e-11
-0.49628125,0.4840614615758143,9.673559716976586e-11
-0.49625,0.4840614615758143,1.032809664429147e-10
-0.49621875,0.4840614615758143,1.102085488241389e-10
-0.4961875,0.4842205391582897,1.17537161415475e-10
-0.49615625,0.4840614615758143,1.252863767473926e-10
-0.496125,0.4842205391582897,1.334765462600651e-10
-0.49609375,0.4842205391582897,1.421288242996304e-10
-0.4960625,0.484141000367052,1.512651926358186e-10
-0.49603125,0.4842205391582897,1.609084855073287e-10
-0.496,0.484141000367052,1.710824152013439e-10
-0.49596875,0.484141000367052,1.818115981735805e-10
-0.4959375,0.4843000779495274,1.93121581715268e-10
-0.49590625,0.4842205391582897,2.050388711734666e-10
-0.495875,0.484141000367052,2.175909577311283e-10
-0.49584375,0.4842205391582897,2.308063467533124e-10
-0.4958125,0.484141000367052,2.44714586705971e-10
-0.49578125,0.4840614615758143,2.593462986537181e-10
-0.49575,0.484141000367052,2.747332063430016e-10
-0.49571875,0.4842205391582897,2.909081668770958e-10
-0.4956875,0.484141000367052,3.079052019893344e-10
-0.49565625,0.484141000367052,3.257595299210025e-10
-0.495625,0.484141000367052,3.445075979103074e-10
-0.49559375,0.484141000367052,3.641871152988453e-10
-0.4955625,0.4840614615758143,3.848370872619801e-10
-0.49553125,0.484141000367052,4.064978491695485e-10
-0.4955,0.484141000367052,4.292111015833047e-10
-0.49546875,0.4840614615758143,4.530199458975103e-10
-0.4954375,0.4843000779495274,4.779689206290779e-10
-0.49540625,0.4843000779495274,5.041040383636663e-10
-0.495375,0.484141000367052,5.314728233641261e-10
-0.49534375,0.4843000779495274,5.601243498476851e-10
-0.4953125,0.4843000779495274,5.901092809382616e-10
-0.49528125,0.4843000779495274,6.21479908300282e-10
-0.49525,0.4842205391582897,6.542901924603794e-10
-0.49521875,0.4842205391582897,6.885958038233365e-10
-0.4951875,0.484141000367052,7.244541643886329e-10
-0.49515625,0.4840614615758143,7.619244901739491e-10
-0.495125,0.484141000367052,8.010678343519626e-10
-0.49509375,0.484141000367052,8.419471311067795e-10
-0.4950625,0.484141000367052,8.846272402163169e-10
-0.49503125,0.4842205391582897,9.291749923669534e-10
-0.495,0.4842205391582897,9.756592352067527e-10
-0.49496875,0.4842205391582897,1.024150880143549e-09
-0.4949375,0.484141000367052,1.074722949894181e-09
-0.49490625,0.4842205391582897,1.127450626791139e-09
-0.494875,0.4843796167407651,1.18241130185289e-09
-0.49484375,0.4843000779495274,1.239684624624114e-09
-0.4948125,0.4842205391582897,1.299352553792098e-09
-0.49478125,0.4843000779495274,1.361499408585499e-09
-0.49475,0.4843000779495274,1.426211920961671e-09
-0.49471875,0.484141000367052,1.493579288588773e-09
-0.4946875,0.484141000367052,1.563693228628803e-09
-0.49465625,0.4843000779495274,1.636648032327734e-09
-0.494625,0.4843000779495274,1.712540620418901e-09
-0.49459375,0.484141000367052,1.791470599345757e-09
-0.4945625,0.484141000367052,1.873540318310113e-09
-0.49453125,0.484141000367052,1.958854927151958e-09
-0.4945,0.484141000367052,2.047522435066948e-09
-0.49446875,0.4840614615758143,2.139653770167593e-09
-0.4944375,0.484141000367052,2.235362839894227e-09
-0.49440625,0.4842205391582897,2.334766592281748e-09
-0.494375,0.4842205391582897,2.43798507808815e-09
-0.49434375,0.4842205391582897,2.545141513790835e-09
-0.4943125,0.4843796167407651,2.656362345456656e-09
-0.49428125,0.4843000779495274,2.771777313491652e-09
-0.49425,0.4843796167407651,2.891519518276392e-09
-0.49421875,0.484141000367052,3.015725486692833e-09
-0.4941875,0.4843796167407651,3.144535239548573e-09
-0.49415625,0.4843000779495274,3.278092359904365e-09
-0.494125,0.4843000779495274,3.41654406231073e-09
-0.49409375,0.4842205391582897,3.560041262959483e-09
-0.4940625,0.4842205391582897,3.708738650755958e-09
-0.49403125,0.4842205391582897,3.862794759317735e-09
-0.494,0.4842205391582897,4.022372039905562e-09
-0.49396875,0.4843796167407651,4.187636935292252e-09
-0.4939375,0.4843000779495274,4.358759954575224e-09
-0.49390625,0.4842205391582897,4.535915748938346e-09
-0.493875,0.4842205391582897,4.719283188368784e-09
-0.49384375,0.4840614615758143,4.909045439334428e-09
-0.4938125,0.484141000367052,5.105390043427516e-09
-0.49378125,0.4840614615758143,5.308508996980031e-09
-0.49375,0.4840614615758143,5.518598831656411e-09
-0.49371875,0.4842205391582897,5.735860696029097e-09
-0.4936875,0.4842205391582897,5.960500438142407e-09
-0.49365625,0.4842205391582897,6.192728689070201e-09
-0.493625,0.484141000367052,6.432760947472778e-09
-0.49359375,0.4842205391582897,6.680817665158418e-09
-0.4935625,0.4843000779495274,6.937124333654942e-09
-0.49353125,0.4842205391582897,7.201911571796651e-09
-0.4935,0.484141000367052,7.475415214331957e-09
-0.49346875,0.4842205391582897,7.757876401557013e-09
-0.4934375,0.484141000367052,8.049541669980599e-09
-0.49340625,0.484141000367052,8.35066304402551e-09
-0.493375,0.4842205391582897,8.661498128771629e-09
-0.49334375,0.4842205391582897,8.982310203745881e-09
-0.4933125,0.4842205391582897,9.313368317764197e-09
-0.49328125,0.4839819227845765,9.654947384830617e-09
-0.49325,0.4839023839933388,1.00073282810986e-08
-0.49321875,0.4840614615758143,1.037079794289956e-08
-0.4931875,0.484141000367052,1.074564946584379e-08
-0.49315625,0.484141000367052,1.113218220499843e-08
-0.493125,0.484141000367052,1.153070187614792e-08
-0.49309375,0.4840614615758143,1.194152065814137e-08
-0.4930625,0.4842205391582897,1.236495729633207e-08
-0.49303125,0.4842205391582897,1.280133720711378e-08
-0.493,0.484141000367052,1.325099258355883e-08
-0.49296875,0.484141000367052,1.371426250216259e-08
-0.4929375,0.4839819227845765,1.419149303069924e-08
-0.49290625,0.4839819227845765,1.468303733719342e-08
-0.492875,0.4839819227845765,1.518925580001256e-08
-0.49284375,0.4839819227845765,1.571051611908449e-08
-0.4928125,0.4839819227845765,1.624719342824486e-08
-0.49278125,0.4839819227845765,1.679967040871912e-08
-0.49275,0.4840614615758143,1.736833740374344e-08
-0.49271875,0.4840614615758143,1.795359253432913e-08
-0.4926875,0.4839023839933388,1.855584181617505e-08
-0.49265625,0.4839023839933388,1.917549927773246e-08
-0.492625,0.4838228452021011,1.981298707942662e-08
-0.49259375,0.4839023839933388,2.046873563403952e-08
-0.4925625,0.4838228452021011,2.114318372825818e-08
-0.49253125,0.4838228452021011,2.183677864539263e-08
-0.4925,0.4837433064108633,2.254997628926791e-08
-0.49246875,0.4839023839933388,2.328324130929429e-08
-0.4924375,0.4838228452021011,2.403704722671987e-08
-0.49240625,0.4837433064108633,2.481187656206965e-08
-0.492375,0.4838228452021011,2.560822096377529e-08
-0.49234375,0.4837433064108633,2.642658133799942e-08
-0.4923125,0.4836637676196256,2.726746797965866e-08
-0.49228125,0.4835842288283879,2.813140070464927e-08
-0.49225,0.4836637676196256,2.901890898327941e-08
-0.49221875,0.4835046900371502,2.993053207491181e-08
-0.4921875,0.4835046900371502,3.08668191638208e-08
-0.49215625,0.4834251512459125,3.182832949626745e-08
-0.492125,0.4835046900371502,3.281563251879666e-08
-0.49209375,0.4835842288283879,3.382930801775987e-08
-0.4920625,0.4835046900371502,3.486994626006708e-08
-0.49203125,0.4835842288283879,3.593814813517193e-08
-0.492,0.4834251512459125,3.703452529829327e-08
-0.49196875,0.4834251512459125,3.815970031487703e-08
-0.4919375,0.4834251512459125,3.93143068063017e-08
-0.49190625,0.4835046900371502,4.049898959683098e-08
-0.491875,0.4833456124546747,4.171440486181708e-08
-0.49184375,0.483266073663437,4.296122027715809e-08
-0.4918125,0.4834251512459125,4.424011517001266e-08
-0.49178125,0.4835046900371502,4.55517806707754e-08
-0.49175,0.4834251512459125,4.689691986631629e-08
-0.49171875,0.4834251512459125,4.827624795448733e-08
-0.4916875,0.4833456124546747,4.96904923998994e-08
-0.49165625,0.4834251512459125,5.114039309097288e-08
-0.491625,0.4833456124546747,5.262670249826478e-08
-0.49159375,0.4833456124546747,5.415018583407565e-08
-0.4915625,0.483266073663437,5.571162121333908e-08
-0.49153125,0.4831069960809615,5.731179981579704e-08
-0.4915,0.483266073663437,5.895152604946374e-08
-0.49146875,0.4831865348721993,6.063161771538096e-08
-0.4914375,0.483266073663437,6.235290617366774e-08
-0.49140625,0.483266073663437,6.411623651086721e-08
-0.491375,0.4834251512459125,6.592246770859326e-08
-0.49134375,0.4831069960809615,6.777247281347987e-08
-0.4913125,0.4831865348721993,6.966713910843546e-08
-0.49128125,0.483266073663437,7.160736828520538e-08
-0.49125,0.4833456124546747,7.359407661824452e-08
-0.49121875,0.483266073663437,7.562819513990315e-08
-0.4911875,0.4831865348721993,7.771066981692796e-08
-0.49115625,0.4830274572897238,7.984246172828093e-08
-0.491125,0.4831865348721993,8.20245472442787e-08
-0.49109375,0.4831865348721993,8.425791820705421e-08
-0.4910625,0.4831069960809615,8.65435821123434e-08
-0.49103125,0.4831069960809615,8.888256229259894e-08
-0.491,0.4829479184984861,9.127589810143328e-08
-0.49096875,0.4829479184984861,9.372464509939328e-08
-0.4909375,0.4830274572897238,9.622987524106823e-08
-0.49090625,0.4830274572897238,9.879267706353374e-08
-0.490875,0.4831069960809615,1.01414155876133e-07
-0.49084375,0.4830274572897238,1.040954339515983e-07
-0.4908125,0.4831069960809615,1.068376507185129e-07
-0.49078125,0.4829479184984861,1.096419629551179e-07
-0.49075,0.4830274572897238,1.125095449844628e-07
-0.49071875,0.4830274572897238,1.154415888709043e-07
-0.4906875,0.4831069960809615,1.184393046179535e-07
-0.49065625,0.4829479184984861,1.215039203674728e-07
-0.490625,0.4830274572897238,1.246366826002263e-07
-0.49059375,0.4830274572897238,1.278388563377825e-07
-0.4905625,0.4831069960809615,1.311117253457735e-07
-0.49053125,0.4831865348721993,1.344565923385092e-07
-0.4905,0.4831865348721993,1.378747791849521e-07
-0.49046875,0.4829479184984861,1.413676271160488e-07
-0.4904375,0.4831069960809615,1.449364969334251e-07
-0.49040625,0.4831069960809615,1.485827692194412e-07
-0.490375,0.4830274572897238,1.52307844548612e-07
-0.49034375,0.4829479184984861,1.561131437003904e-07
-0.4903125,0.4830274572897238,1.600001078733182e-07
-0.49028125,0.4830274572897238,1.639701989005424e-07
-0.49025,0.4831865348721993,1.680248994667007e-07
-0.49021875,0.4831069960809615,1.721657133261749e-07
-0.4901875,0.4831069960809615,1.763941655227152e-07
-0.49015625,0.4831865348721993,1.807118026104349e-07
-0.490125,0.4831069960809615,1.851201928761767e-07
-0.49009375,0.4831069960809615,1.896209265632521e-07
-0.4900625,0.4831865348721993,1.942156160965533e-07
-0.49003125,0.4831069960809615,1.989058963090402e-07
-0.49,0.483266073663437,2.036934246696011e-07
-0.48996875,0.4831865348721993,2.085798815122894e-07
-0.4899375,0.483266073663437,2.135669702669355e-07
-0.48990625,0.4833456124546747,2.186564176911359e-07
-0.489875,0.483266073663437,2.238499741036189e-07
-0.48984375,0.4834251512459125,2.291494136189869e-07
-0.4898125,0.483266073663437,2.345565343838377e-07
-0.48978125,0.4831069960809615,2.400731588142624e-07
-0.48975,0.4831865348721993,2.457011338347228e-07
-0.48971875,0.4831865348721993,2.514423311183062e-07
-0.4896875,0.4831865348721993,2.572986473283592e-07
-0.48965625,0.4831865348721993,2.632720043615016e-07
-0.489625,0.483266073663437,2.693643495920164e-07
-0.48959375,0.4831865348721993,2.755776561176211e-07
-0.4895625,0.4831069960809615,2.819139230066172e-07
-0.48953125,0.4831865348721993,2.883751755464174e-07
-0.4895,0.4833456124546747,2.949634654934531e-07
-0.48946875,0.483266073663437,3.016808713244593e-07
-0.4894375,0.483266073663437,3.085294984891379e-07
-0.48940625,0.483266073663437,3.155114796641993e-07
-0.489375,0.4833456124546747,3.226289750087808e-07
-0.48934375,0.483266073663437,3.29884172421244e-07
-0.4893125,0.4833456124546747,3.372792877973468e-07
-0.48928125,0.4833456124546747,3.448165652897935e-07
-0.48925,0.4833456124546747,3.524982775691597e-07
-0.48921875,0.4834251512459125,3.603267260861932e-07
-0.4891875,0.4833456124546747,3.683042413354889e-07
-0.48915625,0.4831865348721993,3.764331831205381e-07
-0.489125,0.4833456124546747,3.847159408201506e-07
-0.48909375,0.4833456124546747,3.931549336562501e-07
-0.4890625,0.4833456124546747,4.017526109630397e-07
-0.48903125,0.4834251512459125,4.105114524575399e-07
-0.489,0.4834251512459125,4.194339685114952e-07
-0.48896875,0.4834251512459125,4.285227004246496e-07
-0.4889375,0.4835046900371502,4.377802206993908e-07
-0.48890625,0.4834251512459125,4.472091333167604e-07
-0.488875,0.4835046900371502,4.568120740138294e-07
-0.48884375,0.4835046900371502,4.665917105624393e-07
-0.4888125,0.4835046900371502,4.765507430493049e-07
-0.48878125,0.483266073663437,4.866919041574806e-07
-0.48875,0.483266073663437,4.970179594491854e-07
-0.48871875,0.4834251512459125,5.075317076499897e-07
-0.4886875,0.4836637676196256,5.182359809343568e-07
-0.48865625,0.4836637676196256,5.291336452125431e-07
-0.488625,0.4835046900371502,5.40227600418852e-07
-0.48859375,0.4835842288283879,5.515207808012418e-07
-0.4885625,0.4836637676196256,5.630161552122834e-07
-0.48853125,0.4837433064108633,5.747167274014703e-07
-0.4885,0.4836637676196256,5.86625536308875e-07
-0.48846875,0.4835842288283879,5.987456563601524e-07
-0.4884375,0.4835046900371502,6.110801977628869e-07
-0.48840625,0.4835842288283879,6.236323068042848e-07
-0.488375,0.4836637676196256,6.364051661502034e-07
