Task5_45-1.csv

#Digilent WaveForms Oscilloscope Acquisition
#Device Name: Discovery3
#Serial Number: SN:210415BD63A1
#Date Time: 2026-09-24 10:53:49.374.540.790
#Sample rate: 32000Hz
#Samples: 32000
#Trigger: Source: Channel 1 Type: Edge Condition: Rising Level: 0 V Hyst.: Auto HoldOff: 0 s
#Channel 1: Range: 500 mV/div Offset: 0 V Sample Mode: Average
#Math 1: Input: C1 Reference: Internal Frequency: 20 Hz Phase: 90 ° Filter: IIR Butterworth 8  Low-Pass CutOff: 10 Hz Output: Amplitude

#Wavegen Channel 1: Running
#Mode: Simple
#Type: Sine
#Frequency: 20 Hz
#Period: 50 ms
#Amplitude: 200 mV
#Offset: 0 V
#Symmetry: 50 %
#Phase: 0 °

Time (s),Channel 1 (V),Math 1 (V)
-0.5,0.4564615010163232,3.928955525158934e-25
-0.49996875,0.4564615010163232,6.675403817138173e-24
-0.4999375,0.4564615010163232,5.690089592748609e-23
-0.49990625,0.4565410398075609,3.266560654251406e-22
-0.499875,0.4565410398075609,1.429843621557313e-21
-0.49984375,0.4564615010163232,5.118421988256844e-21
-0.4998125,0.4563819622250855,1.567927036429705e-20
-0.49978125,0.4563819622250855,4.2423546377336e-20
-0.49975,0.4563024234338477,1.037605025001883e-19
-0.49971875,0.4563024234338477,2.334433286152365e-19
-0.4996875,0.45622288464261,4.896691904773617e-19
-0.49965625,0.4563819622250855,9.678092393208501e-19
-0.499625,0.4563819622250855,1.817636984078239e-18
-0.49959375,0.4563024234338477,3.266015055324929e-18
-0.4995625,0.4563024234338477,5.646091057230028e-18
-0.49953125,0.4563024234338477,9.434142904298615e-18
-0.4995,0.4563024234338477,1.529530277700367e-17
-0.49946875,0.4563024234338477,2.413947661093008e-17
-0.4994375,0.4563819622250855,3.718886286607042e-17
-0.49940625,0.45622288464261,5.605856021336033e-17
-0.499375,0.4563024234338477,8.285183872736294e-17
-0.49934375,0.45622288464261,1.202717331865445e-16
-0.4993125,0.45622288464261,1.717507001553332e-16
-0.49928125,0.4563024234338477,2.416001626576722e-16
-0.49925,0.45622288464261,3.351818474550752e-16
-0.49921875,0.4563819622250855,4.591029002192806e-16
-0.4991875,0.4563024234338477,6.214368432462008e-16
-0.49915625,0.4564615010163232,8.319725187980966e-16
-0.499125,0.4563819622250855,1.10249323868732e-15
-0.49909375,0.4563819622250855,1.447088437328712e-15
-0.4990625,0.45622288464261,1.882500201188423e-15
-0.49903125,0.4563024234338477,2.42850712234591e-15
-0.499,0.4563024234338477,3.108347997770147e-15
-0.49896875,0.4563819622250855,3.949187968902972e-15
-0.4989375,0.4563024234338477,4.98262976825201e-15
-0.49890625,0.45622288464261,6.24527281092612e-15
-0.498875,0.4563024234338477,7.779322939396233e-15
-0.49884375,0.4564615010163232,9.633255699233986e-15
-0.4988125,0.4564615010163232,1.186253609217422e-14
-0.49878125,0.4563024234338477,1.453039782057052e-14
-0.49875,0.45622288464261,1.770868510417046e-14
-0.49871875,0.45622288464261,2.147876021613737e-14
-0.4986875,0.45622288464261,2.59324799503941e-14
-0.49865625,0.4561433458513723,3.117324429666499e-14
-0.498625,0.4563024234338477,3.731712066304454e-14
-0.49859375,0.4563024234338477,4.449404704852971e-14
-0.4985625,0.4563024234338477,5.284911762972056e-14
-0.49853125,0.4563024234338477,6.254395428682033e-14
-0.4985,0.4563819622250855,7.37581676541558e-14
-0.49846875,0.4563819622250855,8.669091133969345e-14
-0.4984375,0.4564615010163232,1.015625330164581e-13
-0.49840625,0.4563819622250855,1.186163261463701e-13
-0.498375,0.4563024234338477,1.381203861538201e-13
-0.49834375,0.4563819622250855,1.603695749222865e-13
-0.4983125,0.4563819622250855,1.856875975424912e-13
-0.49828125,0.4563819622250855,2.144291952949635e-13
-0.49825,0.4564615010163232,2.469824589034673e-13
-0.49821875,0.4563819622250855,2.837712661485253e-13
-0.4981875,0.4563819622250855,3.252578479822666e-13
-0.49815625,0.4565410398075609,3.71945487337014e-13
-0.498125,0.4566205785987987,4.243813548704409e-13
-0.49809375,0.4567796561812741,4.831594859397512e-13
-0.4980625,0.4567001173900364,5.489239031461975e-13
-0.49803125,0.4567001173900364,6.223718888393285e-13
-0.498,0.4566205785987987,7.042574120176742e-13
-0.49796875,0.4567001173900364,7.953947141091259e-13
-0.4979375,0.4567001173900364,8.966620581600507e-13
-0.49790625,0.4565410398075609,1.00900564600722e-12
-0.497875,0.4567001173900364,1.133443708050911e-12
-0.49784375,0.4567796561812741,1.271070770291062e-12
-0.4978125,0.4566205785987987,1.423062103331162e-12
-0.49778125,0.4567001173900364,1.590678358096572e-12
-0.49775,0.4565410398075609,1.775270393055269e-12
-0.49771875,0.4566205785987987,1.978284297769541e-12
-0.4976875,0.4567001173900364,2.201266617646978e-12
-0.49765625,0.4567001173900364,2.445869784798161e-12
-0.497625,0.4566205785987987,2.713857759946826e-12
-0.49759375,0.4566205785987987,3.007111890375918e-12
-0.4975625,0.4566205785987987,3.32763698892991e-12
-0.49753125,0.4566205785987987,3.677567639129992e-12
-0.4975,0.4566205785987987,4.05917473149425e-12
-0.49746875,0.4567001173900364,4.474872236189794e-12
-0.4974375,0.4566205785987987,4.927224217177877e-12
-0.49740625,0.4567001173900364,5.418952093046444e-12
-0.497375,0.4567001173900364,5.952942149757351e-12
-0.49734375,0.4567796561812741,6.532253310567387e-12
-0.4973125,0.4567796561812741,7.160125168413644e-12
-0.49728125,0.4567796561812741,7.839986286084391e-12
-0.49725,0.4567796561812741,8.575462769526501e-12
-0.49721875,0.4567796561812741,9.370387119669831e-12
-0.4971875,0.4567796561812741,1.022880736817746e-11
-0.49715625,0.4569387337637495,1.115499650255862e-11
-0.497125,0.4569387337637495,1.215346218610858e-11
-0.49709375,0.4568591949725119,1.322895677816603e-11
-0.4970625,0.4567796561812741,1.438648766020497e-11
-0.49703125,0.4567796561812741,1.56313278733028e-11
-0.497,0.4569387337637495,1.696902707255162e-11
-0.49696875,0.4569387337637495,1.840542280400324e-11
-0.4969375,0.4569387337637495,1.994665210976202e-11
-0.49690625,0.4569387337637495,2.159916346686253e-11
-0.496875,0.4568591949725119,2.336972906559068e-11
-0.49684375,0.4569387337637495,2.526545743292873e-11
-0.4968125,0.4570182725549873,2.729380640682555e-11
-0.49678125,0.4570182725549873,2.946259646701311e-11
-0.49675,0.4568591949725119,3.178002442811043e-11
-0.49671875,0.4569387337637495,3.425467750077465e-11
-0.4966875,0.4570182725549873,3.689554772667735e-11
-0.49665625,0.4570182725549873,3.971204679310216e-11
-0.496625,0.4570182725549873,4.271402123297643e-11
-0.49659375,0.4569387337637495,4.591176801616653e-11
-0.4965625,0.457097811346225,4.931605053788188e-11
-0.49653125,0.457097811346225,5.293811501004878e-11
-0.4965,0.457097811346225,5.67897072615288e-11
-0.49646875,0.4571773501374627,6.088308995307171e-11
-0.4964375,0.4571773501374627,6.523106021290552e-11
-0.49640625,0.4571773501374627,6.984696769888013e-11
-0.496375,0.4571773501374627,7.47447330930921e-11
-0.49634375,0.4572568889287005,7.993886703493176e-11
-0.4963125,0.4573364277199382,8.54444894985026e-11
-0.49628125,0.4573364277199382,9.127734962037633e-11
-0.49625,0.4571773501374627,9.745384598365435e-11
-0.49621875,0.4571773501374627,1.039910473643179e-10
-0.4961875,0.457097811346225,1.109067139458574e-10
-0.49615625,0.4571773501374627,1.182193190081789e-10
-0.496125,0.4571773501374627,1.259480710967955e-10
-0.49609375,0.4571773501374627,1.341129366783175e-10
-0.4960625,0.4571773501374627,1.427346632882606e-10
-0.49603125,0.4572568889287005,1.518348031772012e-10
-0.496,0.4572568889287005,1.614357374613098e-10
-0.49596875,0.4571773501374627,1.715607007833004e-10
-0.4959375,0.4572568889287005,1.822338064898387e-10
-0.49590625,0.4572568889287005,1.934800723314552e-10
-0.495875,0.4572568889287005,2.053254466910112e-10
-0.49584375,0.4572568889287005,2.177968353467742e-10
-0.4958125,0.4573364277199382,2.309221287761531e-10
-0.49578125,0.4572568889287005,2.447302300061549e-10
-0.49575,0.4573364277199382,2.592510830166182e-10
-0.49571875,0.4573364277199382,2.745157017022841e-10
-0.4956875,0.4573364277199382,2.905561993997652e-10
-0.49565625,0.4571773501374627,3.074058189854721e-10
-0.495625,0.4574159665111759,3.250989635505544e-10
-0.49559375,0.4574159665111759,3.436712276589185e-10
-0.4955625,0.4574159665111759,3.631594291943762e-10
-0.49553125,0.4573364277199382,3.836016418029787e-10
-0.4955,0.4572568889287005,4.050372279365879e-10
-0.49546875,0.4571773501374627,4.275068725037361e-10
-0.4954375,0.4573364277199382,4.510526171338168e-10
-0.49540625,0.4573364277199382,4.75717895060649e-10
-0.495375,0.4574159665111759,5.015475666314524e-10
-0.49534375,0.4574159665111759,5.28587955447265e-10
-0.4953125,0.4574955053024137,5.568868851408293e-10
-0.49528125,0.4574955053024137,5.864937167979683e-10
-0.49525,0.4575750440936514,6.174593870284636e-10
-0.49521875,0.4575750440936514,6.498364466924467e-10
-0.4951875,0.4574955053024137,6.836791002882981e-10
-0.49515625,0.4575750440936514,7.190432460080515e-10
-0.495125,0.4574955053024137,7.559865164662847e-10
-0.49509375,0.4574955053024137,7.945683201084714e-10
-0.4950625,0.4574955053024137,8.34849883304765e-10
-0.49503125,0.4574955053024137,8.768942931351626e-10
-0.495,0.4574955053024137,9.207665408720076e-10
-0.49496875,0.4574955053024137,9.665335661657554e-10
-0.4949375,0.4574955053024137,1.014264301939936e-09
-0.49490625,0.4575750440936514,1.064029720001225e-09
-0.494875,0.4575750440936514,1.115902877370524e-09
-0.49484375,0.4575750440936514,1.169958963340946e-09
-0.4948125,0.4574955053024137,1.226275347268571e-09
-0.49478125,0.4574955053024137,1.284931627101859e-09
-0.49475,0.4577341216761268,1.346009678655547e-09
-0.49471875,0.4575750440936514,1.409593705634884e-09
-0.4946875,0.4575750440936514,1.475770290416023e-09
-0.49465625,0.4575750440936514,1.544628445588378e-09
-0.494625,0.4575750440936514,1.616259666264739e-09
-0.49459375,0.4575750440936514,1.690757983164923e-09
-0.4945625,0.4576545828848891,1.768220016478735e-09
-0.49453125,0.4577341216761268,1.848745030513964e-09
-0.4945,0.4577341216761268,1.932434989135158e-09
-0.49446875,0.4576545828848891,2.019394611998898e-09
-0.4944375,0.4577341216761268,2.109731431591241e-09
-0.49440625,0.4574955053024137,2.203555851073039e-09
-0.494375,0.4575750440936514,2.300981202938778e-09
-0.49434375,0.4577341216761268,2.402123808494566e-09
-0.4943125,0.4577341216761268,2.507103038160932e-09
-0.49428125,0.4577341216761268,2.616041372605987e-09
-0.49425,0.4578931992586023,2.729064464714578e-09
-0.49421875,0.4578136604673645,2.846301202398961e-09
-0.4941875,0.45797273804984,2.967883772256565e-09
-0.49415625,0.45797273804984,3.093947724080347e-09
-0.494125,0.4578931992586023,3.224632036227257e-09
-0.49409375,0.4577341216761268,3.360079181850281e-09
-0.4940625,0.4578931992586023,3.500435195999526e-09
-0.49403125,0.4577341216761268,3.645849743597783e-09
-0.494,0.4577341216761268,3.796476188295977e-09
-0.49396875,0.4577341216761268,3.952471662213907e-09
-0.4939375,0.4577341216761268,4.113997136571624e-09
-0.49390625,0.4577341216761268,4.281217493216816e-09
-0.493875,0.4578136604673645,4.454301597053498e-09
-0.49384375,0.45797273804984,4.633422369377321e-09
-0.4938125,0.4578931992586023,4.818756862122764e-09
-0.49378125,0.4578931992586023,5.010486333027456e-09
-0.49375,0.4578136604673645,5.208796321718855e-09
-0.49371875,0.4578931992586023,5.413876726728474e-09
-0.4936875,0.4578136604673645,5.625921883438834e-09
-0.49365625,0.45797273804984,5.845130642968291e-09
-0.493625,0.4580522768410777,6.071706451998839e-09
-0.49359375,0.4580522768410777,6.305857433551999e-09
-0.4935625,0.45797273804984,6.547796468717856e-09
-0.49353125,0.4577341216761268,6.797741279342279e-09
-0.4935,0.4578931992586023,7.055914511677332e-09
-0.49346875,0.4577341216761268,7.322543820999876e-09
-0.4934375,0.4578931992586023,7.597861957203285e-09
-0.49340625,0.4578136604673645,7.882106851367243e-09
-0.493375,0.4577341216761268,8.175521703310474e-09
-0.49334375,0.4578931992586023,8.478355070131333e-09
-0.4933125,0.4578136604673645,8.790860955741032e-09
-0.49328125,0.4578931992586023,9.113298901394363e-09
-0.49325,0.4578136604673645,9.445934077222663e-09
-0.49321875,0.4578931992586023,9.7890373747738e-09
-0.4931875,0.45797273804984,1.014288550056388e-08
-0.49315625,0.4578136604673645,1.050776107064538e-08
-0.493125,0.4577341216761268,1.088395270619631e-08
-0.49309375,0.4578136604673645,1.127175513013518e-08
-0.4930625,0.4578136604673645,1.167146926476613e-08
-0.49303125,0.4578136604673645,1.208340233045905e-08
-0.493,0.4578136604673645,1.250786794536896e-08
-0.49296875,0.4578136604673645,1.294518622619944e-08
-0.4929375,0.45797273804984,1.339568389001428e-08
-0.49290625,0.4577341216761268,1.385969435710202e-08
-0.492875,0.4578931992586023,1.433755785489761e-08
-0.49284375,0.4578136604673645,1.48296215229657e-08
-0.4928125,0.4578136604673645,1.533623951904981e-08
-0.49278125,0.4578931992586023,1.585777312619166e-08
-0.49275,0.45797273804984,1.639459086092505e-08
-0.49271875,0.45797273804984,1.694706858254837e-08
-0.4926875,0.45797273804984,1.751558960348003e-08
-0.49265625,0.4577341216761268,1.810054480070097e-08
-0.492625,0.4578136604673645,1.870233272828835e-08
-0.49259375,0.4578931992586023,1.932135973104452e-08
-0.4925625,0.4578931992586023,1.995804005922538e-08
-0.49253125,0.4578931992586023,2.061279598437201e-08
-0.4925,0.4578136604673645,2.128605791624977e-08
-0.49246875,0.4578931992586023,2.197826452089865e-08
-0.4924375,0.4578136604673645,2.268986283979882e-08
-0.49240625,0.4577341216761268,2.342130841015534e-08
-0.492375,0.4578136604673645,2.417306538630577e-08
-0.49234375,0.4578931992586023,2.494560666225455e-08
-0.4923125,0.4578931992586023,2.573941399533785e-08
-0.49228125,0.4578136604673645,2.655497813102273e-08
-0.49225,0.4577341216761268,2.739279892884425e-08
-0.49221875,0.4578136604673645,2.825338548948407e-08
-0.4921875,0.4577341216761268,2.913725628299438e-08
-0.49215625,0.4576545828848891,3.004493927817058e-08
-0.492125,0.4577341216761268,3.097697207307626e-08
-0.49209375,0.4577341216761268,3.193390202672413e-08
-0.4920625,0.4578136604673645,3.291628639191606e-08
-0.49203125,0.4578136604673645,3.392469244924611e-08
-0.492,0.4578136604673645,3.495969764226939e-08
-0.49196875,0.4578136604673645,3.602188971384071e-08
-0.4919375,0.4578136604673645,3.711186684362562e-08
-0.49190625,0.4577341216761268,3.82302377867879e-08
-0.491875,0.4578136604673645,3.937762201385595e-08
-0.49184375,0.4576545828848891,4.055464985177192e-08
-0.4918125,0.4575750440936514,4.176196262612629e-08
-0.49178125,0.4574955053024137,4.300021280458125e-08
-0.49175,0.4576545828848891,4.42700641414858e-08
-0.49171875,0.4577341216761268,4.557219182368577e-08
-0.4916875,0.4577341216761268,4.690728261753151e-08
-0.49165625,0.4576545828848891,4.827603501708646e-08
-0.491625,0.4575750440936514,4.967915939353933e-08
-0.49159375,0.4575750440936514,5.111737814582272e-08
-0.4915625,0.4576545828848891,5.259142585244126e-08
-0.49153125,0.4576545828848891,5.41020494245117e-08
-0.4915,0.4577341216761268,5.565000826001803e-08
-0.49146875,0.4577341216761268,5.723607439928401e-08
-0.4914375,0.4575750440936514,5.886103268166607e-08
-0.49140625,0.4574955053024137,6.052568090346898e-08
-0.491375,0.4575750440936514,6.223082997708689e-08
-0.49134375,0.4575750440936514,6.39773040913724e-08
-0.4913125,0.4574955053024137,6.57659408732361e-08
-0.49128125,0.4574955053024137,6.75975915504788e-08
-0.49125,0.4574955053024137,6.947312111585924e-08
-0.49121875,0.4574955053024137,7.139340849239924e-08
-0.4911875,0.4575750440936514,7.335934669992908e-08
-0.49115625,0.4575750440936514,7.537184302287497e-08
-0.491125,0.4574159665111759,7.743181917929084e-08
-0.49109375,0.4575750440936514,7.954021149113695e-08
-0.4910625,0.4576545828848891,8.169797105580746e-08
-0.49103125,0.4574159665111759,8.390606391890847e-08
-0.491,0.4574955053024137,8.616547124828936e-08
-0.49096875,0.4574955053024137,8.847718950932895e-08
-0.4909375,0.4574159665111759,9.084223064147871e-08
-0.49090625,0.4574159665111759,9.326162223606474e-08
-0.490875,0.4574159665111759,9.573640771535054e-08
-0.49084375,0.4573364277199382,9.826764651286219e-08
-0.4908125,0.4573364277199382,1.008564142549783e-07
-0.49078125,0.4574159665111759,1.035038029437857e-07
-0.49075,0.4574159665111759,1.062109211412033e-07
-0.49071875,0.4573364277199382,1.089788941543747e-07
-0.4906875,0.4572568889287005,1.118088642223334e-07
-0.49065625,0.4573364277199382,1.147019907039387e-07
-0.490625,0.4572568889287005,1.176594502670877e-07
-0.49059375,0.4574159665111759,1.206824370792014e-07
-0.4905625,0.4574159665111759,1.237721629989894e-07
-0.49053125,0.4573364277199382,1.269298577694916e-07
-0.4905,0.4572568889287005,1.301567692124011e-07
-0.49046875,0.4573364277199382,1.334541634236672e-07
-0.4904375,0.4572568889287005,1.368233249703815e-07
-0.49040625,0.4573364277199382,1.402655570889471e-07
-0.490375,0.4573364277199382,1.437821818845336e-07
-0.49034375,0.4574159665111759,1.473745405318161e-07
-0.4903125,0.4572568889287005,1.510439934770033e-07
-0.49028125,0.4571773501374627,1.547919206411519e-07
-0.49025,0.4571773501374627,1.586197216247714e-07
-0.49021875,0.4572568889287005,1.625288159137174e-07
-0.4901875,0.4572568889287005,1.665206430863767e-07
-0.49015625,0.4571773501374627,1.705966630221437e-07
-0.490125,0.4571773501374627,1.747583561111892e-07
-0.49009375,0.4572568889287005,1.790072234655228e-07
-0.4900625,0.457097811346225,1.833447871313483e-07
-0.49003125,0.4570182725549873,1.877725903027145e-07
-0.49,0.457097811346225,1.922921975364609e-07
-0.48996875,0.4570182725549873,1.969051949684591e-07
-0.4899375,0.457097811346225,2.016131905311498e-07
-0.48990625,0.4570182725549873,2.064178141723784e-07
-0.489875,0.4570182725549873,2.113207180755252e-07
-0.48984375,0.4567796561812741,2.163235768809354e-07
-0.4898125,0.4569387337637495,2.214280879086452e-07
-0.48978125,0.4569387337637495,2.266359713824074e-07
-0.48975,0.4568591949725119,2.319489706550144e-07
-0.48971875,0.4568591949725119,2.373688524349204e-07
-0.4896875,0.4569387337637495,2.42897407014162e-07
-0.48965625,0.4570182725549873,2.485364484975776e-07
-0.489625,0.4569387337637495,2.542878150333261e-07
-0.48959375,0.4567796561812741,2.601533690447039e-07
-0.4895625,0.4567001173900364,2.661349974632608e-07
-0.48953125,0.4567796561812741,2.722346119632155e-07
-0.4895,0.4567796561812741,2.784541491971682e-07
-0.48946875,0.4568591949725119,2.847955710331131e-07
-0.4894375,0.4568591949725119,2.912608647927484e-07
-0.48940625,0.4568591949725119,2.978520434910843e-07
-0.489375,0.4567796561812741,3.045711460773482e-07
-0.48934375,0.4567796561812741,3.114202376771879e-07
-0.4893125,0.4567001173900364,3.184014098361716e-07
-0.48928125,0.4567001173900364,3.255167807645831e-07
-0.48925,0.4567001173900364,3.327684955835143e-07
-0.48921875,0.4566205785987987,3.401587265722521e-07
-0.4891875,0.4566205785987987,3.476896734169601e-07
-0.48915625,0.4567001173900364,3.553635634606546e-07
-0.489125,0.4567001173900364,3.631826519544737e-07
-0.48909375,0.4568591949725119,3.71149222310239e-07
-0.4890625,0.4568591949725119,3.792655863543088e-07
-0.48903125,0.4567796561812741,3.875340845827233e-07
-0.489,0.4567796561812741,3.959570864176384e-07
-0.48896875,0.4567796561812741,4.045369904650493e-07
-0.4889375,0.4567796561812741,4.132762247738028e-07
-0.48890625,0.4567796561812741,4.221772470958958e-07
-0.488875,0.4567001173900364,4.312425451480599e-07
-0.48884375,0.4568591949725119,4.404746368746317e-07
-0.4888125,0.4567796561812741,4.49876070711706e-07
-0.48878125,0.4566205785987987,4.594494258525718e-07
-0.48875,0.4566205785987987,4.691973125144298e-07
-0.48871875,0.4566205785987987,4.791223722063892e-07
-0.4886875,0.4566205785987987,4.892272779987439e-07
-0.48865625,0.4566205785987987,4.995147347935251e-07
-0.488625,0.4565410398075609,5.099874795963302e-07
-0.48859375,0.4565410398075609,5.206482817894256e-07
-0.4885625,0.4567001173900364,5.314999434061219e-07
-0.48853125,0.4567796561812741,5.425452994064214e-07
-0.4885,0.4566205785987987,5.53787217953933e-07
-0.48846875,0.4565410398075609,5.652286006940569e-07
-0.4884375,0.4565410398075609,5.768723830334334e-07
-0.48840625,0.4565410398075609,5.887215344206586e-07
-0.488375,0.4566205785987987,6.007790586282589e-07
