Task5_20Hz.csv

#Digilent WaveForms Oscilloscope Acquisition
#Device Name: Discovery3
#Serial Number: SN:210415BD63A1
#Date Time: 2026-09-24 11:11:33.650.228.050
#Sample rate: 16000Hz
#Samples: 32000
#Trigger: Source: Channel 1 Type: Edge Condition: Rising Level: 0 V Hyst.: Auto HoldOff: 0 s
#Channel 1: Range: 500 mV/div Offset: 0 V Sample Mode: Average
#Math 1: Input: C1 Reference: Internal Frequency: 20 Hz Phase: 90 ° Filter: IIR Butterworth 8  Low-Pass CutOff: 5 Hz Output: Amplitude

#Wavegen Channel 1: Running
#Mode: Simple
#Type: Sine
#Frequency: 20 Hz
#Period: 50 ms
#Amplitude: 50 mV
#Offset: 0 V
#Symmetry: 50 %
#Phase: 0 °

Time (s),Channel 1 (V),Math 1 (V)
-1,0.4383266566141216,3.755484284010066e-25
-0.9999375,0.4381675790316462,6.38060095149982e-24
-0.999875,0.4383266566141216,5.438746075974873e-23
-0.9998125,0.4383266566141216,3.122240410280264e-22
-0.99975,0.4383266566141216,1.366659335074404e-21
-0.9996875,0.4383266566141216,4.892198110190529e-21
-0.999625,0.4384061954053594,1.498615008708711e-20
-0.9995625,0.4384061954053594,4.054782299150942e-20
-0.9995000000000001,0.4382471178228839,9.917199645535218e-20
-0.9994375,0.4383266566141216,2.231181866445411e-19
-0.999375,0.4383266566141216,4.680076098910232e-19
-0.9993125,0.4383266566141216,9.249891979362784e-19
-0.99925,0.4381675790316462,1.737204507638483e-18
-0.9991875,0.4383266566141216,3.121468903220569e-18
-0.999125,0.4383266566141216,5.396172969949399e-18
-0.9990625,0.4390425057352612,9.016493750074926e-18
-0.999,0.4389629669440234,1.461809008479647e-17
-0.9989375,0.4388834281527857,2.307054010800509e-17
-0.998875,0.4388834281527857,3.554186176943194e-17
-0.9988125,0.4388834281527857,5.357553916273223e-17
-0.99875,0.4388834281527857,7.918155839584081e-17
-0.9986875,0.4388834281527857,1.149430367688085e-16
-0.998625,0.4389629669440234,1.641401081232895e-16
-0.9985625,0.4391220445264989,2.308928054043894e-16
-0.9985000000000001,0.4389629669440234,3.203247587358308e-16
-0.9984375,0.4389629669440234,4.387496036557202e-16
-0.998375,0.4390425057352612,5.938820695895447e-16
-0.9983125,0.438803889361548,7.95075793144411e-16
-0.99825,0.4388834281527857,1.053589974393601e-15
-0.9981875,0.4388834281527857,1.382887066989601e-15
-0.998125,0.438803889361548,1.798963764704988e-15
-0.9980625,0.4388834281527857,2.320717617858772e-15
-0.998,0.4388834281527857,2.970351683043347e-15
-0.9979375,0.4388834281527857,3.77381967862783e-15
-0.997875,0.4387243505703102,4.7613141866821e-15
-0.9978125,0.438803889361548,5.967800509246562e-15
-0.99775,0.4388834281527857,7.433598853267636e-15
-0.9976874999999999,0.4388834281527857,9.205017584028186e-15
-0.997625,0.4387243505703102,1.133504035152197e-14
-0.9975625,0.4388834281527857,1.388406995794771e-14
-0.9975000000000001,0.4388834281527857,1.692073189733402e-14
-0.9974375,0.438803889361548,2.052274056026142e-14
-0.997375,0.4387243505703102,2.477783115773182e-14
-0.9973125,0.4386448117790726,2.978476047845279e-14
-0.99725,0.4387243505703102,3.565437965315244e-14
-0.9971875,0.438803889361548,4.251078215802234e-14
-0.997125,0.4385652729878348,5.049253034700155e-14
-0.9970625,0.4387243505703102,5.97539638593669e-14
-0.997,0.4386448117790726,7.046659330498221e-14
-0.9969375,0.4385652729878348,8.282058268458363e-14
-0.996875,0.4384857341965971,9.702632405664207e-14
-0.9968125,0.4383266566141216,1.133161080156504e-13
-0.99675,0.4384061954053594,1.319458935991347e-13
-0.9966874999999999,0.4384857341965971,1.531971812922885e-13
-0.996625,0.4385652729878348,1.773789928498774e-13
-0.9965625,0.4383266566141216,2.048299617049709e-13
-0.9965000000000001,0.4382471178228839,2.35920537783126e-13
-0.9964375,0.4382471178228839,2.710553105888865e-13
-0.996375,0.4382471178228839,3.106754544788658e-13
-0.9963125,0.4382471178228839,3.552613000822571e-13
-0.99625,0.4381675790316462,4.053350358753504e-13
-0.9961875,0.4382471178228839,4.614635439615412e-13
-0.996125,0.4382471178228839,5.242613741523939e-13
-0.9960625,0.4381675790316462,5.943938604885785e-13
-0.996,0.4382471178228839,6.725803843819264e-13
-0.9959375,0.4382471178228839,7.595977886014809e-13
-0.995875,0.4381675790316462,8.562839463672124e-13
-0.9958125,0.4380880402404084,9.635414898550717e-13
-0.99575,0.4381675790316462,1.082341702456241e-12
-0.9956874999999999,0.4381675790316462,1.213728579171815e-12
-0.995625,0.4381675790316462,1.35882305956173e-12
-0.9955625,0.437928962657933,1.518827437703498e-12
-0.9955000000000001,0.437928962657933,1.695029953652331e-12
-0.9954375,0.437928962657933,1.888809570929371e-12
-0.995375,0.4380085014491707,2.101640944599169e-12
-0.9953125,0.437928962657933,2.335099584531168e-12
-0.99525,0.4380880402404084,2.59086721847276e-12
-0.9951875,0.437928962657933,2.870737359593528e-12
-0.995125,0.4378494238666953,3.176621083191554e-12
-0.9950625,0.4377698850754576,3.510553017283123e-12
-0.995,0.4377698850754576,3.874697551826906e-12
-0.9949375,0.4378494238666953,4.271355271362568e-12
-0.994875,0.4376108074929821,4.702969615871987e-12
-0.9948125,0.4375312687017444,5.172133774698617e-12
-0.99475,0.4374517299105066,5.681597818387168e-12
-0.9946874999999999,0.4375312687017444,6.234276073331675e-12
-0.994625,0.4374517299105066,6.83325474414508e-12
-0.9945625,0.4374517299105066,7.481799788687883e-12
-0.9945000000000001,0.4372926523280312,8.183365050716928e-12
-0.9944375,0.4372131135367934,8.94160065513833e-12
-0.994375,0.4373721911192689,9.760361670870564e-12
-0.9943125,0.4372131135367934,1.064371704634519e-11
-0.99425,0.4372926523280312,1.159595882269316e-11
-0.9941875,0.4372131135367934,1.262161162968472e-11
-0.994125,0.4371335747455558,1.372544246950984e-11
-0.9940625,0.4371335747455558,1.491247079350477e-11
-0.994,0.4371335747455558,1.618797887694765e-11
-0.9939375,0.4369744971630803,1.755752249706367e-11
-0.993875,0.4369744971630803,1.902694191939573e-11
-0.9938125,0.4369744971630803,2.060237319771291e-11
-0.99375,0.4371335747455558,2.229025979264325e-11
-0.9936874999999999,0.4369744971630803,2.40973645142318e-11
-0.993625,0.4369744971630803,2.603078179363819e-11
-0.9935625,0.437054035954318,2.809795028920068e-11
-0.9935,0.4371335747455558,3.030666583210577e-11
-0.9934375,0.437054035954318,3.266509471691337e-11
-0.993375,0.4371335747455558,3.51817873421988e-11
-0.9933125,0.4371335747455558,3.78656922065821e-11
-0.99325,0.437054035954318,4.072617026542487e-11
-0.9931875,0.4371335747455558,4.377300965348311e-11
-0.993125,0.4371335747455558,4.701644077881258e-11
-0.9930625,0.437054035954318,5.046715179323009e-11
-0.993,0.437054035954318,5.413630444464104e-11
-0.9929375,0.437054035954318,5.803555031654906e-11
-0.992875,0.4371335747455558,6.217704746006871e-11
-0.9928125,0.4372131135367934,6.657347742376714e-11
-0.99275,0.4372131135367934,7.123806268666366e-11
-0.9926874999999999,0.4371335747455558,7.618458449972043e-11
-0.992625,0.4372926523280312,8.142740114115862e-11
-0.9925625,0.4372926523280312,8.698146659093797e-11
-0.9925,0.4372926523280312,9.2862349629737e-11
-0.9924375,0.4372926523280312,9.908625336777354e-11
-0.992375,0.4373721911192689,1.056700352088038e-10
-0.9923125,0.4372926523280312,1.126312272546383e-10
-0.99225,0.4373721911192689,1.199880571555119e-10
-0.9921875,0.4372926523280312,1.277594694116421e-10
-0.992125,0.4372926523280312,1.359651471313088e-10
-0.9920625,0.4372926523280312,1.44625534250784e-10
-0.992,0.4373721911192689,1.53761858221438e-10
-0.9919375,0.4374517299105066,1.633961531693422e-10
-0.991875,0.4374517299105066,1.735512835326854e-10
-0.9918125,0.4375312687017444,1.842509681823132e-10
-0.99175,0.4375312687017444,1.955198050306972e-10
-0.9916875000000001,0.4376108074929821,2.073832961346284e-10
-0.991625,0.4375312687017444,2.198678732969281e-10
-0.9915625,0.4376903462842198,2.330009241724564e-10
-0.9915,0.4376108074929821,2.468108188836941e-10
-0.9914375,0.4374517299105066,2.613269371511607e-10
-0.991375,0.4376108074929821,2.765796959439249e-10
-0.9913125,0.4376108074929821,2.926005776554514e-10
-0.99125,0.4376108074929821,3.094221588100192e-10
-0.9911875,0.4375312687017444,3.270781393049319e-10
-0.991125,0.4376108074929821,3.456033721937325e-10
-0.9910625,0.4376108074929821,3.650338940156192e-10
-0.991,0.4377698850754576,3.854069556762478e-10
-0.9909375,0.4376903462842198,4.067610538850917e-10
-0.990875,0.4376903462842198,4.291359631545171e-10
-0.9908125,0.4377698850754576,4.525727683657139e-10
-0.99075,0.4377698850754576,4.771138979066122e-10
-0.9906875000000001,0.4378494238666953,5.028031573868922e-10
-0.990625,0.4378494238666953,5.296857639351849e-10
-0.9905625,0.437928962657933,5.578083810835412e-10
-0.9905,0.4377698850754576,5.872191542442285e-10
-0.9904375,0.4378494238666953,6.179677467838959e-10
-0.990375,0.4378494238666953,6.501053767001392e-10
-0.9903125,0.4378494238666953,6.836848539054602e-10
-0.99025,0.4380085014491707,7.18760618123615e-10
-0.9901875,0.4378494238666953,7.553887774033106e-10
-0.990125,0.437928962657933,7.936271472541987e-10
-0.9900625,0.437928962657933,8.335352904100877e-10
-0.99,0.437928962657933,8.75174557224277e-10
-0.9899375,0.437928962657933,9.186081267018936e-10
-0.9898749999999999,0.4378494238666953,9.63901048174089e-10
-0.9898125,0.437928962657933,1.01112028361893e-09
-0.98975,0.4380880402404084,1.060334750633793e-09
-0.9896875000000001,0.437928962657933,1.111615366064059e-09
-0.989625,0.4380085014491707,1.165035090292855e-09
-0.9895625,0.4380880402404084,1.220668972196596e-09
-0.9895,0.4380085014491707,1.278594194771029e-09
-0.9894375,0.4380880402404084,1.338890121432476e-09
-0.989375,0.4378494238666953,1.401638342998918e-09
-0.9893125,0.437928962657933,1.466922725355579e-09
-0.98925,0.4380085014491707,1.534829457809592e-09
-0.9891875,0.4380085014491707,1.605447102138342e-09
-0.989125,0.4380880402404084,1.678866642336025e-09
-0.9890625,0.4380880402404084,1.755181535062957e-09
-0.989,0.4380085014491707,1.834487760802109e-09
-0.9889375,0.4380880402404084,1.916883875727344e-09
-0.9888749999999999,0.4380880402404084,2.002471064287789e-09
-0.9888125,0.4380880402404084,2.091353192512737e-09
-0.98875,0.4380085014491707,2.183636862041454e-09
-0.9886875000000001,0.4380085014491707,2.279431464882234e-09
-0.988625,0.4380880402404084,2.37884923890501e-09
-0.9885625,0.4381675790316462,2.482005324071797e-09
-0.9885,0.4381675790316462,2.589017819409215e-09
-0.9884375,0.4380880402404084,2.700007840727292e-09
-0.988375,0.4380880402404084,2.815099579088742e-09
-0.9883125,0.4382471178228839,2.934420360032853e-09
-0.98825,0.4382471178228839,3.058100703558094e-09
-0.9881875,0.4381675790316462,3.18627438486752e-09
-0.988125,0.4382471178228839,3.319078495881015e-09
-0.9880625,0.4381675790316462,3.456653507518388e-09
-0.988,0.4380880402404084,3.599143332757267e-09
-0.9879375,0.4381675790316462,3.746695390469757e-09
-0.9878749999999999,0.4380880402404084,3.899460670041735e-09
-0.9878125,0.4381675790316462,4.057593796778657e-09
-0.98775,0.4381675790316462,4.221253098101688e-09
-0.9876875000000001,0.4381675790316462,4.390600670537956e-09
-0.987625,0.4382471178228839,4.565802447508666e-09
-0.9875625,0.4381675790316462,4.747028267918789e-09
-0.9875,0.4382471178228839,4.934451945551989e-09
-0.9874375,0.4381675790316462,5.128251339274443e-09
-0.987375,0.4381675790316462,5.328608424051114e-09
-0.9873125,0.4381675790316462,5.535709362778052e-09
-0.98725,0.4381675790316462,5.749744578934238e-09
-0.9871875,0.4380880402404084,5.970908830056424e-09
-0.987125,0.4381675790316462,6.199401282040423e-09
-0.9870625,0.4380880402404084,6.435425584272219e-09
-0.987,0.4380880402404084,6.67918994559227e-09
-0.9869375,0.4380085014491707,6.930907211096287e-09
-0.9868749999999999,0.4380880402404084,7.190794939775779e-09
-0.9868125,0.437928962657933,7.459075483001554e-09
-0.98675,0.4380880402404084,7.73597606385341e-09
-0.9866875000000001,0.4380085014491707,8.021728857299076e-09
-0.986625,0.4380880402404084,8.316571071225601e-09
-0.9865625,0.4380085014491707,8.62074502832611e-09
-0.9865,0.4380880402404084,8.934498248845077e-09
-0.9864375,0.4380085014491707,9.258083534184962e-09
-0.986375,0.4380880402404084,9.591759051377195e-09
-0.9863125,0.437928962657933,9.935788418420352e-09
-0.98625,0.4380085014491707,1.029044079048837e-08
-0.9861875,0.4380085014491707,1.065599094701157e-08
-0.986125,0.4380085014491707,1.10327193796332e-08
-0.9860625,0.4380085014491707,1.14209123810443e-08
-0.986,0.437928962657933,1.182086213469935e-08
-0.9859375,0.4378494238666953,1.223286680541548e-08
-0.9858749999999999,0.4378494238666953,1.265723063085766e-08
-0.9858125,0.4378494238666953,1.309426401391251e-08
-0.98575,0.4378494238666953,1.354428361595302e-08
-0.9856875,0.4378494238666953,1.400761245099673e-08
-0.985625,0.4377698850754576,1.448457998075971e-08
-0.9855625,0.4376903462842198,1.497552221060853e-08
-0.9855,0.4376903462842198,1.548078178641269e-08
-0.9854375,0.4376108074929821,1.60007080922996e-08
-0.985375,0.4376903462842198,1.653565734931422e-08
-0.9853125,0.4376108074929821,1.708599271498565e-08
-0.98525,0.4375312687017444,1.765208438380266e-08
-0.9851875,0.4375312687017444,1.82343096886001e-08
-0.985125,0.4374517299105066,1.883305320285828e-08
-0.9850625,0.4375312687017444,1.944870684391723e-08
-0.985,0.4374517299105066,2.008166997710762e-08
-0.9849375,0.4373721911192689,2.073234952080024e-08
-0.9848749999999999,0.4374517299105066,2.140116005237588e-08
-0.9848125,0.4375312687017444,2.208852391511711e-08
-0.98475,0.4372926523280312,2.279487132602384e-08
-0.9846875,0.4372131135367934,2.352064048455423e-08
-0.984625,0.4372131135367934,2.426627768229246e-08
-0.9845625,0.4372131135367934,2.503223741354489e-08
-0.9845,0.4371335747455558,2.581898248686615e-08
-0.9844375,0.437054035954318,2.662698413751646e-08
-0.984375,0.437054035954318,2.745672214085166e-08
-0.9843125,0.4369744971630803,2.830868492664715e-08
-0.98425,0.4368949583718426,2.918336969435704e-08
-0.9841875,0.4368949583718426,3.008128252930979e-08
-0.984125,0.4367358807893671,3.100293851984134e-08
-0.9840625,0.4366563419981294,3.194886187536694e-08
-0.984,0.4366563419981294,3.291958604539269e-08
-0.9839375,0.4365768032068916,3.391565383946784e-08
-0.9838750000000001,0.4365768032068916,3.493761754807863e-08
-0.9838125,0.4364972644156539,3.598603906448476e-08
-0.98375,0.4366563419981294,3.706149000749915e-08
-0.9836875,0.4367358807893671,3.816455184521192e-08
-0.983625,0.4366563419981294,3.929581601965918e-08
-0.9835625,0.4365768032068916,4.045588407243736e-08
-0.9835,0.4365768032068916,4.164536777126375e-08
-0.9834375,0.4365768032068916,4.286488923748367e-08
-0.983375,0.4364972644156539,4.411508107452498e-08
-0.9833125,0.4364972644156539,4.539658649730014e-08
-0.98325,0.4366563419981294,4.671005946255646e-08
-0.9831875,0.4364972644156539,4.805616480017472e-08
-0.983125,0.4364972644156539,4.94355783454165e-08
-0.9830625,0.4364177256244162,5.084898707212047e-08
-0.983,0.4364972644156539,5.229708922684782e-08
-0.9829375,0.4366563419981294,5.378059446397691e-08
-0.9828750000000001,0.4364972644156539,5.530022398174726e-08
-0.9828125,0.4364972644156539,5.685671065925287e-08
-0.98275,0.4364177256244162,5.845079919438486e-08
-0.9826875,0.4365768032068916,6.008324624272329e-08
-0.982625,0.4364972644156539,6.1754820557378e-08
-0.9825625,0.4364972644156539,6.346630312977829e-08
-0.9825,0.4364972644156539,6.521848733141128e-08
-0.9824375,0.4364972644156539,6.701217905650831e-08
-0.982375,0.4365768032068916,6.884819686567948e-08
-0.9823125,0.4364972644156539,7.072737213049551e-08
-0.98225,0.4365768032068916,7.265054917901634e-08
-0.9821875,0.4365768032068916,7.461858544226673e-08
-0.982125,0.4364972644156539,7.663235160165709e-08
-0.9820624999999999,0.4365768032068916,7.869273173734976e-08
-0.982,0.4366563419981294,8.08006234775697e-08
-0.9819375,0.4366563419981294,8.295693814885891e-08
-0.9818750000000001,0.4367358807893671,8.516260092727362e-08
-0.9818125,0.4366563419981294,8.741855099052352e-08
-0.98175,0.4365768032068916,8.972574167105217e-08
-0.9816875,0.4366563419981294,9.208514061005704e-08
-0.981625,0.4367358807893671,9.449772991244925e-08
-0.9815625,0.4365768032068916,9.696450630275045e-08
-0.9815,0.4366563419981294,9.948648128192706e-08
-0.9814375,0.4367358807893671,1.020646812851596e-07
-0.981375,0.4366563419981294,1.047001478405467e-07
-0.9813125,0.4367358807893671,1.073939377287415e-07
-0.98125,0.4367358807893671,1.101471231435199e-07
-0.9811875,0.4367358807893671,1.129607918532792e-07
-0.981125,0.4367358807893671,1.158360473634645e-07
-0.9810624999999999,0.4367358807893671,1.18774009079923e-07
-0.981,0.4368154195806048,1.21775812473183e-07
-0.9809375,0.4369744971630803,1.248426092436574e-07
-0.9808750000000001,0.4368154195806048,1.279755674877682e-07
-0.9808125,0.4369744971630803,1.311758718649927e-07
-0.98075,0.4369744971630803,1.344447237658262e-07
-0.9806875,0.4369744971630803,1.37783341480663e-07
-0.980625,0.4369744971630803,1.411929603695912e-07
-0.9805625,0.4369744971630803,1.446748330330992e-07
-0.9805,0.4369744971630803,1.482302294836945e-07
-0.9804375,0.437054035954318,1.518604373184294e-07
-0.980375,0.4369744971630803,1.555667618923333e-07
-0.9803125,0.4371335747455558,1.593505264927493e-07
-0.98025,0.4369744971630803,1.632130725145717e-07
-0.9801875,0.437054035954318,1.671557596363836e-07
-0.980125,0.4371335747455558,1.711799659974908e-07
-0.9800624999999999,0.4369744971630803,1.752870883758508e-07
-0.98,0.4369744971630803,1.794785423668928e-07
-0.9799375,0.4371335747455558,1.837557625632282e-07
-0.9798750000000001,0.437054035954318,1.881202027352466e-07
-0.9798125,0.4372131135367934,1.925733360125972e-07
-0.97975,0.4372926523280312,1.971166550665502e-07
-0.9796875,0.4373721911192689,2.017516722932377e-07
-0.979625,0.4372926523280312,2.064799199977699e-07
-0.9795625,0.4372926523280312,2.113029505792238e-07
-0.9795,0.4373721911192689,2.162223367165025e-07
-0.9794375,0.4373721911192689,2.212396715550603e-07
-0.979375,0.4375312687017444,2.263565688944924e-07
-0.9793125,0.4375312687017444,2.315746633769845e-07
-0.97925,0.4374517299105066,2.368956106766204e-07
-0.9791875,0.4374517299105066,2.423210876895433e-07
-0.979125,0.4375312687017444,2.478527927249684e-07
-0.9790624999999999,0.4375312687017444,2.534924456970427e-07
-0.979,0.4376108074929821,2.592417883175491e-07
-0.9789375,0.4376108074929821,2.651025842894512e-07
-0.9788750000000001,0.4376108074929821,2.710766195012755e-07
-0.9788125,0.4375312687017444,2.771657022223263e-07
-0.97875,0.4376108074929821,2.833716632987318e-07
-0.9786875,0.4377698850754576,2.896963563503161e-07
-0.978625,0.4376903462842198,2.961416579682928e-07
-0.9785625,0.4376903462842198,3.027094679137794e-07
-0.9785,0.4378494238666953,3.094017093171245e-07
-0.9784375,0.4378494238666953,3.162203288780478e-07
-0.978375,0.4378494238666953,3.231672970665862e-07
-0.9783125,0.4377698850754576,3.302446083248437e-07
-0.97825,0.4377698850754576,3.374542812695398e-07
-0.9781875,0.4378494238666953,3.447983588953534e-07
-0.978125,0.4378494238666953,3.522789087790574e-07
-0.9780624999999999,0.4378494238666953,3.598980232844393e-07
-0.978,0.4378494238666953,3.676578197680055e-07
-0.9779375,0.4380880402404084,3.755604407854621e-07
-0.977875,0.4380085014491707,3.836080542989708e-07
-0.9778125,0.4380880402404084,3.918028538851732e-07
-0.97775,0.4381675790316462,4.001470589439799e-07
-0.9776875,0.4380085014491707,4.086429149081201e-07
-0.977625,0.4380085014491707,4.172926934534475e-07
-0.9775625,0.4380085014491707,4.260986927099958e-07
-0.9775,0.437928962657933,4.350632374737817e-07
-0.9774375,0.437928962657933,4.441886794193495e-07
-0.977375,0.437928962657933,4.534773973130523e-07
-0.9773125,0.4380085014491707,4.629317972270651e-07
-0.97725,0.437928962657933,4.725543127541253e-07
-0.9771875,0.437928962657933,4.82347405222996e-07
-0.977125,0.437928962657933,4.923135639146448e-07
-0.9770624999999999,0.437928962657933,5.024553062791371e-07
-0.977,0.4378494238666953,5.127751781532343e-07
-0.9769375,0.4378494238666953,5.232757539786969e-07
-0.976875,0.4380085014491707,5.339596370212796e-07
-0.9768125,0.4378494238666953,5.448294595904236e-07
-0.97675,0.4377698850754576,5.558878832596315e-07
