Task6_Horizontal_20Hz_200mV_0%.csv

#Digilent WaveForms Oscilloscope Acquisition
#Device Name: Discovery3
#Serial Number: SN:210415BD63A1
#Date Time: 2026-09-24 11:32:33.246.224.820
#Sample rate: 16000Hz
#Samples: 32000
#Trigger: Source: Channel 1 Type: Edge Condition: Rising Level: 0 V Hyst.: Auto HoldOff: 0 s
#Channel 1: Range: 50 mV/div Offset: 0 V Sample Mode: Average
#Math 1: Input: C1 Reference: Internal Frequency: 20 Hz Phase: 90 ° Filter: IIR Butterworth 8  Low-Pass CutOff: 2 Hz Output: Amplitude

#Wavegen Channel 1: Running
#Mode: Simple
#Type: Sine
#Frequency: 20 Hz
#Period: 50 ms
#Amplitude: 200 mV
#Offset: 0 V
#Symmetry: 50 %
#Phase: 0 °

Time (s),Channel 1 (V),Math 1 (V)
-1,0.0325992825104798,1.875894883177738e-29
-0.9999375,0.03267882130171752,3.188260654943157e-28
-0.999875,0.03275836009295525,2.718633205649374e-27
-0.9998125,0.03275836009295525,1.561308164961529e-26
-0.99975,0.03275836009295525,6.836984203650746e-26
-0.9996875,0.03275836009295525,2.44851175629627e-25
-0.999625,0.03275836009295525,7.50401590817196e-25
-0.9995625,0.03267882130171752,2.031364303136682e-24
-0.9995000000000001,0.03275836009295525,4.970914096630801e-24
-0.9994375,0.03283789888419298,1.118970369049422e-23
-0.999375,0.03283789888419298,2.348451655741348e-23
-0.9993125,0.03291743767543071,4.644280147204516e-23
-0.99925,0.03283789888419298,8.727563098038641e-23
-0.9991875,0.03291743767543071,1.569162743615943e-22
-0.999125,0.03291743767543071,2.714362037465811e-22
-0.9990625,0.03299697646666843,4.538349612922305e-22
-0.999,0.03299697646666843,7.362649084557472e-22
-0.9989375,0.03307651525790616,1.162756456305524e-21
-0.998875,0.03323559284038161,1.792513937571323e-21
-0.9988125,0.03315605404914388,2.703856826666617e-21
-0.99875,0.03323559284038161,3.998885543638651e-21
-0.9986875,0.03323559284038161,5.808955590741581e-21
-0.998625,0.03323559284038161,8.301048263708182e-21
-0.9985625,0.03323559284038161,1.168513065256167e-20
-0.9985000000000001,0.03315605404914388,1.622260209896291e-20
-0.9984375,0.03299697646666843,2.223592870858765e-20
-0.998375,0.03307651525790616,3.011957192849278e-20
-0.9983125,0.03315605404914388,4.035232159329052e-20
-0.99825,0.03307651525790616,5.35111482225885e-20
-0.9981875,0.03323559284038161,7.028669371480292e-20
-0.998125,0.03323559284038161,9.150052392534205e-20
-0.9980625,0.03323559284038161,1.18124270936836e-19
-0.998,0.03315605404914388,1.513007971246836e-19
-0.9979375,0.03315605404914388,1.9236751739377e-19
-0.997875,0.03315605404914388,2.42882020213506e-19
-0.9978125,0.03315605404914388,3.046501323103251e-19
-0.99775,0.03315605404914388,3.797565760911601e-19
-0.9976874999999999,0.03315605404914388,4.705983730681422e-19
-0.997625,0.03323559284038161,5.799211507311293e-19
-0.9975625,0.03307651525790616,7.108585144672116e-19
-0.9975000000000001,0.03307651525790616,8.669746502542917e-19
-0.9974375,0.03299697646666843,1.052310327961337e-18
-0.997375,0.03299697646666843,1.271432479172654e-18
-0.9973125,0.03307651525790616,1.529487527517094e-18
-0.99725,0.03307651525790616,1.832258653524696e-18
-0.9971875,0.03291743767543071,2.186227180053291e-18
-0.997125,0.03283789888419298,2.59863826832602e-18
-0.9970625,0.03299697646666843,3.077571118596415e-18
-0.997,0.03299697646666843,3.632013873409929e-18
-0.9969375,0.03299697646666843,4.271943425359952e-18
-0.996875,0.03291743767543071,5.008410335142128e-18
-0.9968125,0.03291743767543071,5.85362906959206e-18
-0.99675,0.03291743767543071,6.821073773248764e-18
-0.9966874999999999,0.03275836009295525,7.925579790821295e-18
-0.996625,0.03283789888419298,9.183451161749297e-18
-0.9965625,0.03283789888419298,1.061257431183763e-17
-0.9965000000000001,0.03283789888419298,1.223253817070807e-17
-0.9964375,0.03291743767543071,1.406476094754656e-17
-0.996375,0.03283789888419298,1.61326238013329e-17
-0.9963125,0.03275836009295525,1.846161164542212e-17
-0.99625,0.03267882130171752,2.107946133000343e-17
-0.9961875,0.03267882130171752,2.401631744959342e-17
-0.996125,0.03267882130171752,2.73048960263278e-17
-0.9960625,0.0325992825104798,3.09806563233999e-17
-0.996,0.0325992825104798,3.508198104655677e-17
-0.9959375,0.0325992825104798,3.965036519510031e-17
-0.995875,0.0325992825104798,4.4730613827352e-17
-0.9958125,0.0325992825104798,5.037104900902175e-17
-0.99575,0.03251974371924207,5.662372621637446e-17
-0.9956874999999999,0.03251974371924207,6.354466046951223e-17
-0.995625,0.03251974371924207,7.11940624744874e-17
-0.9955625,0.03244020492800435,7.963658505633127e-17
-0.9955000000000001,0.03244020492800435,8.894158016842772e-17
-0.9954375,0.03236066613676662,9.918336676697778e-17
-0.995375,0.03228112734552889,1.104415098425922e-16
-0.9953125,0.03236066613676662,1.228011109043123e-16
-0.99525,0.03228112734552889,1.363531102145966e-16
-0.9951875,0.03220158855429116,1.511946010770171e-16
-0.995125,0.03204251097181571,1.674291564815849e-16
-0.9950625,0.03204251097181571,1.851671684157751e-16
-0.995,0.03220158855429116,2.045262001524345e-16
-0.9949375,0.03196297218057799,2.256313518288506e-16
-0.994875,0.03196297218057799,2.486156396343215e-16
-0.9948125,0.03204251097181571,2.736203889266015e-16
-0.99475,0.03188343338934026,3.007956416006054e-16
-0.9946874999999999,0.03180389459810254,3.303005780357366e-16
-0.994625,0.03188343338934026,3.62303953951156e-16
-0.9945625,0.03180389459810254,3.969845525012325e-16
-0.9945000000000001,0.03172435580686481,4.345316519463083e-16
-0.9944375,0.03172435580686481,4.751455092367711e-16
-0.994375,0.03180389459810254,5.19037859851254e-16
-0.9943125,0.03172435580686481,5.664324342325762e-16
-0.99425,0.03180389459810254,6.175654911678159e-16
-0.9941875,0.03188343338934026,6.726863684616305e-16
-0.994125,0.03188343338934026,7.32058051254662e-16
-0.9940625,0.03172435580686481,7.959577583415469e-16
-0.994,0.03180389459810254,8.646775468456995e-16
-0.9939375,0.03172435580686481,9.385249356106791e-16
-0.993875,0.03164481701562708,1.01782354767054e-15
-0.9938125,0.03172435580686481,1.102913772164117e-15
-0.99375,0.03172435580686481,1.194153446060765e-15
-0.9936874999999999,0.03172435580686481,1.291918556067537e-15
-0.993625,0.03172435580686481,1.396603961090296e-15
-0.9935625,0.03172435580686481,1.508624135623686e-15
-0.9935,0.03180389459810254,1.628413934447278e-15
-0.9934375,0.03180389459810254,1.756429379007622e-15
-0.993375,0.03172435580686481,1.893148465868267e-15
-0.9933125,0.03172435580686481,2.03907199761213e-15
-0.99325,0.03196297218057799,2.194724436582906e-15
-0.9931875,0.03188343338934026,2.360654781854489e-15
-0.993125,0.03188343338934026,2.537437469819557e-15
-0.9930625,0.03188343338934026,2.725673298790762e-15
-0.993,0.03180389459810254,2.92599037801008e-15
-0.9929375,0.03188343338934026,3.139045101464083e-15
-0.992875,0.03188343338934026,3.365523146904987e-15
-0.9928125,0.03180389459810254,3.606140500479457e-15
-0.99275,0.03196297218057799,3.861644507369232e-15
-0.9926874999999999,0.03204251097181571,4.132814948849658e-15
-0.992625,0.03204251097181571,4.420465146174236e-15
-0.9925625,0.03212204976305344,4.725443091695371e-15
-0.9925,0.03212204976305344,5.048632607633361e-15
-0.9924375,0.03204251097181571,5.390954532907751e-15
-0.992375,0.03204251097181571,5.753367938447002e-15
-0.9923125,0.03204251097181571,6.136871371394395e-15
-0.99225,0.03204251097181571,6.542504128629916e-15
-0.9921875,0.03204251097181571,6.971347560029761e-15
-0.992125,0.03220158855429116,7.424526401886874e-15
-0.9920625,0.03228112734552889,7.903210140917771e-15
-0.992,0.03220158855429116,8.408614409282634e-15
-0.9919375,0.03212204976305344,8.94200241104741e-15
-0.991875,0.03212204976305344,9.504686380518407e-15
-0.9918125,0.03220158855429116,1.009802907288149e-14
-0.99175,0.03236066613676662,1.072344528757974e-14
-0.9916875000000001,0.03228112734552889,1.138240342486505e-14
-0.991625,0.03228112734552889,1.207642707596065e-14
-0.9915625,0.03228112734552889,1.280709664727344e-14
-0.9915,0.03244020492800435,1.357605101909613e-14
-0.9914375,0.03236066613676662,1.438498923924124e-14
-0.991375,0.03244020492800435,1.523567225205016e-14
-0.9913125,0.03236066613676662,1.612992466322207e-14
-0.99125,0.03236066613676662,1.70696365409092e-14
-0.9911875,0.03251974371924207,1.805676525352596e-14
-0.991125,0.0325992825104798,1.909333734472131e-14
-0.9910625,0.03251974371924207,2.01814504459649e-14
-0.991,0.03251974371924207,2.132327522719894e-14
-0.9909375,0.0325992825104798,2.252105738600909e-14
-0.990875,0.03267882130171752,2.377711967576919e-14
-0.9908125,0.03275836009295525,2.50938639732155e-14
-0.99075,0.03267882130171752,2.647377338590806e-14
-0.9906875000000001,0.03267882130171752,2.791941440003747e-14
-0.990625,0.03267882130171752,2.943343906903678e-14
-0.9905625,0.03275836009295525,3.101858724345959e-14
-0.9905,0.03283789888419298,3.267768884258656e-14
-0.9904375,0.03291743767543071,3.441366616822328e-14
-0.990375,0.03275836009295525,3.622953626115434e-14
-0.9903125,0.03283789888419298,3.812841330071879e-14
-0.99025,0.03275836009295525,4.011351104797388e-14
-0.9901875,0.03291743767543071,4.218814533291437e-14
-0.990125,0.03291743767543071,4.435573658621662e-14
-0.9900625,0.03291743767543071,4.661981241597658e-14
-0.99,0.03291743767543071,4.898401022991285e-14
-0.9899375,0.03291743767543071,5.145207990350619e-14
-0.9898749999999999,0.03283789888419298,5.40278864945481e-14
-0.9898125,0.03299697646666843,5.671541300457214e-14
-0.98975,0.03299697646666843,5.951876318764206e-14
-0.9896875000000001,0.03315605404914388,6.244216440697233e-14
-0.989625,0.03299697646666843,6.548997053985692e-14
-0.9895625,0.03307651525790616,6.866666493138331e-14
-0.9895,0.03299697646666843,7.197686339740947e-14
-0.9894375,0.03299697646666843,7.54253172772821e-14
-0.989375,0.03315605404914388,7.901691653677553e-14
-0.9893125,0.03315605404914388,8.275669292173105e-14
-0.98925,0.03315605404914388,8.664982316287729e-14
-0.9891875,0.03315605404914388,9.070163223231294e-14
-0.989125,0.03315605404914388,9.491759665213372e-14
-0.9890625,0.03299697646666843,9.930334785568586e-14
-0.989,0.03307651525790616,1.038646756019297e-13
-0.9889375,0.03307651525790616,1.086075314433967e-13
-0.9888749999999999,0.03299697646666843,1.135380322482237e-13
-0.9888125,0.03299697646666843,1.186624637767505e-13
-0.98875,0.03307651525790616,1.239872843131638e-13
-0.9886875000000001,0.03323559284038161,1.295191283526757e-13
-0.988625,0.03323559284038161,1.352648103447207e-13
-0.9885625,0.03315605404914388,1.41231328492659e-13
-0.9885,0.03307651525790616,1.474258686104726e-13
-0.9884375,0.03307651525790616,1.538558080369414e-13
-0.988375,0.03307651525790616,1.605287196077872e-13
-0.9883125,0.03323559284038161,1.674523756862738e-13
-0.98825,0.03323559284038161,1.746347522527503e-13
-0.9881875,0.03307651525790616,1.82084033053628e-13
-0.988125,0.03315605404914388,1.898086138102771e-13
-0.9880625,0.03315605404914388,1.978171064883355e-13
-0.988,0.03315605404914388,2.061183436279152e-13
-0.9879375,0.03307651525790616,2.147213827351996e-13
-0.9878749999999999,0.03315605404914388,2.236355107359168e-13
-0.9878125,0.03323559284038161,2.328702484911831e-13
-0.98775,0.03323559284038161,2.424353553762024e-13
-0.9876875000000001,0.03315605404914388,2.523408339223144e-13
-0.987625,0.03307651525790616,2.625969345228793e-13
-0.9875625,0.03331513163161934,2.732141602034901e-13
-0.9875,0.03323559284038161,2.842032714570021e-13
-0.9874375,0.03323559284038161,2.955752911438691e-13
-0.987375,0.03315605404914388,3.073415094582764e-13
-0.9873125,0.03323559284038161,3.195134889605609e-13
-0.98725,0.03307651525790616,3.32103069676406e-13
-0.9871875,0.03307651525790616,3.451223742633038e-13
-0.987125,0.03299697646666843,3.58583813244771e-13
-0.9870625,0.03307651525790616,3.725000903128098e-13
-0.987,0.03299697646666843,3.868842076991019e-13
-0.9869375,0.03307651525790616,4.017494716154237e-13
-0.9868749999999999,0.03299697646666843,4.171094977637733e-13
-0.9868125,0.03299697646666843,4.329782169166955e-13
-0.98675,0.03291743767543071,4.493698805682929e-13
-0.9866875000000001,0.03291743767543071,4.662990666564134e-13
-0.986625,0.03291743767543071,4.837806853564964e-13
-0.9865625,0.03291743767543071,5.018299849475709e-13
-0.9865,0.03299697646666843,5.204625577508863e-13
-0.9864375,0.03299697646666843,5.396943461416653e-13
-0.986375,0.03291743767543071,5.595416486344639e-13
-0.9863125,0.03283789888419298,5.800211260426235e-13
-0.98625,0.03275836009295525,6.011498077123002e-13
-0.9861875,0.03283789888419298,6.229450978315543e-13
-0.986125,0.03275836009295525,6.45424781814986e-13
-0.9860625,0.0325992825104798,6.686070327643984e-13
-0.986,0.0325992825104798,6.925104180059701e-13
-0.9859375,0.03267882130171752,7.171539057044227e-13
-0.9858749999999999,0.0325992825104798,7.425568715546597e-13
-0.9858125,0.0325992825104798,7.687391055513606e-13
-0.98575,0.03251974371924207,7.957208188370107e-13
-0.9856875,0.03251974371924207,8.235226506288427e-13
-0.985625,0.0325992825104798,8.521656752251716e-13
-0.9855625,0.03236066613676662,8.816714090916004e-13
-0.9855,0.03236066613676662,9.120618180275717e-13
-0.9854375,0.03228112734552889,9.433593244137426e-13
-0.985375,0.03236066613676662,9.755868145406609e-13
-0.9853125,0.03244020492800435,1.00876764601921e-12
-0.98525,0.03228112734552889,1.042925655273308e-12
-0.9851875,0.03220158855429116,1.078085165115319e-12
-0.985125,0.03220158855429116,1.114270992404663e-12
-0.9850625,0.03236066613676662,1.151508455790086e-12
-0.985,0.03212204976305344,1.18982338353606e-12
-0.9849375,0.03212204976305344,1.229242121433796e-12
-0.9848749999999999,0.03196297218057799,1.269791540797311e-12
-0.9848125,0.03188343338934026,1.31149904654505e-12
-0.98475,0.03188343338934026,1.354392585367497e-12
-0.9846875,0.03196297218057799,1.398500653981263e-12
-0.984625,0.03172435580686481,1.443852307470107e-12
-0.9845625,0.03180389459810254,1.490477167713342e-12
-0.9845,0.03172435580686481,1.538405431902115e-12
-0.9844375,0.03164481701562708,1.587667881143987e-12
-0.984375,0.03180389459810254,1.638295889156302e-12
-0.9843125,0.03172435580686481,1.690321431048784e-12
-0.98425,0.03172435580686481,1.743777092195833e-12
-0.9841875,0.03172435580686481,1.798696077198961e-12
-0.984125,0.03180389459810254,1.855112218939837e-12
-0.9840625,0.03172435580686481,1.913059987724384e-12
-0.984,0.03172435580686481,1.972574500518381e-12
-0.9839375,0.03172435580686481,2.033691530275034e-12
-0.9838750000000001,0.03172435580686481,2.09644751535494e-12
-0.9838125,0.03180389459810254,2.160879569038916e-12
-0.98375,0.03180389459810254,2.227025489134129e-12
-0.9836875,0.03164481701562708,2.294923767673969e-12
-0.983625,0.03180389459810254,2.364613600712119e-12
-0.9835625,0.03180389459810254,2.436134898211248e-12
-0.9835,0.03188343338934026,2.509528294026797e-12
-0.9834375,0.03188343338934026,2.584835155986257e-12
-0.983375,0.03180389459810254,2.662097596064412e-12
-0.9833125,0.03180389459810254,2.741358480654968e-12
-0.98325,0.03188343338934026,2.822661440939004e-12
-0.9831875,0.03180389459810254,2.906050883350679e-12
-0.983125,0.03188343338934026,2.991572000140626e-12
-0.9830625,0.03172435580686481,3.07927078003747e-12
-0.983,0.03196297218057799,3.169194019007888e-12
-0.9829375,0.03188343338934026,3.261389331115643e-12
-0.9828750000000001,0.03196297218057799,3.355905159480025e-12
-0.9828125,0.03188343338934026,3.452790787334103e-12
-0.98275,0.03196297218057799,3.552096349183234e-12
-0.9826875,0.03196297218057799,3.653872842064231e-12
-0.982625,0.03196297218057799,3.758172136905617e-12
-0.9825625,0.03196297218057799,3.865046989989382e-12
-0.9825,0.03196297218057799,3.97455105451465e-12
-0.9824375,0.03188343338934026,4.086738892263692e-12
-0.982375,0.03212204976305344,4.20166598537065e-12
-0.9823125,0.03204251097181571,4.319388748193449e-12
-0.98225,0.03204251097181571,4.439964539289233e-12
-0.9821875,0.03212204976305344,4.563451673493794e-12
-0.982125,0.03212204976305344,4.689909434105351e-12
-0.9820624999999999,0.03212204976305344,4.819398085173108e-12
-0.982,0.03204251097181571,4.951978883890983e-12
-0.9819375,0.03220158855429116,5.087714093096905e-12
-0.9818750000000001,0.03204251097181571,5.22666699387808e-12
-0.9818125,0.03220158855429116,5.368901898282611e-12
-0.98175,0.03228112734552889,5.514484162137884e-12
-0.9816875,0.03228112734552889,5.663480197976084e-12
-0.981625,0.03228112734552889,5.815957488067251e-12
-0.9815625,0.03220158855429116,5.971984597560251e-12
-0.9815,0.03228112734552889,6.131631187732059e-12
-0.9814375,0.03236066613676662,6.294968029345711e-12
-0.981375,0.03220158855429116,6.462067016117331e-12
-0.9813125,0.03236066613676662,6.633001178292613e-12
-0.98125,0.03236066613676662,6.807844696333092e-12
-0.9811875,0.03236066613676662,6.986672914712646e-12
-0.981125,0.03244020492800435,7.169562355824525e-12
-0.9810624999999999,0.03251974371924207,7.356590733999347e-12
-0.981,0.03251974371924207,7.54783696963437e-12
-0.9809375,0.03251974371924207,7.743381203434443e-12
-0.9808750000000001,0.03251974371924207,7.943304810764995e-12
-0.9808125,0.03251974371924207,8.147690416117385e-12
-0.98075,0.03251974371924207,8.356621907687029e-12
-0.9806875,0.03251974371924207,8.570184452064614e-12
-0.980625,0.03251974371924207,8.788464509040772e-12
-0.9805625,0.03251974371924207,9.011549846524566e-12
-0.9805,0.0325992825104798,9.23952955557613e-12
-0.9804375,0.03251974371924207,9.472494065553803e-12
-0.980375,0.0325992825104798,9.710535159376139e-12
-0.9803125,0.03267882130171752,9.953745988899071e-12
-0.98025,0.0325992825104798,1.020222109040863e-11
-0.9801875,0.03275836009295525,1.045605640022951e-11
-0.980125,0.03267882130171752,1.071534927044984e-11
-0.9800624999999999,0.03267882130171752,1.098019848476252e-11
-0.98,0.03275836009295525,1.125070427442334e-11
-0.9799375,0.03275836009295525,1.152696833432638e-11
-0.9798750000000001,0.03275836009295525,1.180909383919684e-11
-0.9798125,0.03283789888419298,1.209718545990177e-11
-0.97975,0.03267882130171752,1.23913493798789e-11
-0.9796875,0.03275836009295525,1.269169331168399e-11
-0.979625,0.03283789888419298,1.299832651365695e-11
-0.9795625,0.03283789888419298,1.331135980670698e-11
-0.9795,0.03283789888419298,1.363090559121726e-11
-0.9794375,0.03291743767543071,1.395707786406924e-11
-0.979375,0.03283789888419298,1.428999223578698e-11
-0.9793125,0.03291743767543071,1.462976594780178e-11
-0.97925,0.03291743767543071,1.49765178898375e-11
-0.9791875,0.03291743767543071,1.53303686174167e-11
-0.979125,0.03291743767543071,1.569144036948803e-11
-0.9790624999999999,0.03283789888419298,1.60598570861751e-11
-0.979,0.03299697646666843,1.643574442664714e-11
-0.9789375,0.03291743767543071,1.681922978711174e-11
-0.9788750000000001,0.03299697646666843,1.721044231892986e-11
-0.9788125,0.03299697646666843,1.760951294685359e-11
-0.97875,0.03291743767543071,1.801657438738668e-11
-0.9786875,0.03299697646666843,1.843176116726838e-11
-0.978625,0.03299697646666843,1.885520964208059e-11
-0.9785625,0.03299697646666843,1.928705801497883e-11
-0.9785,0.03307651525790616,1.972744635554712e-11
-0.9784375,0.03299697646666843,2.017651661877719e-11
-0.978375,0.03307651525790616,2.063441266417204e-11
-0.9783125,0.03299697646666843,2.110128027497443e-11
-0.97825,0.03307651525790616,2.157726717752025e-11
-0.9781875,0.03299697646666843,2.206252306071719e-11
-0.978125,0.03291743767543071,2.255719959564895e-11
-0.9780624999999999,0.03291743767543071,2.306145045530519e-11
-0.978,0.03307651525790616,2.357543133443741e-11
-0.9779375,0.03307651525790616,2.409929996954113e-11
-0.977875,0.03299697646666843,2.463321615896455e-11
-0.9778125,0.03307651525790616,2.517734178314385e-11
-0.97775,0.03291743767543071,2.573184082496545e-11
-0.9776875,0.03291743767543071,2.629687939025544e-11
-0.977625,0.03291743767543071,2.687262572839639e-11
-0.9775625,0.03291743767543071,2.745925025307172e-11
-0.9775,0.03291743767543071,2.805692556313792e-11
-0.9774375,0.03291743767543071,2.866582646362483e-11
-0.977375,0.03283789888419298,2.92861299868641e-11
-0.9773125,0.03291743767543071,2.991801541374616e-11
-0.97725,0.03291743767543071,3.05616642951058e-11
-0.9771875,0.03291743767543071,3.121726047323668e-11
