Task6_Vertical_20Hz_200mV_0%.csv

#Digilent WaveForms Oscilloscope Acquisition
#Device Name: Discovery3
#Serial Number: SN:210415BD63A1
#Date Time: 2026-09-24 11:34:06.721.254.000
#Sample rate: 16000Hz
#Samples: 32000
#Trigger: Source: Channel 1 Type: Edge Condition: Rising Level: 0 V Hyst.: Auto HoldOff: 0 s
#Channel 1: Range: 50 mV/div Offset: 0 V Sample Mode: Average
#Math 1: Input: C1 Reference: Internal Frequency: 20 Hz Phase: 90 ° Filter: IIR Butterworth 8  Low-Pass CutOff: 2 Hz Output: Amplitude

#Wavegen Channel 1: Running
#Mode: Simple
#Type: Sine
#Frequency: 20 Hz
#Period: 50 ms
#Amplitude: 200 mV
#Offset: 0 V
#Symmetry: 50 %
#Phase: 0 °

Time (s),Channel 1 (V),Math 1 (V)
-1,0.03188343338934026,1.79508647335504e-29
-0.9999375,0.03188343338934026,3.050470201465636e-28
-0.999875,0.03196297218057799,2.600891683249242e-27
-0.9998125,0.03188343338934026,1.493621973738812e-26
-0.99975,0.03196297218057799,6.540579756678908e-26
-0.9996875,0.03196297218057799,2.342442365521934e-25
-0.999625,0.03204251097181571,7.179376124091199e-25
-0.9995625,0.03204251097181571,1.943632205104056e-24
-0.9995000000000001,0.03204251097181571,4.756629785665368e-24
-0.9994375,0.03204251097181571,1.070826712751124e-23
-0.999375,0.03204251097181571,2.247596604144892e-23
-0.9993125,0.03204251097181571,4.445171026265458e-23
-0.99925,0.03212204976305344,8.35396574504361e-23
-0.9991875,0.03220158855429116,1.502080274576225e-22
-0.999125,0.03220158855429116,2.59844819919562e-22
-0.9990625,0.03220158855429116,4.344713037264368e-22
-0.999,0.03220158855429116,7.048715880502975e-22
-0.9989375,0.03220158855429116,1.113200929588752e-21
-0.998875,0.03228112734552889,1.716139753445478e-21
-0.9988125,0.03236066613676662,2.5886646660127e-21
-0.99875,0.03236066613676662,3.828512018574674e-21
-0.9986875,0.03228112734552889,5.561413840175508e-21
-0.998625,0.03236066613676662,7.947190195599684e-21
-0.9985625,0.03220158855429116,1.118678623773576e-20
-0.9985000000000001,0.03228112734552889,1.553034641471173e-20
-0.9984375,0.03236066613676662,2.128642246369263e-20
-0.998375,0.03236066613676662,2.883241597579761e-20
-0.9983125,0.03244020492800435,3.862636044837321e-20
-0.99825,0.03244020492800435,5.12201518491642e-20
-0.9981875,0.03251974371924207,6.727434080027334e-20
-0.998125,0.03244020492800435,8.757460354844942e-20
-0.9980625,0.03244020492800435,1.130500129223188e-19
-0.998,0.03236066613676662,1.447932344855701e-19
-0.9979375,0.03236066613676662,1.84082777077674e-19
-0.997875,0.03124712305943845,2.324074308926972e-19
-0.9978125,0.03124712305943845,2.914930301842616e-19
-0.99775,0.03116758426820072,3.633316816004544e-19
-0.9976874999999999,0.03116758426820072,4.50213603045025e-19
-0.997625,0.03116758426820072,5.547617218293365e-19
-0.9975625,0.031088045476963,6.799691847228932e-19
-0.9975000000000001,0.03092896789448754,8.292399363290292e-19
-0.9974375,0.03092896789448754,1.0064325260071e-18
-0.997375,0.03092896789448754,1.215907307333756e-18
-0.9973125,0.03092896789448754,1.46257719784357e-18
-0.99725,0.03092896789448754,1.751962170512539e-18
-0.9971875,0.03084942910324982,2.090247652145792e-18
-0.997125,0.03092896789448754,2.484347007502787e-18
-0.9970625,0.03092896789448754,2.941968291639487e-18
-0.997,0.03076989031201209,3.4716854565667e-18
-0.9969375,0.03069035152077437,4.083014201916178e-18
-0.996875,0.03069035152077437,4.786492662871183e-18
-0.9968125,0.03069035152077437,5.593767132157482e-18
-0.99675,0.03061081272953664,6.517683016404179e-18
-0.9966874999999999,0.03053127393829892,7.572381230670386e-18
-0.996625,0.03045173514706119,8.773400238392054e-18
-0.9965625,0.03045173514706119,1.013778394743359e-17
-0.9965000000000001,0.03053127393829892,1.168419567633175e-17
-0.9964375,0.03045173514706119,1.343303840819513e-17
-0.996375,0.03045173514706119,1.540658155307406e-17
-0.9963125,0.03045173514706119,1.762909444294314e-17
-0.99625,0.03037219635582346,2.012698678674372e-17
-0.9961875,0.03037219635582346,2.29289563162122e-17
-0.996125,0.03029265756458574,2.606614385646732e-17
-0.9960625,0.03037219635582346,2.957229605854719e-17
-0.996,0.03029265756458574,3.34839360342758e-17
-0.9959375,0.03029265756458574,3.784054213700396e-17
-0.995875,0.03029265756458574,4.26847351349094e-17
-0.9958125,0.03045173514706119,4.806247402665538e-17
-0.99575,0.03037219635582346,5.402326075229719e-17
-0.9956874999999999,0.03045173514706119,6.062035405539407e-17
-0.995625,0.03037219635582346,6.791099275532948e-17
-0.9955625,0.03037219635582346,7.595662869186363e-17
-0.9955000000000001,0.03045173514706119,8.482316960693965e-17
-0.9954375,0.03053127393829892,9.458123223173663e-17
-0.995375,0.03053127393829892,1.053064058499132e-16
-0.9953125,0.03045173514706119,1.17079526610913e-16
-0.99525,0.03045173514706119,1.299869628701139e-16
-0.9951875,0.03045173514706119,1.441209118354855e-16
-0.995125,0.03037219635582346,1.595797078032915e-16
-0.9950625,0.03045173514706119,1.764681422682125e-16
-0.995,0.03045173514706119,1.948977961960948e-16
-0.9949375,0.03045173514706119,2.149873847503292e-16
-0.994875,0.03053127393829892,2.368631147656444e-16
-0.9948125,0.03053127393829892,2.606590552658505e-16
-0.99475,0.03053127393829892,2.86517521324803e-16
-0.9946874999999999,0.03053127393829892,3.145894715725669e-16
-0.994625,0.03053127393829892,3.450349196514581e-16
-0.9945625,0.03053127393829892,3.780233599293126e-16
-0.9945000000000001,0.03053127393829892,4.137342077799934e-16
-0.9944375,0.03053127393829892,4.523572547437721e-16
-0.994375,0.03069035152077437,4.940931388828352e-16
-0.9943125,0.03069035152077437,5.391538306497461e-16
-0.99425,0.03061081272953664,5.877631345892587e-16
-0.9941875,0.03061081272953664,6.401572071964211e-16
-0.994125,0.03076989031201209,6.96585091256421e-16
-0.9940625,0.03076989031201209,7.573092669941219e-16
-0.994,0.03084942910324982,8.226062203637128e-16
-0.9939375,0.03076989031201209,8.927670288113405e-16
-0.993875,0.03084942910324982,9.680979648460296e-16
-0.9938125,0.03084942910324982,1.048921117756606e-15
-0.99375,0.03069035152077437,1.135575033814739e-15
-0.9936874999999999,0.03069035152077437,1.228415375306567e-15
-0.993625,0.03069035152077437,1.32781559873775e-15
-0.9935625,0.03084942910324982,1.434167652559078e-15
-0.9935,0.03084942910324982,1.547882694762095e-15
-0.9934375,0.03084942910324982,1.669391830696459e-15
-0.993375,0.03076989031201209,1.799146871463005e-15
-0.9933125,0.03084942910324982,1.937621113238746e-15
-0.99325,0.03084942910324982,2.085310137892202e-15
-0.9931875,0.03092896789448754,2.242732635249687e-15
-0.993125,0.03084942910324982,2.410431247375312e-15
-0.9930625,0.03084942910324982,2.588973435229604e-15
-0.993,0.03084942910324982,2.778952368073789e-15
-0.9929375,0.03092896789448754,2.98098783598884e-15
-0.992875,0.03092896789448754,3.195727185880523e-15
-0.9928125,0.03100850668572527,3.423846281343689e-15
-0.99275,0.03116758426820072,3.666050486761125e-15
-0.9926874999999999,0.03100850668572527,3.923075676014309e-15
-0.992625,0.03100850668572527,4.195689266185339e-15
-0.9925625,0.031088045476963,4.484691276631372e-15
-0.9925,0.03116758426820072,4.790915413814792e-15
-0.9924375,0.03116758426820072,5.115230182274296e-15
-0.992375,0.03124712305943845,5.45854002212398e-15
-0.9923125,0.03124712305943845,5.821786473469421e-15
-0.99225,0.03124712305943845,6.205949368131579e-15
-0.9921875,0.031088045476963,6.612048049071241e-15
-0.992125,0.03124712305943845,7.041142617908495e-15
-0.9920625,0.03132666185067618,7.494335210933551e-15
-0.992,0.03132666185067618,7.972771304007025e-15
-0.9919375,0.03124712305943845,8.477641046749477e-15
-0.991875,0.03132666185067618,9.010180626421828e-15
-0.9918125,0.03140620064191391,9.57167366189991e-15
-0.99175,0.03124712305943845,1.016345262814814e-14
-0.9916875000000001,0.03124712305943845,1.07869003115989e-14
-0.991625,0.03132666185067618,1.144345129684603e-14
-0.9915625,0.03140620064191391,1.213459348506208e-14
-0.9915,0.03140620064191391,1.286186964455106e-14
-0.9914375,0.03148573943315163,1.36268789938495e-14
-0.991375,0.03148573943315163,1.44312788177905e-14
-0.9913125,0.03148573943315163,1.52767861169469e-14
-0.99125,0.03148573943315163,1.616517929087104e-14
-0.9911875,0.03140620064191391,1.709829985555035e-14
-0.991125,0.03148573943315163,1.807805419549913e-14
-0.9910625,0.03148573943315163,1.910641535090857e-14
-0.991,0.03156527822438936,2.018542484027834e-14
-0.9909375,0.03156527822438936,2.131719451895447e-14
-0.990875,0.03164481701562708,2.250390847399966e-14
-0.9908125,0.03164481701562708,2.374782495582346e-14
-0.99075,0.03156527822438936,2.505127834700094e-14
-0.9906875000000001,0.03164481701562708,2.641668116871008e-14
-0.990625,0.03172435580686481,2.784652612521905e-14
-0.9905625,0.03148573943315163,2.934338818685584e-14
-0.9905,0.03156527822438936,3.090992671189435e-14
-0.9904375,0.03172435580686481,3.254888760779139e-14
-0.990375,0.03172435580686481,3.426310553221123e-14
-0.9903125,0.03164481701562708,3.605550613427459e-14
-0.99025,0.03164481701562708,3.792910833647071e-14
-0.9901875,0.03156527822438936,3.988702665767184e-14
-0.990125,0.03156527822438936,4.193247357769081e-14
-0.9900625,0.03156527822438936,4.406876194382324e-14
-0.99,0.03156527822438936,4.629930741981703e-14
-0.9899375,0.03156527822438936,4.862763097771277e-14
-0.9898749999999999,0.03156527822438936,5.105736143299958e-14
-0.9898125,0.03156527822438936,5.359223802353228e-14
-0.98975,0.03156527822438936,5.623611303265588e-14
-0.9896875000000001,0.03156527822438936,5.89929544569853e-14
-0.989625,0.03156527822438936,6.186684871928821e-14
-0.9895625,0.03156527822438936,6.486200342692033e-14
-0.9895,0.03148573943315163,6.798275017626316e-14
-0.9894375,0.03156527822438936,7.123354740361476e-14
-0.989375,0.03148573943315163,7.46189832829853e-14
-0.9893125,0.03156527822438936,7.814377867124945e-14
-0.98925,0.03156527822438936,8.18127901011089e-14
-0.9891875,0.03148573943315163,8.563101282231861e-14
-0.989125,0.03156527822438936,8.960358389163104e-14
-0.9890625,0.03164481701562708,9.373578531191377e-14
-0.989,0.03148573943315163,9.803304722089609e-14
-0.9889375,0.03140620064191391,1.025009511300005e-13
-0.9888749999999999,0.03148573943315163,1.071452332137167e-13
-0.9888125,0.03148573943315163,1.119717876499747e-13
-0.98875,0.03124712305943845,1.169866700119762e-13
-0.9886875000000001,0.03132666185067618,1.221961007119411e-13
-0.988625,0.03140620064191391,1.276064684972293e-13
-0.9885625,0.03132666185067618,1.33224333999298e-13
-0.9885,0.03140620064191391,1.390564333359512e-13
-0.9884375,0.03132666185067618,1.451096817673462e-13
-0.988375,0.03132666185067618,1.513911774062132e-13
-0.9883125,0.03132666185067618,1.579082049827529e-13
-0.98825,0.03132666185067618,1.646682396646702e-13
-0.9881875,0.03116758426820072,1.716789509328091e-13
-0.988125,0.03116758426820072,1.789482065128467e-13
-0.9880625,0.031088045476963,1.864840763635124e-13
-0.988,0.03116758426820072,1.942948367217919e-13
-0.9879375,0.03116758426820072,2.023889742055805e-13
-0.9878749999999999,0.031088045476963,2.107751899742473e-13
-0.9878125,0.031088045476963,2.194624039475737e-13
-0.98775,0.031088045476963,2.284597590835299e-13
-0.9876875000000001,0.03092896789448754,2.377766257153515e-13
-0.987625,0.03092896789448754,2.474226059483806e-13
-0.9875625,0.03092896789448754,2.574075381171346e-13
-0.9875,0.03100850668572527,2.677415013030649e-13
-0.9874375,0.03092896789448754,2.784348199134712e-13
-0.987375,0.03076989031201209,2.894980683220323e-13
-0.9873125,0.03076989031201209,3.009420755714196e-13
-0.98725,0.03076989031201209,3.127779301384531e-13
-0.9871875,0.03076989031201209,3.250169847622678e-13
-0.987125,0.03076989031201209,3.376708613359483e-13
-0.9870625,0.03069035152077437,3.507514558620991e-13
-0.987,0.03069035152077437,3.642709434728114e-13
-0.9869375,0.03061081272953664,3.782417835144887e-13
-0.9868749999999999,0.03053127393829892,3.926767246979961e-13
-0.9868125,0.03053127393829892,4.075888103145915e-13
-0.98675,0.03053127393829892,4.229913835181051e-13
-0.9866875000000001,0.03045173514706119,4.388980926738254e-13
-0.986625,0.03045173514706119,4.553228967745562e-13
-0.9865625,0.03029265756458574,4.722800709243023e-13
-0.9865,0.03029265756458574,4.897842118900483e-13
-0.9864375,0.03029265756458574,5.078502437220876e-13
-0.986375,0.03029265756458574,5.264934234433642e-13
-0.9863125,0.03021311877334801,5.457293468082853e-13
-0.98625,0.03029265756458574,5.655739541314648e-13
-0.9861875,0.03029265756458574,5.86043536186855e-13
-0.986125,0.03029265756458574,6.071547401777278e-13
-0.9860625,0.03045173514706119,6.289245757779584e-13
-0.986,0.03029265756458574,6.513704212450732e-13
-0.9859375,0.03021311877334801,6.745100296055159e-13
-0.9858749999999999,0.03013357998211028,6.983615349125892e-13
-0.9858125,0.03029265756458574,7.22943458577527e-13
-0.98575,0.03029265756458574,7.482747157741505e-13
-0.9856875,0.03029265756458574,7.743746219175663e-13
-0.985625,0.03029265756458574,8.012628992173554e-13
-0.9855625,0.03021311877334801,8.289596833057105e-13
-0.9855,0.03029265756458574,8.57485529940969e-13
-0.9854375,0.03029265756458574,8.868614217869978e-13
-0.985375,0.03045173514706119,9.171087752688777e-13
-0.9853125,0.03037219635582346,9.482494475053372e-13
-0.98525,0.03037219635582346,9.803057433183885e-13
-0.9851875,0.03045173514706119,1.013300422320606e-12
-0.985125,0.03037219635582346,1.047256706080508e-12
-0.9850625,0.03045173514706119,1.082198285366472e-12
-0.985,0.03029265756458574,1.118149327469642e-12
-0.9849375,0.03045173514706119,1.155134483606272e-12
-0.9848749999999999,0.03037219635582346,1.193178896399934e-12
-0.9848125,0.03045173514706119,1.232308207444061e-12
-0.98475,0.03045173514706119,1.272548564945239e-12
-0.9846875,0.03053127393829892,1.313926631447708e-12
-0.984625,0.03053127393829892,1.356469591639503e-12
-0.9845625,0.03053127393829892,1.400205160240678e-12
-0.9845,0.03053127393829892,1.445161589974051e-12
-0.9844375,0.03045173514706119,1.4913676796189e-12
-0.984375,0.03053127393829892,1.538852782148057e-12
-0.9843125,0.03069035152077437,1.58764681294883e-12
-0.98425,0.03069035152077437,1.637780258128175e-12
-0.9841875,0.03069035152077437,1.689284182902576e-12
-0.984125,0.03069035152077437,1.742190240073039e-12
-0.9840625,0.03076989031201209,1.796530678585643e-12
-0.984,0.03076989031201209,1.852338352178076e-12
-0.9839375,0.03084942910324982,1.909646728112581e-12
-0.9838750000000001,0.03069035152077437,1.968489895995735e-12
-0.9838125,0.03069035152077437,2.028902576685499e-12
-0.98375,0.03076989031201209,2.090920131285946e-12
-0.9836875,0.03084942910324982,2.1545785702301e-12
-0.983625,0.03092896789448754,2.219914562451309e-12
-0.9835625,0.03100850668572527,2.286965444643562e-12
-0.9835,0.03092896789448754,2.355769230611175e-12
-0.9834375,0.03100850668572527,2.426364620708264e-12
-0.983375,0.03100850668572527,2.498791011368417e-12
-0.9833125,0.03100850668572527,2.573088504724982e-12
-0.98325,0.031088045476963,2.649297918322382e-12
-0.9831875,0.031088045476963,2.727460794918869e-12
-0.983125,0.031088045476963,2.80761941238112e-12
-0.9830625,0.03116758426820072,2.889816793671103e-12
-0.983,0.03116758426820072,2.974096716925597e-12
-0.9829375,0.03124712305943845,3.060503725628777e-12
-0.9828750000000001,0.03116758426820072,3.149083138878285e-12
-0.9828125,0.03116758426820072,3.239881061745159e-12
-0.98275,0.03116758426820072,3.332944395728047e-12
-0.9826875,0.03116758426820072,3.428320849302088e-12
-0.982625,0.03124712305943845,3.52605894856287e-12
-0.9825625,0.03132666185067618,3.626208047965848e-12
-0.9825,0.03132666185067618,3.728818341161617e-12
-0.9824375,0.03140620064191391,3.833940871927454e-12
-0.982375,0.03140620064191391,3.941627545195481e-12
-0.9823125,0.03132666185067618,4.051931138177871e-12
-0.98225,0.03140620064191391,4.164905311589459e-12
-0.9821875,0.03148573943315163,4.280604620968175e-12
-0.982125,0.03156527822438936,4.399084528093645e-12
-0.9820624999999999,0.03148573943315163,4.520401412504361e-12
-0.982,0.03148573943315163,4.644612583113803e-12
-0.9819375,0.03148573943315163,4.771776289925884e-12
-0.9818750000000001,0.03148573943315163,4.90195173585009e-12
-0.9818125,0.03148573943315163,5.035199088616697e-12
-0.98175,0.03148573943315163,5.171579492792437e-12
-0.9816875,0.03164481701562708,5.311155081896971e-12
-0.981625,0.03164481701562708,5.453988990620556e-12
-0.9815625,0.03164481701562708,5.600145367143258e-12
-0.9815,0.03156527822438936,5.749689385556077e-12
-0.9814375,0.03156527822438936,5.902687258384357e-12
-0.981375,0.03164481701562708,6.05920624921382e-12
-0.9813125,0.03164481701562708,6.21931468541961e-12
-0.98125,0.03172435580686481,6.383081970998684e-12
-0.9811875,0.03172435580686481,6.550578599505894e-12
-0.981125,0.03164481701562708,6.721876167094155e-12
-0.9810624999999999,0.03180389459810254,6.89704738565899e-12
-0.981,0.03172435580686481,7.076166096087854e-12
-0.9809375,0.03180389459810254,7.259307281614548e-12
-0.9808750000000001,0.03172435580686481,7.446547081279073e-12
-0.9808125,0.03180389459810254,7.637962803493286e-12
-0.98075,0.03188343338934026,7.833632939712661e-12
-0.9806875,0.03180389459810254,8.03363717821452e-12
-0.980625,0.03188343338934026,8.238056417983074e-12
-0.9805625,0.03180389459810254,8.446972782701566e-12
-0.9805,0.03188343338934026,8.660469634851889e-12
-0.9804375,0.03196297218057799,8.878631589922001e-12
-0.980375,0.03180389459810254,9.101544530721426e-12
-0.9803125,0.03180389459810254,9.329295621805208e-12
-0.98025,0.03188343338934026,9.561973324006633e-12
-0.9801875,0.03204251097181571,9.799667409078995e-12
-0.980125,0.03196297218057799,1.004246897444677e-11
-0.9800624999999999,0.03196297218057799,1.029047045806653e-11
-0.98,0.03188343338934026,1.054376565339779e-11
-0.9799375,0.03172435580686481,1.080244972448428e-11
-0.9798750000000001,0.03172435580686481,1.10666192211458e-11
-0.9798125,0.03180389459810254,1.133637209428099e-11
-0.97975,0.03180389459810254,1.16118077112814e-11
-0.9796875,0.03188343338934026,1.189302687155704e-11
-0.979625,0.03188343338934026,1.218013182217384e-11
-0.9795625,0.03180389459810254,1.247322627360315e-11
-0.9795,0.03180389459810254,1.277241541558375e-11
-0.9794375,0.03188343338934026,1.307780593309651e-11
-0.979375,0.03188343338934026,1.33895060224521e-11
-0.9793125,0.03180389459810254,1.370762540749193e-11
-0.97925,0.03188343338934026,1.403227535590273e-11
-0.9791875,0.03188343338934026,1.43635686956449e-11
-0.979125,0.03180389459810254,1.470161983149508e-11
-0.9790624999999999,0.03172435580686481,1.504654476170298e-11
-0.979,0.03172435580686481,1.539846109476305e-11
-0.9789375,0.03172435580686481,1.575748806630092e-11
-0.9788750000000001,0.03180389459810254,1.612374655607521e-11
-0.9788125,0.03164481701562708,1.649735910509467e-11
-0.97875,0.03172435580686481,1.687844993285116e-11
-0.9786875,0.03172435580686481,1.726714495466855e-11
-0.978625,0.03164481701562708,1.766357179916791e-11
-0.9785625,0.03164481701562708,1.806785982584918e-11
-0.9785,0.03164481701562708,1.848014014278962e-11
-0.9784375,0.03156527822438936,1.890054562445923e-11
-0.978375,0.03156527822438936,1.932921092965341e-11
-0.9783125,0.03164481701562708,1.976627251954319e-11
-0.97825,0.03156527822438936,2.021186867584308e-11
-0.9781875,0.03156527822438936,2.066613951909694e-11
-0.978125,0.03156527822438936,2.112922702708211e-11
-0.9780624999999999,0.03148573943315163,2.160127505333183e-11
-0.978,0.03140620064191391,2.208242934577653e-11
-0.9779375,0.03132666185067618,2.257283756550379e-11
-0.977875,0.03140620064191391,2.307264930563756e-11
-0.9778125,0.03140620064191391,2.358201611033672e-11
-0.97775,0.03132666185067618,2.41010914939131e-11
-0.9776875,0.03132666185067618,2.463003096006934e-11
-0.977625,0.03124712305943845,2.516899202125674e-11
-0.9775625,0.03116758426820072,2.57181342181533e-11
-0.9775,0.03116758426820072,2.627761913926209e-11
-0.9774375,0.031088045476963,2.684761044063035e-11
-0.977375,0.031088045476963,2.742827386568929e-11
-0.9773125,0.03100850668572527,2.801977726521498e-11
-0.97725,0.03092896789448754,2.862229061741037e-11
-0.9771875,0.03100850668572527,2.923598604810878e-11
