Task5_10Hz_200mV_45+5.csv

#Digilent WaveForms Oscilloscope Acquisition
#Device Name: Discovery3
#Serial Number: SN:210415BD63A1
#Date Time: 2026-09-24 11:24:42.620.912.850
#Sample rate: 16000Hz
#Samples: 32000
#Trigger: Source: Channel 1 Type: Edge Condition: Rising Level: 0 V Hyst.: Auto HoldOff: 0 s
#Channel 1: Range: 500 mV/div Offset: 0 V Sample Mode: Average
#Math 1: Input: C1 Reference: Internal Frequency: 10 Hz Phase: 90 ° Filter: IIR Butterworth 8  Low-Pass CutOff: 2 Hz Output: Amplitude

#Wavegen Channel 1: Running
#Mode: Simple
#Type: Sine
#Frequency: 10 Hz
#Period: 100 ms
#Amplitude: 200 mV
#Offset: 0 V
#Symmetry: 50 %
#Phase: 0 °

Time (s),Channel 1 (V),Math 1 (V)
-1,0.3751728563713669,2.118910483080249e-28
-0.9999375,0.3752523951626047,3.601338141978495e-27
-0.999875,0.3753319339538424,3.070953818816791e-26
-0.9998125,0.3751728563713669,1.763716983081772e-25
-0.99975,0.3753319339538424,7.723702089919514e-25
-0.9996875,0.3752523951626047,2.76620888644221e-24
-0.999625,0.3751728563713669,8.478088270785937e-24
-0.9995625,0.3751728563713669,2.29515382569168e-23
-0.9995000000000001,0.3752523951626047,5.616653339404297e-23
-0.9994375,0.3751728563713669,1.264370664275284e-22
-0.999375,0.3752523951626047,2.653680889871793e-22
-0.9993125,0.3751728563713669,5.247994458506037e-22
-0.99925,0.3752523951626047,9.862169297374719e-22
-0.9991875,0.3752523951626047,1.773162864902817e-21
-0.999125,0.3751728563713669,3.067230688854319e-21
-0.9990625,0.3751728563713669,5.128279842406803e-21
-0.999,0.3750933175801292,8.319558899005548e-21
-0.9989375,0.3750933175801292,1.313847626461865e-20
-0.998875,0.3751728563713669,2.025380895987786e-20
-0.9988125,0.3750137787888915,3.05501909575252e-20
-0.99875,0.3749342399976537,4.518077329100176e-20
-0.9986875,0.3749342399976537,6.56289986728963e-20
-0.998625,0.3748547012064161,9.378048366334528e-20
-0.9985625,0.3749342399976537,1.320060515090725e-19
-0.9985000000000001,0.3738206969203256,1.832570086362749e-19
-0.9984375,0.3737411581290879,2.51173807426526e-19
-0.998375,0.3738206969203256,3.402092873333386e-19
-0.9983125,0.3736616193378501,4.5576773560604e-19
-0.99825,0.3737411581290879,6.043610578754716e-19
-0.9981875,0.3736616193378501,7.937833976217744e-19
-0.998125,0.3735820805466124,1.03330559208796e-18
-0.9980625,0.3735025417553747,1.333890900523948e-18
-0.998,0.3734230029641369,1.708433488743811e-18
-0.9979375,0.3734230029641369,2.172021201854455e-18
-0.997875,0.3734230029641369,2.742224204668892e-18
-0.9978125,0.3733434641728993,3.439411116753929e-18
-0.99775,0.3732639253816615,4.287094316281229e-18
-0.9976874999999999,0.3732639253816615,5.312306133851049e-18
-0.997625,0.3732639253816615,6.546007704237862e-18
-0.9975625,0.3731843865904238,8.023532290564868e-18
-0.9975000000000001,0.3731048477991861,9.785064941748268e-18
-0.9974375,0.3731048477991861,1.187616039016143e-17
-0.997375,0.3728662314254729,1.434830114235423e-17
-0.9973125,0.3729457702167106,1.725949776132595e-17
-0.99725,0.3729457702167106,2.06749333842931e-17
-0.9971875,0.3729457702167106,2.46676545651173e-17
-0.997125,0.3727866926342351,2.931931057556587e-17
-0.9970625,0.3727866926342351,3.472094334436728e-17
-0.997,0.3727866926342351,4.097383025759526e-17
-0.9969375,0.3727071538429974,4.819038208826676e-17
-0.996875,0.3727071538429974,5.649509836716987e-17
-0.9968125,0.3728662314254729,6.602558255084707e-17
-0.99675,0.3727866926342351,7.693361938634567e-17
-0.9966874999999999,0.3727071538429974,8.938631691581265e-17
-0.996625,0.3727071538429974,1.035673156072539e-16
-0.9965625,0.3727866926342351,1.196780671408062e-16
-0.9965000000000001,0.3727071538429974,1.379391854226789e-16
-0.9964375,0.3727866926342351,1.585918724415161e-16
-0.996375,0.3727866926342351,1.81899421624305e-16
-0.9963125,0.3727866926342351,2.08148801391112e-16
-0.99625,0.3727071538429974,2.376523216498709e-16
-0.9961875,0.3727071538429974,2.707493860141702e-16
-0.996125,0.3727071538429974,3.078083325684957e-16
-0.9960625,0.3727071538429974,3.492283660466893e-16
-0.996,0.3727071538429974,3.95441584330465e-16
-0.9959375,0.3727071538429974,4.469151022157088e-16
-0.995875,0.3726276150517597,5.041532754349506e-16
-0.9958125,0.3727071538429974,5.677000279648614e-16
-0.99575,0.3727071538429974,6.381412856878674e-16
-0.9956874999999999,0.3727071538429974,7.161075195170077e-16
-0.995625,0.3727071538429974,8.022764011329703e-16
-0.9955625,0.3726276150517597,8.973755745218574e-16
-0.9955000000000001,0.372548076260522,1.002185546541624e-15
-0.9954375,0.372548076260522,1.117542699784326e-15
-0.995375,0.3726276150517597,1.244342431040309e-15
-0.9953125,0.3726276150517597,1.38354241870923e-15
-0.99525,0.3727071538429974,1.536166022541395e-15
-0.9951875,0.3726276150517597,1.70330581913124e-15
-0.995125,0.3726276150517597,1.886127276622947e-15
-0.9950625,0.3727866926342351,2.085872572126129e-15
-0.995,0.3727866926342351,2.303864555377257e-15
-0.9949375,0.3727071538429974,2.54151086222004e-15
-0.994875,0.3727071538429974,2.80030818151529e-15
-0.9948125,0.3727071538429974,3.081846679127935e-15
-0.99475,0.3726276150517597,3.387814582675731e-15
-0.9946874999999999,0.3727071538429974,3.720002930760919e-15
-0.994625,0.3727866926342351,4.080310490442585e-15
-0.9945625,0.3727866926342351,4.470748846743718e-15
-0.9945000000000001,0.3727866926342351,4.893447668023076e-15
-0.9944375,0.3727866926342351,5.350660151077813e-15
-0.994375,0.3727071538429974,5.844768649878492e-15
-0.9943125,0.3728662314254729,6.378290491873617e-15
-0.99425,0.3726276150517597,6.953883985835999e-15
-0.9941875,0.3727071538429974,7.574354625258392e-15
-0.994125,0.3727071538429974,8.242661491340677e-15
-0.9940625,0.3727866926342351,8.96192385964546e-15
-0.994,0.3727866926342351,9.735428014533491e-15
-0.9939375,0.3727071538429974,1.056663427552447e-14
-0.993875,0.3727071538429974,1.145918423976289e-14
-0.9938125,0.3727071538429974,1.241690824480235e-14
-0.99375,0.3727071538429974,1.344383305595551e-14
-0.9936874999999999,0.3727071538429974,1.454418978249007e-14
-0.993625,0.3727071538429974,1.572242202698467e-14
-0.9935625,0.3727866926342351,1.69831942721912e-14
-0.9935,0.3727071538429974,1.83314005097833e-14
-0.9934375,0.3727071538429974,1.977217311540292e-14
-0.993375,0.3728662314254729,2.131089197444959e-14
-0.9933125,0.3727071538429974,2.295319386308904e-14
-0.99325,0.3728662314254729,2.470498208898971e-14
-0.9931875,0.3728662314254729,2.657243639632777e-14
-0.993125,0.3727866926342351,2.856202313963246e-14
-0.9930625,0.3727866926342351,3.068050573107524e-14
-0.993,0.3727866926342351,3.293495536583723e-14
-0.9929375,0.3729457702167106,3.533276203022033e-14
-0.992875,0.3728662314254729,3.788164579719862e-14
-0.9928125,0.3729457702167106,4.058966841413628e-14
-0.99275,0.3728662314254729,4.346524518742977e-14
-0.9926874999999999,0.3728662314254729,4.651715716886114e-14
-0.992625,0.3727866926342351,4.975456364848012e-14
-0.9925625,0.3727071538429974,5.318701495886169e-14
-0.9925,0.3727071538429974,5.682446559561601e-14
-0.9924375,0.3727071538429974,6.067728765905651e-14
-0.992375,0.3727071538429974,6.475628462196129e-14
-0.9923125,0.3727071538429974,6.907270542839201e-14
-0.99225,0.3727866926342351,7.363825892856293e-14
-0.9921875,0.3727866926342351,7.846512865478181e-14
-0.992125,0.3729457702167106,8.356598794351213e-14
-0.9920625,0.3729457702167106,8.895401540863472e-14
-0.992,0.3727071538429974,9.464291077101467e-14
-0.9919375,0.3729457702167106,1.00646911049507e-13
-0.991875,0.3727866926342351,1.069808071185621e-13
-0.9918125,0.3728662314254729,1.136599606376202e-13
-0.99175,0.3730253090079483,1.207003213575094e-13
-0.9916875000000001,0.3729457702167106,1.281184448090904e-13
-0.991625,0.3727866926342351,1.359315103794176e-13
-0.9915625,0.3728662314254729,1.441573397807119e-13
-0.9915,0.3728662314254729,1.528144159174675e-13
-0.9914375,0.3727866926342351,1.619219021570414e-13
-0.991375,0.3727071538429974,1.714996620091002e-13
-0.9913125,0.3727866926342351,1.815682792193232e-13
-0.99125,0.3727866926342351,1.921490782827891e-13
-0.9911875,0.3727866926342351,2.032641453824955e-13
-0.991125,0.3728662314254729,2.149363497584894e-13
-0.9910625,0.3727866926342351,2.271893655131081e-13
-0.991,0.3729457702167106,2.400476938578573e-13
-0.9909375,0.3728662314254729,2.535366858074767e-13
-0.990875,0.3727866926342351,2.676825653267676e-13
-0.9908125,0.3727866926342351,2.825124529357821e-13
-0.99075,0.3728662314254729,2.980543897789963e-13
-0.9906875000000001,0.3726276150517597,3.143373621641142e-13
-0.990625,0.3727866926342351,3.313913265761729e-13
-0.9905625,0.3727071538429974,3.492472351726427e-13
-0.9905,0.372548076260522,3.679370617652381e-13
-0.9904375,0.3727071538429974,3.874938282941811e-13
-0.990375,0.3726276150517597,4.079516318006777e-13
-0.9903125,0.3726276150517597,4.293456719033939e-13
-0.99025,0.3726276150517597,4.517122787847373e-13
-0.9901875,0.3723889986780465,4.750889416927764e-13
-0.990125,0.372548076260522,4.995143379646464e-13
-0.9900625,0.372548076260522,5.250283625773174e-13
-0.99,0.372548076260522,5.516721582316177e-13
-0.9899375,0.3724685374692843,5.794881459754321e-13
-0.9898749999999999,0.372548076260522,6.085200563720084e-13
-0.9898125,0.3723889986780465,6.388129612193349e-13
-0.98975,0.3723889986780465,6.704133058265658e-13
-0.9896875000000001,0.3724685374692843,7.03368941853496e-13
-0.989625,0.3724685374692843,7.377291607191051e-13
-0.9895625,0.372548076260522,7.735447275852112e-13
-0.9895,0.3723889986780465,8.108679159212961e-13
-0.9894375,0.3723889986780465,8.497525426565831e-13
-0.989375,0.3722299210955711,8.90254003925465e-13
-0.9893125,0.3722299210955711,9.324293114124046e-13
-0.98925,0.3720708435130956,9.763371293024461e-13
-0.9891875,0.3721503823043333,1.022037811843495e-12
-0.989125,0.3721503823043333,1.069593441526544e-12
-0.9890625,0.3720708435130956,1.11906786789004e-12
-0.989,0.3721503823043333,1.170526746954605e-12
-0.9889375,0.3720708435130956,1.224037581294349e-12
-0.9888749999999999,0.3719913047218579,1.279669760751016e-12
-0.9888125,0.3718322271393825,1.33749460379724e-12
-0.98875,0.3718322271393825,1.397585399555192e-12
-0.9886875000000001,0.3719117659306201,1.460017450476928e-12
-0.988625,0.3718322271393825,1.524868115692744e-12
-0.9885625,0.3718322271393825,1.592216855033898e-12
-0.9885,0.3717526883481447,1.662145273736038e-12
-0.9884375,0.3717526883481447,1.734737167829706e-12
-0.988375,0.371673149556907,1.810078570224322e-12
-0.9883125,0.371673149556907,1.888257797492038e-12
-0.98825,0.3715936107656693,1.969365497357885e-12
-0.9881875,0.3715140719744315,2.053494696902661e-12
-0.988125,0.3715936107656693,2.140740851484994e-12
-0.9880625,0.3715140719744315,2.231201894389062e-12
-0.988,0.3714345331831938,2.324978287204457e-12
-0.9879375,0.3713549943919561,2.422173070944668e-12
-0.9878749999999999,0.3712754556007183,2.522891917910733e-12
-0.9878125,0.3713549943919561,2.627243184306547e-12
-0.98775,0.3712754556007183,2.735337963612412e-12
-0.9876875000000001,0.3711163780182429,2.847290140723349e-12
-0.987625,0.3710368392270052,2.963216446858769e-12
-0.9875625,0.3711163780182429,3.083236515250082e-12
-0.9875,0.3709573004357675,3.207472937612832e-12
-0.9874375,0.3709573004357675,3.336051321409991e-12
-0.987375,0.370798222853292,3.469100347913028e-12
-0.9873125,0.370798222853292,3.606751831067391e-12
-0.98725,0.3708777616445297,3.749140777169065e-12
-0.9871875,0.3708777616445297,3.896405445358863e-12
-0.987125,0.3706391452708165,4.048687408941132e-12
-0.9870625,0.370798222853292,4.20613161753357e-12
-0.987,0.3707186840620543,4.36888646005486e-12
-0.9869375,0.370798222853292,4.537103828556814e-12
-0.9868749999999999,0.3707186840620543,4.710939182907789e-12
-0.9868125,0.3706391452708165,4.8905516163341e-12
-0.98675,0.3707186840620543,5.076103921826166e-12
-0.9866875000000001,0.3707186840620543,5.267762659416182e-12
-0.986625,0.3706391452708165,5.465698224334069e-12
-0.9865625,0.3707186840620543,5.670084916048494e-12
-0.9865,0.3707186840620543,5.881101008199756e-12
-0.9864375,0.370798222853292,6.098928819431352e-12
-0.986375,0.3707186840620543,6.323754785127028e-12
-0.9863125,0.3707186840620543,6.555769530060147e-12
-0.98625,0.3707186840620543,6.795167941962222e-12
-0.9861875,0.3707186840620543,7.042149246017446e-12
-0.986125,0.3707186840620543,7.296917080290086e-12
-0.9860625,0.3707186840620543,7.559679572091603e-12
-0.986,0.3706391452708165,7.830649415294387e-12
-0.9859375,0.3706391452708165,8.110043948598974e-12
-0.9858749999999999,0.3707186840620543,8.398085234761649e-12
-0.9858125,0.3707186840620543,8.695000140789351e-12
-0.98575,0.370798222853292,9.001020419108766e-12
-0.9856875,0.370798222853292,9.31638278971655e-12
-0.985625,0.370798222853292,9.641329023317606e-12
-0.9855625,0.3708777616445297,9.976106025458354e-12
-0.9855,0.3708777616445297,1.032096592166192e-11
-0.9854375,0.3707186840620543,1.067616614357226e-11
-0.985375,0.3707186840620543,1.104196951611404e-11
-0.9853125,0.3706391452708165,1.141864434567544e-11
-0.98525,0.3708777616445297,1.180646450932072e-11
-0.9851875,0.370798222853292,1.22057095450395e-11
-0.985125,0.3707186840620543,1.26166647430399e-11
-0.9850625,0.370798222853292,1.303962123809234e-11
-0.985,0.370798222853292,1.347487610293124e-11
-0.9849375,0.370798222853292,1.392273244272136e-11
-0.9848749999999999,0.3708777616445297,1.438349949059603e-11
-0.9848125,0.370798222853292,1.485749270427411e-11
-0.98475,0.370798222853292,1.534503386376285e-11
-0.9846875,0.3708777616445297,1.584645117015363e-11
-0.984625,0.370798222853292,1.636207934551756e-11
-0.9845625,0.3708777616445297,1.689225973390807e-11
-0.9845,0.3708777616445297,1.743734040347751e-11
-0.9844375,0.3708777616445297,1.799767624971477e-11
-0.984375,0.3708777616445297,1.857362909981113e-11
-0.9843125,0.3708777616445297,1.916556781816111e-11
-0.98425,0.3708777616445297,1.977386841300578e-11
-0.9841875,0.3708777616445297,2.039891414422522e-11
-0.984125,0.3708777616445297,2.104109563228751e-11
-0.9840625,0.370798222853292,2.170081096836112e-11
-0.984,0.3708777616445297,2.237846582559793e-11
-0.9839375,0.3708777616445297,2.307447357159383e-11
-0.9838750000000001,0.3709573004357675,2.378925538203421e-11
-0.9838125,0.3708777616445297,2.452324035553109e-11
-0.98375,0.3709573004357675,2.527686562965944e-11
-0.9836875,0.3710368392270052,2.605057649819929e-11
-0.983625,0.3711959168094806,2.684482652959122e-11
-0.9835625,0.3710368392270052,2.766007768661194e-11
-0.9835,0.3711163780182429,2.849680044727738e-11
-0.9834375,0.3710368392270052,2.93554739269801e-11
-0.983375,0.3711163780182429,3.023658600186844e-11
-0.9833125,0.3710368392270052,3.11406334334743e-11
-0.98325,0.3710368392270052,3.206812199459679e-11
-0.9831875,0.3710368392270052,3.301956659644879e-11
-0.983125,0.3710368392270052,3.39954914170736e-11
-0.9830625,0.3710368392270052,3.499643003103886e-11
-0.983,0.3710368392270052,3.602292554041458e-11
-0.9829375,0.3711163780182429,3.707553070704286e-11
-0.9828750000000001,0.3711163780182429,3.815480808610604e-11
-0.9828125,0.3711163780182429,3.926133016100054e-11
-0.98275,0.3710368392270052,4.039567947952357e-11
-0.9826875,0.3711959168094806,4.155844879137977e-11
-0.982625,0.3711959168094806,4.275024118701494e-11
-0.9825625,0.3711959168094806,4.397167023778397e-11
-0.9825,0.3711959168094806,4.522336013746007e-11
-0.9824375,0.3711959168094806,4.650594584509251e-11
-0.982375,0.3712754556007183,4.782007322921995e-11
-0.9823125,0.3711959168094806,4.91663992134464e-11
-0.98225,0.3711163780182429,5.054559192338713e-11
-0.9821875,0.3712754556007183,5.195833083499152e-11
-0.982125,0.3712754556007183,5.340530692424986e-11
-0.9820624999999999,0.3712754556007183,5.488722281829164e-11
-0.982,0.3711959168094806,5.640479294788186e-11
-0.9819375,0.3711959168094806,5.795874370132301e-11
-0.9818750000000001,0.3711959168094806,5.954981357976951e-11
-0.9818125,0.3711959168094806,6.1178753353962e-11
-0.98175,0.3709573004357675,6.284632622238803e-11
-0.9816875,0.3711163780182429,6.455330797087725e-11
-0.981625,0.3711959168094806,6.630048713363709e-11
-0.9815625,0.3713549943919561,6.808866515573684e-11
-0.9815,0.3711959168094806,6.991865655704692e-11
-0.9814375,0.3712754556007183,7.179128909764053e-11
-0.981375,0.3711959168094806,7.370740394466447e-11
-0.9813125,0.3712754556007183,7.56678558406869e-11
-0.98125,0.3712754556007183,7.767351327352838e-11
-0.9811875,0.3711163780182429,7.972525864758384e-11
-0.981125,0.3711959168094806,8.182398845664213e-11
-0.9810624999999999,0.3711163780182429,8.39706134582107e-11
-0.981,0.3710368392270052,8.616605884935192e-11
-0.9809375,0.3711959168094806,8.84112644440388e-11
-0.9808750000000001,0.3710368392270052,9.070718485203648e-11
-0.9808125,0.3711163780182429,9.305478965931706e-11
-0.98075,0.3709573004357675,9.545506361001457e-11
-0.9806875,0.3709573004357675,9.790900678992728e-11
-0.980625,0.3709573004357675,1.004176348115743e-10
-0.9805625,0.3710368392270052,1.029819790008134e-10
-0.9805,0.3710368392270052,1.056030865850277e-10
-0.9804375,0.3709573004357675,1.082820208828873e-10
-0.980375,0.3708777616445297,1.110198614956936e-10
-0.9803125,0.3709573004357675,1.138177045003133e-10
-0.98025,0.370798222853292,1.166766626437085e-10
-0.9801875,0.3709573004357675,1.195978655390708e-10
-0.980125,0.3708777616445297,1.225824598635657e-10
-0.9800624999999999,0.3708777616445297,1.256316095576945e-10
-0.98,0.3708777616445297,1.287464960262806e-10
-0.9799375,0.370798222853292,1.319283183410882e-10
-0.9798750000000001,0.3706391452708165,1.351782934450783e-10
-0.9798125,0.3706391452708165,1.384976563583107e-10
-0.97975,0.3707186840620543,1.418876603854989e-10
-0.9796875,0.3705596064795788,1.453495773252237e-10
-0.979625,0.3706391452708165,1.488846976808136e-10
-0.9795625,0.3705596064795788,1.524943308728984e-10
-0.9795,0.3705596064795788,1.561798054536428e-10
-0.9794375,0.3705596064795788,1.599424693226677e-10
-0.979375,0.3704800676883411,1.637836899446652e-10
-0.9793125,0.3704800676883411,1.677048545687148e-10
-0.97925,0.3704005288971033,1.717073704493074e-10
-0.9791875,0.3703209901058657,1.757926650690841e-10
-0.979125,0.3704005288971033,1.79962186363297e-10
-0.9790624999999999,0.3703209901058657,1.842174029459986e-10
-0.979,0.3703209901058657,1.885598043379658e-10
-0.9789375,0.3703209901058657,1.929909011963678e-10
-0.9788750000000001,0.3701619125233902,1.975122255461815e-10
-0.9788125,0.3701619125233902,2.021253310133644e-10
-0.97875,0.3700823737321525,2.068317930597895e-10
-0.9786875,0.3700823737321525,2.116332092199498e-10
-0.978625,0.3700823737321525,2.165311993394403e-10
-0.9785625,0.3700823737321525,2.215274058152223e-10
-0.9785,0.3700823737321525,2.266234938376781e-10
-0.9784375,0.3700028349409147,2.318211516344633e-10
-0.978375,0.3698437573584393,2.371220907161615e-10
-0.9783125,0.3697642185672015,2.425280461237506e-10
-0.97825,0.3697642185672015,2.480407766778862e-10
-0.9781875,0.3697642185672015,2.536620652300082e-10
-0.978125,0.3696051409847261,2.593937189152788e-10
-0.9780624999999999,0.3696846797759638,2.652375694073578e-10
-0.978,0.3696051409847261,2.711954731750218e-10
-0.9779375,0.3695256021934884,2.77269311740635e-10
-0.977875,0.3696051409847261,2.834609919404762e-10
-0.9778125,0.3695256021934884,2.897724461869313e-10
-0.97775,0.3693665246110129,2.962056327325563e-10
-0.9776875,0.3693665246110129,3.027625359360173e-10
-0.977625,0.3692074470285375,3.094451665299158e-10
-0.9775625,0.3692074470285375,3.162555618905038e-10
-0.9775,0.369048369446062,3.23195786309297e-10
-0.9774375,0.369048369446062,3.302679312665915e-10
-0.977375,0.3689688306548243,3.374741157068919e-10
-0.9773125,0.3689688306548243,3.448164863162561e-10
-0.97725,0.3689688306548243,3.522972178015642e-10
-0.9771875,0.3689688306548243,3.599185131717178e-10
-0.977125,0.3689688306548243,3.676826040207756e-10
-0.9770624999999999,0.3689688306548243,3.755917508130335e-10
-0.977,0.3688892918635865,3.83648243170054e-10
-0.9769375,0.3689688306548243,3.918544001596524e-10
-0.976875,0.3689688306548243,4.002125705868458e-10
-0.9768125,0.3688097530723489,4.087251332867717e-10
-0.97675,0.3688097530723489,4.173944974195824e-10
