Task6_Horizontal_20Hz_200mV_5%.csv

#Digilent WaveForms Oscilloscope Acquisition
#Device Name: Discovery3
#Serial Number: SN:210415BD63A1
#Date Time: 2026-09-24 11:50:15.457.900.970
#Sample rate: 16000Hz
#Samples: 32000
#Trigger: Source: Channel 1 Type: Edge Condition: Rising Level: 0 V Hyst.: Auto HoldOff: 0 s
#Channel 1: Range: 50 mV/div Offset: 0 V Sample Mode: Average
#Math 1: Input: C1 Reference: Internal Frequency: 20 Hz Phase: 90 ° Filter: IIR Butterworth 8  Low-Pass CutOff: 2 Hz Output: Amplitude

#Wavegen Channel 1: Running
#Mode: Simple
#Type: Sine
#Frequency: 20 Hz
#Period: 50 ms
#Amplitude: 200 mV
#Offset: 0 V
#Symmetry: 50 %
#Phase: 0 °

Time (s),Channel 1 (V),Math 1 (V)
-1,0.03220158855429116,1.822022609962606e-29
-0.9999375,0.03212204976305344,3.096699634853803e-28
-0.999875,0.03212204976305344,2.640647516008536e-27
-0.9998125,0.03204251097181571,1.516616282452434e-26
-0.99975,0.03204251097181571,6.641842368608989e-26
-0.9996875,0.03220158855429116,2.378861140186283e-25
-0.999625,0.03220158855429116,7.291319411672001e-25
-0.9995625,0.03220158855429116,1.973992563130014e-24
-0.9995000000000001,0.03220158855429116,4.831002345403979e-24
-0.9994375,0.03220158855429116,1.087576335275524e-23
-0.999375,0.03228112734552889,2.282754966480026e-23
-0.9993125,0.03236066613676662,4.514698468003211e-23
-0.99925,0.03236066613676662,8.484616512103889e-23
-0.9991875,0.03244020492800435,1.525571243767549e-22
-0.999125,0.03236066613676662,2.639090300654746e-22
-0.9990625,0.03244020492800435,4.412689958618644e-22
-0.999,0.03251974371924207,7.15905855068214e-22
-0.9989375,0.03251974371924207,1.130640692001756e-21
-0.998875,0.0325992825104798,1.743052356031356e-21
-0.9988125,0.03251974371924207,2.629310591896825e-21
-0.99875,0.03244020492800435,3.888713809099735e-21
-0.9986875,0.0325992825104798,5.649012882936345e-21
-0.998625,0.03244020492800435,8.07260673121836e-21
-0.9985625,0.03251974371924207,1.136369974655891e-20
-0.9985000000000001,0.03251974371924207,1.577651548694321e-20
-0.9984375,0.03251974371924207,2.162466533677991e-20
-0.998375,0.0325992825104798,2.929177514290085e-20
-0.9983125,0.0325992825104798,3.924347710095115e-20
-0.99825,0.03267882130171752,5.204087841574282e-20
-0.9981875,0.03275836009295525,6.835562248502316e-20
-0.998125,0.03275836009295525,8.898666256107435e-20
-0.9980625,0.03267882130171752,1.148788720306469e-19
-0.998,0.03275836009295525,1.471436196236622e-19
-0.9979375,0.03283789888419298,1.870814420169151e-19
-0.997875,0.03275836009295525,2.362069504405046e-19
-0.9978125,0.03275836009295525,2.962761120197576e-19
-0.99775,0.03283789888419298,3.693160506912069e-19
-0.9976874999999999,0.03283789888419298,4.576575166161058e-19
-0.997625,0.03291743767543071,5.639701770794667e-19
-0.9975625,0.03291743767543071,6.913008859081095e-19
-0.9975000000000001,0.03283789888419298,8.431150924682591e-19
-0.9974375,0.03283789888419298,1.023341555311019e-18
-0.997375,0.03291743767543071,1.236420529521648e-18
-0.9973125,0.03291743767543071,1.487355600795288e-18
-0.99725,0.03299697646666843,1.781769343206762e-18
-0.9971875,0.03291743767543071,2.125962981564114e-18
-0.997125,0.03307651525790616,2.526980243134823e-18
-0.9970625,0.03307651525790616,2.992675587411479e-18
-0.997,0.03307651525790616,3.531787006442361e-18
-0.9969375,0.03307651525790616,4.154013592093869e-18
-0.996875,0.03315605404914388,4.870098070436894e-18
-0.9968125,0.03315605404914388,5.691914507257355e-18
-0.99675,0.03323559284038161,6.632561392481214e-18
-0.9966874999999999,0.03315605404914388,7.706460315075217e-18
-0.996625,0.03323559284038161,8.929460443735237e-18
-0.9965625,0.03323559284038161,1.031894903240217e-17
-0.9965000000000001,0.03331513163161934,1.189396817334991e-17
-0.9964375,0.03323559284038161,1.367533802427186e-17
-0.996375,0.03339467042285706,1.568578673945139e-17
-0.9963125,0.03339467042285706,1.79500873387381e-17
-0.99625,0.03339467042285706,2.049520175166515e-17
-0.9961875,0.03339467042285706,2.335043227763568e-17
-0.996125,0.03347420921409479,2.654758070667952e-17
-0.9960625,0.03347420921409479,3.012111534883245e-17
-0.996,0.03339467042285706,3.410834622371837e-17
-0.9959375,0.03339467042285706,3.854960866541477e-17
-0.995875,0.03339467042285706,4.348845560115596e-17
-0.9958125,0.03339467042285706,4.897185876587549e-17
-0.99575,0.03339467042285706,5.50504191180103e-17
-0.9956874999999999,0.03347420921409479,6.177858672538773e-17
-0.995625,0.03339467042285706,6.92148903933929e-17
-0.9955625,0.03347420921409479,7.742217731097188e-17
-0.9955000000000001,0.03339467042285706,8.646786299336144e-17
-0.9954375,0.03347420921409479,9.642419180374998e-17
-0.995375,0.03347420921409479,1.073685083393627e-16
-0.9953125,0.03355374800533251,1.193835399707279e-16
-0.99525,0.03355374800533251,1.325576908261207e-16
-0.9951875,0.03347420921409479,1.469853475163942e-16
-0.995125,0.03363328679657024,1.627671968985948e-16
-0.9950625,0.03347420921409479,1.80010556179924e-16
-0.995,0.03347420921409479,1.988297156667428e-16
-0.9949375,0.03347420921409479,2.193462944664256e-16
-0.994875,0.03355374800533251,2.416896094529577e-16
-0.9948125,0.03347420921409479,2.659970578102223e-16
-0.99475,0.03347420921409479,2.924145134699589e-16
-0.9946874999999999,0.03347420921409479,3.210967377643727e-16
-0.994625,0.03355374800533251,3.522078046163486e-16
-0.9945625,0.03363328679657024,3.859215405931772e-16
-0.9945000000000001,0.03363328679657024,4.224219801526212e-16
-0.9944375,0.03355374800533251,4.619038364130576e-16
-0.994375,0.03339467042285706,5.045729877822997e-16
-0.9943125,0.03355374800533251,5.506469807825481e-16
-0.99425,0.03355374800533251,6.003555494117296e-16
-0.9941875,0.03347420921409479,6.539411513842729e-16
-0.994125,0.03355374800533251,7.116595215971256e-16
-0.9940625,0.03347420921409479,7.737802431695644e-16
-0.994,0.03355374800533251,8.405873364080505e-16
-0.9939375,0.03339467042285706,9.123798660500761e-16
-0.993875,0.03339467042285706,9.894725671435996e-16
-0.9938125,0.03339467042285706,1.072196489921294e-15
-0.99375,0.03347420921409479,1.160899664031443e-15
-0.9936874999999999,0.03347420921409479,1.255947782489891e-15
-0.993625,0.03347420921409479,1.357724905719984e-15
-0.9935625,0.03339467042285706,1.466634186050002e-15
-0.9935,0.03339467042285706,1.583098613039991e-15
-0.9934375,0.03331513163161934,1.707561780012458e-15
-0.993375,0.03331513163161934,1.84048867216372e-15
-0.9933125,0.03339467042285706,1.982366476635199e-15
-0.99325,0.03331513163161934,2.133705414926248e-15
-0.9931875,0.03331513163161934,2.295039598032481e-15
-0.993125,0.03323559284038161,2.466927904695906e-15
-0.9930625,0.03323559284038161,2.649954883155396e-15
-0.993,0.03331513163161934,2.844731676788378e-15
-0.9929375,0.03323559284038161,3.051896974036765e-15
-0.992875,0.03307651525790616,3.272117983012457e-15
-0.9928125,0.03315605404914388,3.506091431179842e-15
-0.99275,0.03315605404914388,3.754544590514911e-15
-0.9926874999999999,0.03323559284038161,4.018236328542698e-15
-0.992625,0.03315605404914388,4.297958185656864e-15
-0.9925625,0.03307651525790616,4.594535479127238e-15
-0.9925,0.03299697646666843,4.908828434203247e-15
-0.9924375,0.03299697646666843,5.241733342723046e-15
-0.992375,0.03291743767543071,5.594183749640244e-15
-0.9923125,0.03299697646666843,5.967151667881974e-15
-0.99225,0.03299697646666843,6.361648821953993e-15
-0.9921875,0.03291743767543071,6.778727920710402e-15
-0.992125,0.03283789888419298,7.219483959707357e-15
-0.9920625,0.03291743767543071,7.68505555356205e-15
-0.992,0.03283789888419298,8.176626298739938e-15
-0.9919375,0.03275836009295525,8.695426167195024e-15
-0.991875,0.03267882130171752,9.242732931289706e-15
-0.9918125,0.03267882130171752,9.819873620422378e-15
-0.99175,0.03251974371924207,1.042822600979269e-14
-0.9916875000000001,0.03251974371924207,1.106922014173598e-14
-0.991625,0.03251974371924207,1.174433988006007e-14
-0.9915625,0.03251974371924207,1.245512449781904e-14
-0.9915,0.03244020492800435,1.320317029896055e-14
-0.9914375,0.03244020492800435,1.39901322742843e-14
-0.991375,0.03251974371924207,1.481772579215122e-14
-0.9913125,0.03228112734552889,1.568772832438413e-14
-0.99125,0.03236066613676662,1.66019812078024e-14
-0.9911875,0.03228112734552889,1.75623914418341e-14
-0.991125,0.03220158855429116,1.857093352265121e-14
-0.9910625,0.03212204976305344,1.962965131427413e-14
-0.991,0.03220158855429116,2.074065995709372e-14
-0.9909375,0.03204251097181571,2.190614781425993e-14
-0.990875,0.03212204976305344,2.312837845638779e-14
-0.9908125,0.03204251097181571,2.440969268503252e-14
-0.99075,0.03204251097181571,2.575251059538703e-14
-0.9906875000000001,0.03204251097181571,2.71593336786561e-14
-0.990625,0.03212204976305344,2.863274696456294e-14
-0.9905625,0.03204251097181571,3.017542120444485e-14
-0.9905,0.03220158855429116,3.179011509539609e-14
-0.9904375,0.03196297218057799,3.34796775459169e-14
-0.990375,0.03204251097181571,3.524704998352898e-14
-0.9903125,0.03204251097181571,3.709526870481888e-14
-0.99025,0.03204251097181571,3.902746726837141e-14
-0.9901875,0.03196297218057799,4.104687893105667e-14
-0.990125,0.03204251097181571,4.315683912813534e-14
-0.9900625,0.03212204976305344,4.536078799764715e-14
-0.99,0.03220158855429116,4.766227294954951e-14
-0.9899375,0.03212204976305344,5.006495128007337e-14
-0.9898749999999999,0.03212204976305344,5.257259283176454e-14
-0.9898125,0.03220158855429116,5.51890826996798e-14
-0.98975,0.03220158855429116,5.791842398420784e-14
-0.9896875000000001,0.03212204976305344,6.07647405909857e-14
-0.989625,0.03220158855429116,6.373228007838261e-14
-0.9895625,0.03220158855429116,6.68254165530238e-14
-0.9895,0.03220158855429116,7.004865361382725e-14
-0.9894375,0.03228112734552889,7.340662734502781e-14
-0.989375,0.03236066613676662,7.690410935866318e-14
-0.9893125,0.03236066613676662,8.054600988699734e-14
-0.98925,0.03228112734552889,8.433738092535738e-14
-0.9891875,0.03236066613676662,8.828341942586101e-14
-0.989125,0.03244020492800435,9.238947054251127e-14
-0.9890625,0.03236066613676662,9.666103092813752e-14
-0.989,0.03236066613676662,1.011037520836604e-13
-0.9889375,0.03236066613676662,1.057234437601607e-13
-0.9888749999999999,0.03236066613676662,1.105260774142305e-13
-0.9888125,0.03251974371924207,1.155177897170888e-13
-0.98875,0.03244020492800435,1.207048861179399e-13
-0.9886875000000001,0.03251974371924207,1.26093844462058e-13
-0.988625,0.03251974371924207,1.316913186640772e-13
-0.9885625,0.03251974371924207,1.375041424369713e-13
-0.9885,0.03251974371924207,1.435393330772031e-13
-0.9884375,0.03251974371924207,1.498040953065285e-13
-0.988375,0.03251974371924207,1.563058251709366e-13
-0.9883125,0.03244020492800435,1.630521139972097e-13
-0.98825,0.0325992825104798,1.700507524075867e-13
-0.9881875,0.03267882130171752,1.773097343930149e-13
-0.988125,0.0325992825104798,1.848372614454718e-13
-0.9880625,0.03275836009295525,1.926417467498443e-13
-0.988,0.03283789888419298,2.007318194358476e-13
-0.9879375,0.03275836009295525,2.091163288904694e-13
-0.9878749999999999,0.03267882130171752,2.178043491314242e-13
-0.9878125,0.03267882130171752,2.268051832421022e-13
-0.98775,0.03275836009295525,2.361283678684994e-13
-0.9876875000000001,0.03275836009295525,2.457836777786116e-13
-0.987625,0.03283789888419298,2.557811304847795e-13
-0.9875625,0.03283789888419298,2.661309909294691e-13
-0.9875,0.03283789888419298,2.768437762349733e-13
-0.9874375,0.03283789888419298,2.879302605175193e-13
-0.987375,0.03283789888419298,2.994014797662667e-13
-0.9873125,0.03283789888419298,3.112687367876826e-13
-0.98725,0.03299697646666843,3.235436062157773e-13
-0.9871875,0.03299697646666843,3.362379395886864e-13
-0.987125,0.03307651525790616,3.493638704920835e-13
-0.9870625,0.03307651525790616,3.629338197699076e-13
-0.987,0.03307651525790616,3.769605008028915e-13
-0.9869375,0.03323559284038161,3.914569248553725e-13
-0.9868749999999999,0.03315605404914388,4.06436406490872e-13
-0.9868125,0.03315605404914388,4.219125690569251e-13
-0.98675,0.03315605404914388,4.378993502396469e-13
-0.9866875000000001,0.03315605404914388,4.544110076885134e-13
-0.986625,0.03315605404914388,4.714621247118463e-13
-0.9865625,0.03323559284038161,4.89067616043478e-13
-0.9865,0.03315605404914388,5.072427336810819e-13
-0.9864375,0.03323559284038161,5.260030727966504e-13
-0.986375,0.03323559284038161,5.453645777195984e-13
-0.9863125,0.03331513163161934,5.653435479929758e-13
-0.98625,0.03331513163161934,5.859566445032688e-13
-0.9861875,0.03339467042285706,6.072208956842678e-13
-0.986125,0.03339467042285706,6.291537037954836e-13
-0.9860625,0.03347420921409479,6.517728512755904e-13
-0.986,0.03339467042285706,6.750965071713701e-13
-0.9859375,0.03355374800533251,6.991432336426401e-13
-0.9858749999999999,0.03355374800533251,7.239319925436385e-13
-0.9858125,0.03355374800533251,7.494821520813442e-13
-0.98575,0.03339467042285706,7.758134935512064e-13
-0.9856875,0.03347420921409479,8.029462181507604e-13
-0.985625,0.03347420921409479,8.309009538715998e-13
-0.9855625,0.03347420921409479,8.596987624701845e-13
-0.9855,0.03355374800533251,8.893611465179521e-13
-0.9854375,0.03363328679657024,9.19910056531206e-13
-0.985375,0.03363328679657024,9.51367898181253e-13
-0.9853125,0.03363328679657024,9.837575395852583e-13
-0.98525,0.03363328679657024,1.01710231867829e-12
-0.9851875,0.03363328679657024,1.051426050667017e-12
-0.985125,0.03363328679657024,1.086753035565535e-12
-0.9850625,0.03363328679657024,1.123108065813782e-12
-0.985,0.03363328679657024,1.16051643397901e-12
-0.9849375,0.03371282558780796,1.199003940540775e-12
-0.9848749999999999,0.03363328679657024,1.238596901759923e-12
-0.9848125,0.03355374800533251,1.279322157632014e-12
-0.98475,0.03347420921409479,1.321207079925659e-12
-0.9846875,0.03371282558780796,1.364279580306234e-12
-0.984625,0.03363328679657024,1.408568118545417e-12
-0.9845625,0.03363328679657024,1.454101710817018e-12
-0.9845,0.03363328679657024,1.50090993807956e-12
-0.9844375,0.03363328679657024,1.549022954546058e-12
-0.984375,0.03347420921409479,1.598471496241459e-12
-0.9843125,0.03355374800533251,1.649286889648195e-12
-0.98425,0.03363328679657024,1.701501060440307e-12
-0.9841875,0.03363328679657024,1.755146542306575e-12
-0.984125,0.03355374800533251,1.81025648586313e-12
-0.9840625,0.03363328679657024,1.866864667655973e-12
-0.984,0.03363328679657024,1.925005499253865e-12
-0.9839375,0.03363328679657024,1.984714036432028e-12
-0.9838750000000001,0.03363328679657024,2.0460259884471e-12
-0.9838125,0.03363328679657024,2.108977727403795e-12
-0.98375,0.03355374800533251,2.173606297713712e-12
-0.9836875,0.03355374800533251,2.239949425646712e-12
-0.983625,0.03355374800533251,2.308045528975339e-12
-0.9835625,0.03347420921409479,2.377933726712695e-12
-0.9835,0.03355374800533251,2.449653848944214e-12
-0.9834375,0.03355374800533251,2.52324644675378e-12
-0.983375,0.03355374800533251,2.598752802244603e-12
-0.9833125,0.03347420921409479,2.676214938655311e-12
-0.98325,0.03347420921409479,2.755675630571665e-12
-0.9831875,0.03339467042285706,2.837178414234343e-12
-0.983125,0.03339467042285706,2.92076759794321e-12
-0.9830625,0.03347420921409479,3.00648827255851e-12
-0.983,0.03331513163161934,3.094386322099404e-12
-0.9829375,0.03323559284038161,3.184508434440258e-12
-0.9828750000000001,0.03323559284038161,3.276902112105135e-12
-0.9828125,0.03323559284038161,3.371615683160888e-12
-0.98275,0.03315605404914388,3.468698312209272e-12
-0.9826875,0.03315605404914388,3.568200011478508e-12
-0.982625,0.03323559284038161,3.670171652014696e-12
-0.9825625,0.03315605404914388,3.7746649749735e-12
-0.9825,0.03323559284038161,3.881732603012517e-12
-0.9824375,0.03323559284038161,3.991428051784734e-12
-0.982375,0.03315605404914388,4.103805741533484e-12
-0.9823125,0.03307651525790616,4.218921008789307e-12
-0.98225,0.03299697646666843,4.336830118169121e-12
-0.9821875,0.03291743767543071,4.457590274278111e-12
-0.982125,0.03291743767543071,4.581259633714717e-12
-0.9820624999999999,0.03291743767543071,4.707897317179141e-12
-0.982,0.03299697646666843,4.837563421685769e-12
-0.9819375,0.03283789888419298,4.970319032879888e-12
-0.9818750000000001,0.03283789888419298,5.106226237459095e-12
-0.9818125,0.03275836009295525,5.245348135699809e-12
-0.98175,0.03275836009295525,5.387748854089249e-12
-0.9816875,0.03267882130171752,5.533493558063283e-12
-0.981625,0.03267882130171752,5.682648464850515e-12
-0.9815625,0.0325992825104798,5.835280856423028e-12
-0.9815,0.03251974371924207,5.99145909255412e-12
-0.9814375,0.0325992825104798,6.15125262398345e-12
-0.981375,0.03251974371924207,6.314732005689939e-12
-0.9813125,0.03228112734552889,6.481968910272843e-12
-0.98125,0.03236066613676662,6.653036141441326e-12
-0.9811875,0.03236066613676662,6.828007647612931e-12
-0.981125,0.03236066613676662,7.006958535621317e-12
-0.9810624999999999,0.03228112734552889,7.189965084533618e-12
-0.981,0.03220158855429116,7.3771047595778e-12
-0.9809375,0.03220158855429116,7.568456226180368e-12
-0.9808750000000001,0.03220158855429116,7.764099364114796e-12
-0.9808125,0.03212204976305344,7.964115281761026e-12
-0.98075,0.03204251097181571,8.168586330476404e-12
-0.9806875,0.03212204976305344,8.377596119078389e-12
-0.980625,0.03212204976305344,8.591229528439418e-12
-0.9805625,0.03212204976305344,8.80957272619424e-12
-0.9805,0.03204251097181571,9.032713181560087e-12
-0.9804375,0.03212204976305344,9.260739680270033e-12
-0.980375,0.03204251097181571,9.493742339619859e-12
-0.9803125,0.03212204976305344,9.73181262362879e-12
-0.98025,0.03204251097181571,9.975043358314434e-12
-0.9801875,0.03204251097181571,1.022352874708224e-11
-0.980125,0.03204251097181571,1.047736438622984e-11
-0.9800624999999999,0.03212204976305344,1.073664728056659e-11
-0.98,0.03212204976305344,1.100147585914861e-11
-0.9799375,0.03220158855429116,1.127194999112973e-11
-0.9798750000000001,0.03220158855429116,1.154817100172859e-11
-0.9798125,0.03228112734552889,1.183024168831218e-11
-0.97975,0.03228112734552889,1.211826633659632e-11
-0.9796875,0.03220158855429116,1.241235073696314e-11
-0.979625,0.03220158855429116,1.271260220089614e-11
-0.9795625,0.03228112734552889,1.301912957753289e-11
-0.9795,0.03220158855429116,1.333204327033586e-11
-0.9794375,0.03220158855429116,1.365145525388164e-11
-0.979375,0.03220158855429116,1.397747909076878e-11
-0.9793125,0.03228112734552889,1.431022994864464e-11
-0.97925,0.03220158855429116,1.464982461735157e-11
-0.9791875,0.03236066613676662,1.499638152619254e-11
-0.979125,0.03244020492800435,1.535002076131675e-11
-0.9790624999999999,0.03236066613676662,1.571086408322536e-11
-0.979,0.03244020492800435,1.607903494439765e-11
-0.9789375,0.03244020492800435,1.645465850703791e-11
-0.9788750000000001,0.03236066613676662,1.683786166094338e-11
-0.9788125,0.03236066613676662,1.722877304149347e-11
-0.97875,0.03244020492800435,1.76275230477605e-11
-0.9786875,0.03251974371924207,1.803424386074239e-11
-0.978625,0.03244020492800435,1.844906946171733e-11
-0.9785625,0.03251974371924207,1.887213565072098e-11
-0.9785,0.03251974371924207,1.930358006514625e-11
-0.9784375,0.03251974371924207,1.974354219846598e-11
-0.978375,0.03251974371924207,2.019216341907883e-11
-0.9783125,0.0325992825104798,2.064958698927862e-11
-0.97825,0.0325992825104798,2.111595808434733e-11
-0.9781875,0.03267882130171752,2.159142381177206e-11
-0.978125,0.03267882130171752,2.207613323058618e-11
-0.9780624999999999,0.0325992825104798,2.257023737083493e-11
-0.978,0.0325992825104798,2.307388925316565e-11
-0.9779375,0.03267882130171752,2.35872439085431e-11
-0.977875,0.03267882130171752,2.41104583980897e-11
-0.9778125,0.03275836009295525,2.464369183305138e-11
-0.97775,0.03275836009295525,2.518710539488895e-11
-0.9776875,0.03275836009295525,2.574086235549533e-11
-0.977625,0.03275836009295525,2.630512809753901e-11
-0.9775625,0.03275836009295525,2.688007013493357e-11
-0.9775,0.03267882130171752,2.746585813343398e-11
-0.9774375,0.03275836009295525,2.806266393135952e-11
-0.977375,0.03275836009295525,2.867066156044368e-11
-0.9773125,0.03275836009295525,2.929002726681123e-11
-0.97725,0.03283789888419298,2.992093953208274e-11
-0.9771875,0.03291743767543071,3.056357909460661e-11
