Task5_40Hz_500mV_45+10.csv

#Digilent WaveForms Oscilloscope Acquisition
#Device Name: Discovery3
#Serial Number: SN:210415BD63A1
#Date Time: 2026-09-24 11:22:29.671.031.840
#Sample rate: 32000Hz
#Samples: 32000
#Trigger: Source: Channel 1 Type: Edge Condition: Rising Level: 0 V Hyst.: Auto HoldOff: 0 s
#Channel 1: Range: 500 mV/div Offset: 0 V Sample Mode: Average
#Math 1: Input: C1 Reference: Internal Frequency: 40 Hz Phase: 90 ° Filter: IIR Butterworth 8  Low-Pass CutOff: 5 Hz Output: Amplitude

#Wavegen Channel 1: Running
#Mode: Simple
#Type: Sine
#Frequency: 40 Hz
#Period: 25 ms
#Amplitude: 500 mV
#Offset: 0 V
#Symmetry: 50 %
#Phase: 0 °

Time (s),Channel 1 (V),Math 1 (V)
-0.5,0.3372328529509715,1.108014203157239e-27
-0.49996875,0.3373123917422092,1.883090090568551e-26
-0.4999375,0.3372328529509715,1.60565111978863e-25
-0.49990625,0.3372328529509715,9.220913948795829e-25
-0.499875,0.337391930533447,4.03770530334416e-24
-0.49984375,0.3372328529509715,1.445957260635902e-23
-0.4998125,0.3372328529509715,4.431264388970336e-23
-0.49978125,0.3373123917422092,1.199496858045256e-22
-0.49975,0.3373123917422092,2.935088927830663e-22
-0.49971875,0.337391930533447,6.606530089986969e-22
-0.4996875,0.3372328529509715,1.3864438971319e-21
-0.49965625,0.337391930533447,2.741580032549037e-21
-0.499625,0.337391930533447,5.151496491715843e-21
-0.49959375,0.337391930533447,9.261097656252072e-21
-0.4995625,0.337391930533447,1.601816206818175e-20
-0.49953125,0.3374714693246847,2.677872663297775e-20
-0.4995,0.3374714693246847,4.34380236579621e-20
-0.49946875,0.3374714693246847,6.859080902137327e-20
-0.4994375,0.3376305469071602,1.057251830789241e-19
-0.49940625,0.3374714693246847,1.594542677140913e-19
-0.499375,0.337391930533447,2.357903632160451e-19
-0.49934375,0.337391930533447,3.424664674340389e-19
-0.4993125,0.337391930533447,4.893102969307065e-19
-0.49928125,0.3375510081159224,6.886762056516615e-19
-0.49925,0.3374714693246847,9.559406509422512e-19
-0.49921875,0.3374714693246847,1.310067109565619e-18
-0.4991875,0.3377100856983978,1.774246597697403e-18
-0.49915625,0.3375510081159224,2.376620198679244e-18
-0.499125,0.3375510081159224,3.151090250609992e-18
-0.49909375,0.3376305469071602,4.138227092659913e-18
-0.4990625,0.3376305469071602,5.386278514312984e-18
-0.49903125,0.3377100856983978,6.952289295547948e-18
-0.499,0.3376305469071602,8.903338468227712e-18
-0.49896875,0.3377100856983978,1.131790216966975e-17
-0.4989375,0.3377100856983978,1.428735019852837e-17
-0.49890625,0.3376305469071602,1.791758462074533e-17
-0.498875,0.3377100856983978,2.233082900942075e-17
-0.49884375,0.3377896244896356,2.766757713701524e-17
-0.4988125,0.3377896244896356,3.40887101713085e-17
-0.49878125,0.3377100856983978,4.17777916580021e-17
-0.49875,0.3378691632808733,5.094354980276114e-17
-0.49871875,0.3377896244896356,6.182255679383521e-17
-0.4986875,0.3377100856983978,7.468211513318188e-17
-0.49865625,0.3376305469071602,8.982336116923902e-17
-0.498625,0.3376305469071602,1.075845962481651e-16
-0.49859375,0.3376305469071602,1.283448561224958e-16
-0.4985625,0.3377896244896356,1.525277294767521e-16
-0.49853125,0.3377896244896356,1.806054366485759e-16
-0.4985,0.337948702072111,2.131031798414373e-16
-0.49846875,0.3378691632808733,2.506037763408394e-16
-0.4984375,0.3378691632808733,2.937525864602201e-16
-0.49840625,0.337948702072111,3.432627481554198e-16
-0.498375,0.337948702072111,3.999207304576702e-16
-0.49834375,0.3380282408633488,4.645922180845752e-16
-0.4983125,0.337948702072111,5.382283397965189e-16
-0.49828125,0.3378691632808733,6.218722532723316e-16
-0.49825,0.3378691632808733,7.166660994828671e-16
-0.49821875,0.337948702072111,8.238583397443569e-16
-0.4981875,0.337948702072111,9.448114888350106e-16
-0.49815625,0.3380282408633488,1.081010257758301e-15
-0.498125,0.337948702072111,1.23407011993473e-15
-0.49809375,0.337948702072111,1.405746314800617e-15
-0.4980625,0.3380282408633488,1.597943302987578e-15
-0.49803125,0.337948702072111,1.812724687449948e-15
-0.498,0.3380282408633488,2.052323615099342e-15
-0.49796875,0.337948702072111,2.319153673695892e-15
-0.4979375,0.3380282408633488,2.615820298934484e-15
-0.49790625,0.3380282408633488,2.945132706851365e-15
-0.497875,0.3380282408633488,3.310116366862002e-15
-0.49784375,0.3299152841571007,3.714026030924905e-15
-0.4978125,0.3299152841571007,4.160359334508307e-15
-0.49778125,0.3299948229483384,4.652870985217252e-15
-0.49775,0.3299948229483384,5.195587555117577e-15
-0.49771875,0.3299152841571007,5.792822892970675e-15
-0.4976875,0.3299948229483384,6.449194172768635e-15
-0.49765625,0.3299948229483384,7.169638595133458e-15
-0.497625,0.3299948229483384,7.95943075831652e-15
-0.49759375,0.3299152841571007,8.824200715705283e-15
-0.4975625,0.329835745365863,9.76995273691346e-15
-0.49753125,0.3299948229483384,1.080308478969849e-14
-0.4975,0.3299948229483384,1.193040876011605e-14
-0.49746875,0.3299152841571007,1.315917142848567e-14
-0.4974375,0.3299152841571007,1.449707621890427e-14
-0.49740625,0.3299152841571007,1.595230574020525e-14
-0.497375,0.3299152841571007,1.753354513642019e-14
-0.49734375,0.3300743617395762,1.92500062649578e-14
-0.4973125,0.3299152841571007,2.111145272087108e-14
-0.49728125,0.3299948229483384,2.312822572573747e-14
-0.49725,0.3300743617395762,2.531127089983014e-14
-0.49721875,0.3301539005308138,2.767216593640948e-14
-0.4971875,0.3301539005308138,3.022314919711303e-14
-0.49715625,0.3300743617395762,3.297714924757082e-14
-0.497125,0.3299948229483384,3.594781535251829e-14
-0.49709375,0.3299948229483384,3.914954894982425e-14
-0.4970625,0.3300743617395762,4.259753612299402e-14
-0.49703125,0.3300743617395762,4.630778109184884e-14
-0.497,0.3300743617395762,5.029714074122282e-14
-0.49696875,0.3300743617395762,5.458336020765596e-14
-0.4969375,0.3300743617395762,5.918510954419851e-14
-0.49690625,0.3300743617395762,6.412202148357637e-14
-0.496875,0.3299948229483384,6.94147303201001e-14
-0.49684375,0.3300743617395762,7.508491193083168e-14
-0.4968125,0.3299948229483384,8.11553249566525e-14
-0.49678125,0.3300743617395762,8.764985316400414e-14
-0.49675,0.3301539005308138,9.459354900819986e-14
-0.49671875,0.3301539005308138,1.020126784193291e-13
-0.4966875,0.3301539005308138,1.099347668319004e-13
-0.49665625,0.3301539005308138,1.183886464794899e-13
-0.496625,0.3301539005308138,1.274045049757809e-13
-0.49659375,0.3302334393220516,1.370139352035004e-13
-0.4965625,0.3301539005308138,1.472499865328725e-13
-0.49653125,0.3301539005308138,1.581472173913245e-13
-0.4965,0.3301539005308138,1.697417492062953e-13
-0.49646875,0.3302334393220516,1.820713217431045e-13
-0.4964375,0.3302334393220516,1.951753498599542e-13
-0.49640625,0.3301539005308138,2.090949817022397e-13
-0.496375,0.3302334393220516,2.23873158358453e-13
-0.49634375,0.3302334393220516,2.395546750000701e-13
-0.4963125,0.3301539005308138,2.561862435279126e-13
-0.49628125,0.3302334393220516,2.738165567475762e-13
-0.49625,0.3300743617395762,2.924963540966231e-13
-0.49621875,0.3301539005308138,3.122784889463246e-13
-0.4961875,0.3302334393220516,3.332179975008473e-13
-0.49615625,0.3302334393220516,3.553721693168606e-13
-0.496125,0.3300743617395762,3.788006194666462e-13
-0.49609375,0.3301539005308138,4.03565362367875e-13
-0.4960625,0.3301539005308138,4.29730887303307e-13
-0.49603125,0.3301539005308138,4.573642356537648e-13
-0.496,0.3300743617395762,4.865350798678076e-13
-0.49596875,0.3301539005308138,5.173158041916278e-13
-0.4959375,0.3299948229483384,5.497815871827663e-13
-0.49590625,0.3300743617395762,5.840104860313339e-13
-0.495875,0.3301539005308138,6.200835227124951e-13
-0.49584375,0.3300743617395762,6.58084771994061e-13
-0.4958125,0.3301539005308138,6.981014513231045e-13
-0.49578125,0.3301539005308138,7.402240126155934e-13
-0.49575,0.3302334393220516,7.845462359731036e-13
-0.49571875,0.3302334393220516,8.311653253507557e-13
-0.4956875,0.3301539005308138,8.801820062005778e-13
-0.49565625,0.3302334393220516,9.317006251145735e-13
-0.495625,0.3302334393220516,9.858292514918396e-13
-0.49559375,0.3302334393220516,1.042679781254137e-12
-0.4955625,0.3301539005308138,1.102368042634391e-12
-0.49553125,0.3302334393220516,1.165013904062661e-12
-0.4955,0.3302334393220516,1.230741384174153e-12
-0.49546875,0.3302334393220516,1.29967876396396e-12
-0.4954375,0.3301539005308138,1.371958701113204e-12
-0.49540625,0.3301539005308138,1.447718346511382e-12
-0.495375,0.3302334393220516,1.527099462999702e-12
-0.49534375,0.3302334393220516,1.610248546360307e-12
-0.4953125,0.3301539005308138,1.697316948576293e-12
-0.49528125,0.3302334393220516,1.788461003387497e-12
-0.49525,0.3300743617395762,1.883842154167085e-12
-0.49521875,0.3302334393220516,1.983627084143974e-12
-0.4951875,0.3302334393220516,2.087987848996239e-12
-0.49515625,0.3301539005308138,2.197102011840621e-12
-0.495125,0.3301539005308138,2.31115278064334e-12
-0.49509375,0.3300743617395762,2.430329148077451e-12
-0.4950625,0.3299152841571007,2.554826033852004e-12
-0.49503125,0.3300743617395762,2.684844429538314e-12
-0.495,0.3299948229483384,2.820591545918681e-12
-0.49496875,0.3300743617395762,2.962280962882939e-12
-0.4949375,0.3300743617395762,3.110132781898221e-12
-0.49490625,0.3300743617395762,3.264373781077394e-12
-0.494875,0.3301539005308138,3.425237572871613e-12
-0.49484375,0.3301539005308138,3.592964764412485e-12
-0.4948125,0.3301539005308138,3.767803120529353e-12
-0.49478125,0.3301539005308138,3.950007729467247e-12
-0.49475,0.3299948229483384,4.139841171331047e-12
-0.49471875,0.3301539005308138,4.337573689281449e-12
-0.4946875,0.3300743617395762,4.543483363508318e-12
-0.49465625,0.3299152841571007,4.757856288007058e-12
-0.494625,0.3299948229483384,4.980986750183615e-12
-0.49459375,0.3299948229483384,5.213177413313769e-12
-0.4945625,0.3300743617395762,5.454739501882356e-12
-0.49453125,0.3300743617395762,5.70599298982811e-12
-0.4945,0.3299152841571007,5.967266791719777e-12
-0.49446875,0.3299948229483384,6.238898956889197e-12
-0.4944375,0.3299948229483384,6.521236866547055e-12
-0.49440625,0.3300743617395762,6.81463743390698e-12
-0.494375,0.3299152841571007,7.119467307343683e-12
-0.49434375,0.3300743617395762,7.436103076610872e-12
-0.4943125,0.3299152841571007,7.764931482144611e-12
-0.49428125,0.3299948229483384,8.10634962747781e-12
-0.49425,0.3299948229483384,8.460765194791591e-12
-0.49421875,0.3299948229483384,8.828596663629188e-12
-0.4941875,0.329835745365863,9.210273532798048e-12
-0.49415625,0.3299152841571007,9.606236545485864e-12
-0.494125,0.329835745365863,1.001693791761615e-11
-0.49409375,0.3299152841571007,1.044284156946907e-11
-0.4940625,0.329835745365863,1.088442336059314e-11
-0.49403125,0.3296766677833875,1.134217132803338e-11
-0.494,0.3297562065746252,1.181658592790171e-11
-0.49396875,0.3296766677833875,1.230818028031494e-11
-0.4939375,0.3297562065746252,1.281748041772616e-11
-0.49390625,0.3297562065746252,1.334502553667496e-11
-0.493875,0.3296766677833875,1.389136825298207e-11
-0.49384375,0.3297562065746252,1.445707486041397e-11
-0.4938125,0.3296766677833875,1.504272559284283e-11
-0.49378125,0.3296766677833875,1.56489148899275e-11
-0.49375,0.3296766677833875,1.627625166634072e-11
-0.49371875,0.3296766677833875,1.692535958456812e-11
-0.4936875,0.3295971289921498,1.759687733130443e-11
-0.49365625,0.329517590200912,1.82914588974721e-11
-0.493625,0.329517590200912,1.900977386188774e-11
-0.49359375,0.3294380514096743,1.975250767860182e-11
-0.4935625,0.329517590200912,2.052036196793649e-11
-0.49353125,0.329517590200912,2.13140548112472e-11
-0.4935,0.329517590200912,2.213432104943293e-11
-0.49346875,0.329517590200912,2.298191258522033e-11
-0.4934375,0.3295971289921498,2.385759868924695e-11
-0.49340625,0.3295971289921498,2.476216630996832e-11
-0.493375,0.3293585126184366,2.569642038741426e-11
-0.49334375,0.3293585126184366,2.666118417081909e-11
-0.4933125,0.3293585126184366,2.765729954015078e-11
-0.49328125,0.3293585126184366,2.868562733156393e-11
-0.49325,0.3291994350359612,2.974704766680131e-11
-0.49321875,0.3292789738271989,3.084246028656884e-11
-0.4931875,0.3293585126184366,3.197278488790857e-11
-0.49315625,0.3291994350359612,3.313896146559453e-11
-0.493125,0.3292789738271989,3.434195065757587e-11
-0.49309375,0.3293585126184366,3.558273409449188e-11
-0.4930625,0.3292789738271989,3.686231475328348e-11
-0.49303125,0.3291198962447234,3.818171731492552e-11
-0.493,0.3291994350359612,3.954198852630425e-11
-0.49296875,0.3291198962447234,4.094419756626433e-11
-0.4929375,0.3290403574534857,4.238943641584961e-11
-0.49290625,0.3290403574534857,4.387882023276182e-11
-0.492875,0.3290403574534857,4.541348773006133e-11
-0.49284375,0.3291994350359612,4.699460155913404e-11
-0.4928125,0.3290403574534857,4.862334869694829e-11
-0.49278125,0.3290403574534857,5.030094083762578e-11
-0.49275,0.3288812798710102,5.202861478835047e-11
-0.49271875,0.328960818662248,5.380763286963876e-11
-0.4926875,0.328960818662248,5.563928331999527e-11
-0.49265625,0.328960818662248,5.752488070497742e-11
-0.492625,0.3288812798710102,5.946576633069232e-11
-0.49259375,0.328960818662248,6.146330866174984e-11
-0.4925625,0.3288812798710102,6.351890374369471e-11
-0.49253125,0.3288812798710102,6.563397562994133e-11
-0.4925,0.3288017410797725,6.78099768132345e-11
-0.49246875,0.3287222022885348,7.004838866165892e-11
-0.4924375,0.3288812798710102,7.23507218592208e-11
-0.49240625,0.3287222022885348,7.471851685102444e-11
-0.492375,0.3288812798710102,7.71533442930667e-11
-0.49234375,0.3287222022885348,7.965680550667214e-11
-0.4923125,0.3288812798710102,8.223053293759139e-11
-0.49228125,0.3288812798710102,8.487619061978581e-11
-0.49225,0.3288017410797725,8.759547464392026e-11
-0.49221875,0.3288017410797725,9.03901136305872e-11
-0.4921875,0.3288017410797725,9.326186920828374e-11
-0.49215625,0.3288017410797725,9.621253649616454e-11
-0.492125,0.3288017410797725,9.924394459159209e-11
-0.49209375,0.3288812798710102,1.023579570625069e-10
-0.4920625,0.3288812798710102,1.055564724446393e-10
-0.49203125,0.3288017410797725,1.088414247435847e-10
-0.492,0.3288017410797725,1.122147839417645e-10
-0.49196875,0.3288017410797725,1.156785565102932e-10
-0.4919375,0.3288812798710102,1.192347859257747e-10
-0.49190625,0.3288017410797725,1.228855531920482e-10
-0.491875,0.3287222022885348,1.266329773669054e-10
-0.49184375,0.3287222022885348,1.304792160937998e-10
-0.4918125,0.3287222022885348,1.344264661385705e-10
-0.49178125,0.3288017410797725,1.384769639311999e-10
-0.49175,0.3288812798710102,1.426329861126268e-10
-0.49171875,0.3288017410797725,1.468968500866363e-10
-0.4916875,0.3288812798710102,1.512709145768465e-10
-0.49165625,0.3288812798710102,1.557575801888125e-10
-0.491625,0.3288017410797725,1.603592899772689e-10
-0.49159375,0.3288017410797725,1.6507853001853e-10
-0.4915625,0.3287222022885348,1.699178299880695e-10
-0.49153125,0.3288017410797725,1.748797637432972e-10
-0.4915,0.3288017410797725,1.799669499115563e-10
-0.49146875,0.3288812798710102,1.85182052483358e-10
-0.4914375,0.3288017410797725,1.905277814108744e-10
-0.49140625,0.3288017410797725,1.960068932117097e-10
-0.491375,0.3288017410797725,2.016221915779681e-10
-0.49134375,0.3287222022885348,2.073765279906395e-10
-0.4913125,0.3288017410797725,2.132728023393198e-10
-0.49128125,0.3288017410797725,2.193139635472873e-10
-0.49125,0.3288017410797725,2.255030102019529e-10
-0.49121875,0.3287222022885348,2.318429911907032e-10
-0.4911875,0.3288017410797725,2.383370063421549e-10
-0.49115625,0.3288017410797725,2.449882070728404e-10
-0.491125,0.3288812798710102,2.517997970393416e-10
-0.49109375,0.328960818662248,2.587750327958903e-10
-0.4910625,0.3288812798710102,2.65917224457455e-10
-0.49103125,0.3288812798710102,2.732297363683301e-10
-0.491,0.3288812798710102,2.807159877762477e-10
-0.49096875,0.328960818662248,2.883794535120266e-10
-0.4909375,0.3287222022885348,2.962236646747799e-10
-0.49090625,0.3288812798710102,3.042522093226964e-10
-0.490875,0.328960818662248,3.12468733169413e-10
-0.49084375,0.3288812798710102,3.208769402859971e-10
-0.4908125,0.3288017410797725,3.294805938085546e-10
-0.49078125,0.328960818662248,3.382835166514804e-10
-0.49075,0.3290403574534857,3.472895922263705e-10
-0.49071875,0.3290403574534857,3.565027651666083e-10
-0.4906875,0.3290403574534857,3.65927042057646e-10
-0.49065625,0.3288812798710102,3.755664921729947e-10
-0.490625,0.3288812798710102,3.854252482159399e-10
-0.49059375,0.3288812798710102,3.955075070669996e-10
-0.4905625,0.3291198962447234,4.058175305371394e-10
-0.49053125,0.328960818662248,4.163596461267622e-10
-0.4905,0.3290403574534857,4.271382477904861e-10
-0.49046875,0.3288812798710102,4.381577967077276e-10
-0.4904375,0.3288017410797725,4.494228220591053e-10
-0.49040625,0.328960818662248,4.609379218086776e-10
-0.490375,0.3288812798710102,4.727077634920327e-10
-0.49034375,0.3288812798710102,4.847370850102416e-10
-0.4903125,0.328960818662248,4.970306954296939e-10
-0.49028125,0.328960818662248,5.095934757878251e-10
-0.49025,0.3290403574534857,5.224303799047546e-10
-0.49021875,0.328960818662248,5.355464352008481e-10
-0.4901875,0.3291198962447234,5.489467435202145e-10
-0.49015625,0.3291198962447234,5.626364819601572e-10
-0.490125,0.3291198962447234,5.766209037065877e-10
-0.49009375,0.3291198962447234,5.909053388754205e-10
-0.4900625,0.3291198962447234,6.054951953599593e-10
-0.49003125,0.3291198962447234,6.203959596842878e-10
-0.49,0.3291198962447234,6.356131978626813e-10
-0.48996875,0.3292789738271989,6.51152556265048e-10
-0.4899375,0.3292789738271989,6.670197624884167e-10
-0.48990625,0.3291994350359612,6.832206262344801e-10
-0.489875,0.3291198962447234,6.997610401932092e-10
-0.48984375,0.3291198962447234,7.166469809325483e-10
-0.4898125,0.3291994350359612,7.338845097942065e-10
-0.48978125,0.3292789738271989,7.514797737955531e-10
-0.48975,0.3291994350359612,7.694390065376322e-10
-0.48971875,0.3291994350359612,7.877685291193076e-10
-0.4896875,0.3291994350359612,8.064747510575472e-10
-0.48965625,0.3291198962447234,8.255641712138614e-10
-0.489625,0.3290403574534857,8.450433787269065e-10
-0.48959375,0.3290403574534857,8.649190539512582e-10
-0.4895625,0.3292789738271989,8.851979694023765e-10
-0.48953125,0.3291994350359612,9.058869907077625e-10
-0.4895,0.3292789738271989,9.269930775643239e-10
-0.48946875,0.3291994350359612,9.485232847019557e-10
-0.4894375,0.3292789738271989,9.704847628533511e-10
-0.48940625,0.3293585126184366,9.92884759730046e-10
-0.489375,0.3291198962447234,1.015730621004712e-09
-0.48934375,0.3293585126184366,1.039029791299708e-09
-0.4893125,0.3291994350359612,1.062789815181889e-09
-0.48928125,0.3291994350359612,1.087018338163705e-09
-0.48925,0.3293585126184366,1.111723107710568e-09
-0.48921875,0.3292789738271989,1.136911974254522e-09
-0.4891875,0.3292789738271989,1.162592892214214e-09
-0.48915625,0.3292789738271989,1.18877392102117e-09
-0.489125,0.3292789738271989,1.215463226152397e-09
-0.48909375,0.3293585126184366,1.242669080169303e-09
-0.4890625,0.3292789738271989,1.270399863762962e-09
-0.48903125,0.3291994350359612,1.298664066805712e-09
-0.489,0.3292789738271989,1.327470289409112e-09
-0.48896875,0.3293585126184366,1.356827242988249e-09
-0.4889375,0.329517590200912,1.386743751332416e-09
-0.48890625,0.329517590200912,1.417228751682157e-09
-0.488875,0.3294380514096743,1.448291295812698e-09
-0.48884375,0.3294380514096743,1.479940551123754e-09
-0.4888125,0.3292789738271989,1.51218580173574e-09
-0.48878125,0.3295971289921498,1.545036449592369e-09
-0.48875,0.329517590200912,1.578502015569663e-09
-0.48871875,0.329517590200912,1.612592140591372e-09
-0.4886875,0.329517590200912,1.647316586750811e-09
-0.48865625,0.329517590200912,1.682685238439114e-09
-0.488625,0.329517590200912,1.718708103479925e-09
-0.48859375,0.329517590200912,1.75539531427051e-09
-0.4885625,0.329517590200912,1.792757128929323e-09
-0.48853125,0.3295971289921498,1.830803932449996e-09
-0.4885,0.3295971289921498,1.869546237861791e-09
-0.48846875,0.329517590200912,1.908994687396501e-09
-0.4884375,0.329517590200912,1.949160053661799e-09
-0.48840625,0.3295971289921498,1.99005324082106e-09
-0.488375,0.3295971289921498,2.031685285779638e-09
