Task5_20Hz_500mV_45+5.csv

#Digilent WaveForms Oscilloscope Acquisition
#Device Name: Discovery3
#Serial Number: SN:210415BD63A1
#Date Time: 2026-09-24 11:20:25.458.722.670
#Sample rate: 32000Hz
#Samples: 32000
#Trigger: Source: Channel 1 Type: Edge Condition: Rising Level: 0 V Hyst.: Auto HoldOff: 0 s
#Channel 1: Range: 500 mV/div Offset: 0 V Sample Mode: Average
#Math 1: Input: C1 Reference: Internal Frequency: 20 Hz Phase: 90 ° Filter: IIR Butterworth 8  Low-Pass CutOff: 5 Hz Output: Amplitude

#Wavegen Channel 1: Running
#Mode: Simple
#Type: Sine
#Frequency: 20 Hz
#Period: 50 ms
#Amplitude: 500 mV
#Offset: 0 V
#Symmetry: 50 %
#Phase: 0 °

Time (s),Channel 1 (V),Math 1 (V)
-0.5,0.3781157916471628,1.263938669368591e-27
-0.49996875,0.378354408020876,2.148032027282565e-26
-0.4999375,0.3784339468121137,1.831519159586076e-25
-0.49990625,0.3782748692296383,1.05178432109934e-24
-0.499875,0.3782748692296383,4.605551725877306e-24
-0.49984375,0.3782748692296383,1.649296126005683e-23
-0.4998125,0.3781953304384005,5.054388559687928e-23
-0.49978125,0.378354408020876,1.368167503514671e-22
-0.49975,0.3784339468121137,3.347817561779278e-22
-0.49971875,0.378354408020876,7.535555036849175e-22
-0.4996875,0.378354408020876,1.581416250908736e-21
-0.49965625,0.3782748692296383,3.127141247589608e-21
-0.499625,0.3785134856033515,5.876018148989371e-21
-0.49959375,0.378354408020876,1.056369142246876e-20
-0.4995625,0.378354408020876,1.8271311944652e-20
-0.49953125,0.3784339468121137,3.054576367500409e-20
-0.4995,0.378354408020876,4.95490454076132e-20
-0.49946875,0.378354408020876,7.824118815480864e-20
-0.4994375,0.378354408020876,1.20601389697666e-19
-0.49940625,0.378354408020876,1.818923472424084e-19
-0.499375,0.3785134856033515,2.689730669449528e-19
-0.49934375,0.3785930243945892,3.906657253038185e-19
-0.4993125,0.3785134856033515,5.581824520668613e-19
-0.49928125,0.3785134856033515,7.856181973429531e-19
-0.49925,0.3785930243945892,1.090516137053788e-18
-0.49921875,0.3785134856033515,1.494512360708943e-18
-0.4991875,0.3784339468121137,2.024066873748618e-18
-0.49915625,0.3785134856033515,2.711288233379399e-18
-0.499125,0.3785134856033515,3.594859421932171e-18
-0.49909375,0.3785930243945892,4.72107284530525e-18
-0.4990625,0.3785930243945892,6.144982626029882e-18
-0.49903125,0.3786725631858269,7.931682640910944e-18
-0.499,0.3786725631858269,1.015771903204368e-17
-0.49896875,0.3785930243945892,1.291264619727678e-17
-0.4989375,0.3785930243945892,1.630073554188004e-17
-0.49890625,0.3785930243945892,2.044284654728446e-17
-0.498875,0.3785930243945892,2.547846998529995e-17
-0.49884375,0.3785134856033515,3.156795337718669e-17
-0.4988125,0.3785930243945892,3.889491906636865e-17
-0.49878125,0.3786725631858269,4.766888554144311e-17
-0.49875,0.3785930243945892,5.812810291247454e-17
-0.49871875,0.3786725631858269,7.054261370836592e-17
-0.4986875,0.3787521019770646,8.521755042637172e-17
-0.49865625,0.3785930243945892,1.024966815265324e-16
-0.498625,0.3786725631858269,1.227662178239524e-16
-0.49859375,0.3785930243945892,1.464588914904072e-16
-0.4985625,0.3787521019770646,1.740583201337717e-16
-0.49853125,0.3788316407683023,2.06103668679239e-16
-0.4985,0.3786725631858269,2.431946220302614e-16
-0.49846875,0.3788316407683023,2.859966817396019e-16
-0.4984375,0.3786725631858269,3.352468001718223e-16
-0.49840625,0.3785930243945892,3.917593658879558e-16
-0.498375,0.3787521019770646,4.564325542309956e-16
-0.49834375,0.3786725631858269,5.302550573371776e-16
-0.4983125,0.3786725631858269,6.143132080428312e-16
-0.49828125,0.3788316407683023,7.097985123998398e-16
-0.49825,0.3786725631858269,8.180156057544695e-16
-0.49821875,0.3786725631858269,9.403906475845106e-16
-0.4981875,0.3787521019770646,1.078480170528345e-15
-0.49815625,0.3787521019770646,1.233980399276706e-15
-0.498125,0.3762863994486951,1.408737055233526e-15
-0.49809375,0.3764454770311705,1.604755663086406e-15
-0.4980625,0.3763659382399329,1.824212375659842e-15
-0.49803125,0.3762863994486951,2.0694653336555e-15
-0.498,0.3762863994486951,2.343066577113472e-15
-0.49796875,0.3763659382399329,2.647774525656566e-15
-0.4979375,0.3764454770311705,2.986567044806295e-15
-0.49790625,0.3764454770311705,3.362655115884349e-15
-0.497875,0.3763659382399329,3.779497127236935e-15
-0.49784375,0.3763659382399329,4.240813804741529e-15
-0.4978125,0.3765250158224083,4.750603799776156e-15
-0.49778125,0.3765250158224083,5.313159953050407e-15
-0.49775,0.3765250158224083,5.933086252914986e-15
-0.49771875,0.3764454770311705,6.615315506982649e-15
-0.4976875,0.3763659382399329,7.365127746108067e-15
-0.49765625,0.3762863994486951,8.188169379987196e-15
-0.497625,0.3764454770311705,9.090473123848526e-15
-0.49759375,0.376604554613646,1.007847871591868e-14
-0.4975625,0.3765250158224083,1.115905444555366e-14
-0.49753125,0.3765250158224083,1.233951951213458e-14
-0.4975,0.3765250158224083,1.362766723503214e-14
-0.49746875,0.3765250158224083,1.503178913514896e-14
-0.4974375,0.3763659382399329,1.656069990875141e-14
-0.49740625,0.3765250158224083,1.822376331450403e-14
-0.497375,0.3765250158224083,2.003091899481958e-14
-0.49734375,0.3763659382399329,2.19927102528361e-14
-0.4973125,0.3765250158224083,2.412031280652936e-14
-0.49728125,0.3766840934048837,2.642556454166472e-14
-0.49725,0.3766840934048837,2.89209962854863e-14
-0.49721875,0.376604554613646,3.161986362323443e-14
-0.4971875,0.376604554613646,3.453617977977312e-14
-0.49715625,0.3765250158224083,3.768474958879947e-14
-0.497125,0.376604554613646,4.108120457229501e-14
-0.49709375,0.376604554613646,4.474203915306594e-14
-0.4970625,0.3766840934048837,4.868464802340436e-14
-0.49703125,0.3766840934048837,5.292736469308719e-14
-0.497,0.376604554613646,5.748950124011146e-14
-0.49696875,0.3766840934048837,6.239138928774582e-14
-0.4969375,0.3767636321961215,6.765442223165812e-14
-0.49690625,0.3767636321961215,7.330109874105666e-14
-0.496875,0.3766840934048837,7.935506755795987e-14
-0.49684375,0.3767636321961215,8.584117361888411e-14
-0.4968125,0.3768431709873592,9.278550552341384e-14
-0.49678125,0.3768431709873592,1.002154443742901e-13
-0.49675,0.3768431709873592,1.08159714013825e-13
-0.49671875,0.3766840934048837,1.166484326816189e-13
-0.4966875,0.376604554613646,1.257131661187266e-13
-0.49665625,0.3767636321961215,1.353869821435827e-13
-0.496625,0.3767636321961215,1.457045067251657e-13
-0.49659375,0.3767636321961215,1.567019815790409e-13
-0.4965625,0.3766840934048837,1.684173233120866e-13
-0.49653125,0.3769227097785969,1.808901841418692e-13
-0.4965,0.3768431709873592,1.94162014216791e-13
-0.49646875,0.3770022485698347,2.082761255632961e-13
-0.4964375,0.3770022485698347,2.232777576865725e-13
-0.49640625,0.3770022485698347,2.392141448513484e-13
-0.496375,0.3769227097785969,2.561345850695318e-13
-0.49634375,0.3769227097785969,2.74090510821597e-13
-0.4963125,0.3768431709873592,2.931355615387714e-13
-0.49628125,0.3769227097785969,3.133256578732281e-13
-0.49625,0.3769227097785969,3.347190777836368e-13
-0.49621875,0.3770817873610724,3.573765344635719e-13
-0.4961875,0.3770022485698347,3.813612561404258e-13
-0.49615625,0.3770022485698347,4.067390677726149e-13
-0.496125,0.3769227097785969,4.33578474673014e-13
-0.49609375,0.3770817873610724,4.619507480866923e-13
-0.4960625,0.3770817873610724,4.919300127511658e-13
-0.49603125,0.3771613261523101,5.23593336467522e-13
-0.496,0.3770817873610724,5.570208217109062e-13
-0.49596875,0.3771613261523101,5.922956993089987e-13
-0.4959375,0.3770022485698347,6.295044242172444e-13
-0.49590625,0.3770817873610724,6.687367734197308e-13
-0.495875,0.3771613261523101,7.100859459847424e-13
-0.49584375,0.3771613261523101,7.536486653041505e-13
-0.4958125,0.3772408649435478,7.995252835459266e-13
-0.49578125,0.3771613261523101,8.478198883491926e-13
-0.49575,0.3770817873610724,8.986404117913558e-13
-0.49571875,0.3771613261523101,9.520987416569893e-13
-0.4956875,0.3773204037347855,1.008310835038256e-12
-0.49565625,0.3772408649435478,1.067396834296787e-12
-0.495625,0.3772408649435478,1.129481185417046e-12
-0.49559375,0.3773204037347855,1.194692758781346e-12
-0.4955625,0.3773204037347855,1.263164972396782e-12
-0.49553125,0.3773999425260233,1.33503591760447e-12
-0.4955,0.3773204037347855,1.410448487301608e-12
-0.49546875,0.3773204037347855,1.489550506706978e-12
-0.4954375,0.3773204037347855,1.572494866700608e-12
-0.49540625,0.377479481317261,1.659439659768469e-12
-0.495375,0.377479481317261,1.75054831858314e-12
-0.49534375,0.3773999425260233,1.84598975725151e-12
-0.4953125,0.3773999425260233,1.945938515260711e-12
-0.49528125,0.3773204037347855,2.050574904153533e-12
-0.49525,0.3773999425260233,2.160085156964733e-12
-0.49521875,0.3773204037347855,2.274661580449712e-12
-0.4951875,0.3773999425260233,2.394502710137155e-12
-0.49515625,0.377479481317261,2.519813468237344e-12
-0.495125,0.3773204037347855,2.65080532443791e-12
-0.49509375,0.3773204037347855,2.787696459618951e-12
-0.4950625,0.3773204037347855,2.930711932519472e-12
-0.49503125,0.3773204037347855,3.080083849387272e-12
-0.495,0.3772408649435478,3.236051536644422e-12
-0.49496875,0.3772408649435478,3.398861716600646e-12
-0.4949375,0.3773204037347855,3.568768686246947e-12
-0.49490625,0.3773204037347855,3.746034499161955e-12
-0.494875,0.3773204037347855,3.930929150563529e-12
-0.49484375,0.3773999425260233,4.123730765538275e-12
-0.4948125,0.3772408649435478,4.32472579048168e-12
-0.49478125,0.3773204037347855,4.5342091877817e-12
-0.49475,0.377479481317261,4.752484633778667e-12
-0.49471875,0.3773999425260233,4.979864720034525e-12
-0.4946875,0.377479481317261,5.216671157944437e-12
-0.49465625,0.3773204037347855,5.463234986723913e-12
-0.494625,0.3772408649435478,5.719896784804678e-12
-0.49459375,0.3773999425260233,5.987006884672575e-12
-0.4945625,0.377479481317261,6.264925591180912e-12
-0.49453125,0.377479481317261,6.554023403372651e-12
-0.4945,0.3773999425260233,6.854681239845021e-12
-0.49446875,0.377479481317261,7.167290667690123e-12
-0.4944375,0.377479481317261,7.492254135045216e-12
-0.49440625,0.3773204037347855,7.829985207286427e-12
-0.494375,0.3773999425260233,8.180908806899689e-12
-0.49434375,0.3773999425260233,8.545461457062807e-12
-0.4943125,0.3775590201084987,8.924091528972587e-12
-0.49428125,0.377479481317261,9.317259492951036e-12
-0.49425,0.3773999425260233,9.725438173364763e-12
-0.49421875,0.377479481317261,1.014911300739164e-11
-0.4941875,0.377479481317261,1.058878230766901e-11
-0.49415625,0.3773999425260233,1.104495752885769e-11
-0.494125,0.3773999425260233,1.1518163538156e-11
-0.49409375,0.3773999425260233,1.20089388897984e-11
-0.4940625,0.3773999425260233,1.251783610357299e-11
-0.49403125,0.3773204037347855,1.304542194739242e-11
-0.494,0.3773204037347855,1.359227772395285e-11
-0.49396875,0.3772408649435478,1.41589995615155e-11
-0.4939375,0.3773204037347855,1.474619870884536e-11
-0.49390625,0.3772408649435478,1.535450183434203e-11
-0.493875,0.3773204037347855,1.598455132939707e-11
-0.49384375,0.3773204037347855,1.663700561601311e-11
-0.4938125,0.377479481317261,1.731253945871918e-11
-0.49378125,0.3773204037347855,1.801184428081741e-11
-0.49375,0.3773204037347855,1.873562848499597e-11
-0.49371875,0.3773204037347855,1.948461777834326e-11
-0.4936875,0.3773204037347855,2.025955550179834e-11
-0.49365625,0.3772408649435478,2.10612029640727e-11
-0.493625,0.3772408649435478,2.189033978007857e-11
-0.49359375,0.3770817873610724,2.274776421389883e-11
-0.4935625,0.3772408649435478,2.363429352633368e-11
-0.49353125,0.3773204037347855,2.455076432705945e-11
-0.4935,0.3771613261523101,2.549803293143473e-11
-0.49346875,0.3771613261523101,2.647697572198906e-11
-0.4934375,0.3772408649435478,2.748848951462967e-11
-0.49340625,0.3772408649435478,2.853349192960152e-11
-0.493375,0.3771613261523101,2.961292176723608e-11
-0.49334375,0.3772408649435478,3.072773938852425e-11
-0.4933125,0.3771613261523101,3.1878927100549e-11
-0.49328125,0.3771613261523101,3.306748954681302e-11
-0.49325,0.3771613261523101,3.429445410249703e-11
-0.49321875,0.3770817873610724,3.556087127468436e-11
-0.4931875,0.3772408649435478,3.68678151075871e-11
-0.49315625,0.3771613261523101,3.82163835928097e-11
-0.493125,0.3771613261523101,3.960769908468546e-11
-0.49309375,0.3771613261523101,4.104290872072152e-11
-0.4930625,0.3770022485698347,4.252318484718821e-11
-0.49303125,0.3770022485698347,4.40497254498881e-11
-0.493,0.3769227097785969,4.562375459014076e-11
-0.49296875,0.3768431709873592,4.72465228460187e-11
-0.4929375,0.3770022485698347,4.891930775887037e-11
-0.49290625,0.3770022485698347,5.064341428516581e-11
-0.492875,0.3768431709873592,5.24201752537008e-11
-0.49284375,0.3767636321961215,5.425095182819526e-11
-0.4928125,0.3768431709873592,5.613713397532156e-11
-0.49278125,0.3768431709873592,5.808014093819869e-11
-0.49275,0.3770022485698347,6.008142171538794e-11
-0.49271875,0.3769227097785969,6.214245554542591e-11
-0.4926875,0.3769227097785969,6.42647523969307e-11
-0.49265625,0.3768431709873592,6.644985346431711e-11
-0.492625,0.3767636321961215,6.869933166915647e-11
-0.49259375,0.3766840934048837,7.101479216721725e-11
-0.4925625,0.3766840934048837,7.339787286122183e-11
-0.49253125,0.376604554613646,7.585024491935579e-11
-0.4925,0.3765250158224083,7.837361329956479e-11
-0.49246875,0.376604554613646,8.096971727967593e-11
-0.4924375,0.3765250158224083,8.364033099337821e-11
-0.49240625,0.3765250158224083,8.638726397209873e-11
-0.492375,0.376604554613646,8.921236169281016e-11
-0.49234375,0.376604554613646,9.211750613180527e-11
-0.4923125,0.3765250158224083,9.510461632447443e-11
-0.49228125,0.3765250158224083,9.817564893112163e-11
-0.49225,0.376604554613646,1.013325988088552e-10
-0.49221875,0.3766840934048837,1.045774995895883e-10
-0.4921875,0.3764454770311705,1.079124242641862e-10
-0.49215625,0.3762863994486951,1.113394857727945e-10
-0.492125,0.3762863994486951,1.148608376013849e-10
-0.49209375,0.3762068606574574,1.184786743845553e-10
-0.4920625,0.3762863994486951,1.221952325146169e-10
-0.49203125,0.3762863994486951,1.260127907570076e-10
-0.492,0.3762068606574574,1.29933670872065e-10
-0.49196875,0.3762863994486951,1.339602382431952e-10
-0.4919375,0.3762863994486951,1.380949025114734e-10
-0.49190625,0.3762068606574574,1.423401182167119e-10
-0.491875,0.3762068606574574,1.466983854450304e-10
-0.49184375,0.3762068606574574,1.511722504829655e-10
-0.4918125,0.3762068606574574,1.557643064781529e-10
-0.49178125,0.3761273218662197,1.604771941066208e-10
-0.49175,0.3762068606574574,1.653136022467266e-10
-0.49171875,0.3761273218662197,1.70276268659775e-10
-0.4916875,0.3760477830749819,1.753679806773523e-10
-0.49165625,0.3758887054925065,1.805915758954111e-10
-0.491625,0.3758887054925065,1.859499428751428e-10
-0.49159375,0.3758091667012687,1.914460218506716e-10
-0.4915625,0.3758091667012687,1.97082805443606e-10
-0.49153125,0.3756500891187933,2.028633393844838e-10
-0.4915,0.3758091667012687,2.087907232411441e-10
-0.49146875,0.3758091667012687,2.148681111540638e-10
-0.4914375,0.3756500891187933,2.210987125786917e-10
-0.49140625,0.3755705503275556,2.274857930348167e-10
-0.491375,0.3755705503275556,2.340326748630049e-10
-0.49134375,0.3755705503275556,2.40742737988141e-10
-0.4913125,0.375729627910031,2.476194206901076e-10
-0.49128125,0.3756500891187933,2.546662203816402e-10
-0.49125,0.3755705503275556,2.618866943933897e-10
-0.49121875,0.3755705503275556,2.692844607662299e-10
-0.4911875,0.3754910115363179,2.768631990508434e-10
-0.49115625,0.3756500891187933,2.84626651114622e-10
-0.491125,0.3756500891187933,2.925786219559144e-10
-0.49109375,0.3756500891187933,3.007229805256579e-10
-0.4910625,0.3755705503275556,3.090636605564291e-10
-0.49103125,0.3755705503275556,3.17604661398946e-10
-0.491,0.3755705503275556,3.263500488660577e-10
-0.49096875,0.3755705503275556,3.353039560842571e-10
-0.4909375,0.3754910115363179,3.444705843527488e-10
-0.49090625,0.3754910115363179,3.538542040101093e-10
-0.490875,0.3754910115363179,3.634591553085713e-10
-0.49084375,0.3754114727450801,3.732898492959687e-10
-0.4908125,0.3754910115363179,3.833507687053761e-10
-0.49078125,0.3754910115363179,3.936464688524755e-10
-0.49075,0.3754114727450801,4.041815785406866e-10
-0.49071875,0.3754114727450801,4.149608009740936e-10
-0.4906875,0.3756500891187933,4.259889146782033e-10
-0.49065625,0.3755705503275556,4.372707744285676e-10
-0.490625,0.3755705503275556,4.488113121873055e-10
-0.49059375,0.3755705503275556,4.606155380475575e-10
-0.4905625,0.3754910115363179,4.726885411859072e-10
-0.49053125,0.3754910115363179,4.85035490822804e-10
-0.4905,0.3755705503275556,4.976616371910183e-10
-0.49046875,0.3755705503275556,5.10572312512167e-10
-0.4904375,0.3754910115363179,5.237729319813402e-10
-0.49040625,0.3754910115363179,5.37268994759861e-10
-0.490375,0.3755705503275556,5.510660849762172e-10
-0.49034375,0.3755705503275556,5.651698727351925e-10
-0.4903125,0.3754114727450801,5.795861151352358e-10
-0.49028125,0.3755705503275556,5.943206572940966e-10
-0.49025,0.3755705503275556,6.093794333827645e-10
-0.49021875,0.3755705503275556,6.247684676677429e-10
-0.4901875,0.3754910115363179,6.404938755616918e-10
-0.49015625,0.3754910115363179,6.56561864682471e-10
-0.490125,0.3755705503275556,6.729787359206188e-10
-0.49009375,0.3754114727450801,6.89750884515296e-10
-0.4900625,0.3754910115363179,7.068848011387323e-10
-0.49003125,0.3754910115363179,7.243870729892023e-10
-0.49,0.3755705503275556,7.422643848925709e-10
-0.48996875,0.3754910115363179,7.605235204124318e-10
-0.4899375,0.3754910115363179,7.791713629688815e-10
-0.48990625,0.3754114727450801,7.982148969659507e-10
-0.489875,0.3755705503275556,8.176612089277359e-10
-0.48984375,0.375729627910031,8.375174886432548e-10
-0.4898125,0.375729627910031,8.57791030320064e-10
-0.48978125,0.3755705503275556,8.784892337466653e-10
-0.48975,0.3756500891187933,8.996196054637389e-10
-0.48971875,0.3755705503275556,9.211897599442304e-10
-0.4896875,0.3755705503275556,9.432074207823257e-10
-0.48965625,0.3755705503275556,9.656804218913457e-10
-0.489625,0.3754910115363179,9.886167087105903e-10
-0.48959375,0.3755705503275556,1.012024339421168e-09
-0.4895625,0.3754910115363179,1.035911486170836e-09
-0.48953125,0.3756500891187933,1.060286436307888e-09
-0.4895,0.3758091667012687,1.08515759362412e-09
-0.48946875,0.3756500891187933,1.1105334796069e-09
-0.4894375,0.3755705503275556,1.136422734700379e-09
-0.48940625,0.375729627910031,1.162834119575877e-09
-0.489375,0.375729627910031,1.189776516411463e-09
-0.48934375,0.3758091667012687,1.217258930180768e-09
-0.4893125,0.375729627910031,1.245290489951068e-09
-0.48928125,0.3758091667012687,1.273880450190653e-09
-0.48925,0.3758091667012687,1.303038192085523e-09
-0.48921875,0.3758887054925065,1.332773224865438e-09
-0.4891875,0.3759682442837442,1.363095187139359e-09
-0.48915625,0.3758091667012687,1.394013848240291e-09
-0.489125,0.3759682442837442,1.425539109579588e-09
-0.48909375,0.3758887054925065,1.457681006010721e-09
-0.4890625,0.3759682442837442,1.490449707202559e-09
-0.48903125,0.3758887054925065,1.523855519022184e-09
-0.489,0.3758887054925065,1.557908884927267e-09
-0.48896875,0.3758091667012687,1.592620387368052e-09
-0.4889375,0.3759682442837442,1.628000749198948e-09
-0.48890625,0.3758887054925065,1.664060835099786e-09
-0.488875,0.3758887054925065,1.700811653006763e-09
-0.48884375,0.3758887054925065,1.738264355553085e-09
-0.4888125,0.3758887054925065,1.77643024151937e-09
-0.48878125,0.3758091667012687,1.815320757293809e-09
-0.48875,0.3758887054925065,1.854947498342131e-09
-0.48871875,0.3759682442837442,1.895322210687405e-09
-0.4886875,0.3761273218662197,1.936456792399685e-09
-0.48865625,0.3759682442837442,1.978363295095561e-09
-0.488625,0.3760477830749819,2.021053925447604e-09
-0.48859375,0.3762068606574574,2.064541046703775e-09
-0.4885625,0.3762068606574574,2.108837180216789e-09
-0.48853125,0.3761273218662197,2.153955006983499e-09
-0.4885,0.3762068606574574,2.199907369194282e-09
-0.48846875,0.3761273218662197,2.246707271792511e-09
-0.4884375,0.3760477830749819,2.294367884044085e-09
-0.48840625,0.3759682442837442,2.342902541117093e-09
-0.488375,0.3759682442837442,2.392324745671601e-09
