Task5_50Hz.csv

#Digilent WaveForms Oscilloscope Acquisition
#Device Name: Discovery3
#Serial Number: SN:210415BD63A1
#Date Time: 2026-09-24 11:13:16.638.180.030
#Sample rate: 32000Hz
#Samples: 32000
#Trigger: Source: Channel 1 Type: Edge Condition: Rising Level: 0 V Hyst.: Auto HoldOff: 0 s
#Channel 1: Range: 500 mV/div Offset: 0 V Sample Mode: Average
#Math 1: Input: C1 Reference: Internal Frequency: 50 Hz Phase: 90 ° Filter: IIR Butterworth 8  Low-Pass CutOff: 5 Hz Output: Amplitude

#Wavegen Channel 1: Running
#Mode: Simple
#Type: Sine
#Frequency: 50 Hz
#Period: 20 ms
#Amplitude: 50 mV
#Offset: 0 V
#Symmetry: 50 %
#Phase: 0 °

Time (s),Channel 1 (V),Math 1 (V)
-0.5,0.4359404928769898,1.464260153403417e-27
-0.49996875,0.4360200316682276,2.48847201987321e-26
-0.4999375,0.4359404928769898,2.121793083948102e-25
-0.49990625,0.4359404928769898,1.218477037911839e-24
-0.499875,0.4359404928769898,5.33544631253378e-24
-0.49984375,0.4358609540857521,1.910668633306313e-23
-0.4998125,0.4358609540857521,5.855340665946107e-23
-0.49978125,0.4360200316682276,1.58496177310145e-22
-0.49975,0.4359404928769898,3.878256283013606e-22
-0.49971875,0.4360200316682276,8.729401215004245e-22
-0.4996875,0.4359404928769898,1.831931579781373e-21
-0.49965625,0.4360200316682276,3.622461815479786e-21
-0.499625,0.4360200316682276,6.806630843088605e-21
-0.49959375,0.4359404928769898,1.223649579074554e-20
-0.4995625,0.4360995704594653,2.116425414234979e-20
-0.49953125,0.4360200316682276,3.538145814652779e-20
-0.4995,0.4360995704594653,5.739197831931928e-20
-0.49946875,0.4359404928769898,9.062378303483275e-20
-0.4994375,0.4360200316682276,1.396849482173571e-19
-0.49940625,0.436179109250703,2.10669656093973e-19
-0.499375,0.436179109250703,3.115202848301812e-19
-0.49934375,0.4360995704594653,4.524520316534403e-19
-0.4993125,0.4360995704594653,6.464468507641561e-19
-0.49928125,0.4360995704594653,9.098238239326021e-19
-0.49925,0.4359404928769898,1.262893416186922e-18
-0.49921875,0.4360995704594653,1.730703401408985e-18
-0.4991875,0.4359404928769898,2.343884572939593e-18
-0.49915625,0.4360200316682276,3.139604682411186e-18
-0.499125,0.4360200316682276,4.16263937596126e-18
-0.49909375,0.4360995704594653,5.466569220747731e-18
-0.4990625,0.436179109250703,7.115112236301537e-18
-0.49903125,0.4363381868331785,9.183601664705031e-18
-0.499,0.435622337712039,1.17606190308563e-17
-0.49896875,0.435622337712039,1.494979285915482e-17
-0.4989375,0.4357814152945144,1.887177372582129e-17
-0.49890625,0.4357018765032766,2.366639663674291e-17
-0.498875,0.4357814152945144,2.949504202920222e-17
-0.49884375,0.4357814152945144,3.654320700208499e-17
-0.4988125,0.4357814152945144,4.502329868316145e-17
-0.49878125,0.4357814152945144,5.517766194379186e-17
-0.49875,0.435622337712039,6.72818539709169e-17
-0.49871875,0.4357814152945144,8.164817850344477e-17
-0.4986875,0.4357814152945144,9.862949283512419e-17
-0.49865625,0.435622337712039,1.18623300978684e-16
-0.498625,0.4355427989208012,1.420761466764188e-16
-0.49859375,0.4358609540857521,1.694883202305062e-16
-0.4985625,0.4358609540857521,2.014188934121493e-16
-0.49853125,0.4357814152945144,2.384910969921501e-16
-0.4985,0.4357814152945144,2.813980557167195e-16
-0.49846875,0.4357814152945144,3.309088958312292e-16
-0.4984375,0.435622337712039,3.87875240531211e-16
-0.49840625,0.4358609540857521,4.532381089942068e-16
-0.498375,0.4358609540857521,5.280352349180506e-16
-0.49834375,0.4357814152945144,6.134088207607951e-16
-0.4983125,0.4357814152945144,7.106137441447924e-16
-0.49828125,0.4357814152945144,8.210262331524009e-16
-0.49825,0.4358609540857521,9.461530275034219e-16
-0.49821875,0.4357018765032766,1.08764104286469e-15
-0.4981875,0.4358609540857521,1.247287555800194e-15
-0.49815625,0.4358609540857521,1.427050927125747e-15
-0.498125,0.4357814152945144,1.629061881685415e-15
-0.49809375,0.4357814152945144,1.855635362817813e-15
-0.4980625,0.4358609540857521,2.109282980028741e-15
-0.49803125,0.4358609540857521,2.392726068632683e-15
-0.498,0.4360200316682276,2.708909380369257e-15
-0.49796875,0.4359404928769898,3.061015424241899e-15
-0.4979375,0.4359404928769898,3.452479477064827e-15
-0.49790625,0.4359404928769898,3.887005283440701e-15
-0.497875,0.4358609540857521,4.368581465125325e-15
-0.49784375,0.4357814152945144,4.901498659967185e-15
-0.4978125,0.4359404928769898,5.490367410838735e-15
-0.49778125,0.4358609540857521,6.140136825202902e-15
-0.49775,0.4360200316682276,6.856114026182545e-15
-0.49771875,0.4358609540857521,7.643984416222289e-15
-0.4976875,0.4358609540857521,8.509832774651539e-15
-0.49765625,0.4360200316682276,9.460165210674309e-15
-0.497625,0.4357814152945144,1.050193199352593e-14
-0.49759375,0.4359404928769898,1.164255128174856e-14
-0.4975625,0.4359404928769898,1.288993377374711e-14
-0.49753125,0.4358609540857521,1.425250830199381e-14
-0.4975,0.4359404928769898,1.573924839345477e-14
-0.49746875,0.4357814152945144,1.73596998190134e-14
-0.4974375,0.4359404928769898,1.91240091548655e-14
-0.49740625,0.4359404928769898,2.104295337905816e-14
-0.497375,0.4358609540857521,2.312797052653866e-14
-0.49734375,0.4359404928769898,2.539119142627239e-14
-0.4973125,0.4358609540857521,2.784547254417791e-14
-0.49728125,0.4358609540857521,3.050442995581491e-14
-0.49725,0.4357814152945144,3.338247447294518e-14
-0.49721875,0.4358609540857521,3.649484794826871e-14
-0.4971875,0.4360200316682276,3.985766078281729e-14
-0.49715625,0.4359404928769898,4.348793066066415e-14
-0.497125,0.4360200316682276,4.740362253578383e-14
-0.49709375,0.4358609540857521,5.162368989606718e-14
-0.4970625,0.4359404928769898,5.616811732966702e-14
-0.49703125,0.4359404928769898,6.105796441901636e-14
-0.497,0.4360200316682276,6.631541098802481e-14
-0.49696875,0.4359404928769898,7.196380372812199e-14
-0.4969375,0.4358609540857521,7.802770422897448e-14
-0.49690625,0.4359404928769898,8.453293843986072e-14
-0.496875,0.4359404928769898,9.150664758784168e-14
-0.49684375,0.4360200316682276,9.897734057901714e-14
-0.4968125,0.4360995704594653,1.069749479093063e-13
-0.49678125,0.4359404928769898,1.155308771113382e-13
-0.49675,0.4357814152945144,1.246780697641809e-13
-0.49671875,0.4357814152945144,1.344510600927804e-13
-0.4966875,0.4357018765032766,1.448860351841198e-13
-0.49665625,0.4358609540857521,1.560208968472428e-13
-0.496625,0.4359404928769898,1.678953251444231e-13
-0.49659375,0.4358609540857521,1.805508436208911e-13
-0.4965625,0.4358609540857521,1.940308862606558e-13
-0.49653125,0.4358609540857521,2.083808661960895e-13
-0.4965,0.4358609540857521,2.236482461990646e-13
-0.49646875,0.4358609540857521,2.398826109815515e-13
-0.4964375,0.4358609540857521,2.571357413337091e-13
-0.49640625,0.4360200316682276,2.75461690127609e-13
-0.496375,0.4360200316682276,2.949168602148559e-13
-0.49634375,0.4360200316682276,3.155600842464692e-13
-0.4963125,0.4360200316682276,3.374527064435051e-13
-0.49628125,0.4360200316682276,3.606586663470021e-13
-0.49625,0.4360200316682276,3.852445845759345e-13
-0.49621875,0.4360200316682276,4.112798506219619e-13
-0.4961875,0.4360200316682276,4.38836712709858e-13
-0.49615625,0.4359404928769898,4.679903697526e-13
-0.496125,0.4359404928769898,4.988190654301885e-13
-0.49609375,0.4360200316682276,5.314041844213651e-13
-0.4960625,0.4359404928769898,5.658303508174749e-13
-0.49603125,0.4360200316682276,6.021855287478121e-13
-0.496,0.4359404928769898,6.405611252458664e-13
-0.49596875,0.4359404928769898,6.810520953859709e-13
-0.4959375,0.4360200316682276,7.237570497199272e-13
-0.49590625,0.4360200316682276,7.687783640432582e-13
-0.495875,0.4358609540857521,8.162222915208181e-13
-0.49584375,0.4358609540857521,8.661990772015462e-13
-0.4958125,0.4357814152945144,9.188230749522346e-13
-0.49578125,0.4359404928769898,9.742128668402306e-13
-0.49575,0.4360200316682276,1.032491384995064e-12
-0.49571875,0.4358609540857521,1.093786035979054e-12
-0.4956875,0.4359404928769898,1.15822882769699e-12
-0.49565625,0.4357814152945144,1.225956498875062e-12
-0.495625,0.4357814152945144,1.297110651139242e-12
-0.49559375,0.4358609540857521,1.371837883723385e-12
-0.4955625,0.4359404928769898,1.450289930837361e-12
-0.49553125,0.4360200316682276,1.532623801725568e-12
-0.4955,0.4359404928769898,1.61900192344623e-12
-0.49546875,0.4358609540857521,1.709592286401905e-12
-0.4954375,0.4360200316682276,1.804568592651697e-12
-0.49540625,0.4359404928769898,1.904110407035653e-12
-0.495375,0.4358609540857521,2.008403311141918e-12
-0.49534375,0.4358609540857521,2.117639060147183e-12
-0.4953125,0.4359404928769898,2.232015742561061e-12
-0.49528125,0.4359404928769898,2.351737942904977e-12
-0.49525,0.4357814152945144,2.477016907356243e-12
-0.49521875,0.4358609540857521,2.608070712387973e-12
-0.4951875,0.4358609540857521,2.745124436435518e-12
-0.49515625,0.4360200316682276,2.888410334620114e-12
-0.495125,0.4358609540857521,3.038168016560463e-12
-0.49509375,0.4358609540857521,3.194644627302957e-12
-0.4950625,0.4359404928769898,3.358095031401271e-12
-0.49503125,0.4359404928769898,3.52878200017606e-12
-0.495,0.4359404928769898,3.706976402185493e-12
-0.49496875,0.4360200316682276,3.892957396937349e-12
-0.4949375,0.4360200316682276,4.08701263187342e-12
-0.49490625,0.4358609540857521,4.289438442656951e-12
-0.494875,0.4357814152945144,4.500540056793797e-12
-0.49484375,0.4359404928769898,4.720631800618072e-12
-0.4948125,0.4357814152945144,4.950037309672929e-12
-0.49478125,0.4358609540857521,5.189089742517194e-12
-0.49475,0.4357018765032766,5.438131997988486e-12
-0.49471875,0.4357018765032766,5.697516935953515e-12
-0.4946875,0.4358609540857521,5.967607601576136e-12
-0.49465625,0.4359404928769898,6.248777453133798e-12
-0.494625,0.4358609540857521,6.541410593412945e-12
-0.49459375,0.4357814152945144,6.845902004713921e-12
-0.4945625,0.4359404928769898,7.162657787495903e-12
-0.49453125,0.4358609540857521,7.492095402692327e-12
-0.4945,0.4358609540857521,7.834643917727273e-12
-0.49446875,0.4357018765032766,8.190744256263208e-12
-0.4944375,0.4358609540857521,8.560849451710454e-12
-0.49440625,0.4357018765032766,8.945424904528721e-12
-0.494375,0.4357814152945144,9.344948643350964e-12
-0.49434375,0.4357814152945144,9.759911589959817e-12
-0.4943125,0.4357018765032766,1.019081782814679e-11
-0.49428125,0.4357814152945144,1.063818487648433e-11
-0.49425,0.4357018765032766,1.110254396504088e-11
-0.49421875,0.4357018765032766,1.158444031606889e-11
-0.4941875,0.4357814152945144,1.208443342869581e-11
-0.49415625,0.4357018765032766,1.260309736764792e-11
-0.494125,0.4357814152945144,1.314102105603683e-11
-0.49409375,0.435622337712039,1.369880857223851e-11
-0.4940625,0.4357018765032766,1.427707945089441e-11
-0.49403125,0.4357018765032766,1.487646898806446e-11
-0.494,0.4357018765032766,1.549762855056136e-11
-0.49396875,0.4357018765032766,1.614122588949583e-11
-0.4939375,0.4355427989208012,1.680794545806205e-11
-0.49390625,0.435622337712039,1.749848873359276e-11
-0.493875,0.435622337712039,1.821357454391315e-11
-0.49384375,0.435622337712039,1.89539393980229e-11
-0.4938125,0.435622337712039,1.972033782113523e-11
-0.49378125,0.435622337712039,2.051354269410208e-11
-0.49375,0.4354632601295635,2.133434559725439e-11
-0.49371875,0.4355427989208012,2.218355715868614e-11
-0.4936875,0.4353837213383258,2.306200740701094e-11
-0.49365625,0.4355427989208012,2.397054612861991e-11
-0.493625,0.4354632601295635,2.491004322946918e-11
-0.49359375,0.435304182547088,2.588138910142556e-11
-0.4935625,0.4353837213383258,2.688549499319874e-11
-0.49353125,0.4353837213383258,2.792329338588814e-11
-0.4935,0.435304182547088,2.899573837317254e-11
-0.49346875,0.4353837213383258,3.01038060461706e-11
-0.4934375,0.4353837213383258,3.12484948830001e-11
-0.49340625,0.435304182547088,3.24308261430636e-11
-0.493375,0.435304182547088,3.365184426608836e-11
-0.49334375,0.435304182547088,3.491261727594802e-11
-0.4933125,0.435304182547088,3.621423718929329e-11
-0.49328125,0.4353837213383258,3.755782042901931e-11
-0.49325,0.4353837213383258,3.894450824259655e-11
-0.49321875,0.435304182547088,4.037546712529254e-11
-0.4931875,0.4352246437558503,4.185188924831125e-11
-0.49315625,0.4352246437558503,4.337499289187693e-11
-0.493125,0.4350655661733748,4.494602288328926e-11
-0.49309375,0.4352246437558503,4.656625103997608e-11
-0.4930625,0.4351451049646126,4.823697661757047e-11
-0.49303125,0.4351451049646126,4.995952676303803e-11
-0.493,0.4351451049646126,5.173525697288093e-11
-0.49296875,0.4351451049646126,5.356555155644457e-11
-0.4929375,0.4352246437558503,5.545182410435249e-11
-0.49290625,0.4351451049646126,5.73955179620957e-11
-0.492875,0.4351451049646126,5.939810670880154e-11
-0.49284375,0.4351451049646126,6.146109464120791e-11
-0.4928125,0.4350655661733748,6.358601726286786e-11
-0.49278125,0.4351451049646126,6.577444177860972e-11
-0.49275,0.4351451049646126,6.802796759427795e-11
-0.49271875,0.4351451049646126,7.034822682177923e-11
-0.4926875,0.4351451049646126,7.273688478945872e-11
-0.49265625,0.4352246437558503,7.519564055783073e-11
-0.492625,0.4351451049646126,7.772622744068848e-11
-0.49259375,0.435304182547088,8.033041353161692e-11
-0.4925625,0.435304182547088,8.301000223593258e-11
-0.49253125,0.4352246437558503,8.576683280807454e-11
-0.4925,0.4352246437558503,8.860278089446993e-11
-0.49246875,0.4352246437558503,9.151975908189794e-11
-0.4924375,0.4351451049646126,9.451971745137504e-11
-0.49240625,0.4350655661733748,9.760464413758526e-11
-0.492375,0.4351451049646126,1.007765658938781e-10
-0.49234375,0.4351451049646126,1.04037548662857e-10
-0.4923125,0.4352246437558503,1.073896981525813e-10
-0.49228125,0.435304182547088,1.10835160418404e-10
-0.49225,0.435304182547088,1.143761224504671e-10
-0.49221875,0.435304182547088,1.180148127668778e-10
-0.4921875,0.4352246437558503,1.217535020125863e-10
-0.49215625,0.4352246437558503,1.255945035639882e-10
-0.492125,0.4351451049646126,1.295401741392716e-10
-0.49209375,0.4351451049646126,1.335929144145314e-10
-0.4920625,0.4352246437558503,1.377551696456723e-10
-0.49203125,0.4352246437558503,1.420294302961194e-10
-0.492,0.435304182547088,1.464182326703606e-10
-0.49196875,0.4352246437558503,1.509241595533378e-10
-0.4919375,0.4350655661733748,1.555498408557103e-10
-0.49190625,0.435304182547088,1.602979542650089e-10
-0.491875,0.4351451049646126,1.651712259027011e-10
-0.49184375,0.4351451049646126,1.701724309871879e-10
-0.4918125,0.4351451049646126,1.753043945027507e-10
-0.49178125,0.435304182547088,1.805699918744692e-10
-0.49175,0.4353837213383258,1.859721496491278e-10
-0.49171875,0.4353837213383258,1.915138461821312e-10
-0.4916875,0.4353837213383258,1.971981123304468e-10
-0.49165625,0.4353837213383258,2.030280321515935e-10
-0.491625,0.435304182547088,2.09006743608694e-10
-0.49159375,0.4352246437558503,2.151374392816108e-10
-0.4915625,0.4353837213383258,2.214233670841817e-10
-0.49153125,0.4354632601295635,2.27867830987574e-10
-0.4915,0.4354632601295635,2.344741917497749e-10
-0.49146875,0.4354632601295635,2.412458676512347e-10
-0.4914375,0.4355427989208012,2.481863352366802e-10
-0.49140625,0.4353837213383258,2.552991300631167e-10
-0.491375,0.435304182547088,2.62587847454032e-10
-0.49134375,0.4353837213383258,2.700561432598229e-10
-0.4913125,0.4353837213383258,2.777077346244573e-10
-0.49128125,0.4353837213383258,2.855464007583895e-10
-0.49125,0.4353837213383258,2.935759837177442e-10
-0.49121875,0.4353837213383258,3.018003891897847e-10
-0.4911875,0.4354632601295635,3.102235872846806e-10
-0.49115625,0.4354632601295635,3.188496133335914e-10
-0.491125,0.4353837213383258,3.276825686930779e-10
-0.49109375,0.4353837213383258,3.3672662155586e-10
-0.4910625,0.435304182547088,3.45986007767932e-10
-0.49103125,0.4353837213383258,3.554650316520522e-10
-0.491,0.435304182547088,3.651680668376186e-10
-0.49096875,0.4354632601295635,3.750995570969465e-10
-0.4909375,0.4354632601295635,3.852640171879606e-10
-0.49090625,0.4355427989208012,3.956660337033136e-10
-0.490875,0.4353837213383258,4.063102659259478e-10
-0.49084375,0.435304182547088,4.172014466911087e-10
-0.4908125,0.4352246437558503,4.283443832548264e-10
-0.49078125,0.4353837213383258,4.397439581688741e-10
-0.49075,0.4353837213383258,4.514051301622197e-10
-0.49071875,0.4353837213383258,4.633329350289782e-10
-0.4906875,0.4355427989208012,4.755324865228795e-10
-0.49065625,0.4355427989208012,4.880089772582619e-10
-0.490625,0.4355427989208012,5.007676796176035e-10
-0.49059375,0.435622337712039,5.138139466655995e-10
-0.4905625,0.435622337712039,5.27153213069801e-10
-0.49053125,0.4355427989208012,5.407909960278201e-10
-0.4905,0.435622337712039,5.547328962011172e-10
-0.49046875,0.4355427989208012,5.689845986553758e-10
-0.4904375,0.4355427989208012,5.835518738074754e-10
-0.49040625,0.435622337712039,5.984405783790768e-10
-0.490375,0.435622337712039,6.136566563568203e-10
-0.49034375,0.4357018765032766,6.292061399591548e-10
-0.4903125,0.4355427989208012,6.450951506097994e-10
-0.49028125,0.4355427989208012,6.613298999178502e-10
-0.49025,0.4357018765032766,6.779166906645405e-10
-0.49021875,0.4355427989208012,6.948619177966575e-10
-0.4901875,0.435622337712039,7.121720694266318e-10
-0.49015625,0.435622337712039,7.298537278392979e-10
-0.490125,0.4357018765032766,7.479135705053404e-10
-0.49009375,0.4357018765032766,7.663583711014277e-10
-0.4900625,0.435622337712039,7.851950005370431e-10
-0.49003125,0.435622337712039,8.044304279880193e-10
-0.49,0.435622337712039,8.240717219367799e-10
-0.48996875,0.435622337712039,8.441260512192981e-10
-0.4899375,0.4355427989208012,8.646006860787747e-10
-0.48990625,0.4357018765032766,8.855029992260427e-10
-0.489875,0.4357814152945144,9.068404669067034e-10
-0.48984375,0.4357814152945144,9.286206699749988e-10
-0.4898125,0.4357018765032766,9.508512949744246e-10
-0.48978125,0.435622337712039,9.735401352250897e-10
-0.48975,0.4355427989208012,9.966950919178236e-10
-0.48971875,0.4355427989208012,1.02032417521504e-09
-0.4896875,0.4357018765032766,1.044435505358354e-09
-0.48965625,0.4358609540857521,1.069037313782962e-09
-0.489625,0.435622337712039,1.09413794423879e-09
-0.48959375,0.4355427989208012,1.119745853918397e-09
-0.4895625,0.435622337712039,1.145869614591659e-09
-0.48953125,0.435622337712039,1.172517913747221e-09
-0.4895,0.4357018765032766,1.199699555740719e-09
-0.48946875,0.4357018765032766,1.227423462949784e-09
-0.4894375,0.4357018765032766,1.25569867693582e-09
-0.48940625,0.4357814152945144,1.284534359612559e-09
-0.489375,0.4357018765032766,1.3139397944214e-09
-0.48934375,0.435622337712039,1.343924387513525e-09
-0.4893125,0.4357814152945144,1.374497668938799e-09
-0.48928125,0.4357018765032766,1.405669293841447e-09
-0.48925,0.435622337712039,1.437449043662518e-09
-0.48921875,0.4357018765032766,1.46984682734913e-09
-0.4891875,0.4357814152945144,1.502872682570485e-09
-0.48915625,0.4358609540857521,1.536536776940684e-09
-0.489125,0.4357814152945144,1.570849409248303e-09
-0.48909375,0.4357814152945144,1.605821010692754e-09
-0.4890625,0.4357814152945144,1.641462146127425e-09
-0.48903125,0.4359404928769898,1.67778351530959e-09
-0.489,0.4358609540857521,1.714795954157094e-09
-0.48896875,0.4360200316682276,1.752510436011808e-09
-0.4889375,0.4360200316682276,1.790938072909851e-09
-0.48890625,0.4360200316682276,1.830090116858576e-09
-0.488875,0.4360200316682276,1.869977961120326e-09
-0.48884375,0.4360200316682276,1.910613141502932e-09
-0.4888125,0.4360995704594653,1.952007337656988e-09
-0.48878125,0.4360995704594653,1.994172374379857e-09
-0.48875,0.4360995704594653,2.037120222926433e-09
-0.48871875,0.4360200316682276,2.080863002326652e-09
-0.4886875,0.4360995704594653,2.125412980709727e-09
-0.48865625,0.436179109250703,2.170782576635131e-09
-0.488625,0.4360995704594653,2.216984360430296e-09
-0.48859375,0.4360995704594653,2.264031055535043e-09
-0.4885625,0.436179109250703,2.311935539852726e-09
-0.48853125,0.4360995704594653,2.360710847108088e-09
-0.4885,0.4360995704594653,2.410370168211823e-09
-0.48846875,0.4362586480419408,2.460926852631832e-09
-0.4884375,0.4363381868331785,2.512394409771182e-09
-0.48840625,0.436179109250703,2.564786510352736e-09
-0.488375,0.436179109250703,2.618116987810477e-09
