Task5_120Hz_200mV_45+5.csv

#Digilent WaveForms Oscilloscope Acquisition
#Device Name: Discovery3
#Serial Number: SN:210415BD63A1
#Date Time: 2026-09-24 11:18:40.940.334.160
#Sample rate: 32000Hz
#Samples: 32000
#Trigger: Source: Channel 1 Type: Edge Condition: Rising Level: 0 V Hyst.: Auto HoldOff: 0 s
#Channel 1: Range: 500 mV/div Offset: 0 V Sample Mode: Average
#Math 1: Input: C1 Reference: Internal Frequency: 20 Hz Phase: 90 ° Filter: IIR Butterworth 8  Low-Pass CutOff: 5 Hz Output: Amplitude

#Wavegen Channel 1: Running
#Mode: Simple
#Type: Sine
#Frequency: 20 Hz
#Period: 50 ms
#Amplitude: 200 mV
#Offset: 0 V
#Symmetry: 50 %
#Phase: 0 °

Time (s),Channel 1 (V),Math 1 (V)
-0.5,0.3888535284642559,1.306730975704469e-27
-0.49996875,0.3887739896730181,2.22075738274406e-26
-0.4999375,0.3887739896730181,1.893523840037647e-25
-0.49990625,0.3887739896730181,1.087386075545255e-24
-0.499875,0.3888535284642559,4.761408867339255e-24
-0.49984375,0.3886944508817804,1.705094284303562e-23
-0.4998125,0.3886944508817804,5.225330999439174e-23
-0.49978125,0.3887739896730181,1.414423909760244e-22
-0.49975,0.3886944508817804,3.46096457528083e-22
-0.49971875,0.3887739896730181,7.790148394257308e-22
-0.4996875,0.3886944508817804,1.634827584176377e-21
-0.49965625,0.3887739896730181,3.232724982290277e-21
-0.499625,0.388535373299305,6.074354855471747e-21
-0.49959375,0.3886149120905427,1.092015483411623e-20
-0.4995625,0.3887739896730181,1.888770448430689e-20
-0.49953125,0.388535373299305,3.157599809617883e-20
-0.4995,0.3886944508817804,5.121985323772551e-20
-0.49946875,0.3886944508817804,8.087898282888327e-20
-0.4994375,0.3887739896730181,1.246665695022327e-19
-0.49940625,0.3886149120905427,1.880224903766596e-19
-0.499375,0.388535373299305,2.780366480653289e-19
-0.49934375,0.3884558345080673,4.038281697663376e-19
-0.4993125,0.3886944508817804,5.769865406474155e-19
-0.49928125,0.3886149120905427,8.120810404365966e-19
-0.49925,0.3886149120905427,1.127245153168619e-18
-0.49921875,0.3884558345080673,1.544842919412705e-18
-0.4991875,0.3884558345080673,2.092224498020552e-18
-0.49915625,0.388535373299305,2.802578500483593e-18
-0.499125,0.3879786017606409,3.715888955385467e-18
-0.49909375,0.3878195241781655,4.880005053199751e-18
-0.4990625,0.3878990629694031,6.35183211283103e-18
-0.49903125,0.3878195241781655,8.198652500827526e-18
-0.499,0.3878990629694031,1.049958552208936e-17
-0.49896875,0.3878195241781655,1.334719558714148e-17
-0.4989375,0.3877399853869277,1.684925824562658e-17
-0.49890625,0.3877399853869277,2.113069395859915e-17
-0.498875,0.3877399853869277,2.633567976347449e-17
-0.49884375,0.3877399853869277,3.262994926512495e-17
-0.4988125,0.3878195241781655,4.020329166464244e-17
-0.49878125,0.3877399853869277,4.927226081371295e-17
-0.49875,0.3878990629694031,6.008310555737319e-17
-0.49871875,0.3878195241781655,7.291493290113683e-17
-0.4986875,0.3877399853869277,8.808311581008245e-17
-0.49865625,0.3877399853869277,1.059429577174844e-16
-0.498625,0.38766044659569,1.26893626088933e-16
-0.49859375,0.3875809078044523,1.513823676546389e-16
-0.4985625,0.38766044659569,1.799090181877477e-16
-0.49853125,0.38766044659569,2.130308199700014e-16
-0.4985,0.3875809078044523,2.51367560347971e-16
-0.49846875,0.3875809078044523,2.956070450433551e-16
-0.4984375,0.3875013690132145,3.465109201394988e-16
-0.49840625,0.38766044659569,4.049208569233565e-16
-0.498375,0.3875013690132145,4.717651140176038e-16
-0.49834375,0.3875809078044523,5.480654914914998e-16
-0.4983125,0.3875809078044523,6.349446918914006e-16
-0.49828125,0.38766044659569,7.336341033825251e-16
-0.49825,0.38766044659569,8.454820204426712e-16
-0.49821875,0.3875013690132145,9.719623177961154e-16
-0.4981875,0.3875013690132145,1.114683593521858e-15
-0.49815625,0.3875809078044523,1.275398797514751e-15
-0.498125,0.3874218302219768,1.456015361720832e-15
-0.49809375,0.3874218302219768,1.658605848809408e-15
-0.4980625,0.3873422914307391,1.885419136184083e-15
-0.49803125,0.3873422914307391,2.138892152472949e-15
-0.498,0.3873422914307391,2.421662183874662e-15
-0.49796875,0.3872627526395013,2.736579767971902e-15
-0.4979375,0.3874218302219768,3.08672219285703e-15
-0.49790625,0.3874218302219768,3.475407619646348e-15
-0.497875,0.3873422914307391,3.906209846689477e-15
-0.49784375,0.3872627526395013,4.382973734008859e-15
-0.4978125,0.3873422914307391,4.909831306731349e-15
-0.49778125,0.3872627526395013,5.491218556499311e-15
-0.49775,0.3874218302219768,6.131892960072532e-15
-0.49771875,0.3872627526395013,6.836951734554595e-15
-0.4976875,0.3871832138482636,7.611850848898198e-15
-0.49765625,0.3872627526395013,8.462424811563068e-15
-0.497625,0.3872627526395013,9.394907254417885e-15
-0.49759375,0.3873422914307391,1.041595233319362e-14
-0.4975625,0.3872627526395013,1.153265696501043e-14
-0.49753125,0.3870241362657882,1.275258392371319e-14
-0.4975,0.3871832138482636,1.408378581396234e-14
-0.49746875,0.3869445974745505,1.553482994523681e-14
-0.4974375,0.3869445974745505,1.711482412711402e-14
-0.49740625,0.3870241362657882,1.883344340739926e-14
-0.497375,0.3870241362657882,2.070095777488183e-14
-0.49734375,0.3869445974745505,2.272826084869929e-14
-0.4973125,0.3869445974745505,2.492689957649373e-14
-0.49728125,0.3869445974745505,2.730910496374455e-14
-0.49725,0.3869445974745505,2.988782385686161e-14
-0.49721875,0.3869445974745505,3.267675180282046e-14
-0.4971875,0.3867059811008373,3.569036700831759e-14
-0.49715625,0.3866264423095995,3.894396542161817e-14
-0.497125,0.386785519892075,4.245369696046242e-14
-0.49709375,0.386785519892075,4.623660290958814e-14
-0.4970625,0.3867059811008373,5.031065451161746e-14
-0.49703125,0.3868650586833127,5.469479277524455e-14
-0.497,0.3866264423095995,5.940896952484847e-14
-0.49696875,0.3866264423095995,6.447418971584053e-14
-0.4969375,0.3865469035183618,6.991255504024106e-14
-0.49690625,0.3865469035183618,7.574730884716171e-14
-0.496875,0.3867059811008373,8.200288240305207e-14
-0.49684375,0.386785519892075,8.870494251674841e-14
-0.4968125,0.3868650586833127,9.588044055454108e-14
-0.49678125,0.3868650586833127,1.03557662870654e-13
-0.49675,0.386785519892075,1.117662826787054e-13
-0.49671875,0.386785519892075,1.205374133898913e-13
-0.4966875,0.3866264423095995,1.299036634438096e-13
-0.49665625,0.3866264423095995,1.398991926580083e-13
-0.496625,0.3867059811008373,1.505597701225164e-13
-0.49659375,0.3865469035183618,1.619228336657798e-13
-0.4965625,0.386785519892075,1.740275509185948e-13
-0.49653125,0.3866264423095995,1.869148820027942e-13
-0.4965,0.3865469035183618,2.006276438716073e-13
-0.49646875,0.3867059811008373,2.152105763287755e-13
-0.4964375,0.3867059811008373,2.307104097536682e-13
-0.49640625,0.386785519892075,2.471759345598013e-13
-0.496375,0.3867059811008373,2.646580724143192e-13
-0.49634375,0.3866264423095995,2.832099492461598e-13
-0.4963125,0.3866264423095995,3.028869700707732e-13
-0.49628125,0.3867059811008373,3.237468956594235e-13
-0.49625,0.3867059811008373,3.458499210812508e-13
-0.49621875,0.3866264423095995,3.692587561464241e-13
-0.4961875,0.3867059811008373,3.940387077788667e-13
-0.49615625,0.3865469035183618,4.202577643471794e-13
-0.496125,0.3866264423095995,4.47986681982538e-13
-0.49609375,0.3867059811008373,4.772990729124846e-13
-0.4960625,0.3866264423095995,5.08271495839676e-13
-0.49603125,0.3867059811008373,5.409835483947984e-13
-0.496,0.3866264423095995,5.755179616929905e-13
-0.49596875,0.3866264423095995,6.119606970232693e-13
-0.4959375,0.3867059811008373,6.504010447005786e-13
-0.49590625,0.3868650586833127,6.909317251102249e-13
-0.495875,0.386785519892075,7.336489919745994e-13
-0.49584375,0.386785519892075,7.78652737872219e-13
-0.4958125,0.3867059811008373,8.260466020392488e-13
-0.49578125,0.386785519892075,8.759380804838061e-13
-0.49575,0.386785519892075,9.284386384434722e-13
-0.49571875,0.3869445974745505,9.836638252165653e-13
-0.4956875,0.386785519892075,1.041733391397857e-12
-0.49565625,0.3866264423095995,1.102771408549548e-12
-0.495625,0.3867059811008373,1.166906391338427e-12
-0.49559375,0.3867059811008373,1.234271422170275e-12
-0.4955625,0.386785519892075,1.305004278352688e-12
-0.49553125,0.386785519892075,1.379247561817629e-12
-0.4955,0.3868650586833127,1.457148831435112e-12
-0.49546875,0.3869445974745505,1.538860737949563e-12
-0.4954375,0.3868650586833127,1.62454116157051e-12
-0.49540625,0.3868650586833127,1.714353352249362e-12
-0.495375,0.3870241362657882,1.808466072674169e-12
-0.49534375,0.3869445974745505,1.90705374401435e-12
-0.4953125,0.3870241362657882,2.01029659444749e-12
-0.49528125,0.3870241362657882,2.118380810500429e-12
-0.49525,0.3870241362657882,2.231498691236959e-12
-0.49521875,0.3870241362657882,2.349848805324566e-12
-0.4951875,0.3870241362657882,2.473636151012733e-12
-0.49515625,0.3869445974745505,2.603072319055479e-12
-0.495125,0.3869445974745505,2.738375658610838e-12
-0.49509375,0.3869445974745505,2.879771446150152e-12
-0.4950625,0.3870241362657882,3.027492057410102e-12
-0.49503125,0.3871036750570259,3.181777142420545e-12
-0.495,0.3871036750570259,3.34287380364127e-12
-0.49496875,0.3870241362657882,3.511036777240941e-12
-0.4949375,0.3870241362657882,3.686528617551537e-12
-0.49490625,0.3870241362657882,3.86961988473173e-12
-0.494875,0.3871036750570259,4.060589335672717e-12
-0.49484375,0.3871036750570259,4.259724118180121e-12
-0.4948125,0.3871832138482636,4.467319968465657e-12
-0.49478125,0.3870241362657882,4.683681411982352e-12
-0.49475,0.3871036750570259,4.9091219676372e-12
-0.49471875,0.3871036750570259,5.143964355415227e-12
-0.4946875,0.3871036750570259,5.388540707448982e-12
-0.49465625,0.3871832138482636,5.643192782567614e-12
-0.494625,0.3873422914307391,5.908272184359754e-12
-0.49459375,0.3871832138482636,6.184140582784452e-12
-0.4945625,0.3871832138482636,6.471169939364602e-12
-0.49453125,0.3872627526395013,6.769742735997261e-12
-0.4945,0.3872627526395013,7.080252207415427e-12
-0.49446875,0.3873422914307391,7.40310257733584e-12
-0.4944375,0.3872627526395013,7.738709298327543e-12
-0.49440625,0.3871036750570259,8.087499295435886e-12
-0.494375,0.3871832138482636,8.44991121359687e-12
-0.49434375,0.3872627526395013,8.826395668876667e-12
-0.4943125,0.3872627526395013,9.217415503571335e-12
-0.49428125,0.3873422914307391,9.623446045201697e-12
-0.49425,0.3874218302219768,1.004497536943855e-11
-0.49421875,0.3873422914307391,1.048250456699334e-11
-0.4941875,0.3874218302219768,1.093654801450952e-11
-0.49415625,0.3874218302219768,1.14076336494899e-11
-0.494125,0.3874218302219768,1.189630324929538e-11
-0.49409375,0.3874218302219768,1.240311271425039e-11
-0.4940625,0.3874218302219768,1.292863235489064e-11
-0.49403125,0.3873422914307391,1.347344718338856e-11
-0.494,0.3873422914307391,1.40381572091922e-11
-0.49396875,0.3873422914307391,1.462337773891306e-11
-0.4939375,0.3874218302219768,1.522973968049869e-11
-0.49390625,0.3875013690132145,1.585788985172578e-11
-0.493875,0.38766044659569,1.650849129304942e-11
-0.49384375,0.3875809078044523,1.718222358484465e-11
-0.4938125,0.3875013690132145,1.787978316907592e-11
-0.49378125,0.38766044659569,1.860188367543068e-11
-0.49375,0.3875809078044523,1.934925625195286e-11
-0.49371875,0.3875013690132145,2.012264990021247e-11
-0.4936875,0.3875809078044523,2.092283181504737e-11
-0.49365625,0.3875013690132145,2.175058772891328e-11
-0.493625,0.38766044659569,2.26067222608783e-11
-0.49359375,0.38766044659569,2.34920592702981e-11
-0.4935625,0.38766044659569,2.44074422152081e-11
-0.49353125,0.3875809078044523,2.535373451546888e-11
-0.4935,0.3875013690132145,2.633181992070121e-11
-0.49346875,0.3875809078044523,2.734260288304705e-11
-0.4934375,0.38766044659569,2.838700893479292e-11
-0.49340625,0.38766044659569,2.946598507089212e-11
-0.493375,0.3875809078044523,3.058050013642226e-11
-0.49334375,0.3875809078044523,3.173154521901462e-11
-0.4933125,0.3875809078044523,3.292013404629183e-11
-0.49328125,0.3878195241781655,3.414730338835051e-11
-0.49325,0.3875809078044523,3.541411346532552e-11
-0.49321875,0.38766044659569,3.672164836007218e-11
-0.4931875,0.38766044659569,3.807101643600348e-11
-0.49315625,0.3875809078044523,3.946335076011872e-11
-0.493125,0.38766044659569,4.089980953126031e-11
-0.49309375,0.38766044659569,4.23815765136355e-11
-0.4930625,0.3877399853869277,4.390986147563982e-11
-0.49303125,0.3878195241781655,4.548590063401881e-11
-0.493,0.3878195241781655,4.711095710340515e-11
-0.49296875,0.3878195241781655,4.878632135126762e-11
-0.4929375,0.3877399853869277,5.051331165830898e-11
-0.49290625,0.3878195241781655,5.229327458434959e-11
-0.492875,0.3878195241781655,5.412758543973329e-11
-0.49284375,0.3877399853869277,5.601764876229297e-11
-0.4928125,0.3878990629694031,5.79648987999122e-11
-0.49278125,0.3878990629694031,5.997079999872005e-11
-0.49275,0.3878990629694031,6.203684749695592e-11
-0.49271875,0.3879786017606409,6.416456762454139e-11
-0.4926875,0.3879786017606409,6.635551840839589e-11
-0.49265625,0.3878195241781655,6.861129008353303e-11
-0.492625,0.3878195241781655,7.093350560997492e-11
-0.49259375,0.3878990629694031,7.332382119552071e-11
-0.4925625,0.3878990629694031,7.578392682440723e-11
-0.49253125,0.3879786017606409,7.831554679189762e-11
-0.4925,0.3878990629694031,8.092044024483575e-11
-0.49246875,0.3878195241781655,8.360040172820284e-11
-0.4924375,0.3878195241781655,8.635726173771351e-11
-0.49240625,0.3878990629694031,8.919288727848803e-11
-0.492375,0.3878990629694031,9.210918242983779e-11
-0.49234375,0.3878195241781655,9.510808891620086e-11
-0.4923125,0.3877399853869277,9.819158668426454e-11
-0.49228125,0.3878990629694031,1.013616944863121e-10
-0.49225,0.3878990629694031,1.0462047046983e-10
-0.49221875,0.3879786017606409,1.079700127734133e-10
-0.4921875,0.3880581405518786,1.114124601290054e-10
-0.49215625,0.3878990629694031,1.149499924705094e-10
-0.492125,0.3878990629694031,1.185848315488083e-10
-0.49209375,0.3879786017606409,1.223192415532292e-10
-0.4920625,0.3879786017606409,1.261555297394916e-10
-0.49203125,0.3880581405518786,1.300960470641727e-10
-0.492,0.3878990629694031,1.341431888257297e-10
-0.49196875,0.3880581405518786,1.382993953121137e-10
-0.4919375,0.3879786017606409,1.425671524550141e-10
-0.49190625,0.3880581405518786,1.46948992490768e-10
-0.491875,0.3880581405518786,1.514474946279727e-10
-0.49184375,0.3880581405518786,1.560652857218381e-10
-0.4918125,0.3882172181343541,1.608050409553148e-10
-0.49178125,0.3882172181343541,1.656694845270357e-10
-0.49175,0.3882172181343541,1.706613903461062e-10
-0.49171875,0.3882172181343541,1.757835827337819e-10
-0.4916875,0.3882172181343541,1.810389371320675e-10
-0.49165625,0.3881376793431163,1.864303808192761e-10
-0.491625,0.3881376793431163,1.919608936325845e-10
-0.49159375,0.3881376793431163,1.976335086976198e-10
-0.4915625,0.3880581405518786,2.034513131651158e-10
-0.49153125,0.3882172181343541,2.094174489546741e-10
-0.4915,0.3880581405518786,2.155351135056675e-10
-0.49146875,0.3881376793431163,2.218075605353211e-10
-0.4914375,0.3882967569255918,2.282381008040079e-10
-0.49140625,0.3883762957168295,2.34830102887795e-10
-0.491375,0.3881376793431163,2.415869939582772e-10
-0.49134375,0.3882172181343541,2.485122605697336e-10
-0.4913125,0.3882967569255918,2.556094494536437e-10
-0.49128125,0.3882172181343541,2.628821683205997e-10
-0.49125,0.3882967569255918,2.703340866696488e-10
-0.49121875,0.3882967569255918,2.779689366051061e-10
-0.4911875,0.3882967569255918,2.857905136608685e-10
-0.49115625,0.3882172181343541,2.93802677632271e-10
-0.491125,0.3882172181343541,3.020093534155164e-10
-0.49109375,0.3882967569255918,3.104145318547189e-10
-0.4910625,0.3882967569255918,3.19022270596594e-10
-0.49103125,0.3883762957168295,3.278366949528321e-10
-0.491,0.3882967569255918,3.368619987701913e-10
-0.49096875,0.3883762957168295,3.461024453083448e-10
-0.4909375,0.3883762957168295,3.555623681255197e-10
-0.49090625,0.3884558345080673,3.652461719719608e-10
-0.490875,0.3882967569255918,3.751583336912568e-10
-0.49084375,0.3882967569255918,3.853034031295637e-10
-0.4908125,0.3882967569255918,3.956860040527604e-10
-0.49078125,0.3882172181343541,4.063108350715732e-10
-0.49075,0.3882967569255918,4.171826705747029e-10
-0.49071875,0.3883762957168295,4.283063616699911e-10
-0.4906875,0.3882967569255918,4.396868371336604e-10
-0.49065625,0.3882967569255918,4.513291043676633e-10
-0.490625,0.3882172181343541,4.632382503651763e-10
-0.49059375,0.3882172181343541,4.754194426842717e-10
-0.4905625,0.3880581405518786,4.878779304298057e-10
-0.49053125,0.3881376793431163,5.006190452435538e-10
-0.4905,0.3882172181343541,5.136482023026314e-10
-0.49046875,0.3880581405518786,5.26970901326233e-10
-0.4904375,0.3881376793431163,5.405927275907251e-10
-0.49040625,0.3881376793431163,5.545193529531269e-10
-0.490375,0.3881376793431163,5.687565368830148e-10
-0.49034375,0.3881376793431163,5.833101275028835e-10
-0.4903125,0.3882172181343541,5.981860626369996e-10
-0.49028125,0.3883762957168295,6.13390370868781e-10
-0.49025,0.3882172181343541,6.28929172606737e-10
-0.49021875,0.3882172181343541,6.448086811590041e-10
-0.4901875,0.3880581405518786,6.610352038165099e-10
-0.49015625,0.3880581405518786,6.776151429448002e-10
-0.490125,0.3880581405518786,6.945549970845646e-10
-0.49009375,0.3880581405518786,7.118613620608915e-10
-0.4900625,0.3882172181343541,7.295409321012901e-10
-0.49003125,0.3879786017606409,7.476005009625088e-10
-0.49,0.3878990629694031,7.660469630661904e-10
-0.48996875,0.3881376793431163,7.848873146433879e-10
-0.4899375,0.3881376793431163,8.041286548879858e-10
-0.48990625,0.3881376793431163,8.237781871190512e-10
-0.489875,0.3881376793431163,8.438432199521532e-10
-0.48984375,0.3881376793431163,8.643311684796818e-10
-0.4898125,0.3878990629694031,8.852495554602012e-10
-0.48978125,0.3879786017606409,9.066060125168684e-10
-0.48975,0.3880581405518786,9.284082813449524e-10
-0.48971875,0.3880581405518786,9.506642149284859e-10
-0.4896875,0.3879786017606409,9.733817787660826e-10
-0.48965625,0.3881376793431163,9.965690521059523e-10
-0.489625,0.3882172181343541,1.020234229190149e-09
-0.48959375,0.3880581405518786,1.044385620508081e-09
-0.4895625,0.3880581405518786,1.069031654059317e-09
-0.48953125,0.3880581405518786,1.094180876625724e-09
-0.4895,0.3879786017606409,1.119841955052964e-09
-0.48946875,0.3878990629694031,1.146023677541385e-09
-0.4894375,0.3880581405518786,1.172734954946336e-09
-0.48940625,0.3878990629694031,1.199984822087946e-09
-0.489375,0.3877399853869277,1.227782439070384e-09
-0.48934375,0.3878990629694031,1.256137092610648e-09
-0.4893125,0.3879786017606409,1.285058197376905e-09
-0.48928125,0.3879786017606409,1.314555297336416e-09
-0.48925,0.3878195241781655,1.344638067113079e-09
-0.48921875,0.3879786017606409,1.37531631335462e-09
-0.4891875,0.3878195241781655,1.406599976109465e-09
-0.48915625,0.3879786017606409,1.438499130213322e-09
-0.489125,0.3878990629694031,1.471023986685506e-09
-0.48909375,0.3878990629694031,1.50418489413504e-09
-0.4890625,0.3878195241781655,1.537992340176557e-09
-0.48903125,0.3879786017606409,1.572456952856041e-09
-0.489,0.3880581405518786,1.607589502086429e-09
-0.48896875,0.3878195241781655,1.643400901093123e-09
-0.4889375,0.38766044659569,1.679902207869415e-09
-0.48890625,0.38766044659569,1.717104626641875e-09
-0.488875,0.3878195241781655,1.755019509345738e-09
-0.48884375,0.3878990629694031,1.793658357110295e-09
-0.4888125,0.3878195241781655,1.833032821754343e-09
-0.48878125,0.38766044659569,1.873154707291712e-09
-0.48875,0.3875013690132145,1.914035971446901e-09
-0.48871875,0.3875013690132145,1.955688727180852e-09
-0.4886875,0.3875809078044523,1.998125244226897e-09
-0.48865625,0.3874218302219768,2.041357950636901e-09
-0.488625,0.3875809078044523,2.085399434337635e-09
-0.48859375,0.3875809078044523,2.1302624446974e-09
-0.4885625,0.3875809078044523,2.17595989410295e-09
-0.48853125,0.3875809078044523,2.222504859546722e-09
-0.4885,0.3875809078044523,2.269910584224414e-09
-0.48846875,0.3875809078044523,2.318190479142935e-09
-0.4884375,0.3875013690132145,2.367358124738767e-09
-0.48840625,0.3875809078044523,2.417427272506743e-09
-0.488375,0.3875013690132145,2.468411846639305e-09
