Task5_40Hz_200mV_45+10.csv

#Digilent WaveForms Oscilloscope Acquisition
#Device Name: Discovery3
#Serial Number: SN:210415BD63A1
#Date Time: 2026-09-24 11:22:43.104.288.020
#Sample rate: 32000Hz
#Samples: 32000
#Trigger: Source: Channel 1 Type: Edge Condition: Rising Level: 0 V Hyst.: Auto HoldOff: 0 s
#Channel 1: Range: 500 mV/div Offset: 0 V Sample Mode: Average
#Math 1: Input: C1 Reference: Internal Frequency: 40 Hz Phase: 90 ° Filter: IIR Butterworth 8  Low-Pass CutOff: 5 Hz Output: Amplitude

#Wavegen Channel 1: Running
#Mode: Simple
#Type: Sine
#Frequency: 40 Hz
#Period: 25 ms
#Amplitude: 200 mV
#Offset: 0 V
#Symmetry: 50 %
#Phase: 0 °

Time (s),Channel 1 (V),Math 1 (V)
-0.5,0.3380282408633488,1.135294298446361e-27
-0.49996875,0.337948702072111,1.929425700823866e-26
-0.4999375,0.3381077796545865,1.64514229781545e-25
-0.49990625,0.3377896244896356,9.447632690072797e-25
-0.499875,0.337948702072111,4.13696265177357e-24
-0.49984375,0.3380282408633488,1.481498569375675e-23
-0.4998125,0.3380282408633488,4.540175963996416e-23
-0.49978125,0.337948702072111,1.228976158437921e-22
-0.49975,0.337948702072111,3.007216793093421e-22
-0.49971875,0.337948702072111,6.768862268171327e-22
-0.4996875,0.3378691632808733,1.420505575983503e-21
-0.49965625,0.337948702072111,2.808921188528108e-21
-0.499625,0.337948702072111,5.27800327926423e-21
-0.49959375,0.3377896244896356,9.488466329714535e-21
-0.4995625,0.3376305469071602,1.64113115155869e-20
-0.49953125,0.3377100856983978,2.743578315653133e-20
-0.4995,0.3376305469071602,4.450349886928872e-20
-0.49946875,0.3377100856983978,7.02726841472176e-20
-0.4994375,0.3376305469071602,1.083167115978554e-19
-0.49940625,0.3375510081159224,1.633614130355648e-19
-0.499375,0.3376305469071602,2.415658990357656e-19
-0.49934375,0.3376305469071602,3.508518854024328e-19
-0.4993125,0.3375510081159224,5.012867892779839e-19
-0.49928125,0.3375510081159224,7.055261193372971e-19
-0.49925,0.3375510081159224,9.79320944663621e-19
-0.49921875,0.3376305469071602,1.342096485508073e-18
-0.4991875,0.3375510081159224,1.817608126183332e-18
-0.49915625,0.3375510081159224,2.434681405831019e-18
-0.499125,0.3373123917422092,3.228042796723282e-18
-0.49909375,0.3374714693246847,4.239248332097095e-18
-0.4990625,0.337391930533447,5.517717396258151e-18
-0.49903125,0.337391930533447,7.121879238818476e-18
-0.499,0.3372328529509715,9.120440022438235e-18
-0.49896875,0.337391930533447,1.159377845932019e-17
-0.4989375,0.337391930533447,1.463547833596015e-17
-0.49890625,0.337391930533447,1.835400646830706e-17
-0.498875,0.3372328529509715,2.287454487055469e-17
-0.49884375,0.3373123917422092,2.834098616028116e-17
-0.4988125,0.3373123917422092,3.491810146056326e-17
-0.49878125,0.3371533141597338,4.279389029599029e-17
-0.49875,0.3373123917422092,5.218212221416555e-17
-0.49871875,0.3372328529509715,6.332508009731124e-17
-0.4986875,0.3371533141597338,7.649651536000147e-17
-0.49865625,0.337073775368496,9.200482545885529e-17
-0.498625,0.337073775368496,1.101964643682311e-16
-0.49859375,0.337073775368496,1.31459596902573e-16
-0.4985625,0.3369942365772583,1.562280079910677e-16
-0.49853125,0.3369146977860206,1.849852782336693e-16
-0.4985,0.3369942365772583,2.182692372893448e-16
-0.49846875,0.3368351589947829,2.56676706867556e-16
-0.4984375,0.3367556202035452,3.008685453125417e-16
-0.49840625,0.3364374650385942,3.515750059868763e-16
-0.498375,0.3364374650385942,4.096014218760747e-16
-0.49834375,0.3364374650385942,4.758342290496825e-16
-0.4983125,0.3364374650385942,5.512473418263165e-16
-0.49828125,0.3364374650385942,6.369088927005132e-16
-0.49825,0.3363579262473565,7.339883502979611e-16
-0.49821875,0.3363579262473565,8.437640288327791e-16
-0.4981875,0.3364374650385942,9.676310027459236e-16
-0.49815625,0.3363579262473565,1.107109440407611e-15
-0.498125,0.336198848664881,1.263853370968804e-15
-0.49809375,0.3363579262473565,1.439659898647356e-15
-0.4980625,0.3364374650385942,1.636478878933353e-15
-0.49803125,0.3364374650385942,1.85642307139548e-15
-0.498,0.3363579262473565,2.101778783965892e-15
-0.49796875,0.3362783874561188,2.375017023775097e-15
-0.4979375,0.3363579262473565,2.678805169800628e-15
-0.49790625,0.3363579262473565,3.016019182784039e-15
-0.497875,0.3363579262473565,3.389756368059777e-15
-0.49784375,0.3364374650385942,3.803348707126922e-15
-0.4978125,0.3364374650385942,4.260376773980616e-15
-0.49778125,0.3364374650385942,4.764684252404113e-15
-0.49775,0.336517003829832,5.320393070604824e-15
-0.49771875,0.3364374650385942,5.931919169758553e-15
-0.4976875,0.336517003829832,6.603988923205096e-15
-0.49765625,0.3364374650385942,7.341656223215829e-15
-0.497625,0.336517003829832,8.150320252429552e-15
-0.49759375,0.336517003829832,9.035743957226963e-15
-0.4975625,0.336517003829832,1.00040732404864e-14
-0.49753125,0.3364374650385942,1.106185689133428e-14
-0.4975,0.336517003829832,1.22160672696726e-14
-0.49746875,0.3364374650385942,1.347412176343325e-14
-0.4974375,0.3364374650385942,1.48439050366747e-14
-0.49740625,0.336517003829832,1.633379208680029e-14
-0.497375,0.336517003829832,1.795267212934023e-14
-0.49734375,0.3365965426210697,1.97099733288994e-14
-0.4973125,0.3365965426210697,2.161568839503257e-14
-0.49728125,0.3365965426210697,2.368040106196559e-14
-0.49725,0.3365965426210697,2.5915313471237e-14
-0.49721875,0.336517003829832,2.833227447648806e-14
-0.4971875,0.336517003829832,3.094380888978207e-14
-0.49715625,0.3365965426210697,3.376314768898387e-14
-0.497125,0.3365965426210697,3.680425920587992e-14
-0.49709375,0.336517003829832,4.00818813148658e-14
-0.4970625,0.3365965426210697,4.361155464217451e-14
-0.49703125,0.336517003829832,4.740965681576166e-14
-0.497,0.3365965426210697,5.149343777610687e-14
-0.49696875,0.336517003829832,5.588105616833044e-14
-0.4969375,0.3367556202035452,6.059161683616369e-14
-0.49690625,0.3365965426210697,6.564520943844813e-14
-0.496875,0.336517003829832,7.106294820897435e-14
-0.49684375,0.3365965426210697,7.686701288060531e-14
-0.4968125,0.3367556202035452,8.308069079476046e-14
-0.49678125,0.3366760814123074,8.972842021746789e-14
-0.49675,0.3365965426210697,9.683583488331985e-14
-0.49671875,0.336517003829832,1.044298097887944e-13
-0.4966875,0.3366760814123074,1.12538508256531e-13
-0.49665625,0.336517003829832,1.211914302922711e-13
-0.496625,0.3365965426210697,1.304194622562973e-13
-0.49659375,0.3367556202035452,1.402549278713248e-13
-0.4965625,0.3366760814123074,1.507316405889161e-13
-0.49653125,0.3366760814123074,1.618849573366095e-13
-0.4965,0.3366760814123074,1.737518336680644e-13
-0.49646875,0.3365965426210697,1.863708803386413e-13
-0.4964375,0.3366760814123074,1.997824213289457e-13
-0.49640625,0.3366760814123074,2.140285533389765e-13
-0.496375,0.3365965426210697,2.291532067756254e-13
-0.49634375,0.3365965426210697,2.452022082563838e-13
-0.4963125,0.3366760814123074,2.622233446522155e-13
-0.49628125,0.3366760814123074,2.802664286926597e-13
-0.49625,0.3365965426210697,2.993833661563297e-13
-0.49621875,0.3365965426210697,3.196282246700709e-13
-0.4961875,0.3366760814123074,3.410573041401437e-13
-0.49615625,0.3367556202035452,3.6372920883889e-13
-0.496125,0.3366760814123074,3.877049211704384e-13
-0.49609375,0.3368351589947829,4.130478771390976e-13
-0.4960625,0.3368351589947829,4.398240435441771e-13
-0.49603125,0.3366760814123074,4.681019969250653e-13
-0.496,0.3366760814123074,4.97953004280482e-13
-0.49596875,0.3367556202035452,5.294511055859135e-13
-0.4959375,0.3368351589947829,5.62673198133315e-13
-0.49590625,0.3368351589947829,5.976991227172575e-13
-0.495875,0.3369146977860206,6.346117516917715e-13
-0.49584375,0.3369146977860206,6.734970789222217e-13
-0.4958125,0.3368351589947829,7.144443116566258e-13
-0.49578125,0.3367556202035452,7.575459643409071e-13
-0.49575,0.3367556202035452,8.028979544026447e-13
-0.49571875,0.3368351589947829,8.505997000279559e-13
-0.4956875,0.3369146977860206,9.007542199562243e-13
-0.49565625,0.3369942365772583,9.534682353174502e-13
-0.495625,0.337073775368496,1.008852273537068e-12
-0.49559375,0.337073775368496,1.067020774333151e-12
-0.4955625,0.3369942365772583,1.12809219783097e-12
-0.49553125,0.3368351589947829,1.192189134819965e-12
-0.4955,0.3369146977860206,1.259438419178216e-12
-0.49546875,0.3369146977860206,1.32997124248959e-12
-0.4954375,0.3369942365772583,1.403923270878778e-12
-0.49540625,0.337073775368496,1.481434764089504e-12
-0.495375,0.337073775368496,1.562650696831242e-12
-0.49534375,0.337073775368496,1.647720882419819e-12
-0.4953125,0.3371533141597338,1.736800098737357e-12
-0.49528125,0.3369942365772583,1.830048216537034e-12
-0.49525,0.337073775368496,1.927630330118199e-12
-0.49521875,0.337073775368496,2.029716890397429e-12
-0.4951875,0.337073775368496,2.136483840401171e-12
-0.49515625,0.3369942365772583,2.248112753205609e-12
-0.495125,0.3369942365772583,2.364790972349509e-12
-0.49509375,0.337073775368496,2.48671175474577e-12
-0.4950625,0.337073775368496,2.614074416117488e-12
-0.49503125,0.3369942365772583,2.747084478984358e-12
-0.495,0.3371533141597338,2.885953823225288e-12
-0.49496875,0.337073775368496,3.030900839243113e-12
-0.4949375,0.337073775368496,3.182150583757358e-12
-0.49490625,0.3371533141597338,3.339934938250998e-12
-0.494875,0.337073775368496,3.504492770097211e-12
-0.49484375,0.337073775368496,3.676070096392154e-12
-0.4948125,0.337073775368496,3.85492025051979e-12
-0.49478125,0.3371533141597338,4.04130405147485e-12
-0.49475,0.3371533141597338,4.235489975970007e-12
-0.49471875,0.3371533141597338,4.437754333353403e-12
-0.4946875,0.337073775368496,4.648381443362612e-12
-0.49465625,0.337073775368496,4.867663816741243e-12
-0.494625,0.3371533141597338,5.095902338744321e-12
-0.49459375,0.337073775368496,5.333406455558614e-12
-0.4945625,0.3371533141597338,5.580494363664135e-12
-0.49453125,0.3372328529509715,5.837493202163003e-12
-0.4945,0.3371533141597338,6.104739248101851e-12
-0.49446875,0.3373123917422092,6.382578114814083e-12
-0.4944375,0.3372328529509715,6.671364953308112e-12
-0.49440625,0.3371533141597338,6.971464656727887e-12
-0.494375,0.3371533141597338,7.283252067911919e-12
-0.49434375,0.3372328529509715,7.607112190077045e-12
-0.4943125,0.3371533141597338,7.943440400653176e-12
-0.49428125,0.3371533141597338,8.292642668295275e-12
-0.49425,0.3371533141597338,8.655135773098785e-12
-0.49421875,0.3371533141597338,9.031347530044773e-12
-0.4941875,0.3372328529509715,9.421717015700961e-12
-0.49415625,0.3373123917422092,9.826694798204939e-12
-0.494125,0.3373123917422092,1.024674317055569e-11
-0.49409375,0.3373123917422092,1.068233638723972e-11
-0.4940625,0.3373123917422092,1.113396090421787e-11
-0.49403125,0.3373123917422092,1.160211562229909e-11
-0.494,0.3373123917422092,1.208731213392729e-11
-0.49396875,0.337391930533447,1.259007497340739e-11
-0.4939375,0.3374714693246847,1.311094187059674e-11
-0.49390625,0.337391930533447,1.365046400808799e-11
-0.493875,0.3373123917422092,1.42092062819095e-11
-0.49384375,0.337391930533447,1.478774756576937e-11
-0.4938125,0.3374714693246847,1.538668097886907e-11
-0.49378125,0.3375510081159224,1.600661415731279e-11
-0.49375,0.3374714693246847,1.66481695291384e-11
-0.49371875,0.3375510081159224,1.7311984592996e-11
-0.4936875,0.3375510081159224,1.799871220050005e-11
-0.49365625,0.3374714693246847,1.870902084228083e-11
-0.493625,0.3374714693246847,1.944359493776132e-11
-0.49359375,0.3375510081159224,2.02031351286851e-11
-0.4935625,0.3375510081159224,2.098835857642123e-11
-0.49353125,0.3375510081159224,2.179999926307173e-11
-0.4935,0.3377100856983978,2.263880829640749e-11
-0.49346875,0.3377100856983978,2.35055542186583e-11
-0.4934375,0.3377100856983978,2.440102331918243e-11
-0.49340625,0.3377896244896356,2.532601995104166e-11
-0.493375,0.3375510081159224,2.628136685150707e-11
-0.49334375,0.3377100856983978,2.726790546652117e-11
-0.4933125,0.3376305469071602,2.828649627914185e-11
-0.49328125,0.3375510081159224,2.933801914199355e-11
-0.49325,0.3376305469071602,3.04233736137509e-11
-0.49321875,0.3376305469071602,3.154347929968034e-11
-0.4931875,0.3376305469071602,3.269927619626477e-11
-0.49315625,0.3377100856983978,3.389172503993652e-11
-0.493125,0.3377100856983978,3.512180765994381e-11
-0.49309375,0.3378691632808733,3.639052733537566e-11
-0.4930625,0.3377100856983978,3.769890915637046e-11
-0.49303125,0.3377100856983978,3.904800038953293e-11
-0.493,0.3377100856983978,4.043887084758466e-11
-0.49296875,0.3377100856983978,4.18726132632727e-11
-0.4929375,0.3376305469071602,4.33503436675614e-11
-0.49290625,0.3377896244896356,4.487320177213187e-11
-0.492875,0.3377896244896356,4.644235135621384e-11
-0.49284375,0.3378691632808733,4.805898065777455e-11
-0.4928125,0.3377896244896356,4.972430276908896e-11
-0.49278125,0.3377100856983978,5.143955603671609e-11
-0.49275,0.3377100856983978,5.320600446590537e-11
-0.49271875,0.3376305469071602,5.502493812945776e-11
-0.4926875,0.3377100856983978,5.689767358106544e-11
-0.49265625,0.3377100856983978,5.882555427315462e-11
-0.492625,0.3378691632808733,6.08099509792551e-11
-0.49259375,0.3377896244896356,6.285226222092082e-11
-0.4925625,0.3377896244896356,6.495391469922548e-11
-0.49253125,0.3377896244896356,6.711636373085638e-11
-0.4925,0.3377896244896356,6.934109368883104e-11
-0.49246875,0.3378691632808733,7.162961844785977e-11
-0.4924375,0.3377896244896356,7.398348183437765e-11
-0.49240625,0.337948702072111,7.640425808126994e-11
-0.492375,0.3378691632808733,7.889355228731361e-11
-0.49234375,0.3378691632808733,8.145300088135899e-11
-0.4923125,0.3378691632808733,8.408427209127422e-11
-0.49228125,0.3378691632808733,8.678906641767575e-11
-0.49225,0.3377100856983978,8.956911711246824e-11
-0.49221875,0.337948702072111,9.242619066221633e-11
-0.4921875,0.337948702072111,9.53620872763713e-11
-0.49215625,0.337948702072111,9.837864138037555e-11
-0.492125,0.337948702072111,1.014777221136674e-10
-0.49209375,0.337948702072111,1.046612338326082e-10
-0.4920625,0.337948702072111,1.079311166183557e-10
-0.49203125,0.3378691632808733,1.112893467897041e-10
-0.492,0.3377896244896356,1.147379374209145e-10
-0.49196875,0.3377896244896356,1.182789388645571e-10
-0.4919375,0.3378691632808733,1.219144392793876e-10
-0.49190625,0.337948702072111,1.256465651632795e-10
-0.491875,0.337948702072111,1.294774818912341e-10
-0.49184375,0.337948702072111,1.334093942584899e-10
-0.4918125,0.337948702072111,1.374445470287536e-10
-0.49178125,0.3380282408633488,1.415852254875727e-10
-0.49175,0.3380282408633488,1.458337560008728e-10
-0.49171875,0.3378691632808733,1.501925065786803e-10
-0.4916875,0.3377896244896356,1.546638874440502e-10
-0.49165625,0.3378691632808733,1.59250351607223e-10
-0.491625,0.3377100856983978,1.639543954450282e-10
-0.49159375,0.3377896244896356,1.68778559285558e-10
-0.4915625,0.3378691632808733,1.737254279981309e-10
-0.49153125,0.337948702072111,1.787976315885641e-10
-0.4915,0.337948702072111,1.839978457997785e-10
-0.49146875,0.337948702072111,1.89328792717754e-10
-0.4914375,0.3377896244896356,1.947932413828556e-10
-0.49140625,0.3378691632808733,2.003940084065517e-10
-0.491375,0.3378691632808733,2.06133958593543e-10
-0.49134375,0.337948702072111,2.120160055693228e-10
-0.4913125,0.3378691632808733,2.180431124131884e-10
-0.49128125,0.3377896244896356,2.242182922967218e-10
-0.49125,0.3377100856983978,2.305446091277614e-10
-0.49121875,0.3378691632808733,2.37025178199882e-10
-0.4911875,0.3378691632808733,2.436631668474035e-10
-0.49115625,0.337948702072111,2.50461795105946e-10
-0.491125,0.337948702072111,2.574243363785526e-10
-0.49109375,0.3378691632808733,2.645541181073956e-10
-0.4910625,0.3378691632808733,2.718545224510874e-10
-0.49103125,0.3377896244896356,2.793289869676125e-10
-0.491,0.3377100856983978,2.869810053029011e-10
-0.49096875,0.3378691632808733,2.948141278850598e-10
-0.4909375,0.3377896244896356,3.028319626242811e-10
-0.49090625,0.337948702072111,3.110381756184454e-10
-0.490875,0.3378691632808733,3.194364918644371e-10
-0.49084375,0.3377100856983978,3.280306959751898e-10
-0.4908125,0.3377896244896356,3.368246329024798e-10
-0.49078125,0.3378691632808733,3.458222086654843e-10
-0.49075,0.3377896244896356,3.55027391085122e-10
-0.49071875,0.3377896244896356,3.644442105241926e-10
-0.4906875,0.3378691632808733,3.740767606333332e-10
-0.49065625,0.3378691632808733,3.839291991028072e-10
-0.490625,0.337948702072111,3.940057484201429e-10
-0.49059375,0.337948702072111,4.043106966336387e-10
-0.4905625,0.337948702072111,4.148483981217501e-10
-0.49053125,0.3377896244896356,4.256232743683757e-10
-0.4905,0.337948702072111,4.366398147440586e-10
-0.49046875,0.337948702072111,4.479025772931169e-10
-0.4904375,0.3378691632808733,4.594161895267212e-10
-0.49040625,0.3377896244896356,4.711853492219347e-10
-0.490375,0.3377896244896356,4.832148252267292e-10
-0.49034375,0.3378691632808733,4.95509458270995e-10
-0.4903125,0.3377896244896356,5.080741617835574e-10
-0.49028125,0.3377896244896356,5.209139227152158e-10
-0.49025,0.3377100856983978,5.340338023678213e-10
-0.49021875,0.3378691632808733,5.474389372294046e-10
-0.4901875,0.3378691632808733,5.61134539815372e-10
-0.49015625,0.3378691632808733,5.75125899515781e-10
-0.490125,0.3378691632808733,5.894183834487107e-10
-0.49009375,0.3378691632808733,6.040174373197425e-10
-0.4900625,0.3377896244896356,6.18928586287562e-10
-0.49003125,0.3377100856983978,6.341574358356973e-10
-0.49,0.3377896244896356,6.497096726504083e-10
-0.48996875,0.3377100856983978,6.655910655047379e-10
-0.4899375,0.3377100856983978,6.818074661487394e-10
-0.48990625,0.3377100856983978,6.98364810205896e-10
-0.489875,0.3376305469071602,7.152691180757369e-10
-0.48984375,0.3377896244896356,7.325264958426737e-10
-0.4898125,0.3376305469071602,7.501431361910606e-10
-0.48978125,0.3375510081159224,7.681253193264965e-10
-0.48975,0.3375510081159224,7.864794139033755e-10
-0.48971875,0.3376305469071602,8.052118779587047e-10
-0.4896875,0.3375510081159224,8.24329259852195e-10
-0.48965625,0.3374714693246847,8.438381992126406e-10
-0.489625,0.3375510081159224,8.637454278905944e-10
-0.48959375,0.3375510081159224,8.840577709173573e-10
-0.4895625,0.3375510081159224,9.047821474702847e-10
-0.48953125,0.3375510081159224,9.259255718444262e-10
-0.4895,0.337391930533447,9.474951544305082e-10
-0.48946875,0.3374714693246847,9.694981026992697e-10
-0.4894375,0.3375510081159224,9.919417221921606e-10
-0.48940625,0.3374714693246847,1.014833417518416e-09
-0.489375,0.3376305469071602,1.03818069335851e-09
-0.48934375,0.3374714693246847,1.061991155474011e-09
-0.4893125,0.337391930533447,1.08627251172383e-09
-0.48928125,0.337391930533447,1.11103257308689e-09
-0.48925,0.3373123917422092,1.136279254691218e-09
-0.48921875,0.337391930533447,1.162020576849459e-09
-0.4891875,0.3372328529509715,1.18826466610084e-09
-0.48915625,0.3372328529509715,1.215019756259583e-09
-0.489125,0.3372328529509715,1.242294189469766e-09
-0.48909375,0.3372328529509715,1.270096417266663e-09
-0.4890625,0.3373123917422092,1.298435001644548e-09
-0.48903125,0.3372328529509715,1.327318616130988e-09
-0.489,0.3372328529509715,1.356756046867621e-09
-0.48896875,0.3372328529509715,1.386756193697442e-09
-0.4889375,0.3371533141597338,1.417328071258579e-09
-0.48890625,0.3371533141597338,1.448480810084595e-09
-0.488875,0.337073775368496,1.480223657711307e-09
-0.48884375,0.3371533141597338,1.512565979790125e-09
-0.4888125,0.337073775368496,1.545517261207936e-09
-0.48878125,0.337073775368496,1.579087107213518e-09
-0.48875,0.3369942365772583,1.613285244550506e-09
-0.48871875,0.337073775368496,1.648121522596912e-09
-0.4886875,0.3369146977860206,1.683605914511198e-09
-0.48865625,0.3369942365772583,1.719748518384922e-09
-0.488625,0.3369942365772583,1.756559558401943e-09
-0.48859375,0.3369942365772583,1.794049386004214e-09
-0.4885625,0.3369942365772583,1.83222848106415e-09
-0.48853125,0.3368351589947829,1.871107453063578e-09
-0.4885,0.3369146977860206,1.910697042279287e-09
-0.48846875,0.3367556202035452,1.951008120975165e-09
-0.4884375,0.3368351589947829,1.992051694600943e-09
-0.48840625,0.3368351589947829,2.033838902997542e-09
-0.488375,0.3366760814123074,2.07638102160902e-09
-0.48834375,0.3366760814123074,2.119689462701144e-09
