Task5_120Hz_200mV_45-10.csv

#Digilent WaveForms Oscilloscope Acquisition
#Device Name: Discovery3
#Serial Number: SN:210415BD63A1
#Date Time: 2026-09-24 11:19:24.628.617.470
#Sample rate: 32000Hz
#Samples: 32000
#Trigger: Source: Channel 1 Type: Edge Condition: Rising Level: 0 V Hyst.: Auto HoldOff: 0 s
#Channel 1: Range: 500 mV/div Offset: 0 V Sample Mode: Average
#Math 1: Input: C1 Reference: Internal Frequency: 20 Hz Phase: 90 ° Filter: IIR Butterworth 8  Low-Pass CutOff: 5 Hz Output: Amplitude

#Wavegen Channel 1: Running
#Mode: Simple
#Type: Sine
#Frequency: 20 Hz
#Period: 50 ms
#Amplitude: 200 mV
#Offset: 0 V
#Symmetry: 50 %
#Phase: 0 °

Time (s),Channel 1 (V),Math 1 (V)
-0.5,0.5080821765296076,1.713257885895302e-27
-0.49996875,0.5080821765296076,2.911675004637054e-26
-0.4999375,0.5080026377383698,2.482669920746761e-25
-0.49990625,0.5081617153208453,1.425736413395041e-24
-0.499875,0.508241254112083,6.243075972184319e-24
-0.49984375,0.508241254112083,2.23572893002443e-23
-0.4998125,0.5080821765296076,6.851595243283263e-23
-0.49978125,0.508241254112083,1.854658270352878e-22
-0.49975,0.508241254112083,4.538235523186133e-22
-0.49971875,0.5081617153208453,1.021504571880608e-21
-0.4996875,0.508241254112083,2.143731877657223e-21
-0.49965625,0.5084003316945584,4.239069426730121e-21
-0.499625,0.5083207929033208,7.965346182759921e-21
-0.49959375,0.5084003316945584,1.431975563290949e-20
-0.4995625,0.508241254112083,2.476783232898745e-20
-0.49953125,0.508241254112083,4.140642150354391e-20
-0.4995,0.508241254112083,6.716617012582037e-20
-0.49946875,0.508241254112083,1.060594778951997e-19
-0.4994375,0.5084798704857962,1.634802546243099e-19
-0.49940625,0.5083207929033208,2.465622362428599e-19
-0.499375,0.5084003316945584,3.6460301526383e-19
-0.49934375,0.5084798704857962,5.295613430048541e-19
-0.4993125,0.5084003316945584,7.566356601486741e-19
-0.49928125,0.5083207929033208,1.064932209346726e-18
-0.49925,0.5083207929033208,1.478231478516587e-18
-0.49921875,0.5084003316945584,2.025862116271947e-18
-0.4991875,0.5084798704857962,2.743691851575385e-18
-0.49915625,0.5086389480682717,3.675245338238109e-18
-0.499125,0.5084003316945584,4.872959231315662e-18
-0.49909375,0.5084003316945584,6.399585186761283e-18
-0.4990625,0.5084798704857962,8.329751857888052e-18
-0.49903125,0.5084003316945584,1.075169734224202e-17
-0.499,0.508241254112083,1.376918391038411e-17
-0.49896875,0.5084003316945584,1.750360722380962e-17
-0.4989375,0.508241254112083,2.209631262281124e-17
-0.49890625,0.5084003316945584,2.771113143654125e-17
-0.498875,0.508241254112083,3.453715063687574e-17
-0.49884375,0.5084798704857962,4.279172952493869e-17
-0.4988125,0.5084003316945584,5.272377750430653e-17
-0.49878125,0.5083207929033208,6.461730735798727e-17
-0.49875,0.5084003316945584,7.879527880725183e-17
-0.49871875,0.5083207929033208,9.562374748929023e-17
-0.4986875,0.5084003316945584,1.155163348474568e-16
-0.49865625,0.5083207929033208,1.389390347825513e-16
-0.498625,0.5084003316945584,1.664153732661504e-16
-0.49859375,0.5084003316945584,1.98531937467451e-16
-0.4985625,0.5084003316945584,2.359442912934026e-16
-0.49853125,0.5084003316945584,2.793832945880892e-16
-0.4985,0.5083207929033208,3.296618435813867e-16
-0.49846875,0.5084003316945584,3.876820505188937e-16
-0.4984375,0.5084003316945584,4.544428807450348e-16
-0.49840625,0.508241254112083,5.310482658490635e-16
-0.498375,0.508241254112083,6.18715711819451e-16
-0.49834375,0.5083207929033208,7.18785421485816e-16
-0.4983125,0.508241254112083,8.327299508591431e-16
-0.49828125,0.508241254112083,9.621644193105433e-16
-0.49825,0.5083207929033208,1.108857293856265e-15
-0.49821875,0.508241254112083,1.274741768142049e-15
-0.4981875,0.5084003316945584,1.461927757043269e-15
-0.49815625,0.508241254112083,1.672714528118585e-15
-0.498125,0.508241254112083,1.909603991474022e-15
-0.49809375,0.5083207929033208,2.175314669911546e-15
-0.4980625,0.5084003316945584,2.472796371551199e-15
-0.49803125,0.508241254112083,2.805245587428849e-15
-0.498,0.5084003316945584,3.176121636882481e-15
-0.49796875,0.5086389480682717,3.589163583848812e-15
-0.4979375,0.5085594092770339,4.048407947498825e-15
-0.49790625,0.5084798704857962,4.558207230945585e-15
-0.497875,0.5085594092770339,5.123249292060496e-15
-0.49784375,0.5084003316945584,5.748577580734842e-15
-0.4978125,0.5085594092770339,6.439612267222232e-15
-0.49778125,0.5086389480682717,7.202172286494224e-15
-0.49775,0.5095138747718867,8.042498323836109e-15
-0.49771875,0.5095934135631244,8.967276767202453e-15
-0.4976875,0.5096729523543622,9.983664652142643e-15
-0.49765625,0.5095934135631244,1.109931562539532e-14
-0.497625,0.5097524911455998,1.232240695353728e-14
-0.49759375,0.5097524911455998,1.3661667603357e-14
-0.4975625,0.5096729523543622,1.51264074209057e-14
-0.49753125,0.5095934135631244,1.672654743645961e-14
-0.4975,0.5097524911455998,1.847265132290542e-14
-0.49746875,0.5096729523543622,2.037595803533789e-14
-0.4974375,0.5096729523543622,2.244841565993289e-14
-0.49740625,0.5094343359806489,2.470271650043189e-14
-0.497375,0.5095934135631244,2.715233343084421e-14
-0.49734375,0.5096729523543622,2.981155754324224e-14
-0.4973125,0.5097524911455998,3.269553711979128e-14
-0.49728125,0.5097524911455998,3.582031795842042e-14
-0.49725,0.5098320299368375,3.920288508180317e-14
-0.49721875,0.5098320299368375,4.286120585957815e-14
-0.4971875,0.5098320299368375,4.681427457399775e-14
-0.49715625,0.5097524911455998,5.108215845945036e-14
-0.497125,0.5097524911455998,5.568604524655617e-14
-0.49709375,0.5099115687280753,6.064829224178938e-14
-0.4970625,0.5099115687280753,6.59924769738308e-14
-0.49703125,0.5099115687280753,7.17434494381033e-14
-0.497,0.5098320299368375,7.792738597119007e-14
-0.49696875,0.5098320299368375,8.457184478708042e-14
-0.4969375,0.5096729523543622,9.170582320743064e-14
-0.49690625,0.5097524911455998,9.935981661826942e-14
-0.496875,0.5096729523543622,1.075658791858159e-13
-0.49684375,0.5097524911455998,1.163576863643158e-13
-0.4968125,0.5099115687280753,1.257705992290365e-13
-0.49678125,0.5098320299368375,1.358417306677957e-13
-0.49675,0.5099115687280753,1.466100134646283e-13
-0.49671875,0.5099115687280753,1.58116270309428e-13
-0.4966875,0.5099115687280753,1.704032857676261e-13
-0.49665625,0.509991107519313,1.83515880244195e-13
-0.496625,0.5099115687280753,1.975009859764905e-13
-0.49659375,0.5098320299368375,2.124077250906656e-13
-0.4965625,0.509991107519313,2.282874897566106e-13
-0.49653125,0.5099115687280753,2.451940244765898e-13
-0.4965,0.5100706463105508,2.63183510542966e-13
-0.49646875,0.509991107519313,2.823146527006098e-13
-0.4964375,0.5100706463105508,3.026487680498132e-13
-0.49640625,0.5100706463105508,3.24249877225728e-13
-0.496375,0.5100706463105508,3.47184797890563e-13
-0.49634375,0.509991107519313,3.715232405749801e-13
-0.4963125,0.5099115687280753,3.973379069053326e-13
-0.49628125,0.5099115687280753,4.247045902535926e-13
-0.49625,0.509991107519313,4.53702278847014e-13
-0.49621875,0.5098320299368375,4.844132613747798e-13
-0.4961875,0.5099115687280753,5.169232351290761e-13
-0.49615625,0.5099115687280753,5.513214167182324e-13
-0.496125,0.5099115687280753,5.877006553897599e-13
-0.49609375,0.5100706463105508,6.261575490013137e-13
-0.4960625,0.509991107519313,6.667925626777906e-13
-0.49603125,0.509991107519313,7.097101501929663e-13
-0.496,0.509991107519313,7.550188781142574e-13
-0.49596875,0.5099115687280753,8.028315527493822e-13
-0.4959375,0.5100706463105508,8.53265349933872e-13
-0.49590625,0.5100706463105508,9.064419476985699e-13
-0.495875,0.509991107519313,9.624876618564266e-13
-0.49584375,0.509991107519313,1.021533584548087e-12
-0.4958125,0.5100706463105508,1.083715725785928e-12
-0.49578125,0.5100706463105508,1.14917515803639e-12
-0.49575,0.5100706463105508,1.218058163880605e-12
-0.49571875,0.5100706463105508,1.290516386793504e-12
-0.4956875,0.509991107519313,1.36670698508175e-12
-0.49565625,0.5101501851017884,1.446792789021008e-12
-0.495625,0.5101501851017884,1.530942461233219e-12
-0.49559375,0.5100706463105508,1.619330660344735e-12
-0.4955625,0.5097524911455998,1.712138207966292e-12
-0.49553125,0.509991107519313,1.809552259035999e-12
-0.4955,0.509991107519313,1.911766475566634e-12
-0.49546875,0.509991107519313,2.018981203838739e-12
-0.4954375,0.5099115687280753,2.131403655081117e-12
-0.49540625,0.5099115687280753,2.249248089680522e-12
-0.495375,0.5099115687280753,2.372736004962446e-12
-0.49534375,0.509991107519313,2.502096326585088e-12
-0.4953125,0.5098320299368375,2.637565603588721e-12
-0.49528125,0.509991107519313,2.779388207142804e-12
-0.49525,0.509991107519313,2.927816533033366e-12
-0.49521875,0.5100706463105508,3.083111207933274e-12
-0.4951875,0.509991107519313,3.245541299498211e-12
-0.49515625,0.5100706463105508,3.415384530331235e-12
-0.495125,0.5099115687280753,3.592927495859015e-12
-0.49509375,0.5099115687280753,3.778465886162908e-12
-0.4950625,0.509991107519313,3.972304711808216e-12
-0.49503125,0.509991107519313,4.174758533715058e-12
-0.495,0.5099115687280753,4.386151697114446e-12
-0.49496875,0.509991107519313,4.606818569633269e-12
-0.4949375,0.509991107519313,4.837103783552017e-12
-0.49490625,0.509991107519313,5.077362482279199e-12
-0.494875,0.5099115687280753,5.327960571086523e-12
-0.49484375,0.509991107519313,5.589274972149058e-12
-0.4948125,0.509991107519313,5.861693883934642e-12
-0.49478125,0.5097524911455998,6.145617044987025e-12
-0.49475,0.5098320299368375,6.441456002147254e-12
-0.49471875,0.5097524911455998,6.749634383257952e-12
-0.4946875,0.5096729523543622,7.070588174395289e-12
-0.49465625,0.5097524911455998,7.404766001673488e-12
-0.494625,0.5097524911455998,7.752629417666893e-12
-0.49459375,0.5096729523543622,8.114653192494615e-12
-0.4945625,0.5097524911455998,8.491325609613069e-12
-0.49453125,0.5097524911455998,8.883148766361554e-12
-0.4945,0.5096729523543622,9.29063887930641e-12
-0.49446875,0.5095934135631244,9.714326594429155e-12
-0.4944375,0.5098320299368375,1.015475730220423e-11
-0.49440625,0.5097524911455998,1.061249145761207e-11
-0.494375,0.5096729523543622,1.10881049051332e-11
-0.49434375,0.5095934135631244,1.158218920876936e-11
-0.4943125,0.5097524911455998,1.209535198713752e-11
-0.49428125,0.5095934135631244,1.262821725368283e-11
-0.49425,0.5096729523543622,1.318142576205678e-11
-0.49421875,0.5096729523543622,1.375563535670668e-11
-0.4941875,0.5095934135631244,1.435152132872278e-11
-0.49415625,0.5096729523543622,1.496977677698945e-11
-0.494125,0.5098320299368375,1.561111297468699e-11
-0.49409375,0.5096729523543622,1.627625974119039e-11
-0.4940625,0.5095138747718867,1.696596581941199e-11
-0.49403125,0.5095934135631244,1.768099925863441e-11
-0.494,0.5095138747718867,1.842214780288081e-11
-0.49396875,0.5094343359806489,1.919021928486918e-11
-0.4939375,0.5095138747718867,1.998604202559771e-11
-0.49390625,0.5095138747718867,2.081046523960805e-11
-0.493875,0.5095934135631244,2.166435944597371e-11
-0.49384375,0.5094343359806489,2.254861688506064e-11
-0.4938125,0.5095138747718867,2.346415194110722e-11
-0.49378125,0.5094343359806489,2.441190157067091e-11
-0.49375,0.5094343359806489,2.539282573698876e-11
-0.49371875,0.5092752583981734,2.640790785029945e-11
-0.4936875,0.5093547971894112,2.745815521417399e-11
-0.49365625,0.5095138747718867,2.854459947790274e-11
-0.493625,0.5094343359806489,2.966829709498625e-11
-0.49359375,0.5093547971894112,3.083032978777755e-11
-0.4935625,0.5094343359806489,3.203180501832356e-11
-0.49353125,0.5093547971894112,3.327385646545314e-11
-0.4935,0.5091957196069358,3.455764450815991e-11
-0.49346875,0.5094343359806489,3.588435671532729e-11
-0.4934375,0.5093547971894112,3.725520834184369e-11
-0.49340625,0.5092752583981734,3.867144283115591e-11
-0.493375,0.5094343359806489,4.013433232430847e-11
-0.49334375,0.5092752583981734,4.164517817551695e-11
-0.4933125,0.5092752583981734,4.320531147432339e-11
-0.49328125,0.5092752583981734,4.481609357438161e-11
-0.49325,0.5092752583981734,4.64789166289209e-11
-0.49321875,0.5093547971894112,4.819520413293579e-11
-0.4931875,0.5093547971894112,4.996641147215024e-11
-0.49315625,0.5092752583981734,5.17940264788047e-11
-0.493125,0.5093547971894112,5.367956999431364e-11
-0.49309375,0.5093547971894112,5.56245964388425e-11
-0.4930625,0.5093547971894112,5.76306943878517e-11
-0.49303125,0.5093547971894112,5.96994871556566e-11
-0.493,0.5091957196069358,6.183263338605115e-11
-0.49296875,0.5090366420244603,6.403182765004416e-11
-0.4929375,0.5091957196069358,6.629880105075601e-11
-0.49290625,0.5091957196069358,6.863532183552467e-11
-0.492875,0.509116180815698,7.104319601526903e-11
-0.49284375,0.5089571032332226,7.35242679911583e-11
-0.4928125,0.5088775644419848,7.608042118863558e-11
-0.49278125,0.5087980256507472,7.871357869884459e-11
-0.49275,0.5088775644419848,8.142570392750725e-11
-0.49271875,0.5087980256507472,8.421880125130126e-11
-0.4926875,0.5087980256507472,8.709491668178598e-11
-0.49265625,0.5088775644419848,9.005613853692484e-11
-0.492625,0.5087184868595094,9.31045981202531e-11
-0.49259375,0.5087980256507472,9.624247040773937e-11
-0.4925625,0.5087980256507472,9.947197474238932e-11
-0.49253125,0.5087980256507472,1.027953755366402e-10
-0.4925,0.5087184868595094,1.062149829825947e-10
-0.49246875,0.5089571032332226,1.097331537701422e-10
-0.4924375,0.5087184868595094,1.133522918130169e-10
-0.49240625,0.5086389480682717,1.170748489828405e-10
-0.492375,0.5085594092770339,1.209033258511979e-10
-0.49234375,0.5086389480682717,1.248402724397951e-10
-0.4923125,0.5086389480682717,1.288882889787472e-10
-0.49228125,0.5085594092770339,1.330500266730451e-10
-0.49225,0.5084003316945584,1.373281884772499e-10
-0.49221875,0.5084003316945584,1.417255298784617e-10
-0.4921875,0.5084798704857962,1.462448596876145e-10
-0.49215625,0.5084798704857962,1.508890408391415e-10
-0.492125,0.5085594092770339,1.556609911990635e-10
-0.49209375,0.5084798704857962,1.605636843815444e-10
-0.4920625,0.5085594092770339,1.656001505739665e-10
-0.49203125,0.5084798704857962,1.707734773705706e-10
-0.492,0.5086389480682717,1.760868106147109e-10
-0.49196875,0.5085594092770339,1.815433552497725e-10
-0.4919375,0.5084798704857962,1.871463761788002e-10
-0.49190625,0.5085594092770339,1.928991991328861e-10
-0.491875,0.5085594092770339,1.988052115483651e-10
-0.49184375,0.5084798704857962,2.04867863452866e-10
-0.4918125,0.5084003316945584,2.110906683602664e-10
-0.49178125,0.5084798704857962,2.174772041745991e-10
-0.49175,0.5084798704857962,2.240311141029599e-10
-0.49171875,0.5084798704857962,2.307561075774623e-10
-0.4916875,0.5085594092770339,2.37655961186289e-10
-0.49165625,0.5085594092770339,2.447345196138875e-10
-0.491625,0.5084798704857962,2.519956965903582e-10
-0.49159375,0.5084798704857962,2.594434758500822e-10
-0.4915625,0.5086389480682717,2.670819120996371e-10
-0.49153125,0.5085594092770339,2.749151319950492e-10
-0.4915,0.5084798704857962,2.829473351284284e-10
-0.49146875,0.5084003316945584,2.911827950240358e-10
-0.4914375,0.5085594092770339,2.996258601438289e-10
-0.49140625,0.5084798704857962,3.082809549025347e-10
-0.491375,0.5084798704857962,3.171525806922968e-10
-0.49134375,0.5085594092770339,3.262453169169445e-10
-0.4913125,0.5085594092770339,3.355638220359312e-10
-0.49128125,0.5084798704857962,3.451128346179897e-10
-0.49125,0.5084798704857962,3.548971744045521e-10
-0.49121875,0.5085594092770339,3.649217433829815e-10
-0.4911875,0.5085594092770339,3.751915268696615e-10
-0.49115625,0.5085594092770339,3.857115946029939e-10
-0.491125,0.5084003316945584,3.964871018463479e-10
-0.49109375,0.5084798704857962,4.075232905010111e-10
-0.4910625,0.5085594092770339,4.188254902291871e-10
-0.49103125,0.5084798704857962,4.303991195870885e-10
-0.491,0.5084798704857962,4.422496871681708e-10
-0.49096875,0.5084003316945584,4.543827927565548e-10
-0.4909375,0.5084003316945584,4.668041284906846e-10
-0.49090625,0.5084003316945584,4.795194800372664e-10
-0.490875,0.5085594092770339,4.925347277755375e-10
-0.49084375,0.5084798704857962,5.058558479919084e-10
-0.4908125,0.5084798704857962,5.194889140850291e-10
-0.49078125,0.5085594092770339,5.334400977813205e-10
-0.49075,0.5086389480682717,5.477156703610235e-10
-0.49071875,0.5085594092770339,5.623220038948057e-10
-0.4906875,0.5085594092770339,5.772655724909781e-10
-0.49065625,0.5086389480682717,5.92552953553363e-10
-0.490625,0.5086389480682717,6.081908290498619e-10
-0.49059375,0.5085594092770339,6.24185986791768e-10
-0.4905625,0.5086389480682717,6.405453217238714e-10
-0.49053125,0.5086389480682717,6.57275837225399e-10
-0.4905,0.5085594092770339,6.74384646421839e-10
-0.49046875,0.5087184868595094,6.91878973507693e-10
-0.4904375,0.5087184868595094,7.097661550802026e-10
-0.49040625,0.5087184868595094,7.280536414840933e-10
-0.490375,0.5086389480682717,7.467489981673873e-10
-0.49034375,0.5085594092770339,7.658599070483221e-10
-0.4903125,0.5087184868595094,7.85394167893428e-10
-0.49028125,0.5086389480682717,8.05359699706803e-10
-0.49025,0.5087184868595094,8.257645421306357e-10
-0.49021875,0.5087980256507472,8.466168568570172e-10
-0.4901875,0.5086389480682717,8.679249290510899e-10
-0.49015625,0.5085594092770339,8.896971687855744e-10
-0.490125,0.5086389480682717,9.119421124867219e-10
-0.49009375,0.5087184868595094,9.346684243917366e-10
-0.4900625,0.5087980256507472,9.57884898017711e-10
-0.49003125,0.5087184868595094,9.816004576421196e-10
-0.49,0.5087184868595094,1.005824159794915e-09
-0.48996875,0.5087184868595094,1.030565194762271e-09
-0.4899375,0.5086389480682717,1.055832888102014e-09
-0.48990625,0.5086389480682717,1.081636702170791e-09
-0.489875,0.5087184868595094,1.107986237663017e-09
-0.48984375,0.5087980256507472,1.134891235161641e-09
-0.4898125,0.5087980256507472,1.162361576700783e-09
-0.48978125,0.5087184868595094,1.19040728734027e-09
-0.48975,0.5087980256507472,1.21903853675214e-09
-0.48971875,0.5087980256507472,1.248265640819126e-09
-0.4896875,0.5087184868595094,1.278099063245188e-09
-0.48965625,0.5087184868595094,1.308549417178131e-09
-0.489625,0.5088775644419848,1.339627466844334e-09
-0.48959375,0.5087980256507472,1.37134412919566e-09
-0.4895625,0.5087980256507472,1.403710475568571e-09
-0.48953125,0.5087980256507472,1.436737733355498e-09
-0.4895,0.5088775644419848,1.470437287688506e-09
-0.48946875,0.5088775644419848,1.504820683135293e-09
-0.4894375,0.5089571032332226,1.539899625407578e-09
-0.48940625,0.5090366420244603,1.575685983081903e-09
-0.489375,0.5090366420244603,1.612191789332906e-09
-0.48934375,0.5089571032332226,1.649429243679094e-09
-0.4893125,0.5089571032332226,1.687410713741169e-09
-0.48928125,0.5089571032332226,1.726148737012939e-09
-0.48925,0.5088775644419848,1.765656022644869e-09
-0.48921875,0.5090366420244603,1.805945453240288e-09
-0.4891875,0.5089571032332226,1.84703008666433e-09
-0.48915625,0.5090366420244603,1.888923157865615e-09
-0.489125,0.5089571032332226,1.931638080710728e-09
-0.48909375,0.5090366420244603,1.975188449831541e-09
-0.4890625,0.5088775644419848,2.019588042485406e-09
-0.48903125,0.5090366420244603,2.064850820428267e-09
-0.489,0.5090366420244603,2.110990931800736e-09
-0.48896875,0.509116180815698,2.158022713027155e-09
-0.4889375,0.5090366420244603,2.205960690727711e-09
-0.48890625,0.5089571032332226,2.254819583643619e-09
-0.488875,0.509116180815698,2.304614304575433e-09
-0.48884375,0.5090366420244603,2.355359962334505e-09
-0.4888125,0.509116180815698,2.407071863707644e-09
-0.48878125,0.5090366420244603,2.459765515435027e-09
-0.48875,0.5090366420244603,2.513456626201362e-09
-0.48871875,0.5090366420244603,2.56816110864039e-09
-0.4886875,0.5089571032332226,2.623895081352726e-09
-0.48865625,0.5090366420244603,2.6806748709371e-09
-0.488625,0.5089571032332226,2.738517014035037e-09
-0.48859375,0.509116180815698,2.797438259388988e-09
-0.4885625,0.5092752583981734,2.857455569913999e-09
-0.48853125,0.5091957196069358,2.918586124782896e-09
-0.4885,0.5091957196069358,2.980847321525091e-09
-0.48846875,0.509116180815698,3.044256778138974e-09
-0.4884375,0.5091957196069358,3.108832335218002e-09
-0.48840625,0.509116180815698,3.174592058090462e-09
-0.488375,0.5091957196069358,3.241554238972982e-09
