Task5_first.csv

#Digilent WaveForms Oscilloscope Acquisition
#Device Name: Discovery3
#Serial Number: SN:210415BD63A1
#Date Time: 2026-09-24 10:21:54.582.944.100
#Sample rate: 3200Hz
#Samples: 32000
#Trigger: Source: Channel 1 Type: Edge Condition: Rising Level: 0 V Hyst.: Auto HoldOff: 0 s
#Channel 1: Range: 500 mV/div Offset: 0 V Sample Mode: Average
#Math 1: Input: C1 Reference: Internal Frequency: 20 Hz Phase: 0 ° Filter: IIR Butterworth 8  Low-Pass CutOff: 5 Hz Output: Amplitude

#Wavegen Channel 1: Running
#Mode: Simple
#Type: Sine
#Frequency: 20 Hz
#Period: 50 ms
#Amplitude: 200 mV
#Offset: 0 V
#Symmetry: 50 %
#Phase: 0 °

Time (s),Channel 1 (V),Math 1 (V)
-5.000625,0.7175078138585409,2.362957139013353e-19
-5.000312500000001,0.716314731989975,4.004572713309927e-18
-5,0.7165533483636892,3.403955589328123e-17
-4.9996875,0.7171101199023523,1.948196169394189e-16
-4.999375000000001,0.7159170380337864,8.499766706153822e-16
-4.9990625,0.7252230766085982,3.032081925815976e-15
-4.99875,0.7240299947400345,9.254188745195788e-15
-4.998437500000001,0.7246663050699362,2.494362114524263e-14
-4.998125,0.7251435378173606,6.076688905594516e-14
-4.9978125,0.7240299947400345,1.36160080457073e-13
-4.9975,0.7251435378173626,2.844216668213995e-13
-4.9971875,0.7247458438611729,5.59764404080244e-13
-4.996875,0.7241095335312722,1.046759958972489e-12
-4.9965625,0.7253821541910759,1.872644083038057e-12
-4.996250000000001,0.7241095335312745,3.22298163842914e-12
-4.9959375,0.7244276886962231,5.361219597465399e-12
-4.995625,0.7248253826524117,8.652682336940579e-12
-4.995312500000001,0.7234732232013729,1.35935871740615e-11
-4.995,0.7242686111137476,2.084567918822705e-11
-4.9946875,0.7236323007838459,3.127710298890298e-11
-4.994375000000001,0.7229164516627077,4.601014527339575e-11
-4.9940625,0.7239504559487967,6.64764958163168e-11
-4.99375,0.7228369128714686,9.448068599474052e-11
-4.993437500000001,0.7232346068276564,1.322723731303931e-10
-4.993125,0.7239504559487967,1.826281458688326e-10
-4.9928125,0.7226778352889931,2.489435305691609e-10
-4.992500000000001,0.7241095335312722,3.353358812998649e-10
-4.9921875,0.7237913783663208,4.467588365676029e-10
-4.991875,0.7234732232013704,5.891290244126799e-10
-4.991562500000001,0.724745843861174,7.694656940402519e-10
-4.99125,0.723632300783847,9.960439467560549e-10
-4.9909375,0.7242686111137476,1.278562231746333e-09
-4.990625000000001,0.7249049214436495,1.628324763202482e-09
-4.9903125,0.7238709171575614,2.058439504493545e-09
-4.99,0.7251435378173626,2.584032352657784e-09
-4.9896875,0.7249049214436495,3.222478142399535e-09
-4.989375,0.7244276886962251,3.993649073089263e-09
-4.9890625,0.7255412317735512,4.920181145154576e-09
-4.98875,0.7244276886962231,6.027759173634909e-09
-4.988437500000001,0.7249049214436486,7.345420926602149e-09
-4.988125,0.7253026153998381,8.905880914944952e-09
-4.9878125,0.7241095335312722,1.074587433724408e-08
-4.987500000000001,0.7253026153998359,1.290652165981552e-08
-4.9871875,0.7248253826524117,1.543371428686e-08
-4.986875,0.7243481499049854,1.837852174959216e-08
-4.986562500000001,0.725382154191074,2.179762081623455e-08
-4.98625,0.7241095335312722,2.575374689643411e-08
-4.9859375,0.7245072274874609,3.031616808465233e-08
-4.985625000000001,0.7247458438611736,3.556118215738868e-08
-4.9853125,0.7233936844101326,4.157263680803507e-08
-4.985,0.7243481499049854,4.844247337174698e-08
-4.984687500000001,0.7237913783663213,5.627129426089001e-08
-4.984375,0.723075529245184,6.516895429819263e-08
-4.9840625,0.7242686111137476,7.525517610170551e-08
-4.983750000000001,0.7231550680364195,8.666018964197758e-08
-4.9834375,0.7235527619926091,9.952539605652654e-08
-4.983125,0.7241095335312722,1.140040557729282e-07
-4.982812500000001,0.7229164516627063,1.302620009563849e-07
-4.9825,0.7242686111137471,1.484783722612345e-07
-4.9821875,0.7239504559487967,1.688463798315404e-07
-4.981875,0.7235527619926081,1.915740884595698e-07
-4.9815625,0.7248253826524095,2.168852267736254e-07
-4.98125,0.7236323007838459,2.45020020292527e-07
-4.9809375,0.7240299947400345,2.762360481472455e-07
-4.980625000000001,0.7246663050699351,3.108091232321332e-07
-4.9803125,0.7237118395750836,3.490341955158833e-07
-4.98,0.725063999026125,3.912262782017732e-07
-4.979687500000001,0.7245867662786994,4.377213963957894e-07
-4.979375,0.7241095335312722,4.888775579014769e-07
-4.9790625,0.7255412317735512,5.450757457261994e-07
-4.978750000000001,0.7243481499049876,6.067209318512964e-07
-4.9784375,0.724745843861174,6.742431117793908e-07
-4.978125,0.7253026153998381,7.480983593393129e-07
-4.977812500000001,0.724189072322512,8.287699011989915e-07
-4.9775,0.7253821541910759,9.167692104972636e-07
-4.9771875,0.7248253826524117,1.012637118974765e-06
-4.976875000000001,0.7242686111137476,1.116944946956826e-06
-4.9765625,0.7253821541910734,1.230295650500446e-06
-4.97625,0.7240299947400345,1.353324984992646e-06
-4.975937500000001,0.7244276886962231,1.48670268445932e-06
-4.975625,0.7248253826524091,1.631133655802895e-06
-4.9753125,0.7233936844101326,1.787359187171544e-06
-4.975000000000001,0.7244276886962231,1.956158169629929e-06
-4.9746875,0.7237118395750824,2.138348331264945e-06
-4.974375,0.7230755292451818,2.334787482848745e-06
-4.9740625,0.7242686111137476,2.546374774150157e-06
-4.97375,0.7229164516627073,2.774051959949372e-06
-4.9734375,0.7234732232013704,3.018804674806387e-06
-4.973125,0.7239504559487967,3.281663715603727e-06
-4.972812500000001,0.7227573740802331,3.563706330846939e-06
-4.9725,0.72418907232251,3.866057515718123e-06
-4.9721875,0.7237913783663213,4.18989131181935e-06
-4.971875000000001,0.7233936844101334,4.536432110564868e-06
-4.9715625,0.7249049214436495,4.906955959129317e-06
-4.97125,0.7235527619926081,5.302791867854444e-06
-4.970937500000001,0.7242686111137463,5.725323118021939e-06
-4.970625,0.7249049214436495,6.175988568852257e-06
-4.9703125,0.723870917157559,6.656283962589772e-06
-4.970000000000001,0.7253821541910731,7.167763226547558e-06
-4.9696875,0.724745843861174,7.712039770933369e-06
-4.969375,0.7242686111137476,8.290787781285584e-06
-4.969062500000001,0.725620770564789,8.905743504370515e-06
-4.96875,0.7242686111137487,9.558706526327949e-06
-4.9684375,0.7249049214436495,1.025154104188764e-05
-4.968125000000001,0.7254616929823136,1.098617711348424e-05
-4.9678125,0.7241095335312746,1.176461191903359e-05
-4.9675,0.7254616929823136,1.258891098720679e-05
-4.967187500000001,0.724745843861174,1.346120941900915e-05
-4.966875,0.7241890723225122,1.438371309442516e-05
-4.9665625,0.7253821541910759,1.53586998629729e-05
-4.96625,0.7239504559487967,1.638852071698178e-05
-4.9659375,0.7242686111137482,1.747560094635637e-05
-4.965625,0.7245867662786986,1.862244127369035e-05
-4.9653125,0.7231550680364195,1.983161896856216e-05
-4.965000000000001,0.7244276886962208,2.11057889397823e-05
-4.9646875,0.7235527619926081,2.244768480452226e-05
-4.964375,0.722995990453944,2.386011993308544e-05
-4.964062500000001,0.724348149904983,2.534598846827797e-05
-4.96375,0.7229164516627063,2.690826631819258e-05
-4.9634375,0.7235527619926081,2.855001212128955e-05
-4.963125000000001,0.7241890723225088,3.027436818275681e-05
-4.9628125,0.7229164516627063,3.208456138100292e-05
-4.9625,0.7244276886962231,3.39839040432146e-05
-4.962187500000001,0.72387091715756,3.597579478902643e-05
-4.961875,0.7234732232013704,3.806371934120063e-05
-4.9615625,0.7249049214436495,4.025125130230753e-05
-4.961250000000001,0.7235527619926081,4.254205289653441e-05
-4.9609375,0.7241890723225111,4.493987567554918e-05
-4.960625,0.7248253826524117,4.744856118753315e-05
-4.960312500000001,0.7234732232013704,5.007204160854789e-05
-4.96,0.7249844602348864,5.281434033520625e-05
-4.9596875,0.7245867662786986,5.567957253791852e-05
-4.959375000000001,0.7241095335312722,5.867194567390271e-05
-4.9590625,0.7255412317735489,6.179575995901866e-05
-4.95875,0.7242686111137476,6.505540879779605e-05
-4.9584375,0.724745843861174,6.845537917093538e-05
-4.958125,0.7253026153998358,7.200025197941294e-05
-4.9578125,0.7240299947400345,7.569470234467173e-05
-4.9575,0.7253026153998381,7.954349986427506e-05
-4.957187500000001,0.7245072274874623,8.355150882221436e-05
-4.956875,0.7240299947400345,8.772368835357882e-05
-4.9565625,0.7251435378173626,9.206509256275379e-05
-4.956250000000001,0.7236323007838487,9.658087059493872e-05
-4.9559375,0.7240299947400345,0.0001012762666603126
-4.955625,0.7245072274874609,0.0001061566200103962
-4.955312500000001,0.7231550680364219,0.000111227364866443
-4.955,0.7244276886962231,0.0001164940302992868
-4.9546875,0.7236323007838459,0.0001219622400603036
-4.954375000000001,0.7229959904539451,0.0001276377123634614
-4.9540625,0.72418907232251,0.0001335262596179713
-4.95375,0.7229164516627063,0.0001396337881113118
-4.953437500000001,0.7233936844101326,0.0001459662976427561
-4.953125,0.7239504559487949,0.0001525298811069357
-4.9528125,0.722995990453944,0.0001593307240274816
-4.952500000000001,0.7242686111137476,0.0001663751040408813
-4.9521875,0.7239504559487959,0.0001736693903301335
-4.951875,0.7235527619926081,0.000181220043008567
-4.951562500000001,0.724745843861174,0.00018903361245392
-4.95125,0.7236323007838472,0.0001971167385924112
-4.9509375,0.7243481499049854,0.0002054761501333113
-4.950625,0.725063999026125,0.0002141186637542322
-4.9503125,0.7239504559487991,0.0002230511832369418
-4.95,0.7253026153998381,0.0002322806985543686
-4.9496875,0.725063999026125,0.0002418142849091336
-4.949375000000001,0.7245072274874619,0.0002516591017234525
-4.9490625,0.7257003093560267,0.0002618223915814841
-4.94875,0.7245072274874609,0.0002723114791238155
-4.948437500000001,0.7249844602348863,0.000283133769895263
-4.948125,0.7254616929823136,0.0002942967491459736
-4.9478125,0.7243481499049854,0.0003058079805863196
-4.947500000000001,0.7256207705647867,0.000317675105096691
-4.9471875,0.7252230766086004,0.0003299058393922661
-4.946875,0.7244276886962231,0.0003425079746433543
-4.946562500000001,0.7255412317735492,0.0003554893750525742
-4.94625,0.72418907232251,0.0003688579763889976
-4.9459375,0.7245867662786986,0.0003826217844799529
-4.945625000000001,0.724745843861174,0.0003967888736619298
-4.9453125,0.7234732232013723,0.0004113673851906072
-4.945,0.7245072274874609,0.0004263655256111361
-4.944687500000001,0.7237913783663213,0.0004417915650899475
-4.944375,0.7230755292451841,0.0004576538357080687
-4.9440625,0.7243481499049854,0.0004739607297176135
-4.943750000000001,0.723314145618895,0.0004907206977624362
-4.9434375,0.7237913783663221,0.0005079422470631085
-4.943125,0.72418907232251,0.000525633939567995
-4.9428125,0.7230755292451818,0.0005438043900715009
-4.9425,0.7242686111137467,0.0005624622642996498
-4.9421875,0.7237913783663213,0.0005816162769649086
-4.941875,0.7234732232013704,0.0006012751897913985
-4.941562500000001,0.7248253826524093,0.0006214478095105692
-4.94125,0.7236323007838459,0.0006421429858298999
-4.9409375,0.7242686111137476,0.0006633696093742704
-4.940625000000001,0.7249844602348858,0.0006851366096026452
-4.9403125,0.7240299947400345,0.0007074529527002021
-4.94,0.7253026153998381,0.0007303276394470323
-4.939687500000001,0.7249049214436503,0.0007537697030656982
-4.939375,0.7245867662786986,0.000777788207047807
-4.9390625,0.725620770564789,0.0008023922429607623
-4.938750000000001,0.7245867662787004,0.0008275909282370888
-4.9384375,0.725063999026125,0.0008533934039464428
-4.938125,0.7254616929823136,0.0008798088325514809
-4.937812500000001,0.72418907232251,0.0009068463956501481
-4.9375,0.7254616929823126,0.0009345152917041279
-4.9371875,0.7249049214436495,0.0009628247337553152
-4.936875000000001,0.7244276886962231,0.0009917839471323298
-4.9365625,0.7253821541910733,0.001021402167146631
-4.93625,0.7239504559487967,0.001051688636780908
-4.935937500000001,0.7242686111137476,0.001082652604371074
-4.935625,0.7245867662786961,0.001114303321281614
-4.9353125,0.7232346068276572,0.00114665003957699
-4.935,0.72418907232251,0.001179702009690433
-4.9346875,0.7237118395750824,0.001213468478089738
-4.934375,0.7230755292451818,0.001247958684942849
-4.9340625,0.72418907232251,0.001283181861784539
-4.933750000000001,0.7229959904539462,0.001319147229183536
-4.9334375,0.7233936844101326,0.001355863994413874
-4.933125,0.7240299947400345,0.001393341349128963
-4.932812500000001,0.7229959904539459,0.001431588467042196
-4.9325,0.7242686111137476,0.00147061450161337
-4.9321875,0.7239504559487967,0.001510428583741971
-4.931875000000001,0.7235527619926089,0.001551039819470324
-4.9315625,0.7249049214436495,0.001592457287695851
-4.93125,0.7236323007838459,0.001634690037893421
-4.930937500000001,0.7240299947400337,0.001677747087850848
-4.930625,0.7249049214436495,0.001721637421416603
-4.9303125,0.723870917157559,0.001766369986260642
-4.930000000000001,0.7252230766086004,0.001811953691651549
-4.9296875,0.7249049214436485,0.001858397406248363
-4.929375,0.7243481499049854,0.001905709955909057
-4.929062500000001,0.725620770564789,0.001953900121517807
-4.92875,0.7245867662786994,0.002002976636829102
-4.9284375,0.725063999026125,0.002052948186331869
-4.928125000000001,0.725620770564789,0.002103823403134557
-4.9278125,0.7244276886962253,0.002155610866869447
-4.9275,0.725620770564789,0.002208319101619359
-4.9271875,0.7249844602348872,0.002261956573867583
-4.926875,0.7245072274874631,0.002316531690469067
-4.9265625,0.7257003093560267,0.002372052796646095
-4.92625,0.7242686111137476,0.002428528174009138
-4.925937500000001,0.7246663050699355,0.002485966038600507
-4.925625,0.725063999026125,0.00254437453896551
-4.9253125,0.7236323007838459,0.002603761754247285
-4.925000000000001,0.7245867662786968,0.002664135692310056
-4.9246875,0.7240299947400345,0.002725504287888231
-4.924375,0.723314145618895,0.002787875400761626
-4.924062500000001,0.7244276886962211,0.002851256813960178
-4.92375,0.7231550680364195,0.002915656231995519
-4.9234375,0.7237118395750836,0.002981081279119587
-4.923125000000001,0.7241890723225091,0.00304753949761366
-4.9228125,0.7231550680364195,0.003115038346104936
-4.9225,0.7245072274874609,0.003183585197910715
-4.922187500000001,0.7240299947400345,0.003253187339413743
-4.921875,0.7234732232013729,0.003323851968464805
-4.9215625,0.7248253826524117,0.003395586192814283
-4.921250000000001,0.7234732232013704,0.003468397028574558
-4.9209375,0.7242686111137487,0.00354229139870896
-4.920625,0.7249049214436495,0.003617276131550802
-4.920312500000001,0.7237118395750836,0.003693357959352551
-4.92,0.7251435378173616,0.003770543516861287
-4.9196875,0.7245867662786986,0.003848839339923936
-4.919375,0.72418907232251,0.003928251864122209
-4.9190625,0.7255412317735487,0.004008787423433162
-4.91875,0.7241095335312722,0.004090452248918874
-4.9184375,0.724745843861174,0.004173252467445153
-4.918125000000001,0.7254616929823122,0.004257194100424523
-4.9178125,0.72418907232251,0.0043422830625893
-4.9175,0.7254616929823136,0.00442852516078804
-4.917187500000001,0.7249049214436505,0.004515926092811168
-4.916875,0.7244276886962231,0.00460449144624096
-4.9165625,0.7257003093560267,0.004694226697325299
-4.916250000000001,0.7242686111137502,0.004785137209879001
-4.9159375,0.7245867662786986,0.004877228234207981
-4.915625,0.7249049214436495,0.004970504906055549
-4.915312500000001,0.723473223201373,0.005064972245574779
-4.915,0.7246663050699362,0.005160635156321946
-4.9146875,0.723870917157559,0.005257498424270272
-4.914375000000001,0.7232346068276572,0.005355566716848214
-4.9140625,0.7245072274874584,0.005454844581995986
-4.91375,0.7231550680364195,0.00555533644724197
-4.913437500000001,0.7236323007838459,0.005657046618800989
-4.913125,0.7242686111137453,0.005759979280687682
-4.9128125,0.722995990453944,0.005864138493849402
-4.912500000000001,0.7245072274874609,0.005969528195317992
-4.9121875,0.7241095335312714,0.006076152197374617
-4.911875,0.7237118395750836,0.006184014186731968
-4.9115625,0.7251435378173626,0.006293117723733225
-4.91125,0.7236323007838473,0.006403466241561736
-4.9109375,0.7244276886962231,0.006515063045465877
-4.910625,0.725063999026125,0.006627911311998518
-4.910312500000001,0.7239504559487987,0.006742014088264392
-4.91,0.7254616929823136,0.006857374291182966
-4.9096875,0.7249049214436495,0.006973994706757487
-4.909375000000001,0.7245867662786991,0.007091877989357864
-4.9090625,0.7259389257297399,0.007211026661010755
-4.90875,0.724745843861174,0.007331443110695947
-4.908437500000001,0.7252230766085995,0.007453129593654123
-4.908125,0.7257003093560267,0.007576088230699602
-4.9078125,0.7244276886962231,0.007700321007537181
-4.907500000000001,0.7256207705647868,0.007825829774088409
-4.9071875,0.7251435378173626,0.007952616243820697
-4.906875,0.7245867662786986,0.008080681993078469
-4.906562500000001,0.7257003093560267,0.008210028460422151
-4.90625,0.7242686111137486,0.008340656945966848
-4.9059375,0.7248253826524117,0.008472568610723241
-4.905625000000001,0.7249049214436495,0.008605764475943562
-4.9053125,0.7234732232013724,0.008740245422464172
-4.905,0.7245867662786986,0.008876012190050896
-4.904687500000001,0.723870917157559,0.009013065376746744
-4.904375,0.7231550680364215,0.009151405438214841
-4.9040625,0.7242686111137476,0.009291032687082779
-4.90375,0.7230755292451818,0.009431947292288061
-4.9034375,0.7234732232013715,0.009574149278417404
-4.903125,0.7241095335312722,0.009717638525046333
-4.9028125,0.722995990453944,0.009862414766078928
-4.902500000000001,0.724348149904983,0.01000847758907976
-4.9021875,0.7240299947400345,0.01015582643460857
-4.901875,0.7236323007838459,0.01030446059554634
-4.901562500000001,0.7248253826524095,0.01045437921642346
-4.90125,0.7235527619926081,0.01060558129274227
-4.9009375,0.7242686111137476,0.01075806567029356
-4.900625000000001,0.7248253826524107,0.01091183104447451
-4.9003125,0.7237913783663213,0.01106687595960062
-4.9,0.7251435378173626,0.01122319880821161
-4.899687500000001,0.7247458438611748,0.01138079783037874
-4.899375,0.7242686111137476,0.01153967111300629
-4.8990625,0.7254616929823136,0.01169981658912721
-4.898750000000001,0.7242686111137476,0.01186123203720091
-4.8984375,0.7247458438611749,0.01202391508040433
-4.898125,0.7252230766086004,0.01218786318592011
-4.897812500000001,0.7241095335312722,0.01235307366422668
-4.8975,0.7252230766085994,0.01251954366838051
-4.8971875,0.7246663050699362,0.01268727019329942
-4.896875000000001,0.7241095335312722,0.01285625007504734
-4.8965625,0.7253026153998358,0.01302647999011269
-4.89625,0.7240299947400345,0.01319795645468919
-4.8959375,0.7244276886962231,0.01337067582395964
-4.895625,0.7247458438611716,0.01354463429137476
-4.8953125,0.7233936844101326,0.01371982788793622
-4.895,0.7242686111137476,0.01389625248148445
-4.894687500000001,0.723632300783847,0.0140739037759827
-4.894375,0.722995990453944,0.01425277731081117
-4.8940625,0.72418907232251,0.01443286846005848
-4.893750000000001,0.7232346068276589,0.01461417243182434
-4.8934375,0.7236323007838459,0.01479668426752509
-4.893125,0.72418907232251,0.01498039884120267
-4.892812500000001,0.7230755292451838,0.01516531085884687
-4.8925,0.7243481499049854,0.01535141485772292
-4.8921875,0.7240299947400345,0.01553870520570517
-4.891875000000001,0.7238709171575594,0.01572717610062694
-4.8915625,0.7249844602348872,0.01591682156963842
-4.89125,0.7237913783663213,0.01610763546857366
-4.890937500000001,0.7243481499049854,0.01629961148133702
-4.890625,0.7249844602348853,0.01649274311929912
-4.8903125,0.7239504559487967,0.01668702372070782
-4.890000000000001,0.7252230766086004,0.01688244645012053
-4.8896875,0.7249049214436485,0.0170790042978471
-4.889375,0.7243481499049854,0.01727669007941443
-4.889062500000001,0.7255412317735512,0.01747549643505381
-4.88875,0.7244276886962241,0.01767541582920269
-4.8884375,0.7249844602348872,0.01787644055003134
-4.888125,0.7255412317735512,0.01807856270899597
-4.8878125,0.7244276886962251,0.01828177424040938
-4.8875,0.7255412317735512,0.01848606690104022
-4.8871875,0.7249844602348872,0.01869143226974201
-4.886875000000001,0.7243481499049865,0.01889786174710244
-4.8865625,0.7254616929823136,0.0191053465551293
-4.88625,0.7242686111137476,0.01931387773695836
