Task5_45-9.csv

#Digilent WaveForms Oscilloscope Acquisition
#Device Name: Discovery3
#Serial Number: SN:210415BD63A1
#Date Time: 2026-09-24 10:57:59.702.858.730
#Sample rate: 32000Hz
#Samples: 32000
#Trigger: Source: Channel 1 Type: Edge Condition: Rising Level: 0 V Hyst.: Auto HoldOff: 0 s
#Channel 1: Range: 500 mV/div Offset: 0 V Sample Mode: Average
#Math 1: Input: C1 Reference: Internal Frequency: 20 Hz Phase: 90 ° Filter: IIR Butterworth 8  Low-Pass CutOff: 10 Hz Output: Amplitude

#Wavegen Channel 1: Running
#Mode: Simple
#Type: Sine
#Frequency: 20 Hz
#Period: 50 ms
#Amplitude: 200 mV
#Offset: 0 V
#Symmetry: 50 %
#Phase: 0 °

Time (s),Channel 1 (V),Math 1 (V)
-0.5,0.4847773106969538,4.152965631839362e-25
-0.49996875,0.4847773106969538,7.055858789354329e-24
-0.4999375,0.4846977719057161,6.014259337600714e-23
-0.49990625,0.4848568494881915,3.45258340883571e-22
-0.499875,0.4846977719057161,1.511235904348713e-21
-0.49984375,0.4849363882794293,5.409661970428862e-21
-0.4998125,0.485015927070667,1.657106548051745e-20
-0.49978125,0.4848568494881915,4.483554583422783e-20
-0.49975,0.4848568494881915,1.09657646951922e-19
-0.49971875,0.4849363882794293,2.46706284518989e-19
-0.4996875,0.4848568494881915,5.174804913713777e-19
-0.49965625,0.485015927070667,1.022760663784525e-18
-0.499625,0.4848568494881915,1.920812871170632e-18
-0.49959375,0.4849363882794293,3.4513606347556e-18
-0.4995625,0.4850954658619047,5.966434388262398e-18
-0.49953125,0.4852545434443801,9.969303606154273e-18
-0.4995,0.4851750046531424,1.616279032575698e-17
-0.49946875,0.4851750046531424,2.550835550612392e-17
-0.4994375,0.4850954658619047,3.929744136783367e-17
-0.49940625,0.4850954658619047,5.923664355091682e-17
-0.499375,0.4851750046531424,8.754837661823144e-17
-0.49934375,0.4852545434443801,1.270887851253478e-16
-0.4993125,0.4853340822356179,1.814847401822475e-16
-0.49928125,0.4852545434443801,2.552918481508758e-16
-0.49925,0.4853340822356179,3.541754838564583e-16
-0.49921875,0.4852545434443801,4.851169454401687e-16
-0.4991875,0.4852545434443801,6.566469117495086e-16
-0.49915625,0.4851750046531424,8.791084659562372e-16
-0.499125,0.4850954658619047,1.164952030917437e-15
-0.49909375,0.4851750046531424,1.529064642663335e-15
-0.4990625,0.4852545434443801,1.989136068316003e-15
-0.49903125,0.4854136210268556,2.56606435372141e-15
-0.499,0.4852545434443801,3.284403464113337e-15
-0.49896875,0.4853340822356179,4.17285575822107e-15
-0.4989375,0.4852545434443801,5.26481211238525e-15
-0.49890625,0.4854931598180933,6.598942586460101e-15
-0.498875,0.4855726986093311,8.219840597556611e-15
-0.49884375,0.4854931598180933,1.017872364102219e-14
-0.4988125,0.4854136210268556,1.253419367046352e-14
-0.49878125,0.4854136210268556,1.535306032010865e-14
-0.49875,0.4856522374005688,1.871123022337868e-14
-0.49871875,0.4855726986093311,2.269466575120184e-14
-0.4986875,0.4855726986093311,2.740041656235794e-14
-0.49865625,0.4855726986093311,3.293772742599158e-14
-0.498625,0.4855726986093311,3.942922584338338e-14
-0.49859375,0.4854931598180933,4.701219306212328e-14
-0.4985625,0.4855726986093311,5.583992214099202e-14
-0.49853125,0.4855726986093311,6.608316678813122e-14
-0.4985,0.4855726986093311,7.793168475846916e-14
-0.49846875,0.4857317761918065,9.159587965887687e-14
-0.4984375,0.4856522374005688,1.073085450711651e-13
-0.49840625,0.4858113149830442,1.253267149638068e-13
-0.498375,0.4857317761918065,1.459336244231919e-13
-0.49834375,0.4856522374005688,1.694407847942814e-13
-0.4983125,0.4857317761918065,1.961901773787425e-13
-0.49828125,0.4856522374005688,2.265565698959948e-13
-0.49825,0.4856522374005688,2.609499599690951e-13
-0.49821875,0.4857317761918065,2.998181499530486e-13
-0.4981875,0.4855726986093311,3.436494574779437e-13
-0.49815625,0.4856522374005688,3.929755661332917e-13
-0.498125,0.4856522374005688,4.48374520773098e-13
-0.49809375,0.4858113149830442,5.104738719735154e-13
-0.4980625,0.4857317761918065,5.799539742264293e-13
-0.49803125,0.4856522374005688,6.575514425030121e-13
-0.498,0.4858908537742819,7.440627718711613e-13
-0.49796875,0.4858908537742819,8.403481248998009e-13
-0.4979375,0.4834251512459125,9.473352916313017e-13
-0.49790625,0.4834251512459125,1.066023826950751e-12
-0.497875,0.483266073663437,1.197489370227474e-12
-0.49784375,0.4834251512459125,1.342888152150114e-12
-0.4978125,0.483266073663437,1.50346169372166e-12
-0.49778125,0.4836637676196256,1.680541702425129e-12
-0.49775,0.4834251512459125,1.875555170614133e-12
-0.49771875,0.4834251512459125,2.090029681225287e-12
-0.4976875,0.4834251512459125,2.325598925951408e-12
-0.49765625,0.4835046900371502,2.584008441055622e-12
-0.497625,0.4835046900371502,2.867121566046922e-12
-0.49759375,0.4834251512459125,3.176925630477398e-12
-0.4975625,0.4835046900371502,3.515538374160254e-12
-0.49753125,0.4834251512459125,3.885214606145884e-12
-0.4975,0.4834251512459125,4.288353107830704e-12
-0.49746875,0.4835046900371502,4.727503785610117e-12
-0.4974375,0.4834251512459125,5.20537507852289e-12
-0.49740625,0.4835046900371502,5.724841626369409e-12
-0.497375,0.4835046900371502,6.288952203820701e-12
-0.49734375,0.4834251512459125,6.900937926068862e-12
-0.4973125,0.4835046900371502,7.56422073160242e-12
-0.49728125,0.4834251512459125,8.282422147722486e-12
-0.49725,0.4835842288283879,9.059372344446995e-12
-0.49721875,0.4836637676196256,9.899119482481211e-12
-0.4971875,0.4835842288283879,1.080593936096276e-11
-0.49715625,0.4835046900371502,1.178434537071878e-11
-0.497125,0.4836637676196256,1.283909875880173e-11
-0.49709375,0.4835046900371502,1.397521921009804e-11
-0.4970625,0.4835842288283879,1.519799575183151e-11
-0.49703125,0.4835842288283879,1.65129979868096e-11
-0.497,0.4835842288283879,1.792608766128702e-11
-0.49696875,0.4835842288283879,1.944343057334599e-11
-0.4969375,0.4835046900371502,2.107150882771723e-11
-0.49690625,0.4836637676196256,2.281713344298976e-11
-0.496875,0.4836637676196256,2.46874573171806e-11
-0.49684375,0.4836637676196256,2.668998855765809e-11
-0.4968125,0.4836637676196256,2.883260418143469e-11
-0.49678125,0.4837433064108633,3.112356419186597e-11
-0.49675,0.4837433064108633,3.357152603781337e-11
-0.49671875,0.4837433064108633,3.618555946134839e-11
-0.4966875,0.4838228452021011,3.897516174009452e-11
-0.49665625,0.4837433064108633,4.195027333032285e-11
-0.496625,0.4836637676196256,4.512129391693435e-11
-0.49659375,0.4836637676196256,4.849909887647984e-11
-0.4965625,0.4837433064108633,5.20950561593851e-11
-0.49653125,0.4835842288283879,5.592104359756477e-11
-0.4965,0.4835046900371502,5.99894666436243e-11
-0.49646875,0.4835842288283879,6.431327654786372e-11
-0.4964375,0.4835842288283879,6.890598897931181e-11
-0.49640625,0.4836637676196256,7.378170309703242e-11
-0.496375,0.4836637676196256,7.895512107795756e-11
-0.49634375,0.4835842288283879,8.444156810751555e-11
-0.4963125,0.4835842288283879,9.025701283933225e-11
-0.49628125,0.4836637676196256,9.641808833029674e-11
-0.49625,0.4835842288283879,1.02942113457292e-10
-0.49621875,0.4837433064108633,1.098471148219019e-10
-0.4961875,0.4835842288283879,1.171518491494147e-10
-0.49615625,0.4837433064108633,1.248758261884527e-10
-0.496125,0.4837433064108633,1.330393321175658e-10
-0.49609375,0.4835842288283879,1.41663453465134e-10
-0.4960625,0.4835842288283879,1.507701015489308e-10
-0.49603125,0.4835046900371502,1.603820374417082e-10
-0.496,0.4836637676196256,1.705228974691657e-10
-0.49596875,0.4836637676196256,1.812172192466767e-10
-0.4959375,0.4835842288283879,1.924904682611451e-10
-0.49590625,0.4835842288283879,2.043690650043727e-10
-0.495875,0.4835842288283879,2.168804126643211e-10
-0.49584375,0.4836637676196256,2.300529253806531e-10
-0.4958125,0.4835842288283879,2.439160570709457e-10
-0.49578125,0.4836637676196256,2.585003308339621e-10
-0.49575,0.4837433064108633,2.73837368936379e-10
-0.49571875,0.4836637676196256,2.899599233893612e-10
-0.4956875,0.4837433064108633,3.06901907121379e-10
-0.49565625,0.4836637676196256,3.246984257536623e-10
-0.495625,0.4836637676196256,3.433858099846853e-10
-0.49559375,0.4838228452021011,3.630016485900753e-10
-0.4955625,0.4838228452021011,3.835848220443364e-10
-0.49553125,0.4837433064108633,4.051755367707767e-10
-0.4955,0.4837433064108633,4.278153600260278e-10
-0.49546875,0.4835842288283879,4.515472554255369e-10
-0.4954375,0.4836637676196256,4.764156191164134e-10
-0.49540625,0.4837433064108633,5.024663166040056e-10
-0.495375,0.4836637676196256,5.297467202385775e-10
-0.49534375,0.4835842288283879,5.583057473684522e-10
-0.4953125,0.4837433064108633,5.881938991659825e-10
-0.49528125,0.4836637676196256,6.194633001327033e-10
-0.49525,0.4836637676196256,6.521677382900095e-10
-0.49521875,0.4836637676196256,6.863627060617082e-10
-0.4951875,0.4835046900371502,7.221054418547677e-10
-0.49515625,0.4835046900371502,7.594549723445977e-10
-0.495125,0.4833456124546747,7.984721554711701e-10
-0.49509375,0.4835046900371502,8.392197241522931e-10
-0.4950625,0.4835046900371502,8.817623307203329e-10
-0.49503125,0.4835046900371502,9.261665920886718e-10
-0.495,0.4835842288283879,9.725011356541825e-10
-0.49496875,0.4837433064108633,1.020836645941984e-09
-0.4949375,0.4835842288283879,1.071245911998732e-09
-0.49490625,0.4835842288283879,1.123803875540696e-09
-0.494875,0.4835842288283879,1.178587679862846e-09
-0.49484375,0.4835842288283879,1.235676719515171e-09
-0.4948125,0.4836637676196256,1.295152690752435e-09
-0.49478125,0.4834251512459125,1.357099642763571e-09
-0.49475,0.4835046900371502,1.421604029686878e-09
-0.49471875,0.4835842288283879,1.488754763417189e-09
-0.4946875,0.4833456124546747,1.558643267211173e-09
-0.49465625,0.4833456124546747,1.631363530096889e-09
-0.494625,0.4834251512459125,1.707012162093711e-09
-0.49459375,0.4833456124546747,1.785688450248744e-09
-0.4945625,0.4833456124546747,1.867494415495794e-09
-0.49453125,0.4834251512459125,1.952534870342979e-09
-0.4945,0.4833456124546747,2.040917477395028e-09
-0.49446875,0.4833456124546747,2.132752808716288e-09
-0.4944375,0.4834251512459125,2.228154406040482e-09
-0.49440625,0.4833456124546747,2.327238841833197e-09
-0.494375,0.4834251512459125,2.430125781213074e-09
-0.49434375,0.4831865348721993,2.536938044737686e-09
-0.4943125,0.4833456124546747,2.647801672060017e-09
-0.49428125,0.4834251512459125,2.762845986461476e-09
-0.49425,0.4833456124546747,2.882203660267336e-09
-0.49421875,0.483266073663437,3.006010781150489e-09
-0.4941875,0.483266073663437,3.134406919329358e-09
-0.49415625,0.483266073663437,3.267535195665818e-09
-0.494125,0.4831069960809615,3.405542350668919e-09
-0.49409375,0.483266073663437,3.548578814410229e-09
-0.4940625,0.4833456124546747,3.696798777356532e-09
-0.49403125,0.483266073663437,3.85036026212566e-09
-0.494,0.4831865348721993,4.009425196171155e-09
-0.49396875,0.483266073663437,4.174159485401472e-09
-0.4939375,0.4831865348721993,4.344733088739385e-09
-0.49390625,0.4831865348721993,4.521320093627269e-09
-0.493875,0.4831865348721993,4.70409879248385e-09
-0.49384375,0.4830274572897238,4.893251760118045e-09
-0.4938125,0.4830274572897238,5.08896593210545e-09
-0.49378125,0.4829479184984861,5.291432684133058e-09
-0.49375,0.4831069960809615,5.500847912317653e-09
-0.49371875,0.4831069960809615,5.717412114503476e-09
-0.4936875,0.4831069960809615,5.941330472544537e-09
-0.49365625,0.4829479184984861,6.172812935577077e-09
-0.493625,0.4829479184984861,6.412074304287562e-09
-0.49359375,0.4829479184984861,6.659334316181598e-09
-0.4935625,0.4828683797072483,6.914817731859133e-09
-0.49353125,0.4828683797072483,7.178754422301262e-09
-0.4935,0.4829479184984861,7.451379457173942e-09
-0.49346875,0.4829479184984861,7.732933194153885e-09
-0.4934375,0.4828683797072483,8.023661369281866e-09
-0.49340625,0.4828683797072483,8.323815188348671e-09
-0.493375,0.4828683797072483,8.633651419318823e-09
-0.49334375,0.4827888409160106,8.953432485797297e-09
-0.4933125,0.4828683797072483,9.283426561544314e-09
-0.49328125,0.4827888409160106,9.623907666043272e-09
-0.49325,0.4827093021247729,9.975155761126927e-09
-0.49321875,0.4827093021247729,1.033745684866681e-08
-0.4931875,0.4827888409160106,1.071110306933088e-08
-0.49315625,0.4827888409160106,1.109639280241441e-08
-0.493125,0.4827888409160106,1.149363076674893e-08
-0.49309375,0.4826297633335352,1.190312812269433e-08
-0.4930625,0.4825502245422975,1.232520257521866e-08
-0.49303125,0.4826297633335352,1.276017847807088e-08
-0.493,0.4827093021247729,1.320838693905089e-08
-0.49296875,0.4825502245422975,1.367016592638204e-08
-0.4929375,0.4825502245422975,1.414586037619051e-08
-0.49290625,0.4825502245422975,1.463582230109645e-08
-0.492875,0.4824706857510597,1.514041089992143e-08
-0.49284375,0.4825502245422975,1.565999266851697e-08
-0.4928125,0.4826297633335352,1.619494151171848e-08
-0.49278125,0.4824706857510597,1.674563885642952e-08
-0.49275,0.4826297633335352,1.731247376584053e-08
-0.49271875,0.4826297633335352,1.789584305478673e-08
-0.4926875,0.4826297633335352,1.849615140624969e-08
-0.49265625,0.4825502245422975,1.911381148900668e-08
-0.492625,0.4824706857510597,1.974924407643258e-08
-0.49259375,0.482391146959822,2.04028781664583e-08
-0.4925625,0.4825502245422975,2.107515110269033e-08
-0.49253125,0.4825502245422975,2.176650869669539e-08
-0.4925,0.482391146959822,2.247740535145462e-08
-0.49246875,0.4823116081685843,2.320830418599144e-08
-0.4924375,0.4825502245422975,2.395967716117719e-08
-0.49240625,0.482391146959822,2.473200520671862e-08
-0.492375,0.482391146959822,2.552577834933144e-08
-0.49234375,0.482391146959822,2.634149584210381e-08
-0.4923125,0.482391146959822,2.717966629505388e-08
-0.49228125,0.4825502245422975,2.804080780688526e-08
-0.49225,0.4825502245422975,2.892544809794432e-08
-0.49221875,0.4824706857510597,2.983412464438329e-08
-0.4921875,0.4824706857510597,3.076738481353294e-08
-0.49215625,0.4825502245422975,3.172578600048851e-08
-0.492125,0.4823116081685843,3.270989576591297e-08
-0.49209375,0.482391146959822,3.372029197506083e-08
-0.4920625,0.4824706857510597,3.475756293802677e-08
-0.49203125,0.482391146959822,3.582230755122217e-08
-0.492,0.4823116081685843,3.691513544008346e-08
-0.49196875,0.482391146959822,3.803666710301577e-08
-0.4919375,0.4824706857510597,3.91875340565753e-08
-0.49190625,0.4823116081685843,4.036837898189402e-08
-0.491875,0.4822320693773465,4.157985587234996e-08
-0.49184375,0.4824706857510597,4.28226301824867e-08
-0.4918125,0.482391146959822,4.409737897818502e-08
-0.49178125,0.4824706857510597,4.540479108809053e-08
-0.49175,0.4824706857510597,4.674556725630004e-08
-0.49171875,0.4824706857510597,4.812042029631017e-08
-0.4916875,0.482391146959822,4.953007524623133e-08
-0.49165625,0.482391146959822,5.097526952527009e-08
-0.491625,0.4824706857510597,5.245675309148321e-08
-0.49159375,0.482391146959822,5.397528860080607e-08
-0.4915625,0.482391146959822,5.553165156735886e-08
-0.49153125,0.4824706857510597,5.71266305250332e-08
-0.4915,0.4823116081685843,5.876102719036229e-08
-0.49146875,0.4824706857510597,6.043565662667728e-08
-0.4914375,0.482391146959822,6.21513474095528e-08
-0.49140625,0.4824706857510597,6.390894179354444e-08
-0.491375,0.4824706857510597,6.570929588022074e-08
-0.49134375,0.4824706857510597,6.755327978749278e-08
-0.4913125,0.4825502245422975,6.944177782024334e-08
-0.49128125,0.482391146959822,7.137568864225902e-08
-0.49125,0.4825502245422975,7.335592544946719e-08
-0.49121875,0.4824706857510597,7.538341614448067e-08
-0.4911875,0.4824706857510597,7.745910351245263e-08
-0.49115625,0.4824706857510597,7.958394539824372e-08
-0.491125,0.4825502245422975,8.175891488490428e-08
-0.49109375,0.4826297633335352,8.398500047347381e-08
-0.4910625,0.4826297633335352,8.626320626409955e-08
-0.49103125,0.4826297633335352,8.859455213847735e-08
-0.491,0.4825502245422975,9.098007394361581e-08
-0.49096875,0.4824706857510597,9.342082367692709e-08
-0.4909375,0.4824706857510597,9.591786967264524e-08
-0.49090625,0.4825502245422975,9.847229678957534e-08
-0.490875,0.4824706857510597,1.010852066001743e-07
-0.49084375,0.482391146959822,1.03757717580966e-07
-0.4908125,0.482391146959822,1.064909653042927e-07
-0.49078125,0.482391146959822,1.09286102631404e-07
-0.49075,0.4825502245422975,1.121442999068858e-07
-0.49071875,0.4824706857510597,1.150667451544306e-07
-0.4906875,0.4824706857510597,1.180546442739511e-07
-0.49065625,0.4826297633335352,1.211092212400386e-07
-0.490625,0.4825502245422975,1.24231718301768e-07
-0.49059375,0.4825502245422975,1.274233961838514e-07
-0.4905625,0.4825502245422975,1.306855342891396e-07
-0.49053125,0.4824706857510597,1.340194309024773e-07
-0.4905,0.482391146959822,1.374264033959083e-07
-0.49046875,0.4824706857510597,1.409077884352367e-07
-0.4904375,0.4827093021247729,1.444649421879418e-07
-0.49040625,0.4827888409160106,1.480992405324506e-07
-0.490375,0.4827093021247729,1.518120792687675e-07
-0.49034375,0.4826297633335352,1.556048743304634e-07
-0.4903125,0.4826297633335352,1.594790619980246e-07
-0.49028125,0.4825502245422975,1.634360991135635e-07
-0.49025,0.4826297633335352,1.674774632968904e-07
-0.49021875,0.4826297633335352,1.716046531629504e-07
-0.4901875,0.4826297633335352,1.758191885406227e-07
-0.49015625,0.4827093021247729,1.801226106928865e-07
-0.490125,0.4827093021247729,1.845164825383521e-07
-0.49009375,0.4828683797072483,1.890023888741589e-07
-0.4900625,0.4827888409160106,1.935819366002412e-07
-0.49003125,0.4827888409160106,1.98256754944962e-07
-0.49,0.4827888409160106,2.030284956921163e-07
-0.48996875,0.4826297633335352,2.078988334093035e-07
-0.4899375,0.4827093021247729,2.128694656776693e-07
-0.48990625,0.4827093021247729,2.179421133230198e-07
-0.489875,0.4827888409160106,2.231185206483055e-07
-0.48984375,0.4828683797072483,2.284004556674766e-07
-0.4898125,0.4828683797072483,2.337897103407113e-07
-0.48978125,0.4827888409160106,2.392881008110156e-07
-0.48975,0.4827093021247729,2.448974676421951e-07
-0.48971875,0.4826297633335352,2.506196760582002e-07
-0.4896875,0.4827888409160106,2.564566161838442e-07
-0.48965625,0.4826297633335352,2.624102032868937e-07
-0.489625,0.4828683797072483,2.684823780215322e-07
-0.48959375,0.4827093021247729,2.746751066731973e-07
-0.4895625,0.4827888409160106,2.809903814047904e-07
-0.48953125,0.4827888409160106,2.87430220504259e-07
-0.4895,0.4829479184984861,2.939966686335531e-07
-0.48946875,0.4829479184984861,3.006917970789526e-07
-0.4894375,0.4829479184984861,3.075177040027678e-07
-0.48940625,0.4829479184984861,3.144765146964127e-07
-0.489375,0.4828683797072483,3.215703818348486e-07
-0.48934375,0.4829479184984861,3.288014857324004e-07
-0.4893125,0.4830274572897238,3.361720345999435e-07
-0.48928125,0.4830274572897238,3.436842648034604e-07
-0.48925,0.4831069960809615,3.513404411239689e-07
-0.48921875,0.4830274572897238,3.591428570188176e-07
-0.4891875,0.4829479184984861,3.670938348843523e-07
-0.48915625,0.4829479184984861,3.751957263199489e-07
-0.489125,0.4830274572897238,3.834509123934145e-07
-0.48909375,0.4830274572897238,3.91861803907754e-07
-0.4890625,0.4829479184984861,4.004308416693044e-07
-0.48903125,0.4829479184984861,4.091604967572321e-07
-0.489,0.4831069960809615,4.180532707943948e-07
-0.48896875,0.4831069960809615,4.271116962195668e-07
-0.4889375,0.4830274572897238,4.363383365610252e-07
-0.48890625,0.4830274572897238,4.45735786711498e-07
-0.488875,0.4830274572897238,4.55306673204472e-07
-0.48884375,0.4830274572897238,4.650536544918576e-07
-0.4888125,0.4831069960809615,4.749794212230132e-07
-0.48878125,0.4831069960809615,4.850866965251237e-07
-0.48875,0.4831069960809615,4.953782362849359e-07
-0.48871875,0.4831069960809615,5.05856829431844e-07
-0.4886875,0.4830274572897238,5.165252982223304e-07
-0.48865625,0.4831069960809615,5.273864985257553e-07
-0.488625,0.4831865348721993,5.384433201114953e-07
-0.48859375,0.4831865348721993,5.496986869374286e-07
-0.4885625,0.483266073663437,5.611555574397683e-07
-0.48853125,0.483266073663437,5.728169248242378e-07
-0.4885,0.4831865348721993,5.846858173585876e-07
-0.48846875,0.4831069960809615,5.967652986664557e-07
-0.4884375,0.483266073663437,6.090584680225644e-07
-0.48840625,0.483266073663437,6.215684606492541e-07
-0.488375,0.4831865348721993,6.342984480143532e-07
