Task5_40Hz.csv

#Digilent WaveForms Oscilloscope Acquisition
#Device Name: Discovery3
#Serial Number: SN:210415BD63A1
#Date Time: 2026-09-24 11:12:52.812.465.660
#Sample rate: 32000Hz
#Samples: 32000
#Trigger: Source: Channel 1 Type: Edge Condition: Rising Level: 0 V Hyst.: Auto HoldOff: 0 s
#Channel 1: Range: 500 mV/div Offset: 0 V Sample Mode: Average
#Math 1: Input: C1 Reference: Internal Frequency: 40 Hz Phase: 90 ° Filter: IIR Butterworth 8  Low-Pass CutOff: 5 Hz Output: Amplitude

#Wavegen Channel 1: Running
#Mode: Simple
#Type: Sine
#Frequency: 40 Hz
#Period: 25 ms
#Amplitude: 50 mV
#Offset: 0 V
#Symmetry: 50 %
#Phase: 0 °

Time (s),Channel 1 (V),Math 1 (V)
-0.5,0.4376903462842198,1.469341739780802e-27
-0.49996875,0.4376903462842198,2.497137279651615e-26
-0.4999375,0.4377698850754576,2.129206717031134e-25
-0.49990625,0.4378494238666953,1.222749388265984e-24
-0.499875,0.4377698850754576,5.354222119457874e-24
-0.49984375,0.4378494238666953,1.917417732543766e-23
-0.4998125,0.4376903462842198,5.876103346768017e-23
-0.49978125,0.4377698850754576,1.590603820200701e-22
-0.49975,0.4378494238666953,3.892115374801635e-22
-0.49971875,0.437928962657933,8.760715256253545e-22
-0.4996875,0.4377698850754576,1.838527640496386e-21
-0.49965625,0.4378494238666953,3.635552369763467e-21
-0.499625,0.4378494238666953,6.831315171720903e-21
-0.49959375,0.4377698850754576,1.228102429091651e-20
-0.4995625,0.4377698850754576,2.12415285285717e-20
-0.49953125,0.437928962657933,3.551106363516078e-20
-0.4995,0.4378494238666953,5.760288076248642e-20
-0.49946875,0.4378494238666953,9.095784520789727e-20
-0.4994375,0.4377698850754576,1.402014425118658e-19
-0.49940625,0.4378494238666953,2.114509758255235e-19
-0.499375,0.4377698850754576,3.12679083327223e-19
-0.49934375,0.4377698850754576,4.541400473211596e-19
-0.4993125,0.4377698850754576,6.488657074958902e-19
-0.49928125,0.437928962657933,9.132381296631045e-19
-0.49925,0.437928962657933,1.267646518141379e-18
-0.49921875,0.4377698850754576,1.737236194799783e-18
-0.4991875,0.437928962657933,2.352757800637041e-18
-0.49915625,0.4376903462842198,3.151525206637614e-18
-0.499125,0.4376903462842198,4.178490949493104e-18
-0.49909375,0.4376108074929821,5.487448334577705e-18
-0.4990625,0.437928962657933,7.14236967330345e-18
-0.49903125,0.4377698850754576,9.218890444650684e-18
-0.499,0.4377698850754576,1.180594949127207e-17
-0.49896875,0.4377698850754576,1.500759567910413e-17
-0.4989375,0.4378494238666953,1.89449717658858e-17
-0.49890625,0.4377698850754576,2.375848653837432e-17
-0.498875,0.4376903462842198,2.961018659036478e-17
-0.49884375,0.4377698850754576,3.668633942386478e-17
-0.4988125,0.4378494238666953,4.520023986395154e-17
-0.49878125,0.4378494238666953,5.539525208394269e-17
-0.49875,0.4376903462842198,6.754809984153827e-17
-0.49871875,0.4376903462842198,8.19724178285342e-17
-0.4986875,0.4377698850754576,9.902257733655563e-17
-0.49865625,0.4378494238666953,1.190977997390181e-16
-0.498625,0.4377698850754576,1.426465715852086e-16
-0.49859375,0.4377698850754576,1.701713753959954e-16
-0.4985625,0.4377698850754576,2.022337505422241e-16
-0.49853125,0.4377698850754576,2.394596988763235e-16
-0.4985,0.4378494238666953,2.825454500750027e-16
-0.49846875,0.4376903462842198,3.32263601936163e-16
-0.4984375,0.4376903462842198,3.894696511562603e-16
-0.49840625,0.4376108074929821,4.551089303953719e-16
-0.498375,0.4377698850754576,5.302239677161199e-16
-0.49834375,0.4376108074929821,6.159622847593803e-16
-0.4983125,0.4376903462842198,7.1358465029435e-16
-0.49828125,0.4377698850754576,8.244738060530621e-16
-0.49825,0.4377698850754576,9.501436820298413e-16
-0.49821875,0.437928962657933,1.092249118694449e-15
-0.4981875,0.4378494238666953,1.252596113833805e-15
-0.49815625,0.4377698850754576,1.433152612001167e-15
-0.498125,0.4376903462842198,1.636059854813525e-15
-0.49809375,0.4377698850754576,1.863644310597757e-15
-0.4980625,0.4377698850754576,2.118430202143701e-15
-0.49803125,0.4377698850754576,2.403152651577826e-15
-0.498,0.4377698850754576,2.720771461624515e-15
-0.49796875,0.4377698850754576,3.074485552773259e-15
-0.4979375,0.4377698850754576,3.467748076119111e-15
-0.49790625,0.4378494238666953,3.904282221890771e-15
-0.497875,0.4378494238666953,4.388097743925419e-15
-0.49784375,0.4376903462842198,4.923508220592104e-15
-0.4978125,0.4376903462842198,5.515149072905886e-15
-0.49778125,0.4377698850754576,6.167996360813248e-15
-0.49775,0.4378494238666953,6.887386378865365e-15
-0.49771875,0.4377698850754576,7.679036072729735e-15
-0.4976875,0.4377698850754576,8.549064298222488e-15
-0.49765625,0.4376903462842198,9.504013944773224e-15
-0.497625,0.4376903462842198,1.055087494546172e-14
-0.49759375,0.4376108074929821,1.169710819599115e-14
-0.4975625,0.4376108074929821,1.29506704051855e-14
-0.49753125,0.4376108074929821,1.432003989982001e-14
-0.4975,0.4377698850754576,1.581424340681211e-14
-0.49746875,0.4376108074929821,1.744288383601711e-14
-0.4974375,0.4376108074929821,1.921616908708734e-14
-0.49740625,0.4375312687017444,2.11449419040657e-14
-0.497375,0.4374517299105066,2.32407108015948e-14
-0.49734375,0.4374517299105066,2.551568208683083e-14
-0.4973125,0.4374517299105066,2.798279300135683e-14
-0.49728125,0.4372926523280312,3.065574600759406e-14
-0.49725,0.4373721911192689,3.354904424441125e-14
-0.49721875,0.4373721911192689,3.667802817683113e-14
-0.4971875,0.4375312687017444,4.005891346493047e-14
-0.49715625,0.4373721911192689,4.370883007722499e-14
-0.497125,0.4373721911192689,4.764586267402325e-14
-0.49709375,0.4374517299105066,5.1889092286424e-14
-0.4970625,0.4372926523280312,5.645863931681987e-14
-0.49703125,0.4372926523280312,6.137570788695684e-14
-0.497,0.4374517299105066,6.666263155978213e-14
-0.49696875,0.4372131135367934,7.234292046149585e-14
-0.4969375,0.4372926523280312,7.844130983040062e-14
-0.49690625,0.4372131135367934,8.498381001932116e-14
-0.496875,0.4372131135367934,9.199775797854056e-14
-0.49684375,0.4373721911192689,9.951187024637378e-14
-0.4968125,0.4372131135367934,1.075562974746688e-13
-0.49678125,0.4372926523280312,1.161626805166949e-13
-0.49675,0.4372926523280312,1.253642081050441e-13
-0.49671875,0.4372926523280312,1.351956761473366e-13
-0.4966875,0.4372926523280312,1.456935486676801e-13
-0.49665625,0.4371335747455558,1.568960204219977e-13
-0.496625,0.4371335747455558,1.688430812154933e-13
-0.49659375,0.4372131135367934,1.815765819506781e-13
-0.4965625,0.4372131135367934,1.951403024345386e-13
-0.49653125,0.4372131135367934,2.095800209735753e-13
-0.4965,0.4371335747455558,2.249435857855895e-13
-0.49646875,0.4372926523280312,2.412809882572448e-13
-0.4964375,0.4373721911192689,2.586444380765725e-13
-0.49640625,0.4373721911192689,2.770884402697323e-13
-0.496375,0.4372926523280312,2.966698741714821e-13
-0.49634375,0.4371335747455558,3.174480743589462e-13
-0.4963125,0.437054035954318,3.394849135784069e-13
-0.49628125,0.437054035954318,3.628448876949816e-13
-0.49625,0.437054035954318,3.875952026951752e-13
-0.49621875,0.4369744971630803,4.138058637724266e-13
-0.4961875,0.4368949583718426,4.41549766525902e-13
-0.49615625,0.4368949583718426,4.709027903029003e-13
-0.496125,0.437054035954318,5.019438937153727e-13
-0.49609375,0.4371335747455558,5.347552123611687e-13
-0.4960625,0.4368154195806048,5.694221587807429e-13
-0.49603125,0.4369744971630803,6.060335246801761e-13
-0.496,0.4369744971630803,6.446815854514717e-13
-0.49596875,0.4369744971630803,6.854622070212075e-13
-0.4959375,0.4369744971630803,7.28474955058727e-13
-0.49590625,0.4368154195806048,7.738232065751645e-13
-0.495875,0.4368949583718426,8.21614263944706e-13
-0.49584375,0.4368949583718426,8.719594713795845e-13
-0.4958125,0.4369744971630803,9.249743338904168e-13
-0.49578125,0.4368949583718426,9.807786387635832e-13
-0.49575,0.4368154195806048,1.039496579587452e-12
-0.49571875,0.4368949583718426,1.101256882859335e-12
-0.4956875,0.4368949583718426,1.166192937205174e-12
-0.49565625,0.4367358807893671,1.234442925244023e-12
-0.495625,0.4368154195806048,1.306149958129498e-12
-0.49559375,0.4368949583718426,1.381462212800444e-12
-0.4955625,0.4367358807893671,1.460533071973154e-12
-0.49553125,0.4368154195806048,1.543521266907556e-12
-0.4955,0.4368154195806048,1.630591022979868e-12
-0.49546875,0.4367358807893671,1.72191220809429e-12
-0.4954375,0.4368154195806048,1.81766048396639e-12
-0.49540625,0.4366563419981294,1.918017460310894e-12
-0.495375,0.4365768032068916,2.023170851966686e-12
-0.49534375,0.4365768032068916,2.133314638991875e-12
-0.4953125,0.4364972644156539,2.248649229761859e-12
-0.49528125,0.4364177256244162,2.369381627103378e-12
-0.49525,0.4364972644156539,2.495725597497614e-12
-0.49521875,0.4364972644156539,2.627901843385456e-12
-0.4951875,0.4364972644156539,2.766138178608107e-12
-0.49515625,0.4364972644156539,2.910669707016254e-12
-0.495125,0.4364177256244162,3.061739004281104e-12
-0.49509375,0.4364177256244162,3.219596302940608e-12
-0.4950625,0.4365768032068916,3.384499680714266e-12
-0.49503125,0.4364972644156539,3.556715252119952e-12
-0.495,0.4364972644156539,3.73651736342623e-12
-0.49496875,0.4364177256244162,3.924188790973697e-12
-0.4949375,0.4364972644156539,4.120020942898915e-12
-0.49490625,0.4364177256244162,4.324314064294519e-12
-0.494875,0.4364177256244162,4.537377445839183e-12
-0.49484375,0.4364177256244162,4.759529635931089e-12
-0.4948125,0.4364972644156539,4.991098656358611e-12
-0.49478125,0.4363381868331785,5.232422221541981e-12
-0.49475,0.4362586480419408,5.48384796137967e-12
-0.49471875,0.4362586480419408,5.745733647733332e-12
-0.4946875,0.436179109250703,6.018447424585077e-12
-0.49465625,0.4362586480419408,6.302368041900968e-12
-0.494625,0.4363381868331785,6.597885093234578e-12
-0.49459375,0.4364177256244162,6.905399257104492e-12
-0.4945625,0.436179109250703,7.225322542179694e-12
-0.49453125,0.436179109250703,7.558078536306686e-12
-0.4945,0.4362586480419408,7.904102659412341e-12
-0.49446875,0.4362586480419408,8.263842420316374e-12
-0.4944375,0.4362586480419408,8.637757677487412e-12
-0.49440625,0.4362586480419408,9.026320903776592e-12
-0.494375,0.4363381868331785,9.430017455162674e-12
-0.49434375,0.4362586480419408,9.849345843542599e-12
-0.4943125,0.4362586480419408,1.028481801360148e-11
-0.49428125,0.4362586480419408,1.073695962379595e-11
-0.49425,0.4363381868331785,1.120631033148488e-11
-0.49421875,0.436179109250703,1.169342408224136e-11
-0.4941875,0.436179109250703,1.219886940337988e-11
-0.49415625,0.436179109250703,1.272322970173276e-11
-0.494125,0.4362586480419408,1.326710356570957e-11
-0.49409375,0.4362586480419408,1.383110507167355e-11
-0.4940625,0.4363381868331785,1.441586409466901e-11
-0.49403125,0.4362586480419408,1.502202662353332e-11
-0.494,0.4362586480419408,1.565025508042768e-11
-0.49396875,0.436179109250703,1.630122864482016e-11
-0.4939375,0.4363381868331785,1.69756435819552e-11
-0.49390625,0.4362586480419408,1.767421357584292e-11
-0.493875,0.4363381868331785,1.839767006680239e-11
-0.49384375,0.4363381868331785,1.914676259359239e-11
-0.4938125,0.4363381868331785,1.992225914016328e-11
-0.49378125,0.4362586480419408,2.072494648706391e-11
-0.49375,0.4363381868331785,2.155563056753693e-11
-0.49371875,0.4362586480419408,2.241513682833622e-11
-0.4936875,0.436179109250703,2.33043105953e-11
-0.49365625,0.4364177256244162,2.422401744371306e-11
-0.493625,0.4362586480419408,2.517514357349164e-11
-0.49359375,0.4363381868331785,2.615859618922438e-11
-0.4935625,0.436179109250703,2.717530388510268e-11
-0.49353125,0.436179109250703,2.822621703477377e-11
-0.4935,0.4363381868331785,2.931230818614993e-11
-0.49346875,0.4364177256244162,3.043457246120689e-11
-0.4934375,0.4364177256244162,3.15940279608046e-11
-0.49340625,0.4363381868331785,3.27917161745637e-11
-0.493375,0.4364177256244162,3.402870239583054e-11
-0.49334375,0.4363381868331785,3.530607614176366e-11
-0.4933125,0.436179109250703,3.662495157857504e-11
-0.49328125,0.4362586480419408,3.798646795195857e-11
-0.49325,0.4364177256244162,3.939179002273886e-11
-0.49321875,0.4362586480419408,4.084210850777295e-11
-0.4931875,0.4363381868331785,4.233864052613763e-11
-0.49315625,0.4362586480419408,4.388263005063508e-11
-0.493125,0.4363381868331785,4.547534836464917e-11
-0.49309375,0.4362586480419408,4.711809452438496e-11
-0.4930625,0.436179109250703,4.881219582652395e-11
-0.49303125,0.4362586480419408,5.055900828132699e-11
-0.493,0.436179109250703,5.235991709121751e-11
-0.49296875,0.4359404928769898,5.421633713487685e-11
-0.4929375,0.4360200316682276,5.612971345688393e-11
-0.49290625,0.4360995704594653,5.810152176293126e-11
-0.492875,0.436179109250703,6.013326892064896e-11
-0.49284375,0.436179109250703,6.222649346606891e-11
-0.4928125,0.436179109250703,6.438276611576041e-11
-0.49278125,0.436179109250703,6.660369028466912e-11
-0.49275,0.4360995704594653,6.889090260969088e-11
-0.49271875,0.436179109250703,7.124607347901167e-11
-0.4926875,0.436179109250703,7.367090756724501e-11
-0.49265625,0.436179109250703,7.616714437639834e-11
-0.492625,0.436179109250703,7.873655878269905e-11
-0.49259375,0.436179109250703,8.138096158931162e-11
-0.4925625,0.4360995704594653,8.41022000849764e-11
-0.49253125,0.436179109250703,8.690215860860121e-11
-0.4925,0.4360995704594653,8.978275911983608e-11
-0.49246875,0.4360995704594653,9.274596177566224e-11
-0.4924375,0.436179109250703,9.579376551302514e-11
-0.49240625,0.4362586480419408,9.892820863754266e-11
-0.492375,0.4360995704594653,1.021513694183182e-10
-0.49234375,0.4362586480419408,1.054653666888888e-10
-0.4923125,0.4363381868331785,1.088723604543391e-10
-0.49228125,0.4362586480419408,1.123745525046098e-10
-0.49225,0.4362586480419408,1.159741870340311e-10
-0.49221875,0.436179109250703,1.196735512671114e-10
-0.4921875,0.436179109250703,1.234749760906093e-10
-0.49215625,0.436179109250703,1.2738083669192e-10
-0.492125,0.4362586480419408,1.313935532038034e-10
-0.49209375,0.4364177256244162,1.355155913554858e-10
-0.4920625,0.436179109250703,1.397494631301609e-10
-0.49203125,0.4363381868331785,1.440977274289222e-10
-0.492,0.4362586480419408,1.485629907411535e-10
-0.49196875,0.4362586480419408,1.531479078214062e-10
-0.4919375,0.4363381868331785,1.578551823727938e-10
-0.49190625,0.4364177256244162,1.62687567736929e-10
-0.491875,0.4363381868331785,1.676478675904347e-10
-0.49184375,0.4362586480419408,1.727389366480545e-10
-0.4918125,0.4363381868331785,1.77963681372392e-10
-0.49178125,0.4363381868331785,1.833250606903062e-10
-0.49175,0.4364177256244162,1.888260867159908e-10
-0.49171875,0.4364177256244162,1.944698254807652e-10
-0.4916875,0.4364177256244162,2.002593976696038e-10
-0.49165625,0.4364177256244162,2.061979793644311e-10
-0.491625,0.4363381868331785,2.122888027942106e-10
-0.49159375,0.4364972644156539,2.185351570918524e-10
-0.4915625,0.4364177256244162,2.249403890579687e-10
-0.49153125,0.4365768032068916,2.315079039315013e-10
-0.4915,0.4364972644156539,2.382411661672497e-10
-0.49146875,0.4364972644156539,2.451437002203247e-10
-0.4914375,0.4364177256244162,2.522190913375534e-10
-0.49140625,0.4363381868331785,2.594709863558643e-10
-0.491375,0.4363381868331785,2.669030945076731e-10
-0.49134375,0.4363381868331785,2.74519188233301e-10
-0.4913125,0.4364177256244162,2.823231040004454e-10
-0.49128125,0.4363381868331785,2.903187431307322e-10
-0.49125,0.4364972644156539,2.98510072633373e-10
-0.49121875,0.4364177256244162,3.069011260459531e-10
-0.4911875,0.4363381868331785,3.154960042823729e-10
-0.49115625,0.4364177256244162,3.24298876487971e-10
-0.491125,0.4364177256244162,3.333139809018504e-10
-0.49109375,0.4364972644156539,3.425456257264326e-10
-0.4910625,0.4363381868331785,3.519981900042657e-10
-0.49103125,0.4365768032068916,3.616761245021072e-10
-0.491,0.4364177256244162,3.715839526023081e-10
-0.49096875,0.4364972644156539,3.817262712015202e-10
-0.4909375,0.4364972644156539,3.921077516167507e-10
-0.49090625,0.4364177256244162,4.027331404987869e-10
-0.490875,0.4364177256244162,4.13607260753014e-10
-0.49084375,0.4365768032068916,4.247350124676499e-10
-0.4908125,0.4365768032068916,4.361213738494177e-10
-0.49078125,0.4365768032068916,4.477714021666799e-10
-0.49075,0.4364972644156539,4.596902347000564e-10
-0.49071875,0.4365768032068916,4.71883089700547e-10
-0.4906875,0.4366563419981294,4.843552673551829e-10
-0.49065625,0.4366563419981294,4.971121507602266e-10
-0.490625,0.4366563419981294,5.101592069019416e-10
-0.49059375,0.4367358807893671,5.235019876449557e-10
-0.4905625,0.4367358807893671,5.371461307282367e-10
-0.49053125,0.4367358807893671,5.510973607687011e-10
-0.4905,0.4367358807893671,5.653614902724806e-10
-0.49046875,0.4367358807893671,5.799444206538587e-10
-0.4904375,0.4368949583718426,5.948521432619089e-10
-0.49040625,0.4368949583718426,6.10090740414844e-10
-0.490375,0.4368949583718426,6.25666386442104e-10
-0.49034375,0.4369744971630803,6.415853487341965e-10
-0.4903125,0.4369744971630803,6.578539888003156e-10
-0.49028125,0.4368949583718426,6.744787633337514e-10
-0.49025,0.4368949583718426,6.914662252851156e-10
-0.49021875,0.4368949583718426,7.088230249433984e-10
-0.4901875,0.4368949583718426,7.265559110248749e-10
-0.49015625,0.4368949583718426,7.44671731769883e-10
-0.490125,0.4368949583718426,7.631774360474882e-10
-0.49009375,0.4369744971630803,7.820800744680538e-10
-0.4900625,0.4369744971630803,8.013868005037352e-10
-0.49003125,0.4369744971630803,8.211048716169148e-10
-0.49,0.437054035954318,8.412416503965966e-10
-0.48996875,0.4369744971630803,8.618046057027754e-10
-0.4899375,0.4369744971630803,8.828013138188002e-10
-0.48990625,0.4371335747455558,9.042394596117461e-10
-0.489875,0.437054035954318,9.261268377008129e-10
-0.48984375,0.4371335747455558,9.484713536337667e-10
-0.4898125,0.4372926523280312,9.7128102507144e-10
-0.48978125,0.4372131135367934,9.945639829803041e-10
-0.48975,0.437054035954318,1.018328472833138e-09
-0.48971875,0.4372926523280312,1.042582855817794e-09
-0.4896875,0.4372131135367934,1.067335610054093e-09
-0.48965625,0.4371335747455558,1.092595331818851e-09
-0.489625,0.4372131135367934,1.118370736779055e-09
-0.48959375,0.4372131135367934,1.144670661233212e-09
-0.4895625,0.4372131135367934,1.171504063360866e-09
-0.48953125,0.4373721911192689,1.198880024480321e-09
-0.4895,0.4375312687017444,1.226807750314562e-09
-0.48946875,0.4374517299105066,1.255296572265404e-09
-0.4894375,0.4375312687017444,1.284355948695871e-09
-0.48940625,0.4374517299105066,1.313995466220826e-09
-0.489375,0.4374517299105066,1.344224841005863e-09
-0.48934375,0.4374517299105066,1.375053920074467e-09
-0.4893125,0.4375312687017444,1.40649268262347e-09
-0.48928125,0.4374517299105066,1.438551241346792e-09
-0.48925,0.4375312687017444,1.471239843767508e-09
-0.48921875,0.4375312687017444,1.504568873578224e-09
-0.4891875,0.4374517299105066,1.538548851989796e-09
-0.48915625,0.4374517299105066,1.57319043908839e-09
-0.489125,0.4375312687017444,1.608504435200898e-09
-0.48909375,0.4375312687017444,1.644501782268725e-09
-0.4890625,0.4375312687017444,1.681193565229948e-09
-0.48903125,0.4373721911192689,1.718591013409871e-09
-0.489,0.4373721911192689,1.75670550191997e-09
-0.48896875,0.4373721911192689,1.795548553065255e-09
-0.4889375,0.4373721911192689,1.835131837760039e-09
-0.48890625,0.4374517299105066,1.87546717695215e-09
-0.488875,0.4373721911192689,1.916566543055563e-09
-0.48884375,0.4372926523280312,1.958442061391489e-09
-0.4888125,0.4372926523280312,2.001106011637914e-09
-0.48878125,0.4375312687017444,2.044570829287601e-09
-0.48875,0.4374517299105066,2.088849107114566e-09
-0.48871875,0.4372926523280312,2.133953596649024e-09
-0.4886875,0.4374517299105066,2.179897209660837e-09
-0.48865625,0.4375312687017444,2.22669301965144e-09
-0.488625,0.4374517299105066,2.274354263354281e-09
-0.48859375,0.4375312687017444,2.322894342243761e-09
-0.4885625,0.4374517299105066,2.372326824052696e-09
-0.48853125,0.4375312687017444,2.422665444298295e-09
-0.4885,0.4376108074929821,2.473924107816668e-09
-0.48846875,0.4376108074929821,2.52611689030587e-09
-0.4884375,0.4376108074929821,2.579258039877484e-09
-0.48840625,0.4376903462842198,2.633361978616748e-09
-0.488375,0.4376903462842198,2.68844330415123e-09
