Task5_15Hz.csv

#Digilent WaveForms Oscilloscope Acquisition
#Device Name: Discovery3
#Serial Number: SN:210415BD63A1
#Date Time: 2026-09-24 11:11:01.165.731.890
#Sample rate: 16000Hz
#Samples: 32000
#Trigger: Source: Channel 1 Type: Edge Condition: Rising Level: 0 V Hyst.: Auto HoldOff: 0 s
#Channel 1: Range: 500 mV/div Offset: 0 V Sample Mode: Average
#Math 1: Input: C1 Reference: Internal Frequency: 15 Hz Phase: 90 ° Filter: IIR Butterworth 8  Low-Pass CutOff: 5 Hz Output: Amplitude

#Wavegen Channel 1: Running
#Mode: Simple
#Type: Sine
#Frequency: 15 Hz
#Period: 66.66666667 ms
#Amplitude: 50 mV
#Offset: 0 V
#Symmetry: 50 %
#Phase: 0 °

Time (s),Channel 1 (V),Math 1 (V)
-1,0.439678816065163,3.782119632060483e-25
-0.9999375,0.4397583548564007,6.425927257163878e-24
-0.999875,0.4397583548564007,5.477444040000503e-23
-0.9998125,0.4397583548564007,3.144490688022213e-22
-0.99975,0.4398378936476384,1.3764130381894e-21
-0.9996875,0.4397583548564007,4.927160599476305e-21
-0.999625,0.4398378936476384,1.509338137880597e-20
-0.9995625,0.4397583548564007,4.083827660597037e-20
-0.9995000000000001,0.4397583548564007,9.988308683140513e-20
-0.9994375,0.4397583548564007,2.247194094605806e-19
-0.999375,0.4398378936476384,4.713689419404782e-19
-0.9993125,0.4398378936476384,9.316373811211754e-19
-0.99925,0.4399174324388762,1.749698342770461e-18
-0.9991875,0.4399174324388762,3.14393134416053e-18
-0.999125,0.4399969712301139,5.435025126284101e-18
-0.9990625,0.4395197384826875,9.081443887766881e-18
-0.999,0.439678816065163,1.472343936378483e-17
-0.9989375,0.439678816065163,2.323687611330293e-17
-0.998875,0.4397583548564007,3.579822088112688e-17
-0.9988125,0.4397583548564007,5.396212948273821e-17
-0.99875,0.439678816065163,7.975314632356286e-17
-0.9986875,0.439678816065163,1.157731124122529e-16
-0.998625,0.439678816065163,1.653259575620076e-16
-0.9985625,0.439678816065163,2.325616313997789e-16
-0.9985000000000001,0.4397583548564007,3.226410058266012e-16
-0.9984375,0.439678816065163,4.419236586974644e-16
-0.998375,0.4397583548564007,5.981805247178492e-16
-0.9983125,0.439678816065163,8.008334748873768e-16
-0.99825,0.439678816065163,1.061223960259998e-15
-0.9981875,0.439678816065163,1.392912929335737e-15
-0.998125,0.439678816065163,1.812014301052867e-15
-0.9980625,0.4398378936476384,2.337564347115811e-15
-0.998,0.4398378936476384,2.991929408280442e-15
-0.9979375,0.4398378936476384,3.801254439233148e-15
-0.997875,0.4398378936476384,4.79595494584751e-15
-0.9978125,0.4399174324388762,6.011254946884193e-15
-0.99775,0.4399969712301139,7.487773659616699e-15
-0.9976874999999999,0.4399174324388762,9.27216367541994e-15
-0.997625,0.4399969712301139,1.141780345705208e-14
-0.9975625,0.4399174324388762,1.398554705419426e-14
-0.9975000000000001,0.4398378936476384,1.704453399778982e-14
-0.9974375,0.4399174324388762,2.067306239684896e-14
-0.997375,0.4398378936476384,2.49595283236591e-14
-0.9973125,0.4398378936476384,3.000343463476949e-14
-0.99725,0.4398378936476384,3.591647243570155e-14
-0.9971875,0.4399174324388762,4.282367845707801e-14
-0.997125,0.4399969712301139,5.086467166876938e-14
-0.9970625,0.4399969712301139,6.01949725167295e-14
-0.997,0.4400765100213516,7.098740822443953e-14
-0.9969375,0.4399969712301139,8.343360765730343e-14
-0.996875,0.4400765100213516,9.774558930394173e-14
-0.9968125,0.4399969712301139,1.141574459831143e-13
-0.99675,0.4400765100213516,1.329271299389734e-13
-0.9966874999999999,0.4401560488125894,1.543383420405104e-13
-0.996625,0.4401560488125894,1.787025288534262e-13
-0.9965625,0.4399969712301139,2.063609914042223e-13
-0.9965000000000001,0.4401560488125894,2.376871095070774e-13
-0.9964375,0.4401560488125894,2.730886855740457e-13
-0.996375,0.440235587603827,3.13010411878276e-13
-0.9963125,0.4403151263950648,3.579364652883313e-13
-0.99625,0.4403946651863025,4.083932335392617e-13
-0.9961875,0.4403151263950648,4.649521771528898e-13
-0.996125,0.440235587603827,5.28232831165792e-13
-0.9960625,0.4403151263950648,5.989059508687075e-13
-0.996,0.4403151263950648,6.776968058055909e-13
-0.9959375,0.4403151263950648,7.653886263242382e-13
-0.995875,0.4403151263950648,8.628262070133523e-13
-0.9958125,0.4403946651863025,9.709196714030983e-13
-0.99575,0.4403151263950648,1.090648402347615e-12
-0.9956874999999999,0.4403946651863025,1.223065142548612e-12
-0.995625,0.4403946651863025,1.369300269719077e-12
-0.9955625,0.4404742039775402,1.530566250925278e-12
-0.9955000000000001,0.4404742039775402,1.708162280683609e-12
-0.9954375,0.4404742039775402,1.903479107426511e-12
-0.995375,0.4407128203512534,2.118004052988537e-12
-0.9953125,0.4404742039775402,2.353326229799842e-12
-0.99525,0.440553742768778,2.611141960509741e-12
-0.9951875,0.4404742039775402,2.893260404797701e-12
-0.995125,0.4404742039775402,3.201609398163063e-12
-0.9950625,0.4404742039775402,3.538241507518047e-12
-0.995,0.440553742768778,3.905340308441118e-12
-0.9949375,0.4403946651863025,4.305226888979574e-12
-0.994875,0.4403946651863025,4.740366584921318e-12
-0.9948125,0.4403946651863025,5.213375951486189e-12
-0.99475,0.4403946651863025,5.727029976416817e-12
-0.9946874999999999,0.4403151263950648,6.284269539478043e-12
-0.994625,0.4403151263950648,6.888209123402138e-12
-0.9945625,0.4404742039775402,7.542144781344666e-12
-0.9945000000000001,0.4403946651863025,8.249562365942696e-12
-0.9944375,0.4404742039775402,9.014146025093269e-12
-0.994375,0.4404742039775402,9.839786969595472e-12
-0.9943125,0.4403946651863025,1.073059251782424e-11
-0.99425,0.4403946651863025,1.169089542262815e-11
-0.9941875,0.4403946651863025,1.272526348566682e-11
-0.994125,0.440235587603827,1.38385094644262e-11
-0.9940625,0.4404742039775402,1.503570127717221e-11
-0.994,0.4404742039775402,1.632217251112435e-11
-0.9939375,0.4404742039775402,1.77035332391519e-11
-0.993875,0.4404742039775402,1.9185681150315e-11
-0.9938125,0.4403946651863025,2.07748129995927e-11
-0.99375,0.4403151263950648,2.247743638215834e-11
-0.9936874999999999,0.4403151263950648,2.43003818375811e-11
-0.993625,0.440235587603827,2.625081528934954e-11
-0.9935625,0.440235587603827,2.833625082513005e-11
-0.9935,0.440235587603827,3.056456382318886e-11
-0.9934375,0.4401560488125894,3.294400443042219e-11
-0.993375,0.4400765100213516,3.548321139745333e-11
-0.9933125,0.4400765100213516,3.81912262762703e-11
-0.99325,0.4401560488125894,4.10775079858906e-11
-0.9931875,0.4401560488125894,4.415194775155306e-11
-0.993125,0.4400765100213516,4.742488442294877e-11
-0.9930625,0.4400765100213516,5.090712017701473e-11
-0.993,0.4399969712301139,5.460993661082508e-11
-0.9929375,0.4399969712301139,5.854511123012486e-11
-0.992875,0.4400765100213516,6.27249343390616e-11
-0.9928125,0.4399174324388762,6.716222633667847e-11
-0.99275,0.4399969712301139,7.187035542574203e-11
-0.9926874999999999,0.4399174324388762,7.686325573948519e-11
-0.992625,0.4399174324388762,8.215544589185344e-11
-0.9925625,0.4399969712301139,8.776204795684928e-11
-0.9925,0.4399174324388762,9.369880688257593e-11
-0.9924375,0.4399174324388762,9.998211034558708e-11
-0.992375,0.4400765100213516,1.066290090511543e-10
-0.9923125,0.4399174324388762,1.136572374850684e-10
-0.99225,0.4399969712301139,1.210852351225948e-10
-0.9921875,0.4399969712301139,1.289321681002058e-10
-0.992125,0.4399174324388762,1.372179513557166e-10
-0.9920625,0.4398378936476384,1.459632712424523e-10
-0.992,0.4398378936476384,1.551896086230757e-10
-0.9919375,0.4397583548564007,1.649192624487071e-10
-0.991875,0.4397583548564007,1.751753738289669e-10
-0.9918125,0.439678816065163,1.859819505985716e-10
-0.99175,0.439678816065163,1.973638923861137e-10
-0.9916875000000001,0.4395992772739252,2.09347016190655e-10
-0.991625,0.439678816065163,2.219580824717592e-10
-0.9915625,0.4395992772739252,2.352248217585901e-10
-0.9915,0.4395197384826875,2.491759617836961e-10
-0.9914375,0.4394401996914498,2.638412551471e-10
-0.991375,0.4394401996914498,2.792515075163087e-10
-0.9913125,0.4393606609002121,2.954386063678522e-10
-0.99125,0.4394401996914498,3.124355502759577e-10
-0.9911875,0.4393606609002121,3.302764787539566e-10
-0.991125,0.4395197384826875,3.489967026540198e-10
-0.9910625,0.4393606609002121,3.686327351308064e-10
-0.991,0.4392811221089744,3.892223231746052e-10
-0.9909375,0.4392811221089744,4.108044797195422e-10
-0.990875,0.4391220445264989,4.334195163324169e-10
-0.9908125,0.4391220445264989,4.571090764877231e-10
-0.99075,0.4390425057352612,4.819161694343993e-10
-0.9906875000000001,0.4390425057352612,5.078852046598458e-10
-0.990625,0.4389629669440234,5.350620269567351e-10
-0.9905625,0.4390425057352612,5.634939520981297e-10
-0.9905,0.4388834281527857,5.932298031264126e-10
-0.9904375,0.4388834281527857,6.243199472615244e-10
-0.990375,0.438803889361548,6.568163334339851e-10
-0.9903125,0.4390425057352612,6.907725304481726e-10
-0.99025,0.4390425057352612,7.262437657813088e-10
-0.9901875,0.4388834281527857,7.632869650235982e-10
-0.990125,0.4388834281527857,8.019607919649473e-10
-0.9900625,0.4389629669440234,8.423256893336737e-10
-0.99,0.4389629669440234,8.844439201926093e-10
-0.9899375,0.4390425057352612,9.283796099979769e-10
-0.9898749999999999,0.4389629669440234,9.741987893264076e-10
-0.9898125,0.4389629669440234,1.021969437275453e-09
-0.98975,0.4389629669440234,1.071761525542923e-09
-0.9896875000000001,0.4390425057352612,1.123647063190371e-09
-0.989625,0.4389629669440234,1.177700142096021e-09
-0.9895625,0.4389629669440234,1.233996983102419e-09
-0.9895,0.4390425057352612,1.292615982864082e-09
-0.9894375,0.4390425057352612,1.35363776140037e-09
-0.989375,0.4391220445264989,1.417145210358827e-09
-0.9893125,0.4390425057352612,1.483223541994178e-09
-0.98925,0.4392015833177366,1.551960338868185e-09
-0.9891875,0.4391220445264989,1.623445604275506e-09
-0.989125,0.4391220445264989,1.697771813400719e-09
-0.9890625,0.4391220445264989,1.77503396521163e-09
-0.989,0.4392811221089744,1.855329635093952e-09
-0.9889375,0.4392015833177366,1.93875902823245e-09
-0.9888749999999999,0.4392015833177366,2.025425033743598e-09
-0.9888125,0.4392015833177366,2.115433279564788e-09
-0.98875,0.4392811221089744,2.208892188105083e-09
-0.9886875000000001,0.4393606609002121,2.305913032662533e-09
-0.988625,0.4392811221089744,2.406609994612974e-09
-0.9885625,0.4393606609002121,2.511100221375275e-09
-0.9885,0.4393606609002121,2.619503885157943e-09
-0.9884375,0.4393606609002121,2.731944242491954e-09
-0.988375,0.4394401996914498,2.848547694554693e-09
-0.9883125,0.4395197384826875,2.969443848289816e-09
-0.98825,0.4395197384826875,3.09476557832787e-09
-0.9881875,0.4393606609002121,3.224649089712413e-09
-0.988125,0.4394401996914498,3.359233981436433e-09
-0.9880625,0.4394401996914498,3.498663310793745e-09
-0.988,0.4395197384826875,3.643083658550115e-09
-0.9879375,0.4395197384826875,3.79264519493873e-09
-0.9878749999999999,0.4394401996914498,3.947501746484697e-09
-0.9878125,0.4395992772739252,4.107810863663158e-09
-0.98775,0.439678816065163,4.273733889395618e-09
-0.9876875000000001,0.4397583548564007,4.445436028389022e-09
-0.987625,0.4397583548564007,4.623086417322133e-09
-0.9875625,0.4395992772739252,4.806858195883674e-09
-0.9875,0.439678816065163,4.996928578666711e-09
-0.9874375,0.439678816065163,5.19347892792371e-09
-0.987375,0.4398378936476384,5.396694827186656e-09
-0.9873125,0.4397583548564007,5.606766155756615e-09
-0.98725,0.4397583548564007,5.823887164067074e-09
-0.9871875,0.4397583548564007,6.048256549925338e-09
-0.987125,0.4398378936476384,6.280077535636298e-09
-0.9870625,0.4399174324388762,6.519557946012771e-09
-0.987,0.4398378936476384,6.766910287276626e-09
-0.9869375,0.4399969712301139,7.02235182685488e-09
-0.9868749999999999,0.4399969712301139,7.286104674074888e-09
-0.9868125,0.4397583548564007,7.558395861762724e-09
-0.98675,0.4399174324388762,7.839457428748841e-09
-0.9866875000000001,0.4399174324388762,8.129526503285031e-09
-0.986625,0.4399174324388762,8.428845387376667e-09
-0.9865625,0.4399174324388762,8.73766164203422e-09
-0.9865,0.4399174324388762,9.056228173447966e-09
-0.9864375,0.4400765100213516,9.384803320089768e-09
-0.986375,0.4400765100213516,9.723650940745778e-09
-0.9863125,0.4401560488125894,1.007304050348391e-08
-0.98625,0.4400765100213516,1.043324717555982e-08
-0.9861875,0.4401560488125894,1.080455191426519e-08
-0.986125,0.4400765100213516,1.118724155872193e-08
-0.9860625,0.4401560488125894,1.158160892262616e-08
-0.986,0.4400765100213516,1.198795288794528e-08
-0.9859375,0.440235587603827,1.240657849957212e-08
-0.9858749999999999,0.4401560488125894,1.283779706093932e-08
-0.9858125,0.440235587603827,1.328192623059779e-08
-0.98575,0.4400765100213516,1.373929011976254e-08
-0.9856875,0.4400765100213516,1.421021939082934e-08
-0.985625,0.440235587603827,1.469505135686567e-08
-0.9855625,0.4403151263950648,1.519413008207921e-08
-0.9855,0.4403151263950648,1.570780648326735e-08
-0.9854375,0.4403946651863025,1.623643843225083e-08
-0.985375,0.4403151263950648,1.678039085929483e-08
-0.9853125,0.4403946651863025,1.734003585752066e-08
-0.98525,0.4403946651863025,1.791575278831138e-08
-0.9851875,0.4403946651863025,1.850792838771408e-08
-0.985125,0.4403151263950648,1.911695687384237e-08
-0.9850625,0.4403151263950648,1.97432400552817e-08
-0.985,0.4403151263950648,2.038718744050077e-08
-0.9849375,0.4404742039775402,2.104921634827184e-08
-0.9848749999999999,0.4404742039775402,2.172975201910286e-08
-0.9848125,0.440553742768778,2.242922772768432e-08
-0.98475,0.4404742039775402,2.314808489635366e-08
-0.9846875,0.4404742039775402,2.38867732095799e-08
-0.984625,0.440553742768778,2.464575072947132e-08
-0.9845625,0.440553742768778,2.542548401230885e-08
-0.9845,0.440553742768778,2.622644822610789e-08
-0.9844375,0.440553742768778,2.704912726921098e-08
-0.984375,0.4404742039775402,2.789401388991404e-08
-0.9843125,0.4404742039775402,2.876160980712864e-08
-0.98425,0.4404742039775402,2.965242583208276e-08
-0.9841875,0.4406332815600157,3.056698199106246e-08
-0.984125,0.4406332815600157,3.150580764919693e-08
-0.9840625,0.440553742768778,3.246944163528897e-08
-0.984,0.440553742768778,3.345843236769365e-08
-0.9839375,0.440553742768778,3.447333798124697e-08
-0.9838750000000001,0.4403151263950648,3.55147264552469e-08
-0.9838125,0.4404742039775402,3.658317574248897e-08
-0.98375,0.440553742768778,3.767927389935847e-08
-0.9836875,0.4404742039775402,3.880361921698139e-08
-0.983625,0.4404742039775402,3.995682035343583e-08
-0.9835625,0.440553742768778,4.113949646702641e-08
-0.9835,0.4404742039775402,4.235227735062298e-08
-0.9834375,0.4403946651863025,4.35958035670659e-08
-0.983375,0.4404742039775402,4.487072658563966e-08
-0.9833125,0.4403946651863025,4.617770891961637e-08
-0.98325,0.440553742768778,4.751742426487132e-08
-0.9831875,0.4403946651863025,4.889055763957177e-08
-0.983125,0.4403151263950648,5.029780552494099e-08
-0.9830625,0.4404742039775402,5.173987600709898e-08
-0.983,0.440553742768778,5.321748891998149e-08
-0.9829375,0.4403946651863025,5.473137598933867e-08
-0.9828750000000001,0.4403151263950648,5.6282280977815e-08
-0.9828125,0.4403946651863025,5.787095983111188e-08
-0.98275,0.4403151263950648,5.949818082523398e-08
-0.9826875,0.4403151263950648,6.116472471482103e-08
-0.982625,0.4403151263950648,6.287138488256595e-08
-0.9825625,0.4403946651863025,6.46189674897208e-08
-0.9825,0.4403151263950648,6.640829162769147e-08
-0.9824375,0.4403151263950648,6.824018947072254e-08
-0.982375,0.4403946651863025,7.011550642967287e-08
-0.9823125,0.440235587603827,7.203510130688348e-08
-0.98225,0.4403151263950648,7.399984645213834e-08
-0.9821875,0.4403151263950648,7.601062791971898e-08
-0.982125,0.4401560488125894,7.806834562655395e-08
-0.9820624999999999,0.4401560488125894,8.017391351146387e-08
-0.982,0.4400765100213516,8.232825969550274e-08
-0.9819375,0.4400765100213516,8.45323266433964e-08
-0.9818750000000001,0.4399969712301139,8.67870713260785e-08
-0.9818125,0.4399969712301139,8.909346538432509e-08
-0.98175,0.4399969712301139,9.145249529348784e-08
-0.9816875,0.4399174324388762,9.386516252932671e-08
-0.981625,0.4399969712301139,9.633248373494255e-08
-0.9815625,0.4399969712301139,9.885549088880997e-08
-0.9815,0.4399174324388762,1.014352314739107e-07
-0.9814375,0.4397583548564007,1.04072768647968e-07
-0.981375,0.4397583548564007,1.067691814147823e-07
-0.9813125,0.4397583548564007,1.09525564796668e-07
-0.98125,0.4398378936476384,1.123430300079924e-07
-0.9811875,0.4397583548564007,1.152227046298154e-07
-0.981125,0.4397583548564007,1.18165732785632e-07
-0.9810624999999999,0.439678816065163,1.211732753182156e-07
-0.981,0.439678816065163,1.242465099675633e-07
-0.9809375,0.4395992772739252,1.273866315499432e-07
-0.9808750000000001,0.4395992772739252,1.305948521380428e-07
-0.9808125,0.4395197384826875,1.338724012422183e-07
-0.98075,0.4394401996914498,1.372205259928454e-07
-0.9806875,0.4394401996914498,1.406404913237709e-07
-0.980625,0.4393606609002121,1.44133580156864e-07
-0.9805625,0.4392811221089744,1.477010935876683e-07
-0.9805,0.4393606609002121,1.513443510721526e-07
-0.9804375,0.4393606609002121,1.550646906145613e-07
-0.980375,0.4394401996914498,1.588634689563626e-07
-0.9803125,0.4392811221089744,1.62742061766295e-07
-0.98025,0.4393606609002121,1.667018638315107e-07
-0.9801875,0.4393606609002121,1.707442892498157e-07
-0.980125,0.4393606609002121,1.748707716230055e-07
-0.9800624999999999,0.4393606609002121,1.79082764251295e-07
-0.98,0.4393606609002121,1.833817403288436e-07
-0.9799375,0.4394401996914498,1.877691931403724e-07
-0.9798750000000001,0.4392811221089744,1.922466362588737e-07
-0.9798125,0.4393606609002121,1.968156037444123e-07
-0.97975,0.4393606609002121,2.014776503440155e-07
-0.9796875,0.4392811221089744,2.062343516926534e-07
-0.979625,0.4392811221089744,2.110873045153058e-07
-0.9795625,0.4392811221089744,2.160381268301161e-07
-0.9795,0.4392811221089744,2.210884581526302e-07
-0.9794375,0.4393606609002121,2.2623995970112e-07
-0.979375,0.4393606609002121,2.314943146029877e-07
-0.9793125,0.4394401996914498,2.368532281022533e-07
-0.97925,0.4393606609002121,2.423184277681195e-07
-0.9791875,0.4393606609002121,2.478916637046169e-07
-0.979125,0.4392811221089744,2.535747087613232e-07
-0.9790624999999999,0.4393606609002121,2.593693587451591e-07
-0.979,0.4393606609002121,2.652774326332568e-07
-0.9789375,0.4393606609002121,2.71300772786899e-07
-0.9788750000000001,0.4393606609002121,2.774412451665285e-07
-0.9788125,0.4395197384826875,2.837007395478251e-07
-0.97875,0.4395197384826875,2.900811697388481e-07
-0.9786875,0.4395197384826875,2.96584473798243e-07
-0.978625,0.4393606609002121,3.032126142545099e-07
-0.9785625,0.439678816065163,3.099675783263314e-07
-0.9785,0.4395992772739252,3.168513781439589e-07
-0.9784375,0.4395992772739252,3.238660509716534e-07
-0.978375,0.439678816065163,3.310136594311809e-07
-0.9783125,0.439678816065163,3.382962917263575e-07
-0.97825,0.439678816065163,3.457160618686441e-07
-0.9781875,0.439678816065163,3.532751099037873e-07
-0.978125,0.4397583548564007,3.609756021395041e-07
-0.9780624999999999,0.439678816065163,3.688197313742083e-07
-0.978,0.4397583548564007,3.768097171267753e-07
-0.9779375,0.439678816065163,3.849478058673443e-07
-0.977875,0.439678816065163,3.932362712491536e-07
-0.9778125,0.4398378936476384,4.016774143414066e-07
-0.97775,0.4397583548564007,4.102735638631673e-07
-0.9776875,0.4397583548564007,4.190270764182806e-07
-0.977625,0.4397583548564007,4.279403367313156e-07
-0.9775625,0.4397583548564007,4.370157578845285e-07
-0.9775,0.439678816065163,4.462557815558437e-07
-0.9774375,0.4397583548564007,4.556628782578465e-07
-0.977375,0.4397583548564007,4.652395475777896e-07
-0.9773125,0.4397583548564007,4.749883184186054e-07
-0.97725,0.439678816065163,4.849117492409239e-07
-0.9771875,0.4397583548564007,4.950124283060924e-07
-0.977125,0.4398378936476384,5.052929739201932e-07
-0.9770624999999999,0.4398378936476384,5.157560346790556e-07
-0.977,0.4399969712301139,5.264042897142616e-07
-0.9769375,0.4400765100213516,5.372404489401385e-07
-0.976875,0.4399174324388762,5.482672533017358e-07
-0.9768125,0.4399969712301139,5.594874750237862e-07
-0.97675,0.4399969712301139,5.709039178606408e-07
