Task5_10Hz_500mV_45.csv

#Digilent WaveForms Oscilloscope Acquisition
#Device Name: Discovery3
#Serial Number: SN:210415BD63A1
#Date Time: 2026-09-24 11:25:31.377.974.250
#Sample rate: 16000Hz
#Samples: 32000
#Trigger: Source: Channel 1 Type: Edge Condition: Rising Level: 0 V Hyst.: Auto HoldOff: 0 s
#Channel 1: Range: 500 mV/div Offset: 0 V Sample Mode: Average
#Math 1: Input: C1 Reference: Internal Frequency: 10 Hz Phase: 90 ° Filter: IIR Butterworth 8  Low-Pass CutOff: 2 Hz Output: Amplitude

#Wavegen Channel 1: Running
#Mode: Simple
#Type: Sine
#Frequency: 10 Hz
#Period: 100 ms
#Amplitude: 500 mV
#Offset: 0 V
#Symmetry: 50 %
#Phase: 0 °

Time (s),Channel 1 (V),Math 1 (V)
-1,0.4134310149567133,2.336644253991407e-28
-0.9999375,0.4134310149567133,3.971352845607928e-27
-0.999875,0.4134310149567133,3.38644240394664e-26
-0.9998125,0.4133514761654756,1.944895833516277e-25
-0.99975,0.4131923985830001,8.517087341383782e-25
-0.9996875,0.4131128597917624,3.050349703654087e-24
-0.999625,0.4131923985830001,9.348940970278221e-24
-0.9995625,0.4131923985830001,2.530909861433329e-23
-0.9995000000000001,0.4131128597917624,6.193602177601552e-23
-0.9994375,0.4130333210005246,1.394251685529745e-22
-0.999375,0.4130333210005246,2.926285578627392e-22
-0.9993125,0.4130333210005246,5.787122759441532e-22
-0.99925,0.4129537822092869,1.087534660888611e-21
-0.9991875,0.4130333210005246,1.955332296162639e-21
-0.999125,0.4131128597917624,3.382358364937974e-21
-0.9990625,0.4130333210005246,5.655175101433439e-21
-0.999,0.4130333210005246,9.174359023241205e-21
-0.9989375,0.4060339073716048,1.448843433812756e-20
-0.998875,0.405954368580367,2.233490638772419e-20
-0.9988125,0.4061134461628425,3.368932321832325e-20
-0.99875,0.4061134461628425,4.9823349356785e-20
-0.9986875,0.4061134461628425,7.237289161709576e-20
-0.998625,0.4061134461628425,1.034173722681417e-19
-0.9985625,0.4061929849540802,1.455713001541487e-19
-0.9985000000000001,0.4061134461628425,2.020893453762739e-19
-0.9984375,0.4061134461628425,2.769861779188328e-19
-0.998375,0.4062725237453179,3.751723851394071e-19
-0.9983125,0.4061134461628425,5.026078373409331e-19
-0.99825,0.4061134461628425,6.664739247056882e-19
-0.9981875,0.4061929849540802,8.753661426933785e-19
-0.998125,0.4062725237453179,1.139508556585964e-18
-0.9980625,0.4061929849540802,1.470991729200017e-18
-0.998,0.4062725237453179,1.884035748883965e-18
-0.9979375,0.4063520625365556,2.395280047773103e-18
-0.997875,0.4063520625365556,3.024101752890007e-18
-0.9978125,0.4063520625365556,3.79296436505155e-18
-0.99775,0.4063520625365556,4.727798612676066e-18
-0.9976874999999999,0.4064316013277934,5.858417379476706e-18
-0.997625,0.4064316013277934,7.218966656681592e-18
-0.9975625,0.4065111401190311,8.84841452183848e-18
-0.9975000000000001,0.4064316013277934,1.079108019744181e-17
-0.9974375,0.4064316013277934,1.30972052935639e-17
-0.997375,0.4063520625365556,1.582356938938079e-17
-0.9973125,0.4064316013277934,1.903415215895613e-17
-0.99725,0.4065906789102688,2.280084429688448e-17
-0.9971875,0.4065111401190311,2.720420954939575e-17
-0.997125,0.4064316013277934,3.233430020628536e-17
-0.9970625,0.4065906789102688,3.829152845855396e-17
-0.997,0.4065111401190311,4.518759607591828e-17
-0.9969375,0.4064316013277934,5.314648490738989e-17
-0.996875,0.4064316013277934,6.230551075691348e-17
-0.9968125,0.4065906789102688,7.281644323461019e-17
-0.99675,0.4065906789102688,8.484669423248288e-17
-0.9966874999999999,0.4065906789102688,9.858057772151321e-17
-0.996625,0.4066702177015066,1.142206436149148e-16
-0.9965625,0.4067497564927443,1.319890884899028e-16
-0.9965000000000001,0.4066702177015066,1.52129246007696e-16
-0.9964375,0.4067497564927443,1.749071599185887e-16
-0.996375,0.406829295283982,2.006132425858095e-16
-0.9963125,0.4067497564927443,2.295640220085408e-16
-0.99625,0.4067497564927443,2.621039803708832e-16
-0.9961875,0.4066702177015066,2.986074871897275e-16
-0.996125,0.406829295283982,3.394808301804327e-16
-0.9960625,0.406829295283982,3.851643470049049e-16
-0.996,0.4069088340752197,4.361346611121339e-16
-0.9959375,0.4069088340752197,4.92907024926465e-16
-0.995875,0.4069883728664574,5.560377736838732e-16
-0.9958125,0.4069883728664574,6.261268932612531e-16
-0.99575,0.4069883728664574,7.038207053882475e-16
-0.9956874999999999,0.4069088340752197,7.898146736754112e-16
-0.995625,0.4069088340752197,8.848563339365307e-16
-0.9955625,0.4069883728664574,9.897483523267358e-16
-0.9955000000000001,0.4069883728664574,1.105351714861594e-15
-0.9954375,0.4069883728664574,1.232589051925721e-15
-0.995375,0.4070679116576952,1.372448101422527e-15
-0.9953125,0.4070679116576952,1.525985314259578e-15
-0.99525,0.4072269892401706,1.694329605906671e-15
-0.9951875,0.4071474504489329,1.878686257806091e-15
-0.995125,0.4071474504489329,2.080340972456679e-15
-0.9950625,0.4072269892401706,2.300664086035209e-15
-0.995,0.4072269892401706,2.541114942460281e-15
-0.9949375,0.4072269892401706,2.803246432845333e-15
-0.994875,0.4071474504489329,3.088709704328561e-15
-0.9948125,0.4070679116576952,3.399259042308529e-15
-0.99475,0.4071474504489329,3.736756930154921e-15
-0.9946874999999999,0.4073065280314084,4.103179290504392e-15
-0.994625,0.4073065280314084,4.500620912291735e-15
-0.9945625,0.4073065280314084,4.931301067706539e-15
-0.9945000000000001,0.4072269892401706,5.397569323305341e-15
-0.9944375,0.4073860668226461,5.901911549548777e-15
-0.994375,0.4073860668226461,6.446956133072556e-15
-0.9943125,0.4073065280314084,7.035480396040168e-15
-0.99425,0.4073065280314084,7.670417226964086e-15
-0.9941875,0.4073860668226461,8.354861927420848e-15
-0.994125,0.4074656056138838,9.0920792791238e-15
-0.9940625,0.4074656056138838,9.885510835855457e-15
-0.994,0.4074656056138838,1.073878244479937e-14
-0.9939375,0.4075451444051216,1.165571200184914e-14
-0.993875,0.4073860668226461,1.264031744550962e-14
-0.9938125,0.4074656056138838,1.369682499404277e-14
-0.99375,0.4073860668226461,1.482967763054745e-14
-0.9936874999999999,0.4073860668226461,1.604354384069943e-14
-0.993625,0.4074656056138838,1.734332660791452e-14
-0.9935625,0.4074656056138838,1.873417267073375e-14
-0.9935,0.4074656056138838,2.022148204726618e-14
-0.9934375,0.4074656056138838,2.181091783156045e-14
-0.993375,0.4074656056138838,2.35084162668118e-14
-0.9933125,0.4073860668226461,2.532019710034728e-14
-0.99325,0.4074656056138838,2.725277422536634e-14
-0.9931875,0.4073860668226461,2.931296661444957e-14
-0.993125,0.4073860668226461,3.150790954988284e-14
-0.9930625,0.4075451444051216,3.384506615587876e-14
-0.993,0.4073860668226461,3.633223923781154e-14
-0.9929375,0.4074656056138838,3.897758343361564e-14
-0.992875,0.4073860668226461,4.178961768253225e-14
-0.9928125,0.4074656056138838,4.477723801642149e-14
-0.99275,0.4074656056138838,4.794973067889142e-14
-0.9926874999999999,0.4075451444051216,5.131678557752829e-14
-0.992625,0.4074656056138838,5.488851007454562e-14
-0.9925625,0.4074656056138838,5.867544312120166e-14
-0.9925,0.4073860668226461,6.268856974136866e-14
-0.9924375,0.4073860668226461,6.693933586966822e-14
-0.992375,0.4073065280314084,7.143966354962031e-14
-0.9923125,0.4073065280314084,7.62019664972844e-14
-0.99225,0.4073860668226461,8.123916603590393e-14
-0.9921875,0.4073065280314084,8.656470740709526e-14
-0.992125,0.4073065280314084,9.219257646415504e-14
-0.9920625,0.4072269892401706,9.813731675308994e-14
-0.992,0.4072269892401706,1.044140469870033e-13
-0.9919375,0.4073065280314084,1.110384789195052e-13
-0.991875,0.4072269892401706,1.180269356228404e-13
-0.9918125,0.4071474504489329,1.253963701764613e-13
-0.99175,0.4072269892401706,1.331643847718013e-13
-0.9916875000000001,0.4071474504489329,1.41349250239034e-13
-0.991625,0.4071474504489329,1.499699260016334e-13
-0.9915625,0.4070679116576952,1.590460804645784e-13
-0.9915,0.4070679116576952,1.685981118420772e-13
-0.9914375,0.4070679116576952,1.786471694307102e-13
-0.991375,0.4069883728664574,1.892151753339249e-13
-0.9913125,0.4069088340752197,2.003248466438398e-13
-0.99125,0.4070679116576952,2.11999718086346e-13
-0.9911875,0.4069088340752197,2.242641651355195e-13
-0.991125,0.4069883728664574,2.371434276033887e-13
-0.9910625,0.4069088340752197,2.506636337111266e-13
-0.991,0.406829295283982,2.648518246477646e-13
-0.9909375,0.406829295283982,2.797359796225533e-13
-0.990875,0.4069088340752197,2.953450414171205e-13
-0.9908125,0.4067497564927443,3.117089424436061e-13
-0.99075,0.4067497564927443,3.288586313149756e-13
-0.9906875000000001,0.4066702177015066,3.468260999337455e-13
-0.990625,0.4066702177015066,3.656444111053754e-13
-0.9905625,0.4067497564927443,3.853477266826089e-13
-0.9905,0.4067497564927443,4.059713362470722e-13
-0.9904375,0.4065111401190311,4.275516863344628e-13
-0.990375,0.4064316013277934,4.501264102096869e-13
-0.9903125,0.4065111401190311,4.737343581983277e-13
-0.99025,0.4064316013277934,4.984156285808542e-13
-0.9901875,0.4064316013277934,5.242115990560007e-13
-0.990125,0.4064316013277934,5.511649587797751e-13
-0.9900625,0.4062725237453179,5.793197409865758e-13
-0.99,0.4063520625365556,6.08721356198922e-13
-0.9899375,0.4062725237453179,6.39416626032325e-13
-0.9898749999999999,0.4062725237453179,6.714538176018511e-13
-0.9898125,0.4061929849540802,7.048826785369529e-13
-0.98975,0.4061134461628425,7.397544726111633e-13
-0.9896875000000001,0.4061929849540802,7.761220159932759e-13
-0.989625,0.4061929849540802,8.140397141266505e-13
-0.9895625,0.4061134461628425,8.535635992433124e-13
-0.9895,0.4061134461628425,8.947513685195303e-13
-0.9894375,0.4061134461628425,9.376624228795827e-13
-0.989375,0.4060339073716048,9.823579064544433e-13
-0.9893125,0.4061134461628425,1.028900746702139e-12
-0.98925,0.4060339073716048,1.077355695196548e-12
-0.9891875,0.405954368580367,1.127789369091445e-12
-0.989125,0.4061134461628425,1.180270293266594e-12
-0.9890625,0.4061929849540802,1.234868943162731e-12
-0.989,0.4060339073716048,1.291657788312302e-12
-0.9889375,0.4060339073716048,1.350711336572808e-12
-0.9888749999999999,0.4061134461628425,1.412106179069692e-12
-0.9888125,0.4061929849540802,1.475921035855638e-12
-0.98875,0.4061134461628425,1.542236802293259e-12
-0.9886875000000001,0.4061134461628425,1.611136596168105e-12
-0.988625,0.4061929849540802,1.682705805538971e-12
-0.9885625,0.4060339073716048,1.757032137332506e-12
-0.9885,0.4060339073716048,1.83420566668912e-12
-0.9884375,0.4060339073716048,1.914318887067234e-12
-0.988375,0.4060339073716048,1.99746676111292e-12
-0.9883125,0.4061134461628425,2.08374677230198e-12
-0.98825,0.4061134461628425,2.173258977361583e-12
-0.9881875,0.4061929849540802,2.266106059478526e-12
-0.988125,0.4062725237453179,2.362393382301264e-12
-0.9880625,0.4060339073716048,2.462229044742837e-12
-0.988,0.4061134461628425,2.565723936591852e-12
-0.9879375,0.4063520625365556,2.672991794938684e-12
-0.9878749999999999,0.4063520625365556,2.784149261424096e-12
-0.9878125,0.4062725237453179,2.899315940317467e-12
-0.98775,0.4061929849540802,3.018614457431867e-12
-0.9876875000000001,0.4061929849540802,3.142170519883197e-12
-0.987625,0.4061929849540802,3.270112976700664e-12
-0.9875625,0.4061929849540802,3.40257388029584e-12
-0.9875,0.4063520625365556,3.53968854879761e-12
-0.9874375,0.4062725237453179,3.681595629260287e-12
-0.987375,0.4062725237453179,3.828437161752229e-12
-0.9873125,0.4062725237453179,3.980358644332258e-12
-0.98725,0.4062725237453179,4.137509098921258e-12
-0.9871875,0.4062725237453179,4.300041138076283e-12
-0.987125,0.4063520625365556,4.468111032674553e-12
-0.9870625,0.4063520625365556,4.641878780514734e-12
-0.987,0.4063520625365556,4.821508175842893e-12
-0.9869375,0.4064316013277934,5.007166879810531e-12
-0.9868749999999999,0.4065111401190311,5.199026491872143e-12
-0.9868125,0.4065906789102688,5.397262622129724e-12
-0.98675,0.4065111401190311,5.602054964631682e-12
-0.9866875000000001,0.4066702177015066,5.813587371633626e-12
-0.986625,0.4065906789102688,6.032047928828498e-12
-0.9865625,0.4067497564927443,6.257629031553544e-12
-0.9865,0.4065906789102688,6.490527461981623e-12
-0.9864375,0.4066702177015066,6.730944467304375e-12
-0.986375,0.4067497564927443,6.979085838914765e-12
-0.9863125,0.4066702177015066,7.235161992596546e-12
-0.98625,0.406829295283982,7.499388049728178e-12
-0.9861875,0.406829295283982,7.771983919508795e-12
-0.986125,0.406829295283982,8.053174382213728e-12
-0.9860625,0.4069088340752197,8.343189173487249e-12
-0.986,0.406829295283982,8.64226306968005e-12
-0.9859375,0.406829295283982,8.950635974239105e-12
-0.9858749999999999,0.4067497564927443,9.26855300515752e-12
-0.9858125,0.4069088340752197,9.596264583491969e-12
-0.98575,0.4069883728664574,9.934026522955381e-12
-0.9856875,0.4069088340752197,1.028210012059251e-11
-0.985625,0.4069088340752197,1.064075224854601e-11
-0.9855625,0.4069883728664574,1.10102554469207e-11
-0.9855,0.4069883728664574,1.139088801775373e-11
-0.9854375,0.4071474504489329,1.178293412009821e-11
-0.985375,0.4071474504489329,1.21866838662281e-11
-0.9853125,0.4070679116576952,1.260243341897203e-11
-0.98525,0.4071474504489329,1.303048509018365e-11
-0.9851875,0.4071474504489329,1.347114744035642e-11
-0.985125,0.4072269892401706,1.392473537939039e-11
-0.9850625,0.4072269892401706,1.439157026851867e-11
-0.985,0.4072269892401706,1.487198002340157e-11
-0.9849375,0.4071474504489329,1.53662992183958e-11
-0.9848749999999999,0.4072269892401706,1.58748691920068e-11
-0.9848125,0.4071474504489329,1.639803815353171e-11
-0.98475,0.4073065280314084,1.69361612909009e-11
-0.9846875,0.4072269892401706,1.748960087972572e-11
-0.984625,0.4073065280314084,1.805872639356033e-11
-0.9845625,0.4073860668226461,1.864391461538532e-11
-0.9845,0.4073860668226461,1.924554975032092e-11
-0.9844375,0.4073065280314084,1.986402353957764e-11
-0.984375,0.4074656056138838,2.049973537565204e-11
-0.9843125,0.4073860668226461,2.115309241877553e-11
-0.98425,0.4074656056138838,2.182450971462392e-11
-0.9841875,0.4073860668226461,2.251441031329562e-11
-0.984125,0.4073860668226461,2.322322538956616e-11
-0.9840625,0.4073860668226461,2.395139436442706e-11
-0.984,0.4073065280314084,2.469936502791666e-11
-0.9839375,0.4073065280314084,2.546759366325089e-11
-0.9838750000000001,0.4073065280314084,2.625654517226168e-11
-0.9838125,0.4074656056138838,2.706669320215104e-11
-0.98375,0.4073860668226461,2.789852027356837e-11
-0.9836875,0.4073860668226461,2.875251791001914e-11
-0.983625,0.4074656056138838,2.962918676861251e-11
-0.9835625,0.4074656056138838,3.052903677215595e-11
-0.9835,0.4073860668226461,3.145258724260468e-11
-0.9834375,0.4076246831963592,3.240036703587353e-11
-0.983375,0.4076246831963592,3.337291467801948e-11
-0.9833125,0.4076246831963592,3.437077850280249e-11
-0.98325,0.4075451444051216,3.539451679063239e-11
-0.9831875,0.4075451444051216,3.644469790890998e-11
-0.983125,0.4076246831963592,3.752190045376997e-11
-0.9830625,0.4074656056138838,3.862671339323373e-11
-0.983,0.4075451444051216,3.97597362117796e-11
-0.9829375,0.4074656056138838,4.092157905633886e-11
-0.9828750000000001,0.4073860668226461,4.211286288372492e-11
-0.9828125,0.4073860668226461,4.333421960950387e-11
-0.98275,0.4074656056138838,4.458629225831407e-11
-0.9826875,0.4074656056138838,4.586973511564284e-11
-0.982625,0.4074656056138838,4.718521388106776e-11
-0.9825625,0.4073860668226461,4.8533405822971e-11
-0.9825,0.4074656056138838,4.991499993473401e-11
-0.9824375,0.4074656056138838,5.133069709242076e-11
-0.982375,0.4074656056138838,5.27812102139573e-11
-0.9823125,0.4073860668226461,5.426726441981547e-11
-0.98225,0.4074656056138838,5.578959719520875e-11
-0.9821875,0.4073860668226461,5.734895855380797e-11
-0.982125,0.4073860668226461,5.894611120298486e-11
-0.9820624999999999,0.4073860668226461,6.058183071059114e-11
-0.982,0.4073860668226461,6.225690567328128e-11
-0.9819375,0.4074656056138838,6.397213788638654e-11
-0.9818750000000001,0.4073860668226461,6.572834251534824e-11
-0.9818125,0.4073065280314084,6.752634826871818e-11
-0.98175,0.4073065280314084,6.936699757273387e-11
-0.9816875,0.4073860668226461,7.125114674747666e-11
-0.981625,0.4073860668226461,7.317966618462055e-11
-0.9815625,0.4072269892401706,7.515344052677925e-11
-0.9815,0.4071474504489329,7.717336884845989e-11
-0.9814375,0.4072269892401706,7.924036483863062e-11
-0.981375,0.4072269892401706,8.135535698491028e-11
-0.9813125,0.4072269892401706,8.351928875938805e-11
-0.98125,0.4072269892401706,8.573311880608053e-11
-0.9811875,0.4072269892401706,8.799782113003447e-11
-0.981125,0.4072269892401706,9.03143852880827e-11
-0.9810624999999999,0.4071474504489329,9.268381658126127e-11
-0.981,0.4070679116576952,9.510713624889541e-11
-0.9809375,0.4070679116576952,9.758538166436246e-11
-0.9808750000000001,0.4069883728664574,1.001196065325389e-10
-0.9808125,0.4069883728664574,1.027108810889403e-10
-0.98075,0.4070679116576952,1.053602923005609e-10
-0.9806875,0.4069883728664574,1.080689440684214e-10
-0.980625,0.406829295283982,1.108379574318323e-10
-0.9805625,0.406829295283982,1.136684707743808e-10
-0.9805,0.4067497564927443,1.165616400316491e-10
-0.9804375,0.4067497564927443,1.195186389006713e-10
-0.980375,0.406829295283982,1.225406590511375e-10
-0.9803125,0.4067497564927443,1.256289103383522e-10
-0.98025,0.4066702177015066,1.28784621017955e-10
-0.9801875,0.4065906789102688,1.320090379624114e-10
-0.980125,0.4064316013277934,1.353034268792814e-10
-0.9800624999999999,0.4062725237453179,1.386690725312734e-10
-0.98,0.4064316013277934,1.42107278958091e-10
-0.9799375,0.4064316013277934,1.456193697000819e-10
-0.9798750000000001,0.4063520625365556,1.492066880236938e-10
-0.9798125,0.4064316013277934,1.528705971487478e-10
-0.97975,0.4063520625365556,1.566124804775354e-10
-0.9796875,0.4063520625365556,1.60433741825747e-10
-0.979625,0.4061929849540802,1.643358056552402e-10
-0.9795625,0.4062725237453179,1.683201173086545e-10
-0.9795,0.4060339073716048,1.723881432458817e-10
-0.9794375,0.4061134461628425,1.76541371282397e-10
-0.979375,0.4060339073716048,1.807813108294621e-10
-0.9793125,0.4060339073716048,1.85109493136204e-10
-0.97925,0.4061134461628425,1.895274715335805e-10
-0.9791875,0.4061134461628425,1.940368216802374e-10
-0.979125,0.4060339073716048,1.98639141810267e-10
-0.9790624999999999,0.405954368580367,2.033360529828742e-10
-0.979,0.4060339073716048,2.081291993339583e-10
-0.9789375,0.4061134461628425,2.130202483296181e-10
-0.9788750000000001,0.4060339073716048,2.180108910215874e-10
-0.9788125,0.405954368580367,2.231028423046097e-10
-0.97875,0.4060339073716048,2.282978411757574e-10
-0.9786875,0.4060339073716048,2.335976509957057e-10
-0.978625,0.405954368580367,2.390040597519669e-10
-0.9785625,0.4060339073716048,2.445188803240929e-10
-0.9785,0.4061134461628425,2.501439507508537e-10
-0.9784375,0.4061134461628425,2.558811344994002e-10
-0.978375,0.4061134461628425,2.617323207364165e-10
-0.9783125,0.4061134461628425,2.676994246012718e-10
-0.97825,0.4060339073716048,2.737843874811774e-10
-0.9781875,0.4061134461628425,2.799891772883571e-10
-0.978125,0.4061134461628425,2.863157887392391e-10
-0.9780624999999999,0.4061134461628425,2.927662436356746e-10
-0.978,0.4061929849540802,2.993425911481935e-10
-0.9779375,0.4061929849540802,3.060469081013015e-10
-0.977875,0.4061134461628425,3.128812992608293e-10
-0.9778125,0.4061134461628425,3.198478976233379e-10
-0.97775,0.4061929849540802,3.2694886470759e-10
-0.9776875,0.4061929849540802,3.341863908480932e-10
-0.977625,0.4061134461628425,3.415626954907237e-10
-0.9775625,0.4061929849540802,3.490800274904362e-10
-0.9775,0.4061929849540802,3.567406654110684e-10
-0.9774375,0.4061929849540802,3.645469178272481e-10
-0.977375,0.4061134461628425,3.725011236284082e-10
-0.9773125,0.4061929849540802,3.806056523249182e-10
-0.97725,0.4062725237453179,3.888629043563395e-10
-0.9771875,0.4063520625365556,3.972753114018106e-10
-0.977125,0.4063520625365556,4.058453366925715e-10
-0.9770624999999999,0.4062725237453179,4.14575475326633e-10
-0.977,0.4063520625365556,4.234682545855966e-10
-0.9769375,0.4063520625365556,4.325262342536369e-10
-0.976875,0.4062725237453179,4.417520069386478e-10
-0.9768125,0.4063520625365556,4.511481983955651e-10
-0.97675,0.4065111401190311,4.607174678518679e-10
