Task5_5Hz.csv

#Digilent WaveForms Oscilloscope Acquisition
#Device Name: Discovery3
#Serial Number: SN:210415BD63A1
#Date Time: 2026-09-24 11:09:17.724.364.290
#Sample rate: 3200Hz
#Samples: 32000
#Trigger: Source: Channel 1 Type: Edge Condition: Rising Level: 0 V Hyst.: Auto HoldOff: 0 s
#Channel 1: Range: 500 mV/div Offset: 0 V Sample Mode: Average
#Math 1: Input: C1 Reference: Internal Frequency: 5 Hz Phase: 90 ° Filter: IIR Butterworth 8  Low-Pass CutOff: 1 Hz Output: Amplitude

#Wavegen Channel 1: Running
#Mode: Simple
#Type: Sine
#Frequency: 5 Hz
#Period: 200 ms
#Amplitude: 50 mV
#Offset: 0 V
#Symmetry: 50 %
#Phase: 0 °

Time (s),Channel 1 (V),Math 1 (V)
-5,0.4398378936476384,3.763679775717887e-25
-4.9996875,0.4397583548564007,6.394177404742281e-24
-4.999375,0.4395992772739251,5.45001608336305e-23
-4.9990625,0.4395197384826875,3.128535958453675e-22
-4.99875,0.4393606609002121,1.36933954715405e-21
-4.9984375,0.4390425057352609,4.901528440310621e-21
-4.998125,0.4388834281527857,1.501394890559855e-20
-4.9978125,0.4387243505703102,4.06210038570128e-20
-4.9975,0.4392811221089741,9.934623089363719e-20
-4.9971875,0.4391220445264989,2.235000175983199e-19
-4.996875,0.4389629669440234,4.687883361050353e-19
-4.9965625,0.4388834281527851,9.264945625696931e-19
-4.99625,0.4385652729878348,1.739964999660488e-18
-4.9959375,0.4384857341965971,3.126316328631494e-18
-4.995625,0.4383266566141219,5.404369885116224e-18
-4.9953125,0.4383266566141216,9.029903381522899e-18
-4.995,0.4383266566141216,1.463939549177567e-17
-4.9946875,0.4383266566141216,2.310352257798814e-17
-4.994375,0.4384061954053594,3.559174977659931e-17
-4.9940625,0.4384857341965971,5.364944067174037e-17
-4.99375,0.4386448117790723,7.928899086034506e-17
-4.9934375,0.438803889361548,1.150965708479699e-16
-4.993125,0.438803889361548,1.643561429038679e-16
-4.9928125,0.438803889361548,2.311924947483092e-16
-4.9925,0.4388834281527857,3.207351102350763e-16
-4.9921875,0.4389629669440234,4.393047735286798e-16
-4.991875,0.4390425057352612,5.946248786583343e-16
-4.9915625,0.4392015833177369,7.960594907349675e-16
-4.99125,0.4393606609002121,1.054880278565546e-15
-4.9909375,0.4393606609002121,1.384564510886988e-15
-4.990625,0.43944019969145,1.801126379928642e-15
-4.9903125,0.4395197384826875,2.323483986579982e-15
-4.99,0.4395992772739252,2.973864391011701e-15
-4.9896875,0.439678816065163,3.778249201158247e-15
-4.989375,0.439678816065163,4.766863239141637e-15
-4.9890625,0.4395197384826875,5.974708892364159e-15
-4.98875,0.4394401996914497,7.442148821609171e-15
-4.9884375,0.4393606609002121,9.215539763307387e-15
-4.988125,0.4393606609002121,1.134792022689909e-14
-4.9878125,0.4392811221089745,1.389975495094059e-14
-4.9875,0.4392015833177366,1.693973904378536e-14
-4.9871875,0.4390425057352612,2.054566479538271e-14
-4.986875,0.438883428152786,2.480535420719519e-14
-4.9865625,0.4387243505703102,2.981766034615848e-14
-4.98625,0.4384857341965971,3.56935406869644e-14
-4.9859375,0.4383266566141219,4.255720566465023e-14
-4.985625,0.4382471178228839,5.054734571559048e-14
-4.9853125,0.4382471178228839,5.98184401406961e-14
-4.985,0.4383266566141215,7.054215117983375e-14
-4.9846875,0.4383266566141216,8.290880673968044e-14
-4.984375,0.4384061954053594,9.712897527034421e-14
-4.9840625,0.4384061954053594,1.134351363389042e-13
-4.98375,0.4384857341965974,1.320834504979828e-13
-4.9834375,0.4386448117790726,1.533556320985255e-13
-4.983125,0.4386448117790726,1.775609287458944e-13
-4.9828125,0.4387243505703104,2.050382111449287e-13
-4.9825,0.438803889361548,2.361581771294565e-13
-4.9821875,0.4388834281527857,2.713256737178631e-13
-4.981875,0.4390425057352614,3.109821410801232e-13
-4.9815625,0.4392015833177366,3.556081823496147e-13
-4.98125,0.4393606609002121,4.057262632561959e-13
-4.9809375,0.4394401996914498,4.619035455972965e-13
-4.980625,0.4394401996914498,5.247548586103059e-13
-4.9803125,0.4395197384826875,5.94945812349566e-13
-4.98,0.4396788160651627,6.731960572074146e-13
-4.9796875,0.4395992772739252,7.602826937667132e-13
-4.979375,0.439678816065163,8.570438372005874e-13
-4.9790625,0.439678816065163,9.643823404837638e-13
-4.97875,0.439678816065163,1.083269680707368e-12
-4.9784375,0.439678816065163,1.214750012827556e-12
-4.978125,0.4395197384826878,1.359944395220038e-12
-4.9778125,0.4394401996914498,1.520055191436316e-12
-4.9775,0.4393606609002121,1.69637065259407e-12
-4.9771875,0.4392015833177369,1.890269684875591e-12
-4.976875,0.4389629669440234,2.103226806625579e-12
-4.9765625,0.4388834281527857,2.336817299575086e-12
-4.97625,0.4384857341965971,2.592722558760637e-12
-4.9759375,0.4384061954053592,2.872735645714567e-12
-4.975625,0.4383266566141216,3.178767049545869e-12
-4.9753125,0.4382471178228839,3.512850660563909e-12
-4.975,0.4382471178228837,3.877149961096318e-12
-4.9746875,0.4381675790316462,4.273964438210893e-12
-4.974375,0.4382471178228839,4.705736223065315e-12
-4.9740625,0.4383266566141218,5.175056961608674e-12
-4.97375,0.4384061954053594,5.684674921420732e-12
-4.9734375,0.4384857341965971,6.237502339483496e-12
-4.973125,0.4385652729878351,6.836623015670726e-12
-4.9728125,0.4387243505703102,7.485300156811675e-12
-4.9725,0.4387243505703102,8.18698447618727e-12
-4.9721875,0.4388038893615478,8.94532255329463e-12
-4.971875,0.4388834281527857,9.764165458820611e-12
-4.9715625,0.4389629669440234,1.064757764967887e-11
-4.97125,0.4392015833177362,1.159984613909036e-11
-4.9709375,0.4392015833177366,1.262548994661105e-11
-4.970625,0.4392015833177366,1.372926983305579e-11
-4.9703125,0.4393606609002118,1.491619832533791e-11
-4.97,0.4393606609002121,1.619155003616469e-11
-4.9696875,0.4393606609002121,1.75608722835769e-11
-4.969375,0.4394401996914497,1.902999601540223e-11
-4.9690625,0.4394401996914498,2.060504704358764e-11
-4.96875,0.4393606609002121,2.229245759343045e-11
-4.9684375,0.4392811221089744,2.409897817282655e-11
-4.968125,0.4391220445264987,2.603168976649715e-11
-4.9678125,0.4390425057352612,2.809801636028044e-11
-4.9675,0.4388834281527857,3.030573780061267e-11
-4.9671875,0.438803889361548,3.266300299414459e-11
-4.966875,0.438803889361548,3.517834345266928e-11
-4.9665625,0.4386448117790726,3.786068718845938e-11
-4.96625,0.4383266566141212,4.071937296497102e-11
-4.9659375,0.4380880402404084,4.376416490812102e-11
-4.965625,0.437928962657933,4.700526748324899e-11
-4.9653125,0.4380085014491709,5.045334084270322e-11
-4.965,0.4380880402404084,5.411951654928763e-11
-4.9646875,0.4382471178228839,5.801541368068934e-11
-4.964375,0.4382471178228839,6.215315531978016e-11
-4.9640625,0.4381675790316462,6.654538543616702e-11
-4.96375,0.4383266566141216,7.120528616378655e-11
-4.9634375,0.4383266566141216,7.614659547993559e-11
-4.963125,0.4384857341965971,8.13836252906183e-11
-4.9628125,0.4385652729878348,8.693127992726327e-11
-4.9625,0.43872435057031,9.280507506014189e-11
-4.9621875,0.438803889361548,9.902115703332978e-11
-4.961875,0.4389629669440234,1.055963226262451e-10
-4.9615625,0.4391220445264986,1.12548039247124e-10
-4.96125,0.4392015833177366,1.198944655632125e-10
-4.9609375,0.4392811221089744,1.276544725726797e-10
-4.960625,0.4392811221089744,1.358476651236605e-10
-4.9603125,0.4394401996914501,1.444944038850396e-10
-4.96,0.4395992772739252,1.536158277741477e-10
-4.9596875,0.4395197384826875,1.63233876846637e-10
-4.959375,0.4395197384826873,1.733713156529847e-10
-4.9590625,0.4394401996914498,1.840517570670558e-10
-4.95875,0.4393606609002121,1.952996865917552e-10
-4.9584375,0.4393606609002119,2.071404871461885e-10
-4.958125,0.4392811221089744,2.19600464339781e-10
-4.9578125,0.4392015833177366,2.327068722383528e-10
-4.9575,0.4390425057352609,2.464879396264347e-10
-4.9571875,0.4388834281527857,2.609728967713124e-10
-4.956875,0.4387243505703102,2.761920026937606e-10
-4.9565625,0.4385652729878351,2.921765729495371e-10
-4.95625,0.4383266566141216,3.089590079275898e-10
-4.9559375,0.4380880402404084,3.265728216686395e-10
-4.955625,0.4380085014491709,3.450526712101186e-10
-4.9553125,0.4380085014491707,3.644343864614452e-10
-4.955,0.4381675790316462,3.847550006143091e-10
-4.9546875,0.4380880402404086,4.06052781093651e-10
-4.954375,0.4381675790316462,4.283672610531872e-10
-4.9540625,0.4383266566141216,4.51739271420077e-10
-4.95375,0.4384061954053592,4.76210973494491e-10
-4.9534375,0.4384061954053594,5.018258921077303e-10
-4.953125,0.4384857341965971,5.286289493434093e-10
-4.9528125,0.4385652729878348,5.566664988275999e-10
-4.9525,0.438565272987835,5.859863605910612e-10
-4.9521875,0.4386448117790726,6.166378565086581e-10
-4.951875,0.4388834281527857,6.486718463213619e-10
-4.9515625,0.4388834281527859,6.82140764243499e-10
-4.95125,0.4389629669440234,7.170986561612325e-10
-4.9509375,0.4390425057352612,7.536012174268945e-10
-4.950625,0.4392015833177368,7.917058312518284e-10
-4.9503125,0.4392811221089744,8.314716077038024e-10
-4.95,0.4392811221089744,8.729594233135418e-10
-4.9496875,0.4392015833177368,9.162319612927097e-10
-4.949375,0.4392811221089744,9.613537523695384e-10
-4.9490625,0.4392015833177366,1.008391216246585e-09
-4.94875,0.4392811221089742,1.057412703682402e-09
-4.9484375,0.4391220445264989,1.108488539204753e-09
-4.948125,0.4391220445264989,1.161691064455959e-09
-4.9478125,0.4389629669440237,1.217094682178114e-09
-4.9475,0.4388834281527857,1.274775900839774e-09
-4.9471875,0.4387243505703102,1.334813379907961e-09
-4.946875,0.4385652729878351,1.397287975772315e-09
-4.9465625,0.4384061954053594,1.462282788322742e-09
-4.94625,0.4381675790316462,1.529883208184275e-09
-4.9459375,0.4379289626579335,1.600176964616218e-09
-4.945625,0.437928962657933,1.673254174076485e-09
-4.9453125,0.437928962657933,1.749207389454712e-09
-4.945,0.4380085014491707,1.828131649981621e-09
-4.9446875,0.4380880402404086,1.910124531814232e-09
-4.944375,0.4381675790316462,1.995286199302261e-09
-4.9440625,0.4382471178228839,2.083719456941777e-09
-4.94375,0.4383266566141218,2.175529802014651e-09
-4.9434375,0.4384061954053594,2.270825477921651e-09
-4.943125,0.4384061954053594,2.369717528213136e-09
-4.9428125,0.438565272987835,2.472319851316136e-09
-4.9425,0.4386448117790726,2.578749255965841e-09
-4.9421875,0.4387243505703102,2.689125517345432e-09
-4.941875,0.4388834281527859,2.803571433932287e-09
-4.9415625,0.4389629669440234,2.922212885059066e-09
-4.94125,0.4391220445264989,3.045178889193459e-09
-4.9409375,0.4392811221089741,3.172601662933458e-09
-4.940625,0.4392811221089744,3.304616680730409e-09
-4.9403125,0.4392811221089744,3.441362735333614e-09
-4.94,0.4393606609002119,3.582981998969034e-09
-4.9396875,0.4395197384826875,3.72962008524868e-09
-4.939375,0.4394401996914498,3.881426111813209e-09
-4.9390625,0.4394401996914498,4.038552763717867e-09
-4.93875,0.4393606609002121,4.201156357557976e-09
-4.9384375,0.4393606609002121,4.3693969063363e-09
-4.938125,0.4392811221089745,4.543438185083048e-09
-4.9378125,0.4392015833177366,4.723447797223848e-09
-4.9375,0.4390425057352612,4.909597241697817e-09
-4.9371875,0.4389629669440234,5.102061980837553e-09
-4.936875,0.43872435057031,5.301021509003327e-09
-4.9365625,0.4385652729878348,5.506659421978149e-09
-4.93625,0.4383266566141216,5.719163487131943e-09
-4.9359375,0.438167579031646,5.938725714345021e-09
-4.935625,0.4380880402404084,6.165542427703555e-09
-4.9353125,0.4380085014491707,6.399814337970291e-09
-4.935,0.4380880402404084,6.641746615821571e-09
-4.9346875,0.4380880402404084,6.891548965863859e-09
-4.934375,0.4380880402404084,7.149435701432964e-09
-4.9340625,0.4382471178228841,7.415625820165695e-09
-4.93375,0.4383266566141216,7.690343080358112e-09
-4.9334375,0.4384857341965971,7.973816078113499e-09
-4.933125,0.4384061954053595,8.266278325267284e-09
-4.9328125,0.4384857341965971,8.567968328111716e-09
-4.9325,0.4386448117790726,8.879129666900599e-09
-4.9321875,0.4387243505703101,9.200011076157586e-09
-4.931875,0.438803889361548,9.53086652577485e-09
-4.9315625,0.4389629669440234,9.871955302902871e-09
-4.93125,0.4389629669440234,1.02235420946492e-08
-4.9309375,0.4391220445264989,1.058589707157247e-08
-4.930625,0.4392811221089744,1.095929597197218e-08
-4.9303125,0.4393606609002119,1.134402018699338e-08
-4.93,0.4393606609002121,1.174035684653108e-08
-4.9296875,0.4392811221089744,1.21485989059344e-08
-4.929375,0.4393606609002121,1.256904523353205e-08
-4.9290625,0.4393606609002119,1.300200069895753e-08
-4.92875,0.4392811221089744,1.344777626228427e-08
-4.9284375,0.4392015833177366,1.390668906398421e-08
-4.928125,0.4391220445264987,1.437906251568423e-08
-4.9278125,0.4390425057352612,1.48652263917438e-08
-4.9275,0.4388834281527857,1.53655169216564e-08
-4.9271875,0.4387243505703101,1.588027688325167e-08
-4.926875,0.4386448117790726,1.640985569672243e-08
-4.9265625,0.4384857341965971,1.695460951947929e-08
-4.92625,0.4383266566141212,1.75149013418074e-08
-4.9259375,0.4380880402404084,1.809110108335127e-08
-4.925625,0.4380880402404084,1.868358569043069e-08
-4.9253125,0.438167579031646,1.929273923415701e-08
-4.925,0.4381675790316462,1.991895300939409e-08
-4.9246875,0.4383266566141216,2.056262563451934e-08
-4.924375,0.4384061954053592,2.122416315202996e-08
-4.9240625,0.4384061954053594,2.190397912996392e-08
-4.92375,0.4385652729878348,2.260249476413358e-08
-4.9234375,0.4386448117790724,2.332013898120586e-08
-4.923125,0.4387243505703102,2.405734854259702e-08
-4.9228125,0.438803889361548,2.481456814918033e-08
-4.9225,0.4388834281527855,2.559225054684261e-08
-4.9221875,0.4390425057352612,2.639085663285528e-08
-4.921875,0.4392015833177366,2.721085556305744e-08
-4.9215625,0.4393606609002121,2.805272485989169e-08
-4.92125,0.4393606609002123,2.89169505212458e-08
-4.9209375,0.4394401996914498,2.980402713011858e-08
-4.920625,0.4395197384826875,3.071445796513388e-08
-4.9203125,0.4395992772739254,3.164875511184901e-08
-4.92,0.439678816065163,3.260743957490162e-08
-4.9196875,0.4395992772739252,3.35910413909975e-08
-4.919375,0.4395992772739251,3.460009974269082e-08
-4.9190625,0.4395197384826875,3.563516307300288e-08
-4.91875,0.4394401996914498,3.66967892008815e-08
-4.9184375,0.4393606609002119,3.778554543744888e-08
-4.918125,0.4392811221089744,3.890200870308726e-08
-4.9178125,0.4392811221089744,4.004676564536475e-08
-4.9175,0.4392015833177368,4.122041275774049e-08
-4.9171875,0.4390425057352612,4.242355649913248e-08
-4.916875,0.4389629669440234,4.365681341425964e-08
-4.9165625,0.4388038893615482,4.492081025484403e-08
-4.91625,0.4386448117790726,4.621618410161111e-08
-4.9159375,0.4384857341965971,4.754358248708393e-08
-4.915625,0.4384857341965971,4.890366351923306e-08
-4.9153125,0.4384061954053594,5.029709600591984e-08
-4.915,0.4384857341965971,5.172455958012824e-08
-4.9146875,0.4384061954053595,5.318674482605194e-08
-4.914375,0.4384061954053594,5.468435340596921e-08
-4.9140625,0.4384061954053594,5.621809818790058e-08
-4.91375,0.4384061954053594,5.778870337412348e-08
-4.9134375,0.4384857341965971,5.939690463045464e-08
-4.913125,0.4384857341965971,6.104344921633351e-08
-4.9128125,0.4386448117790726,6.272909611574936e-08
-4.9125,0.4386448117790728,6.445461616891141e-08
-4.9121875,0.438803889361548,6.622079220474215e-08
-4.911875,0.438803889361548,6.802841917419727e-08
-4.9115625,0.4389629669440236,6.987830428432151e-08
-4.91125,0.4390425057352612,7.177126713312432e-08
-4.9109375,0.4392015833177366,7.370813984527776e-08
-4.910625,0.4392811221089745,7.568976720854054e-08
-4.9103125,0.4393606609002121,7.771700681099712e-08
-4.91,0.4393606609002121,7.979072917911529e-08
-4.9096875,0.4394401996914497,8.191181791651054e-08
-4.909375,0.4394401996914498,8.40811698435682e-08
-4.9090625,0.4394401996914498,8.629969513776163e-08
-4.90875,0.4394401996914498,8.85683174748215e-08
-4.9084375,0.4393606609002121,9.088797417064356e-08
-4.908125,0.4393606609002121,9.32596163239263e-08
-4.9078125,0.4392015833177369,9.568420895964943e-08
-4.9075,0.4391220445264989,9.816273117328057e-08
-4.9071875,0.4389629669440234,1.00696176275701e-07
-4.906875,0.4387243505703107,1.032855519389697e-07
-4.9065625,0.4384857341965971,1.059318803428033e-07
-4.90625,0.4383266566141216,1.086361983217654e-07
-4.9059375,0.4381675790316462,1.113995575132944e-07
-4.905625,0.4381675790316463,1.142230245064115e-07
-4.9053125,0.4382471178228839,1.171076809911698e-07
-4.905,0.4382471178228839,1.200546239089162e-07
-4.9046875,0.4382471178228839,1.230649656031911e-07
-4.904375,0.4382471178228839,1.261398339714066e-07
-4.9040625,0.4382471178228839,1.292803726173071e-07
-4.90375,0.4384061954053596,1.32487741004056e-07
-4.9034375,0.4385652729878348,1.357631146080935e-07
-4.903125,0.4385652729878348,1.3910768507377e-07
-4.9028125,0.4387243505703104,1.425226603685885e-07
-4.9025,0.438803889361548,1.460092649392106e-07
-4.9021875,0.4391220445264989,1.495687398682306e-07
-4.901875,0.4391220445264989,1.532023430315273e-07
-4.9015625,0.4392811221089744,1.569113492564517e-07
-4.90125,0.4392811221089744,1.606970504805749e-07
-4.9009375,0.4394401996914495,1.645607559112608e-07
-4.900625,0.4395992772739252,1.685037921858717e-07
-4.9003125,0.4395992772739252,1.725275035325927e-07
-4.9,0.4396788160651628,1.766332519320655e-07
-4.8996875,0.4398378936476384,1.808224172796367e-07
-4.899375,0.4397583548564007,1.85096397548211e-07
-4.8990625,0.4396788160651631,1.894566089519073e-07
-4.89875,0.4395992772739252,1.939044861103134e-07
-4.8984375,0.4395992772739252,1.984414822133287e-07
-4.898125,0.4394401996914498,2.030690691868125e-07
-4.8978125,0.4394401996914494,2.077887378587733e-07
-4.8975,0.4392015833177366,2.126019981262004e-07
-4.8971875,0.4390425057352612,2.175103791226605e-07
-4.896875,0.4388834281527857,2.225154293863666e-07
-4.8965625,0.4388834281527857,2.276187170289544e-07
-4.89625,0.4385652729878348,2.328218299049746e-07
-4.8959375,0.4383266566141215,2.381263757818405e-07
-4.895625,0.4382471178228839,2.435339825104744e-07
-4.8953125,0.4382471178228839,2.490462981966602e-07
-4.895,0.4382471178228841,2.546649913728269e-07
-4.8946875,0.4383266566141216,2.603917511705199e-07
-4.894375,0.4384061954053594,2.662282874935707e-07
-4.8940625,0.4384857341965969,2.721763311916475e-07
-4.89375,0.4384857341965971,2.782376342346178e-07
-4.8934375,0.4385652729878348,2.844139698872682e-07
-4.893125,0.4386448117790724,2.907071328848174e-07
-4.8928125,0.438803889361548,2.971189396089084e-07
-4.8925,0.4389629669440234,3.036512282640614e-07
-4.8921875,0.4389629669440234,3.103058590548934e-07
-4.891875,0.4390425057352612,3.170847143637969e-07
-4.8915625,0.4391220445264989,3.239896989290546e-07
-4.89125,0.4392811221089741,3.310227400237186e-07
-4.8909375,0.4392811221089744,3.381857876349238e-07
-4.890625,0.4394401996914498,3.45480814643617e-07
-4.8903125,0.4394401996914498,3.529098170050563e-07
-4.89,0.4395992772739249,3.604748139296575e-07
-4.8896875,0.4394401996914498,3.681778480643483e-07
-4.889375,0.4395992772739252,3.760209856746321e-07
-4.8890625,0.4395992772739248,3.840063168268897e-07
-4.88875,0.4393606609002121,3.921359555713045e-07
-4.8884375,0.4394401996914498,4.004120401254153e-07
-4.888125,0.4393606609002119,4.088367330578931e-07
-4.8878125,0.4392811221089744,4.174122214729254e-07
-4.8875,0.4391220445264989,4.261407171952214e-07
-4.8871875,0.4389629669440231,4.350244569552058e-07
-4.886875,0.438803889361548,4.440657025748094e-07
-4.8865625,0.4387243505703102,4.532667411538705e-07
-4.88625,0.4384061954053599,4.626298852566557e-07
-4.8859375,0.4382471178228839,4.721574730991725e-07
-4.885625,0.4381675790316462,4.81851868736567e-07
-4.8853125,0.4380880402404086,4.9171546225129e-07
-4.885,0.4380085014491707,5.017506699415411e-07
-4.8846875,0.4380880402404084,5.119599345099633e-07
-4.884375,0.4382471178228836,5.22345725253073e-07
-4.8840625,0.4384061954053594,5.329105382509374e-07
-4.88375,0.4384061954053594,5.436568965570767e-07
-4.8834375,0.4384857341965969,5.545873503890968e-07
-4.883125,0.4386448117790726,5.657044773195432e-07
-4.8828125,0.438803889361548,5.770108824669478e-07
-4.8825,0.4388834281527857,5.885091986876275e-07
-4.8821875,0.4390425057352612,6.002020867675687e-07
-4.881875,0.4390425057352612,6.120922356146618e-07
-4.8815625,0.4392811221089744,6.241823624515878e-07
