Task5_120Hz_200mV_45-5.csv

#Digilent WaveForms Oscilloscope Acquisition
#Device Name: Discovery3
#Serial Number: SN:210415BD63A1
#Date Time: 2026-09-24 11:19:09.782.344.230
#Sample rate: 32000Hz
#Samples: 32000
#Trigger: Source: Channel 1 Type: Edge Condition: Rising Level: 0 V Hyst.: Auto HoldOff: 0 s
#Channel 1: Range: 500 mV/div Offset: 0 V Sample Mode: Average
#Math 1: Input: C1 Reference: Internal Frequency: 20 Hz Phase: 90 ° Filter: IIR Butterworth 8  Low-Pass CutOff: 5 Hz Output: Amplitude

#Wavegen Channel 1: Running
#Mode: Simple
#Type: Sine
#Frequency: 20 Hz
#Period: 50 ms
#Amplitude: 200 mV
#Offset: 0 V
#Symmetry: 50 %
#Phase: 0 °

Time (s),Channel 1 (V),Math 1 (V)
-0.5,0.4766643539907057,1.601195533678224e-27
-0.49996875,0.4767438927819434,2.721252225031057e-26
-0.4999375,0.4766643539907057,2.32032660944124e-25
-0.49990625,0.4767438927819434,1.33251980426856e-24
-0.499875,0.4768234315731811,5.834954459148485e-24
-0.49984375,0.4767438927819434,2.089597238719768e-23
-0.4998125,0.4767438927819434,6.40383137059169e-23
-0.49978125,0.4766643539907057,1.733472453277414e-22
-0.49975,0.4766643539907057,4.241748869728347e-22
-0.49971875,0.4766643539907057,9.547793971606466e-22
-0.4996875,0.4766643539907057,2.003723662851277e-21
-0.49965625,0.4767438927819434,3.962253788726371e-21
-0.499625,0.4767438927819434,7.445271294065899e-21
-0.49959375,0.4768234315731811,1.338490448849094e-20
-0.4995625,0.4767438927819434,2.315107401014361e-20
-0.49953125,0.4766643539907057,3.870383498005797e-20
-0.4995,0.476584815199468,6.278266367169374e-20
-0.49946875,0.4764257376169925,9.913824002713477e-20
-0.4994375,0.4765052764082303,1.5281265877017e-19
-0.49940625,0.4765052764082303,2.304743812675947e-19
-0.499375,0.4764257376169925,3.408146176815989e-19
-0.49934375,0.4765052764082303,4.950122043505788e-19
-0.4993125,0.4765052764082303,7.072744147325187e-19
-0.49928125,0.476584815199468,9.954615136316579e-19
-0.49925,0.4764257376169925,1.381803233795377e-18
-0.49921875,0.476584815199468,1.893715721310749e-18
-0.4991875,0.4767438927819434,2.56472786154568e-18
-0.49915625,0.4765052764082303,3.435526260659967e-18
-0.499125,0.4765052764082303,4.555128518950451e-18
-0.49909375,0.476584815199468,5.982194791501421e-18
-0.4990625,0.476584815199468,7.786487988813398e-18
-0.49903125,0.476584815199468,1.005049332530502e-17
-0.499,0.4766643539907057,1.287120827683053e-17
-0.49896875,0.4767438927819434,1.636211435962435e-17
-0.4989375,0.4765052764082303,2.065534249237713e-17
-0.49890625,0.4765052764082303,2.590404405047748e-17
-0.498875,0.4764257376169925,3.228498006682395e-17
-0.49884375,0.4765052764082303,4.000134137700342e-17
-0.4988125,0.4765052764082303,4.928581284801602e-17
-0.49878125,0.476584815199468,6.040389516910305e-17
-0.49875,0.4764257376169925,7.365749802063596e-17
-0.49871875,0.4763461988257548,8.938881877248457e-17
-0.4986875,0.4765052764082303,1.07984521196811e-16
-0.49865625,0.4765052764082303,1.29880229011817e-16
-0.498625,0.4764257376169925,1.555653494025938e-16
-0.49859375,0.4765052764082303,1.855882419928861e-16
-0.4985625,0.476584815199468,2.20561749067289e-16
-0.49853125,0.4766643539907057,2.611691031671485e-16
-0.4985,0.4766643539907057,3.081702285052145e-16
-0.49846875,0.4765052764082303,3.624084529639016e-16
-0.4984375,0.4765052764082303,4.248176477598594e-16
-0.49840625,0.4764257376169925,4.964298121734481e-16
-0.498375,0.4765052764082303,5.783831210556626e-16
-0.49834375,0.4765052764082303,6.719304531370472e-16
-0.4983125,0.476584815199468,7.784484184731974e-16
-0.49828125,0.4765052764082303,8.994469036695877e-16
-0.49825,0.4766643539907057,1.036579153834683e-15
-0.49821875,0.4767438927819434,1.191652410514616e-15
-0.4981875,0.4766643539907057,1.36663912516512e-15
-0.49815625,0.4767438927819434,1.563688768016897e-15
-0.498125,0.476584815199468,1.785140252489217e-15
-0.49809375,0.4766643539907057,2.033534995603161e-15
-0.4980625,0.4767438927819434,2.311630635140726e-15
-0.49803125,0.4766643539907057,2.622415424588759e-15
-0.498,0.4765052764082303,2.969123327197621e-15
-0.49796875,0.4765052764082303,3.355249830773423e-15
-0.4979375,0.4765052764082303,3.784568505109709e-15
-0.49790625,0.4764257376169925,4.261148324249619e-15
-0.497875,0.4760280436608039,4.789371776052794e-15
-0.49784375,0.4761075824520416,5.373953781822713e-15
-0.4978125,0.4761871212432793,6.019961449029691e-15
-0.49778125,0.4761871212432793,6.732834680442474e-15
-0.49775,0.4761871212432793,7.51840766325716e-15
-0.49771875,0.4760280436608039,8.382931262086082e-15
-0.4976875,0.4761075824520416,9.333096339941243e-15
-0.49765625,0.4760280436608039,1.037605803161697e-14
-0.497625,0.4761075824520416,1.151946099414471e-14
-0.49759375,0.4759485048695661,1.277146565925897e-14
-0.4975625,0.4761871212432793,1.414077551307808e-14
-0.49753125,0.4761871212432793,1.563666542846566e-14
-0.4975,0.4761871212432793,1.726901107579945e-14
-0.49746875,0.4762666600345171,1.904831943813299e-14
-0.4974375,0.4761075824520416,2.098576045699229e-14
-0.49740625,0.4761075824520416,2.309319983530531e-14
-0.497375,0.4761075824520416,2.538323302421454e-14
-0.49734375,0.4761871212432793,2.786922042077533e-14
-0.4973125,0.4760280436608039,3.056532380379131e-14
-0.49728125,0.4759485048695661,3.348654403528653e-14
-0.49725,0.4760280436608039,3.664876005535977e-14
-0.49721875,0.4760280436608039,4.006876919841045e-14
-0.4971875,0.4761075824520416,4.376432885896781e-14
-0.49715625,0.4760280436608039,4.775419953559555e-14
-0.497125,0.4762666600345171,5.205818928158252e-14
-0.49709375,0.4762666600345171,5.669719959136713e-14
-0.4970625,0.4762666600345171,6.169327275187752e-14
-0.49703125,0.4763461988257548,6.706964068820344e-14
-0.497,0.4762666600345171,7.285077533324624e-14
-0.49696875,0.4763461988257548,7.906244055122352e-14
-0.4969375,0.4761871212432793,8.573174564513214e-14
-0.49690625,0.4761871212432793,9.288720047849982e-14
-0.496875,0.4761871212432793,1.005587722419789e-13
-0.49684375,0.4761075824520416,1.087779438955587e-13
-0.4968125,0.4761075824520416,1.175777743173933e-13
-0.49678125,0.4761075824520416,1.269929601904605e-13
-0.49675,0.4762666600345171,1.370598996584831e-13
-0.49671875,0.4761871212432793,1.478167577827622e-13
-0.4966875,0.4761871212432793,1.593035338317815e-13
-0.49665625,0.4761871212432793,1.715621304356555e-13
-0.496625,0.4765052764082303,1.846364246377038e-13
-0.49659375,0.4761871212432793,1.985723408756425e-13
-0.4965625,0.4762666600345171,2.134179259250859e-13
-0.49653125,0.4763461988257548,2.29223425838263e-13
-0.4965,0.4764257376169925,2.460413649110481e-13
-0.49646875,0.4764257376169925,2.639266267116117e-13
-0.4964375,0.4764257376169925,2.82936537204194e-13
-0.49640625,0.4764257376169925,3.031309500017006e-13
-0.496375,0.4764257376169925,3.245723337810166e-13
-0.49634375,0.4764257376169925,3.473258618951282e-13
-0.4963125,0.4764257376169925,3.714595042163332e-13
-0.49628125,0.4763461988257548,3.97044121245012e-13
-0.49625,0.4762666600345171,4.241535605186189e-13
-0.49621875,0.4763461988257548,4.528647553557405e-13
-0.4961875,0.4763461988257548,4.832578259702521e-13
-0.49615625,0.4764257376169925,5.154161829907882e-13
-0.496125,0.4763461988257548,5.494266334209223e-13
-0.49609375,0.4765052764082303,5.853794890756326e-13
-0.4960625,0.4764257376169925,6.233686775298074e-13
-0.49603125,0.476584815199468,6.63491855614721e-13
-0.496,0.4765052764082303,7.058505254985864e-13
-0.49596875,0.476584815199468,7.505501533874616e-13
-0.4959375,0.4765052764082303,7.977002908829584e-13
-0.49590625,0.476584815199468,8.474146990333755e-13
-0.495875,0.4765052764082303,8.99811475115038e-13
-0.49584375,0.4765052764082303,9.550131821807997e-13
-0.4958125,0.4764257376169925,1.013146981412824e-12
-0.49578125,0.476584815199468,1.074344767316918e-12
-0.49575,0.476584815199468,1.138743305795876e-12
-0.49571875,0.476584815199468,1.206484375139402e-12
-0.4956875,0.476584815199468,1.277714909968407e-12
-0.49565625,0.476584815199468,1.352587148171565e-12
-0.495625,0.476584815199468,1.431258780872201e-12
-0.49559375,0.476584815199468,1.513893105463739e-12
-0.4955625,0.4766643539907057,1.600659181752077e-12
-0.49553125,0.4768234315731811,1.6917319912434e-12
-0.4955,0.4766643539907057,1.787292599616113e-12
-0.49546875,0.4766643539907057,1.887528322415689e-12
-0.4954375,0.476584815199468,1.992632894011411e-12
-0.49540625,0.4766643539907057,2.102806639854083e-12
-0.495375,0.4767438927819434,2.218256652073974e-12
-0.49534375,0.4769029703644189,2.339196968458348e-12
-0.4953125,0.4768234315731811,2.465848754848132e-12
-0.49528125,0.4768234315731811,2.598440490993338e-12
-0.49525,0.4768234315731811,2.73720815990705e-12
-0.49521875,0.4768234315731811,2.882395440757887e-12
-0.4951875,0.4769029703644189,3.034253905341e-12
-0.49515625,0.4769029703644189,3.193043218167765e-12
-0.495125,0.4768234315731811,3.359031340214509e-12
-0.49509375,0.4769029703644189,3.532494736370662e-12
-0.4950625,0.4768234315731811,3.713718586626944e-12
-0.49503125,0.4768234315731811,3.902997001044211e-12
-0.495,0.4768234315731811,4.100633238543812e-12
-0.49496875,0.4769029703644189,4.306939929560342e-12
-0.4949375,0.4768234315731811,4.52223930259785e-12
-0.49490625,0.4768234315731811,4.746863414730651e-12
-0.494875,0.4769825091556566,4.981154386090009e-12
-0.49484375,0.4769029703644189,5.225464638378077e-12
-0.4948125,0.4769825091556566,5.480157137450583e-12
-0.49478125,0.4768234315731811,5.745605640009884e-12
-0.49475,0.4769825091556566,6.022194944450063e-12
-0.49471875,0.4770620479468943,6.31032114589593e-12
-0.4946875,0.4769825091556566,6.610391895477826e-12
-0.49465625,0.4769825091556566,6.922826663884248e-12
-0.494625,0.4769825091556566,7.248057009234462e-12
-0.49459375,0.4769029703644189,7.586526849313283e-12
-0.4945625,0.4769029703644189,7.938692738210397e-12
-0.49453125,0.4770620479468943,8.305024147406611e-12
-0.4945,0.4772211255293698,8.686003751349567e-12
-0.49446875,0.4771415867381321,9.082127717561558e-12
-0.4944375,0.4773006643206075,9.49390600132209e-12
-0.49440625,0.4770620479468943,9.921862644968054e-12
-0.494375,0.4772211255293698,1.036653608185436e-11
-0.49434375,0.4770620479468943,1.082847944501799e-11
-0.4943125,0.4770620479468943,1.130826088058858e-11
-0.49428125,0.4771415867381321,1.180646386598863e-11
-0.49425,0.4769825091556566,1.23236875329666e-11
-0.49421875,0.4770620479468943,1.286054699550616e-11
-0.4941875,0.4770620479468943,1.341767368265499e-11
-0.49415625,0.4770620479468943,1.399571567631674e-11
-0.494125,0.4771415867381321,1.459533805404937e-11
-0.49409375,0.4770620479468943,1.521722323691388e-11
-0.4940625,0.4771415867381321,1.586207134241677e-11
-0.49403125,0.4772211255293698,1.65306005425903e-11
-0.494,0.4771415867381321,1.72235474272541e-11
-0.49396875,0.4771415867381321,1.794166737250231e-11
-0.4939375,0.4771415867381321,1.868573491445996e-11
-0.49390625,0.4772211255293698,1.945654412835288e-11
-0.493875,0.4772211255293698,2.025490901293499e-11
-0.49384375,0.4773006643206075,2.108166388031737e-11
-0.4938125,0.4772211255293698,2.193766375124319e-11
-0.49378125,0.4772211255293698,2.282378475585281e-11
-0.49375,0.4773006643206075,2.37409245399835e-11
-0.49371875,0.4773802031118453,2.469000267704794e-11
-0.4936875,0.4771415867381321,2.567196108553633e-11
-0.49365625,0.4772211255293698,2.668776445218619e-11
-0.493625,0.4772211255293698,2.773840066086487e-11
-0.49359375,0.4773802031118453,2.882488122720894e-11
-0.4935625,0.4773006643206075,2.994824173906549e-11
-0.49353125,0.4773006643206075,3.110954230277986e-11
-0.4935,0.4773802031118453,3.230986799537456e-11
-0.49346875,0.4773006643206075,3.355032932266434e-11
-0.4934375,0.4772211255293698,3.483206268335208e-11
-0.49340625,0.4773006643206075,3.615623083915047e-11
-0.493375,0.4773006643206075,3.752402339097449e-11
-0.49334375,0.4773802031118453,3.893665726124948e-11
-0.4933125,0.4773006643206075,4.039537718238004e-11
-0.49328125,0.4772211255293698,4.190145619142455e-11
-0.49325,0.4773006643206075,4.345619613102068e-11
-0.49321875,0.4772211255293698,4.506092815660672e-11
-0.4931875,0.4772211255293698,4.671701324998417e-11
-0.49315625,0.4772211255293698,4.842584273926642e-11
-0.493125,0.4773006643206075,5.018883882525915e-11
-0.49309375,0.4773006643206075,5.200745511431725e-11
-0.4930625,0.4774597419030829,5.388317715772393e-11
-0.49303125,0.4774597419030829,5.581752299763696e-11
-0.493,0.4773802031118453,5.781204371964762e-11
-0.49296875,0.4772211255293698,5.986832401199754e-11
-0.4929375,0.4772211255293698,6.198798273149878e-11
-0.49290625,0.4772211255293698,6.417267347620272e-11
-0.492875,0.4773006643206075,6.642408516486278e-11
-0.49284375,0.4772211255293698,6.874394262323687e-11
-0.4928125,0.4771415867381321,7.113400717727461e-11
-0.49278125,0.4772211255293698,7.359607725323471e-11
-0.49275,0.4772211255293698,7.613198898477854e-11
-0.49271875,0.4771415867381321,7.874361682708446e-11
-0.4926875,0.4772211255293698,8.14328741780293e-11
-0.49265625,0.4772211255293698,8.420171400648176e-11
-0.492625,0.4773006643206075,8.705212948775362e-11
-0.49259375,0.4773006643206075,8.998615464625408e-11
-0.4925625,0.4772211255293698,9.300586500539271e-11
-0.49253125,0.4772211255293698,9.611337824477681e-11
-0.4925,0.4771415867381321,9.931085486474812e-11
-0.49246875,0.4771415867381321,1.02600498858305e-10
-0.4924375,0.4772211255293698,1.05984558390455e-10
-0.49240625,0.4770620479468943,1.09465326485044e-10
-0.492375,0.4770620479468943,1.130451417191064e-10
-0.49234375,0.4771415867381321,1.167263889247833e-10
-0.4923125,0.4770620479468943,1.205114998988522e-10
-0.49228125,0.4770620479468943,1.244029541199163e-10
-0.49225,0.4771415867381321,1.284032794732958e-10
-0.49221875,0.4771415867381321,1.325150529836693e-10
-0.4921875,0.4770620479468943,1.367409015555093e-10
-0.49215625,0.4770620479468943,1.410835027213573e-10
-0.492125,0.4769825091556566,1.455455853979853e-10
-0.49209375,0.4769825091556566,1.501299306504862e-10
-0.4920625,0.4769029703644189,1.54839372464342e-10
-0.49203125,0.4770620479468943,1.596767985255129e-10
-0.492,0.4769825091556566,1.646451510085923e-10
-0.49196875,0.4769825091556566,1.697474273730752e-10
-0.4919375,0.4769029703644189,1.749866811677838e-10
-0.49190625,0.4769029703644189,1.803660228434946e-10
-0.491875,0.4770620479468943,1.858886205738149e-10
-0.49184375,0.4770620479468943,1.915577010843516e-10
-0.4918125,0.4770620479468943,1.973765504902188e-10
-0.49178125,0.4769825091556566,2.033485151419285e-10
-0.49175,0.4770620479468943,2.094770024797103e-10
-0.49171875,0.4769029703644189,2.157654818963046e-10
-0.4916875,0.4768234315731811,2.22217485608275e-10
-0.49165625,0.4768234315731811,2.28836609535884e-10
-0.491625,0.4769029703644189,2.35626514191578e-10
-0.49159375,0.4769029703644189,2.425909255771263e-10
-0.4915625,0.4769029703644189,2.497336360894584e-10
-0.49153125,0.4769029703644189,2.57058505435245e-10
-0.4915,0.4769825091556566,2.645694615542678e-10
-0.49146875,0.4769029703644189,2.722705015516226e-10
-0.4914375,0.4768234315731811,2.801656926388004e-10
-0.49140625,0.4768234315731811,2.882591730836909e-10
-0.491375,0.4769825091556566,2.965551531695544e-10
-0.49134375,0.4768234315731811,3.050579161630047e-10
-0.4913125,0.4767438927819434,3.137718192910496e-10
-0.49128125,0.4767438927819434,3.227012947272322e-10
-0.49125,0.4769029703644189,3.318508505869176e-10
-0.49121875,0.4766643539907057,3.412250719317706e-10
-0.4911875,0.476584815199468,3.508286217834673e-10
-0.49115625,0.4766643539907057,3.606662421466855e-10
-0.491125,0.4765052764082303,3.707427550414181e-10
-0.49109375,0.476584815199468,3.810630635446548e-10
-0.4910625,0.476584815199468,3.916321528414741e-10
-0.49103125,0.476584815199468,4.024550912855912e-10
-0.491,0.4766643539907057,4.135370314694062e-10
-0.49096875,0.4767438927819434,4.248832113035946e-10
-0.4909375,0.4766643539907057,4.364989551062871e-10
-0.49090625,0.4766643539907057,4.483896747018784e-10
-0.490875,0.4766643539907057,4.605608705295138e-10
-0.49084375,0.4765052764082303,4.730181327612925e-10
-0.4908125,0.4764257376169925,4.857671424302347e-10
-0.49078125,0.4765052764082303,4.988136725680541e-10
-0.49075,0.476584815199468,5.121635893527806e-10
-0.49071875,0.4765052764082303,5.258228532662754e-10
-0.4906875,0.4764257376169925,5.397975202616838e-10
-0.49065625,0.476584815199468,5.540937429408662e-10
-0.490625,0.4763461988257548,5.687177717418532e-10
-0.49059375,0.4764257376169925,5.836759561363662e-10
-0.4905625,0.4765052764082303,5.989747458374481e-10
-0.49053125,0.4764257376169925,6.146206920172448e-10
-0.4905,0.4763461988257548,6.306204485349841e-10
-0.49046875,0.4763461988257548,6.469807731751895e-10
-0.4904375,0.4764257376169925,6.637085288961786e-10
-0.49040625,0.4763461988257548,6.808106850888809e-10
-0.490375,0.4762666600345171,6.982943188460248e-10
-0.49034375,0.4761871212432793,7.161666162417321e-10
-0.4903125,0.4761075824520416,7.344348736215627e-10
-0.49028125,0.4761075824520416,7.531064989030542e-10
-0.49025,0.4761075824520416,7.721890128867957e-10
-0.49021875,0.4761075824520416,7.916900505780814e-10
-0.4901875,0.4759485048695661,8.116173625191802e-10
-0.49015625,0.4760280436608039,8.319788161322722e-10
-0.490125,0.4760280436608039,8.527823970730847e-10
-0.49009375,0.4760280436608039,8.740362105952774e-10
-0.4900625,0.4760280436608039,8.957484829256107e-10
-0.49003125,0.4760280436608039,9.179275626499476e-10
-0.49,0.4760280436608039,9.405819221101222e-10
-0.48996875,0.4761075824520416,9.637201588117223e-10
-0.4899375,0.4760280436608039,9.873509968428237e-10
-0.48990625,0.4760280436608039,1.01148328830372e-09
-0.489875,0.4760280436608039,1.036126014747689e-09
-0.48984375,0.4758689660783285,1.061288288632833e-09
-0.4898125,0.4758689660783285,1.086979354785038e-09
-0.48978125,0.4758689660783285,1.113208591872092e-09
-0.48975,0.4758689660783285,1.139985513889002e-09
-0.48971875,0.4758689660783285,1.16731977165455e-09
-0.4896875,0.4757894272870907,1.195221154319128e-09
-0.48965625,0.4757894272870907,1.223699590883899e-09
-0.489625,0.475709888495853,1.252765151731312e-09
-0.48959375,0.4756303497046153,1.282428050167022e-09
-0.4895625,0.475709888495853,1.312698643973251e-09
-0.48953125,0.4757894272870907,1.343587436973632e-09
-0.4895,0.4756303497046153,1.375105080609567e-09
-0.48946875,0.475709888495853,1.407262375528153e-09
-0.4894375,0.4756303497046153,1.440070273181707e-09
-0.48940625,0.4758689660783285,1.473539877438928e-09
-0.489375,0.4757894272870907,1.507682446207742e-09
-0.48934375,0.4757894272870907,1.542509393069861e-09
-0.4893125,0.475709888495853,1.578032288927106e-09
-0.48928125,0.475709888495853,1.614262863659518e-09
-0.48925,0.4755508109133775,1.651213007795319e-09
-0.48921875,0.4757894272870907,1.68889477419273e-09
-0.4891875,0.475709888495853,1.727320379733713e-09
-0.48915625,0.4757894272870907,1.766502207029667e-09
-0.489125,0.4756303497046153,1.806452806139105e-09
-0.48909375,0.4756303497046153,1.847184896297366e-09
-0.4890625,0.475709888495853,1.888711367658393e-09
-0.48903125,0.4757894272870907,1.931045283048614e-09
-0.489,0.4757894272870907,1.97419987973297e-09
-0.48896875,0.4757894272870907,2.018188571193113e-09
-0.4889375,0.475709888495853,2.063024948917836e-09
-0.48890625,0.4757894272870907,2.108722784205751e-09
-0.488875,0.475709888495853,2.155296029980259e-09
-0.48884375,0.4757894272870907,2.202758822616858e-09
-0.4888125,0.4757894272870907,2.251125483782807e-09
-0.48878125,0.4758689660783285,2.300410522289206e-09
-0.48875,0.4757894272870907,2.350628635955512e-09
-0.48871875,0.4758689660783285,2.401794713486531e-09
-0.4886875,0.4758689660783285,2.453923836361933e-09
-0.48865625,0.4758689660783285,2.507031280738308e-09
-0.488625,0.475709888495853,2.56113251936382e-09
-0.48859375,0.4759485048695661,2.616243223505476e-09
-0.4885625,0.4759485048695661,2.672379264889059e-09
-0.48853125,0.4759485048695661,2.72955671765176e-09
-0.4885,0.4761075824520416,2.787791860307537e-09
-0.48846875,0.4761871212432793,2.84710117772524e-09
-0.4884375,0.4761075824520416,2.907501363119541e-09
-0.48840625,0.4760280436608039,2.969009320054712e-09
-0.488375,0.4760280436608039,3.031642164461252e-09
