Task5_10Hz_200mV_45-5.csv

#Digilent WaveForms Oscilloscope Acquisition
#Device Name: Discovery3
#Serial Number: SN:210415BD63A1
#Date Time: 2026-09-24 11:24:21.878.036.630
#Sample rate: 16000Hz
#Samples: 32000
#Trigger: Source: Channel 1 Type: Edge Condition: Rising Level: 0 V Hyst.: Auto HoldOff: 0 s
#Channel 1: Range: 500 mV/div Offset: 0 V Sample Mode: Average
#Math 1: Input: C1 Reference: Internal Frequency: 10 Hz Phase: 90 ° Filter: IIR Butterworth 8  Low-Pass CutOff: 2 Hz Output: Amplitude

#Wavegen Channel 1: Running
#Mode: Simple
#Type: Sine
#Frequency: 10 Hz
#Period: 100 ms
#Amplitude: 200 mV
#Offset: 0 V
#Symmetry: 50 %
#Phase: 0 °

Time (s),Channel 1 (V),Math 1 (V)
-1,0.4749940393747135,2.676488510856863e-28
-0.9999375,0.4749940393747135,4.548951020537942e-27
-0.999875,0.4749145005834757,3.878969871309523e-26
-0.9998125,0.4749940393747135,2.227763149162071e-25
-0.99975,0.4750735781659512,9.755821188744356e-25
-0.9996875,0.4749940393747135,3.49399730601057e-24
-0.999625,0.4750735781659512,1.070867428107338e-23
-0.9995625,0.4751531169571889,2.899015103876102e-23
-0.9995000000000001,0.4750735781659512,7.094434221750756e-23
-0.9994375,0.4749940393747135,1.597042438076514e-22
-0.999375,0.4749940393747135,3.351914864869718e-22
-0.9993125,0.4749940393747135,6.628879957247536e-22
-0.99925,0.4749145005834757,1.245724372892813e-21
-0.9991875,0.4750735781659512,2.239757697657351e-21
-0.999125,0.4750735781659512,3.874377264697681e-21
-0.9990625,0.4749940393747135,6.477842305376195e-21
-0.999,0.4750735781659512,1.0509021007735e-20
-0.9989375,0.4749940393747135,1.659626513778666e-20
-0.998875,0.4749940393747135,2.558441928222069e-20
-0.9988125,0.4717329489339667,3.859102817682832e-20
-0.99875,0.4717329489339667,5.707286975616002e-20
-0.9986875,0.4717329489339667,8.290400545930174e-20
-0.998625,0.4718124877252044,1.18466602954505e-19
-0.9985625,0.4717329489339667,1.667558497996784e-19
-0.9985000000000001,0.4715738713514912,2.315003396334136e-19
-0.9984375,0.4716534101427289,3.172993752908713e-19
-0.998375,0.4718124877252044,4.297786957613358e-19
-0.9983125,0.4717329489339667,5.75766196151342e-19
-0.99825,0.4716534101427289,7.634892717903539e-19
-0.9981875,0.4717329489339667,1.002795479315196e-18
-0.998125,0.4717329489339667,1.305398268993625e-18
-0.9980625,0.4717329489339667,1.685149603694872e-18
-0.998,0.4717329489339667,2.158341340784328e-18
-0.9979375,0.4715738713514912,2.744037313810384e-18
-0.997875,0.4716534101427289,3.464438111165032e-18
-0.9978125,0.4716534101427289,4.345280608939392e-18
-0.99775,0.4715738713514912,5.416274374964269e-18
-0.9976874999999999,0.4714943325602535,6.711577120525074e-18
-0.997625,0.4714147937690157,8.270311435468628e-18
-0.9975625,0.4712557161865403,1.013712510137285e-17
-0.9975000000000001,0.4713352549777781,1.236279733612645e-17
-0.9974375,0.4712557161865403,1.500489338166456e-17
-0.997375,0.4712557161865403,1.812846990472951e-17
-0.9973125,0.4712557161865403,2.180683373837316e-17
-0.99725,0.4710966386040649,2.612235654948752e-17
-0.9971875,0.4710170998128271,3.116734807494103e-17
-0.997125,0.4710966386040649,3.704499062591503e-17
-0.9970625,0.4710170998128271,4.387033761677895e-17
-0.997,0.4709375610215894,5.177137893131721e-17
-0.9969375,0.4709375610215894,6.089017599532445e-17
-0.996875,0.4707784834391139,7.138406948051768e-17
-0.9968125,0.4708580222303517,8.34269626203762e-17
-0.99675,0.4707784834391139,9.721068317390917e-17
-0.9966874999999999,0.4706989446478762,1.129464271284671e-16
-0.996625,0.4706989446478762,1.308662872875508e-16
-0.9965625,0.4706194058566385,1.512248699441354e-16
-0.9965000000000001,0.4705398670654008,1.74301002894307e-16
-0.9964375,0.4705398670654008,2.003995381000206e-16
-0.996375,0.4704603282741631,2.298532523635195e-16
-0.9963125,0.4704603282741631,2.630248494294173e-16
-0.99625,0.4704603282741631,3.003090669836343e-16
-0.9961875,0.4703807894829253,3.42134892071306e-16
-0.996125,0.4703012506916876,3.889678885084347e-16
-0.9960625,0.4703012506916876,4.413126399144414e-16
-0.996,0.4702217119004499,4.997153120448891e-16
-0.9959375,0.4703012506916876,5.647663381554934e-16
-0.995875,0.4701421731092121,6.371032311801049e-16
-0.9958125,0.4703012506916876,7.174135265566534e-16
-0.99575,0.4703807894829253,8.064378595860701e-16
-0.9956874999999999,0.4703012506916876,9.04973181259971e-16
-0.995625,0.4703012506916876,1.013876116543371e-15
-0.9955625,0.4703012506916876,1.134066469148907e-15
-0.9955000000000001,0.4704603282741631,1.266530876889006e-15
-0.9954375,0.4705398670654008,1.412326621742082e-15
-0.995375,0.4704603282741631,1.572585598818277e-15
-0.9953125,0.4703012506916876,1.748518448459343e-15
-0.99525,0.4703807894829253,1.941418855756143e-15
-0.9951875,0.4704603282741631,2.152668021815827e-15
-0.995125,0.4705398670654008,2.38373931115903e-15
-0.9950625,0.4704603282741631,2.636203079675498e-15
-0.995,0.4705398670654008,2.911731687614325e-15
-0.9949375,0.4704603282741631,3.212104702132464e-15
-0.994875,0.4705398670654008,3.539214293972437e-15
-0.9948125,0.4703807894829253,3.895070832887128e-15
-0.99475,0.4705398670654008,4.281808686476232e-15
-0.9946874999999999,0.4705398670654008,4.701692227145386e-15
-0.994625,0.4706194058566385,5.157122051945115e-15
-0.9945625,0.4705398670654008,5.650641420092692e-15
-0.9945000000000001,0.4706194058566385,6.184942913025487e-15
-0.9944375,0.4705398670654008,6.762875321879841e-15
-0.994375,0.4706989446478762,7.387450767334479e-15
-0.9943125,0.4706194058566385,8.06185205680228e-15
-0.99425,0.4706194058566385,8.789440283998791e-15
-0.9941875,0.4706194058566385,9.573762675960054e-15
-0.994125,0.4706989446478762,1.04185606926264e-14
-0.9940625,0.4707784834391139,1.132777838415254e-14
-0.994,0.4707784834391139,1.230557101114782e-14
-0.9939375,0.4707784834391139,1.33563139330936e-14
-0.993875,0.4708580222303517,1.448461177022788e-14
-0.9938125,0.4708580222303517,1.569530784422971e-14
-0.99375,0.4707784834391139,1.699349390307859e-14
-0.9936874999999999,0.4707784834391139,1.838452013550609e-14
-0.993625,0.4707784834391139,1.987400548049888e-14
-0.9935625,0.4708580222303517,2.146784823735399e-14
-0.9935,0.4710170998128271,2.317223698182863e-14
-0.9934375,0.4709375610215894,2.49936617939677e-14
-0.993375,0.4709375610215894,2.693892580323351e-14
-0.9933125,0.4708580222303517,2.901515705660225e-14
-0.99325,0.4709375610215894,3.122982071533255e-14
-0.9931875,0.4708580222303517,3.359073158615136e-14
-0.993125,0.4710170998128271,3.610606699264205e-14
-0.9930625,0.4709375610215894,3.87843799926595e-14
-0.993,0.4710170998128271,4.1634612947636e-14
-0.9929375,0.4708580222303517,4.466611144968095e-14
-0.992875,0.4709375610215894,4.788863861241595e-14
-0.9928125,0.4710170998128271,5.131238973152564e-14
-0.99275,0.4709375610215894,5.494800732104265e-14
-0.9926874999999999,0.4709375610215894,5.880659653142333e-14
-0.992625,0.4709375610215894,6.289974095550822e-14
-0.9925625,0.4709375610215894,6.723951882849952e-14
-0.9925,0.4710170998128271,7.183851962812379e-14
-0.9924375,0.4710966386040649,7.670986108118683e-14
-0.992375,0.4710170998128271,8.186720658276246e-14
-0.9923125,0.4710966386040649,8.732478303429514e-14
-0.99225,0.4710966386040649,9.309739910693154e-14
-0.9921875,0.4712557161865403,9.920046393643234e-14
-0.992125,0.4712557161865403,1.056500062560515e-13
-0.9920625,0.4714943325602535,1.124626939738057e-13
-0.992,0.4713352549777781,1.196558542005909e-13
-0.9919375,0.4712557161865403,1.272474937356405e-13
-0.991875,0.4713352549777781,1.352563200158496e-13
-0.9918125,0.4713352549777781,1.437017625355307e-13
-0.99175,0.4714147937690157,1.52603994743194e-13
-0.9916875000000001,0.4713352549777781,1.619839564219835e-13
-0.991625,0.4714147937690157,1.71863376560433e-13
-0.9915625,0.4715738713514912,1.822647967202385e-13
-0.9915,0.4714943325602535,1.932115949077767e-13
-0.9914375,0.4714147937690157,2.047280099561351e-13
-0.991375,0.4714147937690157,2.168391664244465e-13
-0.9913125,0.4714147937690157,2.295711000213592e-13
-0.99125,0.4715738713514912,2.429507835595011e-13
-0.9911875,0.4715738713514912,2.570061534478321e-13
-0.991125,0.4715738713514912,2.717661367288074e-13
-0.9910625,0.4714943325602535,2.872606786673081e-13
-0.991,0.4716534101427289,3.035207708983259e-13
-0.9909375,0.4714943325602535,3.205784801404192e-13
-0.990875,0.4715738713514912,3.384669774819889e-13
-0.9908125,0.4714943325602535,3.572205682474535e-13
-0.99075,0.4716534101427289,3.768747224504315e-13
-0.9906875000000001,0.4717329489339667,3.974661058410701e-13
-0.990625,0.4717329489339667,4.190326115546904e-13
-0.9905625,0.4715738713514912,4.416133923689434e-13
-0.9905,0.4716534101427289,4.65248893576709e-13
-0.9904375,0.4717329489339667,4.899808864819903e-13
-0.990375,0.4716534101427289,5.158525025260877e-13
-0.9903125,0.4715738713514912,5.429082680513714e-13
-0.99025,0.4714147937690157,5.711941397099859e-13
-0.9901875,0.4714943325602535,6.007575405248623e-13
-0.990125,0.4714943325602535,6.316473966104328e-13
-0.9900625,0.4714943325602535,6.639141745604716e-13
-0.99,0.4715738713514912,6.976099195105165e-13
-0.9899375,0.4716534101427289,7.327882938823451e-13
-0.9898749999999999,0.4715738713514912,7.69504616818018e-13
-0.9898125,0.4716534101427289,8.078159043110134e-13
-0.98975,0.4717329489339667,8.477809100420181e-13
-0.9896875000000001,0.4717329489339667,8.894601669269547e-13
-0.989625,0.4716534101427289,9.329160293848553e-13
-0.9895625,0.4717329489339667,9.782127163332213e-13
-0.9895,0.4717329489339667,1.025416354918524e-12
-0.9894375,0.4717329489339667,1.074595024989535e-12
-0.989375,0.4717329489339667,1.125818804321199e-12
-0.9893125,0.4718124877252044,1.179159814596782e-12
-0.98925,0.4716534101427289,1.234692268156046e-12
-0.9891875,0.4716534101427289,1.292492515517258e-12
-0.989125,0.4715738713514912,1.352639093680805e-12
-0.9890625,0.4714943325602535,1.415212775222284e-12
-0.989,0.4716534101427289,1.480296618182887e-12
-0.9889375,0.4716534101427289,1.547976016764984e-12
-0.9888749999999999,0.4715738713514912,1.618338752840789e-12
-0.9888125,0.4714943325602535,1.691475048282039e-12
-0.98875,0.4715738713514912,1.767477618118625e-12
-0.9886875000000001,0.4715738713514912,1.846441724534154e-12
-0.988625,0.4715738713514912,1.928465231706413e-12
-0.9885625,0.4715738713514912,2.013648661500767e-12
-0.9885,0.4715738713514912,2.102095250024504e-12
-0.9884375,0.4715738713514912,2.193911005050191e-12
-0.988375,0.4715738713514912,2.289204764316119e-12
-0.9883125,0.4714943325602535,2.388088254711916e-12
-0.98825,0.4715738713514912,2.490676152357471e-12
-0.9881875,0.4714147937690157,2.597086143583264e-12
-0.988125,0.4714147937690157,2.707438986820305e-12
-0.9880625,0.4714147937690157,2.821858575407823e-12
-0.988,0.4714147937690157,2.940472001326911e-12
-0.9879375,0.4713352549777781,3.063409619868343e-12
-0.9878749999999999,0.4713352549777781,3.190805115242804e-12
-0.9878125,0.4712557161865403,3.322795567141755e-12
-0.98775,0.4711761773953026,3.459521518257252e-12
-0.9876875000000001,0.4710170998128271,3.60112704276896e-12
-0.987625,0.4710170998128271,3.7477598158067e-12
-0.9875625,0.4710170998128271,3.899571183896843e-12
-0.9875,0.4710170998128271,4.056716236400895e-12
-0.9874375,0.4709375610215894,4.219353877954628e-12
-0.987375,0.4709375610215894,4.387646901916152e-12
-0.9873125,0.4709375610215894,4.561762064831292e-12
-0.98725,0.4709375610215894,4.741870161924717e-12
-0.9871875,0.4710170998128271,4.928146103625211e-12
-0.987125,0.4708580222303517,5.120768993133561e-12
-0.9870625,0.4709375610215894,5.319922205041503e-12
-0.987,0.4706989446478762,5.525793465010213e-12
-0.9869375,0.4706194058566385,5.738574930516816e-12
-0.9868749999999999,0.4706989446478762,5.958463272677437e-12
-0.9868125,0.4706989446478762,6.185659759155315e-12
-0.98675,0.4706194058566385,6.420370338162502e-12
-0.9866875000000001,0.4704603282741631,6.662805723563694e-12
-0.986625,0.4705398670654008,6.913181481090801e-12
-0.9865625,0.4705398670654008,7.17171811567677e-12
-0.9865,0.4704603282741631,7.438641159917306e-12
-0.9864375,0.4704603282741631,7.714181263669077e-12
-0.986375,0.4703807894829253,7.998574284793024e-12
-0.9863125,0.4703012506916876,8.292061381051406e-12
-0.98625,0.4703012506916876,8.594889103167229e-12
-0.9861875,0.4703807894829253,8.907309489054739e-12
-0.986125,0.4703012506916876,9.229580159229592e-12
-0.9860625,0.4701421731092121,9.561964413407467e-12
-0.986,0.4700626343179744,9.904731328299734e-12
-0.9859375,0.4700626343179744,1.025815585661496e-11
-0.9858749999999999,0.4701421731092121,1.062251892727488e-11
-0.9858125,0.4702217119004499,1.099810754685372e-11
-0.98575,0.4702217119004499,1.138521490224936e-11
-0.9856875,0.4702217119004499,1.17841404645954e-11
-0.985625,0.4703012506916876,1.219519009442265e-11
-0.9855625,0.4703012506916876,1.261867614807887e-11
-0.9855,0.4702217119004499,1.305491758541567e-11
-0.9854375,0.4701421731092121,1.350424007875119e-11
-0.985375,0.4702217119004499,1.396697612311746e-11
-0.9853125,0.4703012506916876,1.444346514780125e-11
-0.98525,0.4701421731092121,1.493405362918721e-11
-0.9851875,0.4703012506916876,1.543909520491211e-11
-0.985125,0.4703012506916876,1.595895078933908e-11
-0.9850625,0.4703807894829253,1.649398869036065e-11
-0.985,0.4703012506916876,1.704458472753948e-11
-0.9849375,0.4703807894829253,1.76111223515956e-11
-0.9848749999999999,0.4703807894829253,1.819399276524904e-11
-0.9848125,0.4704603282741631,1.879359504542685e-11
-0.98475,0.4703807894829253,1.941033626684317e-11
-0.9846875,0.4703807894829253,2.004463162696147e-11
-0.984625,0.4703012506916876,2.069690457234771e-11
-0.9845625,0.4705398670654008,2.136758692642343e-11
-0.9845,0.4705398670654008,2.205711901862761e-11
-0.9844375,0.4704603282741631,2.276594981499625e-11
-0.984375,0.4705398670654008,2.349453705016862e-11
-0.9843125,0.4705398670654008,2.424334736082913e-11
-0.98425,0.4706194058566385,2.501285642059364e-11
-0.9841875,0.4706194058566385,2.580354907634932e-11
-0.984125,0.4706194058566385,2.66159194860569e-11
-0.9840625,0.4706194058566385,2.745047125802428e-11
-0.984,0.4705398670654008,2.830771759166056e-11
-0.9839375,0.4706194058566385,2.918818141971925e-11
-0.9838750000000001,0.4706989446478762,3.009239555203988e-11
-0.9838125,0.4706989446478762,3.102090282079673e-11
-0.98375,0.4707784834391139,3.197425622726395e-11
-0.9836875,0.4706989446478762,3.29530190901057e-11
-0.983625,0.4706989446478762,3.395776519520067e-11
-0.9835625,0.4707784834391139,3.498907894700957e-11
-0.9835,0.4708580222303517,3.604755552149505e-11
-0.9834375,0.4707784834391139,3.713380102060251e-11
-0.983375,0.4707784834391139,3.824843262831132e-11
-0.9833125,0.4707784834391139,3.939207876826503e-11
-0.98325,0.4706194058566385,4.056537926298982e-11
-0.9831875,0.4707784834391139,4.176898549471014e-11
-0.983125,0.4709375610215894,4.300356056777048e-11
-0.9830625,0.4710170998128271,4.426977947267234e-11
-0.983,0.4710170998128271,4.556832925173538e-11
-0.9829375,0.4709375610215894,4.689990916639185e-11
-0.9828750000000001,0.4710966386040649,4.826523086612306e-11
-0.9828125,0.4710966386040649,4.966501855904729e-11
-0.98275,0.4711761773953026,5.110000918416779e-11
-0.9826875,0.4710170998128271,5.257095258529007e-11
-0.982625,0.4709375610215894,5.407861168661748e-11
-0.9825625,0.4710966386040649,5.562376267003405e-11
-0.9825,0.4710170998128271,5.720719515408359e-11
-0.9824375,0.4710966386040649,5.882971237465416e-11
-0.982375,0.4710170998128271,6.049213136737682e-11
-0.9823125,0.4710966386040649,6.219528315174765e-11
-0.98225,0.4713352549777781,6.394001291698227e-11
-0.9821875,0.4711761773953026,6.572718020961147e-11
-0.982125,0.4711761773953026,6.755765912282749e-11
-0.9820624999999999,0.4711761773953026,6.943233848758929e-11
-0.982,0.4712557161865403,7.135212206549658e-11
-0.9819375,0.4712557161865403,7.331792874344087e-11
-0.9818750000000001,0.4712557161865403,7.533069273004316e-11
-0.9818125,0.4714147937690157,7.739136375388676e-11
-0.98175,0.4711761773953026,7.950090726355471e-11
-0.9816875,0.4713352549777781,8.166030462948026e-11
-0.981625,0.4712557161865403,8.387055334761996e-11
-0.9815625,0.4712557161865403,8.613266724495792e-11
-0.9815,0.4713352549777781,8.844767668685045e-11
-0.9814375,0.4713352549777781,9.081662878621988e-11
-0.981375,0.4714147937690157,9.324058761460671e-11
-0.9813125,0.4713352549777781,9.572063441508912e-11
-0.98125,0.4714147937690157,9.825786781707835e-11
-0.9811875,0.4714943325602535,1.008534040529996e-10
-0.981125,0.4715738713514912,1.035083771768669e-10
-0.9810624999999999,0.4714943325602535,1.062239392847608e-10
-0.981,0.4715738713514912,1.090012607372184e-10
-0.9809375,0.4714943325602535,1.118415303835445e-10
-0.9808750000000001,0.4714943325602535,1.147459557880519e-10
-0.9808125,0.4714943325602535,1.177157634582418e-10
-0.98075,0.4714943325602535,1.207521990749301e-10
-0.9806875,0.4714943325602535,1.238565277243323e-10
-0.980625,0.4715738713514912,1.27030034132113e-10
-0.9805625,0.4714943325602535,1.302740228994095e-10
-0.9805,0.4714943325602535,1.335898187408401e-10
-0.9804375,0.4717329489339667,1.369787667245032e-10
-0.980375,0.4717329489339667,1.404422325139788e-10
-0.9803125,0.4718124877252044,1.439816026123391e-10
-0.98025,0.4717329489339667,1.47598284608179e-10
-0.9801875,0.4718124877252044,1.512937074236734e-10
-0.980125,0.4717329489339667,1.550693215646719e-10
-0.9800624999999999,0.4717329489339667,1.589265993728386e-10
-0.98,0.4716534101427289,1.628670352798462e-10
-0.9799375,0.4715738713514912,1.668921460636341e-10
-0.9798750000000001,0.4716534101427289,1.710034711067368e-10
-0.9798125,0.4716534101427289,1.752025726566951e-10
-0.97975,0.4716534101427289,1.794910360885557e-10
-0.9796875,0.4716534101427289,1.838704701694691e-10
-0.979625,0.4717329489339667,1.883425073253959e-10
-0.9795625,0.4716534101427289,1.929088039099276e-10
-0.9795,0.4716534101427289,1.975710404752335e-10
-0.9794375,0.4716534101427289,2.023309220451402e-10
-0.979375,0.4715738713514912,2.071901783903534e-10
-0.9793125,0.4718124877252044,2.121505643058318e-10
-0.97925,0.4717329489339667,2.172138598903194e-10
-0.9791875,0.4716534101427289,2.22381870828047e-10
-0.979125,0.4717329489339667,2.276564286726106e-10
-0.9790624999999999,0.4716534101427289,2.330393911330363e-10
-0.979,0.4716534101427289,2.385326423620385e-10
-0.9789375,0.4715738713514912,2.441380932464827e-10
-0.9788750000000001,0.4714943325602535,2.498576817000595e-10
-0.9788125,0.4715738713514912,2.556933729581794e-10
-0.97875,0.4716534101427289,2.616471598750962e-10
-0.9786875,0.4716534101427289,2.677210632232694e-10
-0.978625,0.4715738713514912,2.739171319949721e-10
-0.9785625,0.4714147937690157,2.802374437061545e-10
-0.9785,0.4714147937690157,2.8668410470257e-10
-0.9784375,0.4714943325602535,2.932592504681757e-10
-0.978375,0.4714943325602535,2.999650459358111e-10
-0.9783125,0.4713352549777781,3.068036858001682e-10
-0.97825,0.4714147937690157,3.137773948330584e-10
-0.9781875,0.4712557161865403,3.20888428200986e-10
-0.978125,0.4713352549777781,3.281390717850376e-10
-0.9780624999999999,0.4713352549777781,3.355316425030929e-10
-0.978,0.4711761773953026,3.4306848863437e-10
-0.9779375,0.4712557161865403,3.507519901463091e-10
-0.977875,0.4712557161865403,3.585845590238056e-10
-0.9778125,0.4712557161865403,3.665686396008009e-10
-0.97775,0.4710966386040649,3.747067088942392e-10
-0.9776875,0.4710966386040649,3.830012769403974e-10
-0.977625,0.4711761773953026,3.914548871335983e-10
-0.9775625,0.4710170998128271,4.000701165673149e-10
-0.9775,0.4710966386040649,4.088495763776734e-10
-0.9774375,0.4710170998128271,4.177959120893644e-10
-0.977375,0.4708580222303517,4.2691180396397e-10
-0.9773125,0.4709375610215894,4.361999673507151e-10
-0.97725,0.4707784834391139,4.456631530396514e-10
-0.9771875,0.4707784834391139,4.553041476172825e-10
-0.977125,0.4707784834391139,4.651257738246379e-10
-0.9770624999999999,0.4706989446478762,4.751308909178055e-10
-0.977,0.4706989446478762,4.853223950309272e-10
-0.9769375,0.4706989446478762,4.957032195416728e-10
-0.976875,0.4706989446478762,5.062763354391911e-10
-0.9768125,0.4706194058566385,5.170447516945552e-10
